Timestamp,UTC,Callsign,Position,Altitude,Speed,Direction
1621908485,2021-05-25T02:08:05Z,SBI1026,"59.79784,30.26705",0,0,95
1621908535,2021-05-25T02:08:55Z,SBI1026,"59.79784,30.26683",0,1,92
1621908547,2021-05-25T02:09:07Z,SBI1026,"59.797852,30.266624",0,2,95
1621908558,2021-05-25T02:09:18Z,SBI1026,"59.797863,30.266411",0,2,92
1621908570,2021-05-25T02:09:30Z,SBI1026,"59.797863,30.26619",0,2,95
1621908581,2021-05-25T02:09:41Z,SBI1026,"59.797863,30.265984",0,2,101
1621908592,2021-05-25T02:09:52Z,SBI1026,"59.797852,30.265778",0,2,118
1621908604,2021-05-25T02:10:04Z,SBI1026,"59.797886,30.265558",0,2,146
1621908620,2021-05-25T02:10:20Z,SBI1026,"59.797989,30.265345",0,3,174
1621908668,2021-05-25T02:11:08Z,SBI1026,"59.798195,30.26532",0,0,353
1621908853,2021-05-25T02:14:13Z,SBI1026,"59.797932,30.265182",0,5,196
1621908862,2021-05-25T02:14:22Z,SBI1026,"59.797688,30.265038",0,6,196
1621908871,2021-05-25T02:14:31Z,SBI1026,"59.797466,30.264894",0,6,196
1621908879,2021-05-25T02:14:39Z,SBI1026,"59.797234,30.264771",0,6,196
1621908886,2021-05-25T02:14:46Z,SBI1026,"59.797016,30.264633",0,7,196
1621908894,2021-05-25T02:14:54Z,SBI1026,"59.796787,30.264496",0,7,196
1621908900,2021-05-25T02:15:00Z,SBI1026,"59.796581,30.264374",0,7,196
1621908907,2021-05-25T02:15:07Z,SBI1026,"59.796349,30.264233",0,8,196
1621908914,2021-05-25T02:15:14Z,SBI1026,"59.796116,30.26409",0,8,196
1621908920,2021-05-25T02:15:20Z,SBI1026,"59.795895,30.263969",0,9,196
1621908926,2021-05-25T02:15:26Z,SBI1026,"59.795639,30.263805",0,9,196
1621908933,2021-05-25T02:15:33Z,SBI1026,"59.795391,30.263649",0,9,196
1621908939,2021-05-25T02:15:39Z,SBI1026,"59.795151,30.263546",0,9,188
1621908946,2021-05-25T02:15:46Z,SBI1026,"59.794918,30.263924",0,9,135
1621908949,2021-05-25T02:15:49Z,SBI1026,"59.794888,30.264175",0,9,115
1621908952,2021-05-25T02:15:52Z,SBI1026,"59.794853,30.264427",0,9,106
1621908955,2021-05-25T02:15:55Z,SBI1026,"59.794819,30.264679",0,9,104
1621908958,2021-05-25T02:15:58Z,SBI1026,"59.794785,30.264908",0,10,104
1621908961,2021-05-25T02:16:01Z,SBI1026,"59.794743,30.265179",0,10,106
1621908964,2021-05-25T02:16:04Z,SBI1026,"59.794704,30.265434",0,10,106
1621908966,2021-05-25T02:16:06Z,SBI1026,"59.79467,30.26564",0,10,106
1621908969,2021-05-25T02:16:09Z,SBI1026,"59.794636,30.265915",0,10,106
1621908975,2021-05-25T02:16:15Z,SBI1026,"59.794556,30.266481",0,11,106
1621908982,2021-05-25T02:16:22Z,SBI1026,"59.794453,30.267105",0,11,106
1621908988,2021-05-25T02:16:28Z,SBI1026,"59.794361,30.267759",0,12,106
1621908994,2021-05-25T02:16:34Z,SBI1026,"59.794266,30.2684",0,12,106
1621909000,2021-05-25T02:16:40Z,SBI1026,"59.794163,30.26911",0,13,106
1621909007,2021-05-25T02:16:47Z,SBI1026,"59.794044,30.269867",0,15,106
1621909018,2021-05-25T02:16:58Z,SBI1026,"59.793823,30.271339",0,15,106
1621909024,2021-05-25T02:17:04Z,SBI1026,"59.793697,30.272282",0,16,106
1621909032,2021-05-25T02:17:12Z,SBI1026,"59.79351,30.273418",0,16,106
1621909038,2021-05-25T02:17:18Z,SBI1026,"59.793381,30.274319",0,17,106
1621909044,2021-05-25T02:17:24Z,SBI1026,"59.793255,30.275219",0,17,106
1621909050,2021-05-25T02:17:30Z,SBI1026,"59.793114,30.276119",0,18,106
1621909056,2021-05-25T02:17:36Z,SBI1026,"59.792961,30.277184",0,18,106
1621909063,2021-05-25T02:17:43Z,SBI1026,"59.792793,30.278297",0,18,106
1621909069,2021-05-25T02:17:49Z,SBI1026,"59.792648,30.279314",0,17,106
1621909078,2021-05-25T02:17:58Z,SBI1026,"59.79245,30.280655",0,15,106
1621909085,2021-05-25T02:18:05Z,SBI1026,"59.792336,30.281387",0,8,106
1621909088,2021-05-25T02:18:08Z,SBI1026,"59.792286,30.281588",0,8,112
1621909092,2021-05-25T02:18:12Z,SBI1026,"59.79221,30.281845",0,8,118
1621909096,2021-05-25T02:18:16Z,SBI1026,"59.792107,30.282051",0,7,129
1621909106,2021-05-25T02:18:26Z,SBI1026,"59.791901,30.282211",0,4,154
1621909117,2021-05-25T02:18:37Z,SBI1026,"59.791683,30.282345",0,5,163
1621909124,2021-05-25T02:18:44Z,SBI1026,"59.791477,30.282417",0,8,165
1621909130,2021-05-25T02:18:50Z,SBI1026,"59.791195,30.282558",0,10,165
1621909136,2021-05-25T02:18:56Z,SBI1026,"59.790939,30.282654",0,12,171
1621909141,2021-05-25T02:19:01Z,SBI1026,"59.79068,30.282606",0,11,188
1621909145,2021-05-25T02:19:05Z,SBI1026,"59.790497,30.282393",0,9,208
1621909149,2021-05-25T02:19:09Z,SBI1026,"59.790436,30.282156",0,9,236
1621909152,2021-05-25T02:19:12Z,SBI1026,"59.790459,30.281914",0,8,261
1621909157,2021-05-25T02:19:17Z,SBI1026,"59.790508,30.281635",0,7,284
1621909180,2021-05-25T02:19:40Z,SBI1026,"59.790565,30.281256",0,12,286
1621909181,2021-05-25T02:19:41Z,SBI1026,"59.790623,30.280926",0,24,286
1621909182,2021-05-25T02:19:42Z,SBI1026,"59.790653,30.280701",0,29,286
1621909184,2021-05-25T02:19:44Z,SBI1026,"59.790733,30.280151",0,34,286
1621909185,2021-05-25T02:19:45Z,SBI1026,"59.790787,30.279812",0,39,286
1621909186,2021-05-25T02:19:46Z,SBI1026,"59.790813,30.279579",0,44,286
1621909192,2021-05-25T02:19:52Z,SBI1026,"59.791363,30.275894",0,76,286
1621909217,2021-05-25T02:20:17Z,SBI1026,"59.795471,30.248383",0,161,286
1621909223,2021-05-25T02:20:23Z,SBI1026,"59.796753,30.239685",0,170,286
1621909230,2021-05-25T02:20:30Z,SBI1026,"59.79826,30.229639",275,163,287
1621909242,2021-05-25T02:20:42Z,SBI1026,"59.800827,30.213501",775,159,287
1621909248,2021-05-25T02:20:48Z,SBI1026,"59.802155,30.205261",1025,159,287
1621909257,2021-05-25T02:20:57Z,SBI1026,"59.804169,30.192535",1325,162,287
1621909262,2021-05-25T02:21:02Z,SBI1026,"59.805473,30.183989",1525,166,286
1621909269,2021-05-25T02:21:09Z,SBI1026,"59.80687,30.174774",1725,168,286
1621909275,2021-05-25T02:21:15Z,SBI1026,"59.808174,30.165995",1975,166,286
1621909280,2021-05-25T02:21:20Z,SBI1026,"59.809383,30.157755",2225,165,286
1621909287,2021-05-25T02:21:27Z,SBI1026,"59.810715,30.148407",2500,162,285
1621909293,2021-05-25T02:21:33Z,SBI1026,"59.811951,30.139893",2750,161,285
1621909301,2021-05-25T02:21:41Z,SBI1026,"59.813622,30.128016",3050,162,285
1621909316,2021-05-25T02:21:56Z,SBI1026,"59.816505,30.106043",3375,178,282
1621909317,2021-05-25T02:21:57Z,SBI1026,"59.816647,30.104433",3375,180,280
1621909323,2021-05-25T02:22:03Z,SBI1026,"59.81662,30.09375",3500,188,266
1621909327,2021-05-25T02:22:07Z,SBI1026,"59.815659,30.085968",3575,195,254
1621909328,2021-05-25T02:22:08Z,SBI1026,"59.815529,30.085112",3575,197,252
1621909334,2021-05-25T02:22:14Z,SBI1026,"59.812866,30.074432",3650,211,239
1621909335,2021-05-25T02:22:15Z,SBI1026,"59.812595,30.073652",3650,204,245
1621909337,2021-05-25T02:22:17Z,SBI1026,"59.811447,30.070404",3675,214,236
1621909339,2021-05-25T02:22:19Z,SBI1026,"59.810314,30.067402",3725,218,233
1621909341,2021-05-25T02:22:21Z,SBI1026,"59.809021,30.064178",3775,221,231
1621909344,2021-05-25T02:22:24Z,SBI1026,"59.806591,30.059067",3875,228,225
1621909347,2021-05-25T02:22:27Z,SBI1026,"59.803482,30.053741",3950,235,219
1621909351,2021-05-25T02:22:31Z,SBI1026,"59.80069,30.049805",4025,241,213
1621909352,2021-05-25T02:22:32Z,SBI1026,"59.799606,30.048555",4075,243,211
1621909354,2021-05-25T02:22:34Z,SBI1026,"59.798126,30.046967",4100,245,209
1621909357,2021-05-25T02:22:37Z,SBI1026,"59.79472,30.044104",4175,251,203
1621909360,2021-05-25T02:22:40Z,SBI1026,"59.791367,30.04221",4250,257,196
1621909365,2021-05-25T02:22:45Z,SBI1026,"59.784477,30.040693",4400,268,182
1621909367,2021-05-25T02:22:47Z,SBI1026,"59.781738,30.041016",4475,271,177
1621909370,2021-05-25T02:22:50Z,SBI1026,"59.778076,30.042114",4600,275,170
1621909371,2021-05-25T02:22:51Z,SBI1026,"59.776752,30.042778",4650,276,168
1621909372,2021-05-25T02:22:52Z,SBI1026,"59.775604,30.043396",4700,273,173
1621909373,2021-05-25T02:22:53Z,SBI1026,"59.774422,30.044104",4725,277,164
1621909375,2021-05-25T02:22:55Z,SBI1026,"59.772125,30.045868",4825,279,159
1621909376,2021-05-25T02:22:56Z,SBI1026,"59.770935,30.046967",4875,280,157
1621909378,2021-05-25T02:22:58Z,SBI1026,"59.768555,30.049438",4975,281,152
1621909379,2021-05-25T02:22:59Z,SBI1026,"59.767952,30.05007",5000,281,150
1621909382,2021-05-25T02:23:02Z,SBI1026,"59.764755,30.054474",5175,281,146
1621909383,2021-05-25T02:23:03Z,SBI1026,"59.763252,30.056984",5275,282,141
1621909389,2021-05-25T02:23:09Z,SBI1026,"59.758301,30.067291",5575,284,129
1621909397,2021-05-25T02:23:17Z,SBI1026,"59.753334,30.084734",6000,286,114
1621909398,2021-05-25T02:23:18Z,SBI1026,"59.752823,30.087101",6050,286,112
1621909402,2021-05-25T02:23:22Z,SBI1026,"59.751102,30.09733",6300,286,107
1621909405,2021-05-25T02:23:25Z,SBI1026,"59.749878,30.106659",6500,286,103
1621909408,2021-05-25T02:23:28Z,SBI1026,"59.749237,30.113146",6625,287,100
1621909410,2021-05-25T02:23:30Z,SBI1026,"59.748867,30.117598",6725,288,99
1621909411,2021-05-25T02:23:31Z,SBI1026,"59.748589,30.121197",6775,289,98
1621909412,2021-05-25T02:23:32Z,SBI1026,"59.748367,30.124878",6850,288,97
1621909413,2021-05-25T02:23:33Z,SBI1026,"59.748169,30.127258",6900,289,97
1621909414,2021-05-25T02:23:34Z,SBI1026,"59.748123,30.1283",6900,290,97
1621909415,2021-05-25T02:23:35Z,SBI1026,"59.747955,30.13147",6950,291,96
1621909423,2021-05-25T02:23:43Z,SBI1026,"59.746765,30.152893",7250,297,96
1621909424,2021-05-25T02:23:44Z,SBI1026,"59.746628,30.15509",7275,298,96
1621909429,2021-05-25T02:23:49Z,SBI1026,"59.745792,30.169594",7500,301,96
1621909442,2021-05-25T02:24:02Z,SBI1026,"59.743233,30.20492",8175,301,98
1621909468,2021-05-25T02:24:28Z,SBI1026,"59.73653,30.276995",9550,305,101
1621909480,2021-05-25T02:24:40Z,SBI1026,"59.733086,30.310427",10150,307,101
1621909493,2021-05-25T02:24:53Z,SBI1026,"59.729546,30.344238",10550,316,101
1621909504,2021-05-25T02:25:04Z,SBI1026,"59.725937,30.378754",10750,333,101
1621909516,2021-05-25T02:25:16Z,SBI1026,"59.722004,30.415745",10950,348,101
1621909530,2021-05-25T02:25:30Z,SBI1026,"59.717304,30.459879",11225,362,101
1621909541,2021-05-25T02:25:41Z,SBI1026,"59.713669,30.493927",11600,368,102
1621909553,2021-05-25T02:25:53Z,SBI1026,"59.70932,30.534576",12125,371,102
1621909589,2021-05-25T02:26:29Z,SBI1026,"59.696411,30.655518",13550,383,101
1621909619,2021-05-25T02:26:59Z,SBI1026,"59.685135,30.761246",14800,389,101
1621909653,2021-05-25T02:27:33Z,SBI1026,"59.672615,30.877171",16075,397,102
1621909686,2021-05-25T02:28:06Z,SBI1026,"59.659332,30.997742",17150,408,102
1621909717,2021-05-25T02:28:37Z,SBI1026,"59.646881,31.110443",18175,416,102
1621909790,2021-05-25T02:29:50Z,SBI1026,"59.615681,31.388508",20300,437,102
1621909852,2021-05-25T02:30:52Z,SBI1026,"59.587654,31.632669",22050,450,102
1621909916,2021-05-25T02:31:56Z,SBI1026,"59.557537,31.891796",23500,467,102
1621909961,2021-05-25T02:32:41Z,SBI1026,"59.531891,32.079529",24400,485,113
1621909965,2021-05-25T02:32:45Z,SBI1026,"59.527229,32.098263",24475,488,116
1621909967,2021-05-25T02:32:47Z,SBI1026,"59.525089,32.10603",24525,488,118
1621909968,2021-05-25T02:32:48Z,SBI1026,"59.523972,32.109924",24525,489,119
1621909969,2021-05-25T02:32:49Z,SBI1026,"59.523514,32.111389",24550,489,120
1621909971,2021-05-25T02:32:51Z,SBI1026,"59.521637,32.117523",24575,490,120
1621909972,2021-05-25T02:32:52Z,SBI1026,"59.520016,32.122414",24600,490,121
1621909973,2021-05-25T02:32:53Z,SBI1026,"59.518665,32.126488",24625,491,123
1621909974,2021-05-25T02:32:54Z,SBI1026,"59.517643,32.129421",24625,491,123
1621909976,2021-05-25T02:32:56Z,SBI1026,"59.514847,32.136997",24675,492,126
1621909977,2021-05-25T02:32:57Z,SBI1026,"59.514336,32.138515",24675,492,126
1621909979,2021-05-25T02:32:59Z,SBI1026,"59.510517,32.147984",24725,492,127
1621909980,2021-05-25T02:33:00Z,SBI1026,"59.508911,32.151764",24750,492,129
1621909981,2021-05-25T02:33:01Z,SBI1026,"59.507446,32.155151",24775,492,129
1621909982,2021-05-25T02:33:02Z,SBI1026,"59.505024,32.160488",24800,493,131
1621909983,2021-05-25T02:33:03Z,SBI1026,"59.504242,32.162109",24800,493,131
1621909984,2021-05-25T02:33:04Z,SBI1026,"59.50256,32.165695",24825,493,132
1621909985,2021-05-25T02:33:05Z,SBI1026,"59.501907,32.167023",24850,493,132
1621909986,2021-05-25T02:33:06Z,SBI1026,"59.499718,32.171566",24875,493,133
1621909989,2021-05-25T02:33:09Z,SBI1026,"59.495762,32.179619",24925,493,134
1621909991,2021-05-25T02:33:11Z,SBI1026,"59.49078,32.189468",25000,494,134
1621909992,2021-05-25T02:33:12Z,SBI1026,"59.490005,32.19104",25025,494,134
1621909995,2021-05-25T02:33:15Z,SBI1026,"59.485798,32.199318",25075,494,134
1621910002,2021-05-25T02:33:22Z,SBI1026,"59.473835,32.222805",25250,496,135
1621910063,2021-05-25T02:34:23Z,SBI1026,"59.372818,32.419708",26400,511,135
1621910135,2021-05-25T02:35:35Z,SBI1026,"59.250275,32.656494",27800,523,135
1621910196,2021-05-25T02:36:36Z,SBI1026,"59.144806,32.858212",29225,523,135
1621910259,2021-05-25T02:37:39Z,SBI1026,"59.037407,33.061649",30825,517,135
1621910320,2021-05-25T02:38:40Z,SBI1026,"58.933365,33.256752",32175,516,136
1621910383,2021-05-25T02:39:43Z,SBI1026,"58.823914,33.460281",32975,519,136
1621910443,2021-05-25T02:40:43Z,SBI1026,"58.719727,33.652008",32975,519,136
1621910504,2021-05-25T02:41:44Z,SBI1026,"58.613689,33.84549",32975,519,136
1621910566,2021-05-25T02:42:46Z,SBI1026,"58.507179,34.038391",32975,519,136
1621910627,2021-05-25T02:43:47Z,SBI1026,"58.401031,34.22879",33000,517,136
1621910689,2021-05-25T02:44:49Z,SBI1026,"58.292385,34.422089",32975,517,136
1621910751,2021-05-25T02:45:51Z,SBI1026,"58.184097,34.609592",32975,511,140
1621910814,2021-05-25T02:46:54Z,SBI1026,"58.070984,34.788651",32975,511,140
1621910875,2021-05-25T02:47:55Z,SBI1026,"57.960514,34.962158",32950,508,140
1621910938,2021-05-25T02:48:58Z,SBI1026,"57.846771,35.139328",32950,506,140
1621910999,2021-05-25T02:49:59Z,SBI1026,"57.737595,35.307755",32975,506,140
1621911060,2021-05-25T02:51:00Z,SBI1026,"57.633953,35.49337",33000,506,128
1621911122,2021-05-25T02:52:02Z,SBI1026,"57.561539,35.725395",33000,502,112
1621911183,2021-05-25T02:53:03Z,SBI1026,"57.50798,35.964947",33000,501,118
1621911244,2021-05-25T02:54:04Z,SBI1026,"57.423843,36.173687",32975,499,134
1621911305,2021-05-25T02:55:05Z,SBI1026,"57.316772,36.339081",32525,489,141
1621911366,2021-05-25T02:56:06Z,SBI1026,"57.212795,36.491177",31575,461,141
1621911427,2021-05-25T02:57:07Z,SBI1026,"57.109772,36.640823",30500,472,141
1621911488,2021-05-25T02:58:08Z,SBI1026,"57.004005,36.792946",29500,474,141
1621911549,2021-05-25T02:59:09Z,SBI1026,"56.898926,36.942474",27925,475,142
1621911610,2021-05-25T03:00:10Z,SBI1026,"56.78595,37.080917",25875,485,153
1621911671,2021-05-25T03:01:11Z,SBI1026,"56.66803,37.179367",24550,443,155
1621911733,2021-05-25T03:02:13Z,SBI1026,"56.556885,37.270786",22525,421,155
1621911794,2021-05-25T03:03:14Z,SBI1026,"56.451244,37.356949",20850,400,155
1621911855,2021-05-25T03:04:15Z,SBI1026,"56.348831,37.440407",20575,400,155
1621911916,2021-05-25T03:05:16Z,SBI1026,"56.245331,37.524052",20300,400,155
1621911978,2021-05-25T03:06:18Z,SBI1026,"56.140457,37.60828",20000,396,155
1621912039,2021-05-25T03:07:19Z,SBI1026,"56.04245,37.686935",18625,376,156
1621912101,2021-05-25T03:08:21Z,SBI1026,"55.945358,37.765255",17375,370,151
1621912113,2021-05-25T03:08:33Z,SBI1026,"55.927299,37.785587",17125,370,144
1621912115,2021-05-25T03:08:35Z,SBI1026,"55.925354,37.788059",17100,369,144
1621912122,2021-05-25T03:08:42Z,SBI1026,"55.915802,37.800179",17025,367,144
1621912124,2021-05-25T03:08:44Z,SBI1026,"55.912777,37.804039",17025,366,144
1621912125,2021-05-25T03:08:45Z,SBI1026,"55.91124,37.805931",17000,366,144
1621912152,2021-05-25T03:09:12Z,SBI1026,"55.873352,37.850479",16975,364,154
1621912154,2021-05-25T03:09:14Z,SBI1026,"55.870102,37.853062",16975,364,155
1621912155,2021-05-25T03:09:15Z,SBI1026,"55.868736,37.85408",16975,362,157
1621912157,2021-05-25T03:09:17Z,SBI1026,"55.865891,37.855972",16975,363,158
1621912160,2021-05-25T03:09:20Z,SBI1026,"55.860352,37.859055",16975,361,163
1621912161,2021-05-25T03:09:21Z,SBI1026,"55.85907,37.859634",16975,360,164
1621912162,2021-05-25T03:09:22Z,SBI1026,"55.857613,37.86026",16975,359,165
1621912163,2021-05-25T03:09:23Z,SBI1026,"55.856003,37.860966",16975,359,165
1621912164,2021-05-25T03:09:24Z,SBI1026,"55.853714,37.861717",16975,358,168
1621912165,2021-05-25T03:09:25Z,SBI1026,"55.852909,37.861977",16975,358,168
1621912166,2021-05-25T03:09:26Z,SBI1026,"55.850327,37.862633",16950,357,170
1621912167,2021-05-25T03:09:27Z,SBI1026,"55.849319,37.862881",16950,357,170
1621912172,2021-05-25T03:09:32Z,SBI1026,"55.840759,37.86412",16850,355,176
1621912173,2021-05-25T03:09:33Z,SBI1026,"55.839455,37.864208",16825,356,177
1621912177,2021-05-25T03:09:37Z,SBI1026,"55.833481,37.864712",16750,356,177
1621912178,2021-05-25T03:09:38Z,SBI1026,"55.831028,37.864807",16725,354,178
1621912179,2021-05-25T03:09:39Z,SBI1026,"55.830185,37.86488",16700,353,178
1621912180,2021-05-25T03:09:40Z,SBI1026,"55.827911,37.864983",16675,353,178
1621912181,2021-05-25T03:09:41Z,SBI1026,"55.826111,37.865047",16650,353,178
1621912182,2021-05-25T03:09:42Z,SBI1026,"55.825302,37.865067",16650,352,178
1621912184,2021-05-25T03:09:44Z,SBI1026,"55.820755,37.865211",16575,351,179
1621912186,2021-05-25T03:09:46Z,SBI1026,"55.81818,37.865326",16550,351,179
1621912188,2021-05-25T03:09:48Z,SBI1026,"55.815765,37.865379",16525,350,179
1621912189,2021-05-25T03:09:49Z,SBI1026,"55.813522,37.865379",16500,349,179
1621912191,2021-05-25T03:09:51Z,SBI1026,"55.810455,37.865463",16475,349,179
1621912222,2021-05-25T03:10:22Z,SBI1026,"55.761433,37.866013",16050,344,179
1621912253,2021-05-25T03:10:53Z,SBI1026,"55.712509,37.866867",15575,339,179
1621912285,2021-05-25T03:11:25Z,SBI1026,"55.663055,37.867626",15125,336,179
1621912316,2021-05-25T03:11:56Z,SBI1026,"55.614349,37.868626",14625,334,179
1621912348,2021-05-25T03:12:28Z,SBI1026,"55.56546,37.871037",14125,334,172
1621912351,2021-05-25T03:12:31Z,SBI1026,"55.559956,37.872704",14050,334,169
1621912352,2021-05-25T03:12:32Z,SBI1026,"55.559235,37.873035",14050,334,168
1621912353,2021-05-25T03:12:33Z,SBI1026,"55.557861,37.873566",14050,335,167
1621912354,2021-05-25T03:12:34Z,SBI1026,"55.555626,37.874596",14025,334,166
1621912355,2021-05-25T03:12:35Z,SBI1026,"55.55397,37.87545",14000,335,164
1621912358,2021-05-25T03:12:38Z,SBI1026,"55.550583,37.877365",13950,336,161
1621912359,2021-05-25T03:12:39Z,SBI1026,"55.548523,37.878696",13925,336,159
1621912362,2021-05-25T03:12:42Z,SBI1026,"55.544998,37.881443",13850,337,155
1621912364,2021-05-25T03:12:44Z,SBI1026,"55.542034,37.884033",13800,338,152
1621912365,2021-05-25T03:12:45Z,SBI1026,"55.540421,37.885605",13775,337,151
1621912367,2021-05-25T03:12:47Z,SBI1026,"55.537891,37.888329",13725,338,148
1621912368,2021-05-25T03:12:48Z,SBI1026,"55.536575,37.889767",13700,338,147
1621912370,2021-05-25T03:12:50Z,SBI1026,"55.533607,37.893391",13625,338,145
1621912371,2021-05-25T03:12:51Z,SBI1026,"55.532303,37.894936",13600,337,144
1621912372,2021-05-25T03:12:52Z,SBI1026,"55.530907,37.896736",13575,338,144
1621912374,2021-05-25T03:12:54Z,SBI1026,"55.528107,37.900253",13525,338,144
1621912376,2021-05-25T03:12:56Z,SBI1026,"55.526367,37.9025",13475,338,143
1621912377,2021-05-25T03:12:57Z,SBI1026,"55.525227,37.903946",13450,338,144
1621912379,2021-05-25T03:12:59Z,SBI1026,"55.522621,37.907379",13400,337,143
1621912380,2021-05-25T03:13:00Z,SBI1026,"55.521469,37.908909",13375,337,143
1621912382,2021-05-25T03:13:02Z,SBI1026,"55.518585,37.912655",13325,337,143
1621912383,2021-05-25T03:13:03Z,SBI1026,"55.517624,37.913986",13300,337,143
1621912385,2021-05-25T03:13:05Z,SBI1026,"55.515152,37.917233",13250,336,143
1621912417,2021-05-25T03:13:37Z,SBI1026,"55.476395,37.96875",12075,328,143
1621912447,2021-05-25T03:14:07Z,SBI1026,"55.439293,38.017521",10900,326,143
1621912458,2021-05-25T03:14:18Z,SBI1026,"55.42598,38.034916",10575,325,143
1621912472,2021-05-25T03:14:32Z,SBI1026,"55.409317,38.056885",10175,325,143
1621912484,2021-05-25T03:14:44Z,SBI1026,"55.395161,38.075535",9975,318,143
1621912497,2021-05-25T03:14:57Z,SBI1026,"55.380219,38.095177",9775,310,143
1621912512,2021-05-25T03:15:12Z,SBI1026,"55.363739,38.116982",9450,306,143
1621912525,2021-05-25T03:15:25Z,SBI1026,"55.348236,38.137455",9125,302,142
1621912535,2021-05-25T03:15:35Z,SBI1026,"55.338089,38.150753",8925,300,143
1621912549,2021-05-25T03:15:49Z,SBI1026,"55.322342,38.171352",8575,298,143
1621912561,2021-05-25T03:16:01Z,SBI1026,"55.308884,38.187668",8350,295,145
1621912573,2021-05-25T03:16:13Z,SBI1026,"55.295353,38.203709",8175,285,145
1621912584,2021-05-25T03:16:24Z,SBI1026,"55.283203,38.218204",8050,279,145
1621912596,2021-05-25T03:16:36Z,SBI1026,"55.271053,38.232754",7925,271,145
1621912607,2021-05-25T03:16:47Z,SBI1026,"55.259995,38.245911",7775,266,145
1621912618,2021-05-25T03:16:58Z,SBI1026,"55.248413,38.259727",7600,261,145
1621912631,2021-05-25T03:17:11Z,SBI1026,"55.236092,38.27462",7400,257,145
1621912644,2021-05-25T03:17:24Z,SBI1026,"55.223522,38.289768",7225,252,145
1621912655,2021-05-25T03:17:35Z,SBI1026,"55.213001,38.302586",7050,247,145
1621912667,2021-05-25T03:17:47Z,SBI1026,"55.201225,38.316734",6875,244,145
1621912679,2021-05-25T03:17:59Z,SBI1026,"55.190735,38.329441",6750,237,145
1621912691,2021-05-25T03:18:11Z,SBI1026,"55.179905,38.342369",6550,234,146
1621912700,2021-05-25T03:18:20Z,SBI1026,"55.171104,38.349525",6350,230,161
1621912703,2021-05-25T03:18:23Z,SBI1026,"55.167847,38.351025",6275,228,166
1621912706,2021-05-25T03:18:26Z,SBI1026,"55.165146,38.351738",6250,227,170
1621912708,2021-05-25T03:18:28Z,SBI1026,"55.162354,38.351978",6225,225,174
1621912712,2021-05-25T03:18:32Z,SBI1026,"55.158737,38.351738",6200,223,184
1621912718,2021-05-25T03:18:38Z,SBI1026,"55.15239,38.349442",6150,223,196
1621912728,2021-05-25T03:18:48Z,SBI1026,"55.143219,38.340752",6100,222,215
1621912730,2021-05-25T03:18:50Z,SBI1026,"55.14201,38.339039",6075,223,217
1621912732,2021-05-25T03:18:52Z,SBI1026,"55.140518,38.336548",6050,222,221
1621912735,2021-05-25T03:18:55Z,SBI1026,"55.138687,38.332996",6025,222,227
1621912736,2021-05-25T03:18:56Z,SBI1026,"55.137726,38.330894",6025,221,232
1621912738,2021-05-25T03:18:58Z,SBI1026,"55.136856,38.328552",6000,220,236
1621912741,2021-05-25T03:19:01Z,SBI1026,"55.13512,38.323227",5975,222,223
1621912744,2021-05-25T03:19:04Z,SBI1026,"55.133972,38.318375",5950,225,241
1621912749,2021-05-25T03:19:09Z,SBI1026,"55.132793,38.310741",5900,218,258
1621912751,2021-05-25T03:19:11Z,SBI1026,"55.13242,38.30658",5875,218,262
1621912754,2021-05-25T03:19:14Z,SBI1026,"55.132233,38.301331",5850,218,254
1621912756,2021-05-25T03:19:16Z,SBI1026,"55.132328,38.297756",5850,218,272
1621912757,2021-05-25T03:19:17Z,SBI1026,"55.13237,38.296238",5850,218,268
1621912762,2021-05-25T03:19:22Z,SBI1026,"55.133259,38.287601",5800,219,283
1621912766,2021-05-25T03:19:26Z,SBI1026,"55.134796,38.279945",5750,219,290
1621912774,2021-05-25T03:19:34Z,SBI1026,"55.138706,38.268295",5575,220,305
1621912775,2021-05-25T03:19:35Z,SBI1026,"55.139359,38.266964",5550,220,308
1621912780,2021-05-25T03:19:40Z,SBI1026,"55.142616,38.260471",5475,221,312
1621912783,2021-05-25T03:19:43Z,SBI1026,"55.144684,38.256577",5425,220,313
1621912786,2021-05-25T03:19:46Z,SBI1026,"55.146946,38.25248",5350,220,313
1621912789,2021-05-25T03:19:49Z,SBI1026,"55.148945,38.248734",5300,219,313
1621912792,2021-05-25T03:19:52Z,SBI1026,"55.151276,38.244492",5250,219,313
1621912795,2021-05-25T03:19:55Z,SBI1026,"55.15337,38.240662",5175,219,313
1621912804,2021-05-25T03:20:04Z,SBI1026,"55.159607,38.229031",5000,219,313
1621912815,2021-05-25T03:20:15Z,SBI1026,"55.166702,38.215698",4800,219,312
1621912821,2021-05-25T03:20:21Z,SBI1026,"55.170959,38.207623",4675,218,312
1621912830,2021-05-25T03:20:30Z,SBI1026,"55.177185,38.195827",4475,218,312
1621912839,2021-05-25T03:20:39Z,SBI1026,"55.183228,38.184357",4300,218,312
1621912849,2021-05-25T03:20:49Z,SBI1026,"55.190331,38.170834",4075,218,312
1621912857,2021-05-25T03:20:57Z,SBI1026,"55.195679,38.160686",3925,219,312
1621912866,2021-05-25T03:21:06Z,SBI1026,"55.20195,38.148811",3800,216,312
1621912874,2021-05-25T03:21:14Z,SBI1026,"55.207443,38.138474",3775,214,312
1621912881,2021-05-25T03:21:21Z,SBI1026,"55.212112,38.129669",3775,212,312
1621912886,2021-05-25T03:21:26Z,SBI1026,"55.215469,38.123306",3775,212,312
1621912895,2021-05-25T03:21:35Z,SBI1026,"55.221848,38.112404",3750,213,318
1621912901,2021-05-25T03:21:41Z,SBI1026,"55.226074,38.106724",3750,214,324
1621912907,2021-05-25T03:21:47Z,SBI1026,"55.230927,38.10083",3725,213,325
1621912921,2021-05-25T03:22:01Z,SBI1026,"55.242004,38.087498",3625,208,324
1621912933,2021-05-25T03:22:13Z,SBI1026,"55.251266,38.075867",3500,202,324
1621912939,2021-05-25T03:22:19Z,SBI1026,"55.255875,38.070129",3425,199,324
1621912945,2021-05-25T03:22:25Z,SBI1026,"55.260315,38.064636",3350,196,324
1621912953,2021-05-25T03:22:33Z,SBI1026,"55.266212,38.057472",3225,195,325
1621912958,2021-05-25T03:22:38Z,SBI1026,"55.270615,38.052277",3150,195,325
1621912975,2021-05-25T03:22:55Z,SBI1026,"55.282379,38.038223",2950,187,325
1621912981,2021-05-25T03:23:01Z,SBI1026,"55.287277,38.032486",2825,185,325
1621912993,2021-05-25T03:23:13Z,SBI1026,"55.295334,38.023037",2650,177,325
1621912999,2021-05-25T03:23:19Z,SBI1026,"55.299225,38.018349",2575,171,325
1621913005,2021-05-25T03:23:25Z,SBI1026,"55.303127,38.013611",2475,167,325
1621913014,2021-05-25T03:23:34Z,SBI1026,"55.308666,38.007034",2325,159,325
1621913032,2021-05-25T03:23:52Z,SBI1026,"55.319096,37.994469",2100,144,325
1621913038,2021-05-25T03:23:58Z,SBI1026,"55.322433,37.990479",2025,141,325
1621913044,2021-05-25T03:24:04Z,SBI1026,"55.325657,37.986645",1950,140,325
1621913050,2021-05-25T03:24:10Z,SBI1026,"55.328873,37.982815",1875,138,325
1621913060,2021-05-25T03:24:20Z,SBI1026,"55.333897,37.976822",1750,136,326
1621913069,2021-05-25T03:24:29Z,SBI1026,"55.3386,37.971249",1650,134,325
1621913075,2021-05-25T03:24:35Z,SBI1026,"55.341671,37.967503",1575,134,325
1621913081,2021-05-25T03:24:41Z,SBI1026,"55.344746,37.96384",1500,134,325
1621913087,2021-05-25T03:24:47Z,SBI1026,"55.347816,37.960094",1425,134,325
1621913104,2021-05-25T03:25:04Z,SBI1026,"55.356537,37.949684",1225,134,326
1621913114,2021-05-25T03:25:14Z,SBI1026,"55.361549,37.943615",1125,134,325
1621913120,2021-05-25T03:25:20Z,SBI1026,"55.365005,37.939507",1025,133,325
1621913135,2021-05-25T03:25:35Z,SBI1026,"55.372585,37.930466",850,133,325
1621913147,2021-05-25T03:25:47Z,SBI1026,"55.378601,37.923187",700,133,325
1621913153,2021-05-25T03:25:53Z,SBI1026,"55.38166,37.919559",625,133,325
1621913162,2021-05-25T03:26:02Z,SBI1026,"55.386318,37.913986",525,134,325
1621913171,2021-05-25T03:26:11Z,SBI1026,"55.390778,37.908569",425,137,325
1621913180,2021-05-25T03:26:20Z,SBI1026,"55.39563,37.902832",300,137,325
1621913198,2021-05-25T03:26:38Z,SBI1026,"55.404144,37.89249",300,104,325
1621913206,2021-05-25T03:26:46Z,SBI1026,"55.406601,37.889515",0,61,326
1621913212,2021-05-25T03:26:52Z,SBI1026,"55.4076,37.888454",0,31,331
1621913217,2021-05-25T03:26:57Z,SBI1026,"55.408081,37.888111",0,18,340
1621913220,2021-05-25T03:27:00Z,SBI1026,"55.408291,37.887955",0,18,340
1621913256,2021-05-25T03:27:36Z,SBI1026,"55.410511,37.888351",0,11,90
1621913263,2021-05-25T03:27:43Z,SBI1026,"55.41029,37.888744",0,10,137
1621913268,2021-05-25T03:27:48Z,SBI1026,"55.410072,37.888977",0,11,146
1621913274,2021-05-25T03:27:54Z,SBI1026,"55.409821,37.88932",0,12,143
1621913279,2021-05-25T03:27:59Z,SBI1026,"55.409557,37.889641",0,13,146
1621913283,2021-05-25T03:28:03Z,SBI1026,"55.409359,37.88987",0,14,146
1621913286,2021-05-25T03:28:06Z,SBI1026,"55.409184,37.890076",0,15,146
1621913292,2021-05-25T03:28:12Z,SBI1026,"55.408825,37.890514",0,16,146
1621913298,2021-05-25T03:28:18Z,SBI1026,"55.40844,37.890972",0,17,146
1621913304,2021-05-25T03:28:24Z,SBI1026,"55.407997,37.891491",0,19,146
1621913310,2021-05-25T03:28:30Z,SBI1026,"55.407578,37.891991",0,21,146
1621913318,2021-05-25T03:28:38Z,SBI1026,"55.406963,37.892761",0,17,143
1621913320,2021-05-25T03:28:40Z,SBI1026,"55.406799,37.893009",0,15,135
1621913323,2021-05-25T03:28:43Z,SBI1026,"55.406742,37.893421",0,18,104
1621913325,2021-05-25T03:28:45Z,SBI1026,"55.406776,37.893696",0,18,84
1621913328,2021-05-25T03:28:48Z,SBI1026,"55.406857,37.893967",0,18,64
1621913329,2021-05-25T03:28:49Z,SBI1026,"55.406948,37.894188",0,18,56
1621913332,2021-05-25T03:28:52Z,SBI1026,"55.407043,37.894447",0,18,53
1621913334,2021-05-25T03:28:54Z,SBI1026,"55.407166,37.894775",0,18,53
1621913336,2021-05-25T03:28:56Z,SBI1026,"55.407269,37.895035",0,18,56
1621913339,2021-05-25T03:28:59Z,SBI1026,"55.407417,37.895401",0,18,53
1621913341,2021-05-25T03:29:01Z,SBI1026,"55.407532,37.895641",0,17,50
1621913345,2021-05-25T03:29:05Z,SBI1026,"55.407764,37.895924",0,16,33
1621913350,2021-05-25T03:29:10Z,SBI1026,"55.408081,37.896297",0,15,36
1621913357,2021-05-25T03:29:17Z,SBI1026,"55.408367,37.896935",0,16,53
1621913372,2021-05-25T03:29:32Z,SBI1026,"55.409126,37.898899",0,20,56
1621913374,2021-05-25T03:29:34Z,SBI1026,"55.409195,37.899109",0,20,56
1621913377,2021-05-25T03:29:37Z,SBI1026,"55.409348,37.899483",0,21,56
1621913379,2021-05-25T03:29:39Z,SBI1026,"55.409466,37.899784",0,21,56
1621913381,2021-05-25T03:29:41Z,SBI1026,"55.409557,37.900024",0,17,56
1621913385,2021-05-25T03:29:45Z,SBI1026,"55.409626,37.900589",0,15,84
1621913392,2021-05-25T03:29:52Z,SBI1026,"55.409664,37.901314",0,14,73
1621913419,2021-05-25T03:30:19Z,SBI1026,"55.410667,37.903961",0,16,64
1621913421,2021-05-25T03:30:21Z,SBI1026,"55.410686,37.904224",0,15,75
1621913423,2021-05-25T03:30:23Z,SBI1026,"55.410675,37.904434",0,15,90
1621913431,2021-05-25T03:30:31Z,SBI1026,"55.410477,37.905331",0,15,112
1621913441,2021-05-25T03:30:41Z,SBI1026,"55.410664,37.906452",0,15,56
1621913444,2021-05-25T03:30:44Z,SBI1026,"55.410778,37.906784",0,16,56
1621913446,2021-05-25T03:30:46Z,SBI1026,"55.410896,37.907055",0,16,56
1621913449,2021-05-25T03:30:49Z,SBI1026,"55.411034,37.907417",0,16,56
1621913452,2021-05-25T03:30:52Z,SBI1026,"55.411152,37.907722",0,16,56
1621913462,2021-05-25T03:31:02Z,SBI1026,"55.411617,37.908932",0,17,56
1621913468,2021-05-25T03:31:08Z,SBI1026,"55.41185,37.909615",0,18,59
1621913475,2021-05-25T03:31:15Z,SBI1026,"55.412224,37.910572",0,19,56
1621913481,2021-05-25T03:31:21Z,SBI1026,"55.412521,37.911354",0,19,56
1621913488,2021-05-25T03:31:28Z,SBI1026,"55.412876,37.912243",0,19,53
1621913493,2021-05-25T03:31:33Z,SBI1026,"55.413036,37.9128",0,15,64
1621913495,2021-05-25T03:31:35Z,SBI1026,"55.413048,37.91309",0,15,84
1621913506,2021-05-25T03:31:46Z,SBI1026,"55.412571,37.914108",0,15,135
1621913521,2021-05-25T03:32:01Z,SBI1026,"55.4118,37.915474",0,17,135
1621913527,2021-05-25T03:32:07Z,SBI1026,"55.411488,37.915981",0,13,140
1621913540,2021-05-25T03:32:20Z,SBI1026,"55.411011,37.915375",0,11,233
1621913543,2021-05-25T03:32:23Z,SBI1026,"55.410908,37.915131",0,11,236
1621913551,2021-05-25T03:32:31Z,SBI1026,"55.41069,37.914604",0,10,233
1621913556,2021-05-25T03:32:36Z,SBI1026,"55.410557,37.914257",0,10,236
1621913563,2021-05-25T03:32:43Z,SBI1026,"55.410473,37.913837",0,7,258
1621913569,2021-05-25T03:32:49Z,SBI1026,"55.410622,37.913635",0,6,309
1621913579,2021-05-25T03:32:59Z,SBI1026,"55.410816,37.913414",0,4,323
1621913594,2021-05-25T03:33:14Z,SBI1026,"55.41127,37.915962",0,1,323
