Timestamp,UTC,Callsign,Position,Altitude,Speed,Direction
1622367915,2021-05-30T09:45:15Z,SBI1011,"55.411572,37.899841",0,0,16
1622368183,2021-05-30T09:49:43Z,SBI1011,"55.411354,37.899742",0,4,19
1622368197,2021-05-30T09:49:57Z,SBI1011,"55.41114,37.899609",0,3,201
1622368208,2021-05-30T09:50:08Z,SBI1011,"55.411011,37.899399",0,3,61
1622368216,2021-05-30T09:50:16Z,SBI1011,"55.410954,37.899178",0,3,61
1622368225,2021-05-30T09:50:25Z,SBI1011,"55.410896,37.89896",0,3,61
1622368234,2021-05-30T09:50:34Z,SBI1011,"55.410816,37.898754",0,3,61
1622368243,2021-05-30T09:50:43Z,SBI1011,"55.410736,37.898552",0,3,70
1622368252,2021-05-30T09:50:52Z,SBI1011,"55.410679,37.89835",0,3,87
1622368262,2021-05-30T09:51:02Z,SBI1011,"55.410679,37.898087",0,3,92
1622368270,2021-05-30T09:51:10Z,SBI1011,"55.41069,37.897865",0,3,87
1622368280,2021-05-30T09:51:20Z,SBI1011,"55.410702,37.897621",0,3,64
1622368291,2021-05-30T09:51:31Z,SBI1011,"55.410652,37.8974",0,1,50
1622368313,2021-05-30T09:51:53Z,SBI1011,"55.410698,37.897778",0,0,180
1622368349,2021-05-30T09:52:29Z,SBI1011,"55.410652,37.8974",0,0,180
1622368413,2021-05-30T09:53:33Z,SBI1011,"55.410744,37.897629",0,5,53
1622368421,2021-05-30T09:53:41Z,SBI1011,"55.410954,37.897694",0,7,8
1622368434,2021-05-30T09:53:54Z,SBI1011,"55.411045,37.89724",0,4,284
1622368441,2021-05-30T09:54:01Z,SBI1011,"55.410988,37.897015",0,5,253
1622368453,2021-05-30T09:54:13Z,SBI1011,"55.410759,37.896469",0,8,236
1622368457,2021-05-30T09:54:17Z,SBI1011,"55.410675,37.896255",0,8,236
1622368461,2021-05-30T09:54:21Z,SBI1011,"55.410587,37.896046",0,8,239
1622368474,2021-05-30T09:54:34Z,SBI1011,"55.410782,37.895378",0,7,315
1622368481,2021-05-30T09:54:41Z,SBI1011,"55.410988,37.895153",0,6,326
1622368488,2021-05-30T09:54:48Z,SBI1011,"55.411163,37.894863",0,8,312
1622368497,2021-05-30T09:54:57Z,SBI1011,"55.411125,37.894348",0,7,255
1622368509,2021-05-30T09:55:09Z,SBI1011,"55.410896,37.893806",0,7,236
1622368513,2021-05-30T09:55:13Z,SBI1011,"55.410816,37.893581",0,8,236
1622368523,2021-05-30T09:55:23Z,SBI1011,"55.410507,37.893158",0,10,205
1622368532,2021-05-30T09:55:32Z,SBI1011,"55.410198,37.89344",0,9,149
1622368538,2021-05-30T09:55:38Z,SBI1011,"55.409977,37.893677",0,10,143
1622368543,2021-05-30T09:55:43Z,SBI1011,"55.409786,37.893906",0,11,146
1622368547,2021-05-30T09:55:47Z,SBI1011,"55.409603,37.894115",0,11,146
1622368551,2021-05-30T09:55:51Z,SBI1011,"55.409428,37.894321",0,12,146
1622368557,2021-05-30T09:55:57Z,SBI1011,"55.409138,37.894676",0,13,146
1622368563,2021-05-30T09:56:03Z,SBI1011,"55.408813,37.895058",0,14,146
1622368569,2021-05-30T09:56:09Z,SBI1011,"55.408482,37.89542",0,14,149
1622368575,2021-05-30T09:56:15Z,SBI1011,"55.408184,37.895763",0,12,140
1622368578,2021-05-30T09:56:18Z,SBI1011,"55.408127,37.896027",0,11,118
1622368581,2021-05-30T09:56:21Z,SBI1011,"55.408127,37.896236",0,11,98
1622368584,2021-05-30T09:56:24Z,SBI1011,"55.408173,37.896507",0,12,75
1622368587,2021-05-30T09:56:27Z,SBI1011,"55.408276,37.896732",0,12,59
1622368589,2021-05-30T09:56:29Z,SBI1011,"55.408333,37.896935",0,12,56
1622368592,2021-05-30T09:56:32Z,SBI1011,"55.408436,37.897179",0,13,53
1622368595,2021-05-30T09:56:35Z,SBI1011,"55.408535,37.897442",0,14,53
1622368598,2021-05-30T09:56:38Z,SBI1011,"55.408672,37.897778",0,15,56
1622368601,2021-05-30T09:56:41Z,SBI1011,"55.408768,37.898026",0,15,56
1622368603,2021-05-30T09:56:43Z,SBI1011,"55.408848,37.898228",0,15,53
1622368605,2021-05-30T09:56:45Z,SBI1011,"55.408928,37.89843",0,15,53
1622368611,2021-05-30T09:56:51Z,SBI1011,"55.409195,37.899151",0,17,56
1622368716,2021-05-30T09:58:36Z,SBI1011,"55.412083,37.91024",0,17,56
1622368739,2021-05-30T09:58:59Z,SBI1011,"55.413036,37.912807",0,13,67
1622368748,2021-05-30T09:59:08Z,SBI1011,"55.412781,37.913715",0,15,135
1622368758,2021-05-30T09:59:18Z,SBI1011,"55.412304,37.914566",0,16,135
1622368764,2021-05-30T09:59:24Z,SBI1011,"55.411926,37.915234",0,17,135
1622368771,2021-05-30T09:59:31Z,SBI1011,"55.411526,37.915939",0,18,135
1622368779,2021-05-30T09:59:39Z,SBI1011,"55.410999,37.916855",0,20,135
1622368797,2021-05-30T09:59:57Z,SBI1011,"55.409775,37.918968",0,21,137
1622368830,2021-05-30T10:00:30Z,SBI1011,"55.406708,37.922684",0,26,146
1622368860,2021-05-30T10:01:00Z,SBI1011,"55.403606,37.926399",0,27,146
1622368865,2021-05-30T10:01:05Z,SBI1011,"55.403065,37.927052",0,27,146
1622368873,2021-05-30T10:01:13Z,SBI1011,"55.402279,37.927994",0,27,146
1622368878,2021-05-30T10:01:18Z,SBI1011,"55.401649,37.928741",0,28,146
1622368884,2021-05-30T10:01:24Z,SBI1011,"55.401066,37.929451",0,28,146
1622369057,2021-05-30T10:04:17Z,SBI1011,"55.406158,37.92836",500,112,325
1622369071,2021-05-30T10:04:31Z,SBI1011,"55.413876,37.919064",525,162,326
1622369079,2021-05-30T10:04:39Z,SBI1011,"55.419159,37.912849",925,156,326
1622369085,2021-05-30T10:04:45Z,SBI1011,"55.422905,37.909325",1200,155,334
1622369088,2021-05-30T10:04:48Z,SBI1011,"55.424881,37.908081",1350,151,341
1622369091,2021-05-30T10:04:51Z,SBI1011,"55.427032,37.906872",1500,149,343
1622369094,2021-05-30T10:04:54Z,SBI1011,"55.428864,37.905663",1625,150,340
1622369103,2021-05-30T10:05:03Z,SBI1011,"55.434917,37.901249",1875,160,337
1622369109,2021-05-30T10:05:09Z,SBI1011,"55.439072,37.898228",2025,167,337
1622369112,2021-05-30T10:05:12Z,SBI1011,"55.441387,37.896591",2100,170,338
1622369126,2021-05-30T10:05:26Z,SBI1011,"55.452255,37.889267",2400,186,338
1622369133,2021-05-30T10:05:33Z,SBI1011,"55.457382,37.885685",2475,194,337
1622369158,2021-05-30T10:05:58Z,SBI1011,"55.480446,37.868671",3075,226,336
1622369166,2021-05-30T10:06:06Z,SBI1011,"55.488358,37.862579",3300,231,336
1622369176,2021-05-30T10:06:16Z,SBI1011,"55.498123,37.855141",3650,229,336
1622369188,2021-05-30T10:06:28Z,SBI1011,"55.510284,37.845924",4100,241,336
1622369194,2021-05-30T10:06:34Z,SBI1011,"55.516754,37.841118",4275,248,337
1622369205,2021-05-30T10:06:45Z,SBI1011,"55.528885,37.832169",4650,256,337
1622369212,2021-05-30T10:06:52Z,SBI1011,"55.536346,37.826675",5025,256,337
1622369224,2021-05-30T10:07:04Z,SBI1011,"55.549393,37.81702",5725,257,337
1622369236,2021-05-30T10:07:16Z,SBI1011,"55.563168,37.807129",6150,266,339
1622369242,2021-05-30T10:07:22Z,SBI1011,"55.569592,37.804214",6375,267,348
1622369248,2021-05-30T10:07:28Z,SBI1011,"55.577545,37.802872",6675,267,358
1622369250,2021-05-30T10:07:30Z,SBI1011,"55.580017,37.80304",6750,268,1
1622369253,2021-05-30T10:07:33Z,SBI1011,"55.583862,37.803707",6825,269,4
1622369254,2021-05-30T10:07:34Z,SBI1011,"55.584595,37.803955",6850,270,8
1622369256,2021-05-30T10:07:36Z,SBI1011,"55.5867,37.804703",6875,272,10
1622369257,2021-05-30T10:07:37Z,SBI1011,"55.58844,37.805454",6925,273,12
1622369259,2021-05-30T10:07:39Z,SBI1011,"55.590355,37.806618",6950,275,16
1622369263,2021-05-30T10:07:43Z,SBI1011,"55.595535,37.810612",7075,279,26
1622369264,2021-05-30T10:07:44Z,SBI1011,"55.59613,37.811111",7075,279,26
1622369268,2021-05-30T10:07:48Z,SBI1011,"55.60162,37.816315",7250,282,29
1622369269,2021-05-30T10:07:49Z,SBI1011,"55.602318,37.817001",7275,282,29
1622369271,2021-05-30T10:07:51Z,SBI1011,"55.60524,37.819935",7375,283,30
1622369272,2021-05-30T10:07:52Z,SBI1011,"55.605698,37.820435",7400,283,30
1622369274,2021-05-30T10:07:54Z,SBI1011,"55.607952,37.822838",7475,284,30
1622369277,2021-05-30T10:07:57Z,SBI1011,"55.611832,37.826843",7625,286,30
1622369279,2021-05-30T10:07:59Z,SBI1011,"55.613537,37.828674",7675,287,30
1622369280,2021-05-30T10:08:00Z,SBI1011,"55.615356,37.830589",7725,287,30
1622369282,2021-05-30T10:08:02Z,SBI1011,"55.617077,37.832451",7800,289,30
1622369283,2021-05-30T10:08:03Z,SBI1011,"55.617775,37.833138",7825,289,30
1622369285,2021-05-30T10:08:05Z,SBI1011,"55.620987,37.836582",7925,290,31
1622369287,2021-05-30T10:08:07Z,SBI1011,"55.622849,37.838547",8000,292,30
1622369288,2021-05-30T10:08:08Z,SBI1011,"55.624012,37.839745",8050,292,30
1622369300,2021-05-30T10:08:20Z,SBI1011,"55.638382,37.854725",8550,297,29
1622369312,2021-05-30T10:08:32Z,SBI1011,"55.653717,37.864712",9000,303,12
1622369314,2021-05-30T10:08:34Z,SBI1011,"55.656052,37.865463",9075,305,9
1622369315,2021-05-30T10:08:35Z,SBI1011,"55.65802,37.865963",9125,304,7
1622369318,2021-05-30T10:08:38Z,SBI1011,"55.662369,37.866543",9275,306,4
1622369324,2021-05-30T10:08:44Z,SBI1011,"55.6707,37.866879",9550,306,1
1622369329,2021-05-30T10:08:49Z,SBI1011,"55.67807,37.866879",9825,306,359
1622369332,2021-05-30T10:08:52Z,SBI1011,"55.681736,37.866867",9950,306,359
1622369337,2021-05-30T10:08:57Z,SBI1011,"55.688999,37.866783",10175,308,359
1622369339,2021-05-30T10:08:59Z,SBI1011,"55.691986,37.866711",10250,309,359
1622369342,2021-05-30T10:09:02Z,SBI1011,"55.696152,37.866627",10350,311,359
1622369344,2021-05-30T10:09:04Z,SBI1011,"55.699448,37.866627",10425,313,359
1622369357,2021-05-30T10:09:17Z,SBI1011,"55.718399,37.866295",10725,326,359
1622369369,2021-05-30T10:09:29Z,SBI1011,"55.735924,37.866013",11000,332,359
1622369380,2021-05-30T10:09:40Z,SBI1011,"55.753418,37.865795",11225,333,359
1622369391,2021-05-30T10:09:51Z,SBI1011,"55.770584,37.865627",11475,335,359
1622369406,2021-05-30T10:10:06Z,SBI1011,"55.793415,37.86541",11825,334,359
1622369418,2021-05-30T10:10:18Z,SBI1011,"55.812828,37.86515",12125,334,359
1622369440,2021-05-30T10:10:40Z,SBI1011,"55.846161,37.861881",12650,340,348
1622369442,2021-05-30T10:10:42Z,SBI1011,"55.849838,37.86026",12700,341,346
1622369446,2021-05-30T10:10:46Z,SBI1011,"55.854996,37.857471",12775,343,342
1622369448,2021-05-30T10:10:48Z,SBI1011,"55.858978,37.854641",12850,344,338
1622369449,2021-05-30T10:10:49Z,SBI1011,"55.859707,37.85408",12850,345,336
1622369451,2021-05-30T10:10:51Z,SBI1011,"55.86319,37.851147",12900,345,334
1622369452,2021-05-30T10:10:52Z,SBI1011,"55.864689,37.849617",12925,345,332
1622369455,2021-05-30T10:10:55Z,SBI1011,"55.868271,37.845821",12975,347,328
1622369461,2021-05-30T10:11:01Z,SBI1011,"55.876328,37.834499",13150,348,318
1622369462,2021-05-30T10:11:02Z,SBI1011,"55.877472,37.832504",13200,348,321
1622369463,2021-05-30T10:11:03Z,SBI1011,"55.878513,37.83065",13225,348,315
1622369464,2021-05-30T10:11:04Z,SBI1011,"55.879486,37.828758",13250,348,313
1622369466,2021-05-30T10:11:06Z,SBI1011,"55.881771,37.824039",13325,348,310
1622369468,2021-05-30T10:11:08Z,SBI1011,"55.88298,37.821381",13375,348,308
1622369469,2021-05-30T10:11:09Z,SBI1011,"55.884705,37.817604",13450,347,308
1622369470,2021-05-30T10:11:10Z,SBI1011,"55.885574,37.815525",13475,347,307
1622369472,2021-05-30T10:11:12Z,SBI1011,"55.887543,37.811081",13550,347,307
1622369473,2021-05-30T10:11:13Z,SBI1011,"55.888412,37.809032",13600,346,307
1622369478,2021-05-30T10:11:18Z,SBI1011,"55.89299,37.798378",13800,345,307
1622369479,2021-05-30T10:11:19Z,SBI1011,"55.894043,37.795883",13825,345,307
1622369481,2021-05-30T10:11:21Z,SBI1011,"55.896423,37.790222",13925,345,307
1622369482,2021-05-30T10:11:22Z,SBI1011,"55.897461,37.787735",13975,346,307
1622369485,2021-05-30T10:11:25Z,SBI1011,"55.899879,37.781982",14075,346,307
1622369486,2021-05-30T10:11:26Z,SBI1011,"55.90086,37.779751",14100,346,307
1622369488,2021-05-30T10:11:28Z,SBI1011,"55.902767,37.7752",14175,346,307
1622369500,2021-05-30T10:11:40Z,SBI1011,"55.913193,37.74585",14575,346,297
1622369501,2021-05-30T10:11:41Z,SBI1011,"55.913612,37.744301",14600,346,297
1622369503,2021-05-30T10:11:43Z,SBI1011,"55.915375,37.737621",14675,344,294
1622369504,2021-05-30T10:11:44Z,SBI1011,"55.915649,37.736622",14700,344,294
1622369505,2021-05-30T10:11:45Z,SBI1011,"55.916199,37.733627",14725,344,294
1622369507,2021-05-30T10:11:47Z,SBI1011,"55.916965,37.729282",14775,346,288
1622369510,2021-05-30T10:11:50Z,SBI1011,"55.918503,37.721043",14850,347,288
1622369512,2021-05-30T10:11:52Z,SBI1011,"55.919312,37.715233",14900,349,288
1622369513,2021-05-30T10:11:53Z,SBI1011,"55.919621,37.712715",14925,347,286
1622369515,2021-05-30T10:11:55Z,SBI1011,"55.920364,37.706966",14975,342,283
1622369516,2021-05-30T10:11:56Z,SBI1011,"55.920689,37.70422",15000,342,282
1622369519,2021-05-30T10:11:59Z,SBI1011,"55.921967,37.69434",15100,342,282
1622369521,2021-05-30T10:12:01Z,SBI1011,"55.922424,37.690182",15150,343,282
1622369522,2021-05-30T10:12:02Z,SBI1011,"55.922737,37.687653",15175,343,282
1622369524,2021-05-30T10:12:04Z,SBI1011,"55.923386,37.682106",15225,342,281
1622369525,2021-05-30T10:12:05Z,SBI1011,"55.923935,37.677696",15250,345,281
1622369527,2021-05-30T10:12:07Z,SBI1011,"55.924412,37.673233",15300,345,281
1622369529,2021-05-30T10:12:09Z,SBI1011,"55.924927,37.66877",15350,345,281
1622369533,2021-05-30T10:12:13Z,SBI1011,"55.926323,37.656498",15450,346,281
1622369536,2021-05-30T10:12:16Z,SBI1011,"55.927277,37.648067",15525,347,281
1622369566,2021-05-30T10:12:46Z,SBI1011,"55.936844,37.561508",16000,351,281
1622369609,2021-05-30T10:13:29Z,SBI1011,"55.949879,37.442696",16000,350,281
1622369640,2021-05-30T10:14:00Z,SBI1011,"55.959595,37.354515",16100,350,282
1622369652,2021-05-30T10:14:12Z,SBI1011,"55.965847,37.321415",16400,356,293
1622369657,2021-05-30T10:14:17Z,SBI1011,"55.970306,37.306656",16575,359,300
1622369658,2021-05-30T10:14:18Z,SBI1011,"55.970734,37.305367",16600,359,301
1622369659,2021-05-30T10:14:19Z,SBI1011,"55.971943,37.302101",16650,360,302
1622369662,2021-05-30T10:14:22Z,SBI1011,"55.974922,37.294548",16725,362,306
1622369663,2021-05-30T10:14:23Z,SBI1011,"55.975948,37.292233",16775,362,306
1622369665,2021-05-30T10:14:25Z,SBI1011,"55.97818,37.287338",16825,363,309
1622369667,2021-05-30T10:14:27Z,SBI1011,"55.979416,37.284851",16850,365,310
1622369668,2021-05-30T10:14:28Z,SBI1011,"55.981487,37.280903",16900,366,312
1622369670,2021-05-30T10:14:30Z,SBI1011,"55.983032,37.278111",16925,367,314
1622369672,2021-05-30T10:14:32Z,SBI1011,"55.985443,37.273781",17000,369,315
1622369679,2021-05-30T10:14:39Z,SBI1011,"55.994011,37.25893",17200,369,316
1622369681,2021-05-30T10:14:41Z,SBI1011,"55.996719,37.254307",17275,369,316
1622369687,2021-05-30T10:14:47Z,SBI1011,"56.004181,37.241573",17450,373,316
1622369688,2021-05-30T10:14:48Z,SBI1011,"56.005188,37.239822",17450,374,316
1622369722,2021-05-30T10:15:22Z,SBI1011,"56.047806,37.166248",18650,378,315
1622369781,2021-05-30T10:16:21Z,SBI1011,"56.122833,37.03566",20550,386,315
1622369843,2021-05-30T10:17:23Z,SBI1011,"56.2034,36.894493",22100,401,315
1622369905,2021-05-30T10:18:25Z,SBI1011,"56.286072,36.749268",23750,410,315
1622369966,2021-05-30T10:19:26Z,SBI1011,"56.36998,36.60062",25050,423,315
1622370027,2021-05-30T10:20:27Z,SBI1011,"56.454971,36.449287",26575,426,315
1622370089,2021-05-30T10:21:29Z,SBI1011,"56.543564,36.290257",27675,438,315
1622370149,2021-05-30T10:22:29Z,SBI1011,"56.629959,36.134388",29175,434,315
1622370212,2021-05-30T10:23:32Z,SBI1011,"56.718887,35.972588",30025,444,315
1622370273,2021-05-30T10:24:33Z,SBI1011,"56.8083,35.809052",31175,444,314
1622370335,2021-05-30T10:25:35Z,SBI1011,"56.897541,35.64452",32325,441,314
1622370397,2021-05-30T10:26:37Z,SBI1011,"56.985489,35.480949",33400,440,314
1622370460,2021-05-30T10:27:40Z,SBI1011,"57.075119,35.313232",34400,439,314
1622370521,2021-05-30T10:28:41Z,SBI1011,"57.161633,35.150227",35100,443,314
1622370583,2021-05-30T10:29:43Z,SBI1011,"57.25058,34.981239",35800,444,314
1622370645,2021-05-30T10:30:45Z,SBI1011,"57.337925,34.814346",36025,442,313
1622370707,2021-05-30T10:31:47Z,SBI1011,"57.426361,34.644012",36000,446,313
1622370768,2021-05-30T10:32:48Z,SBI1011,"57.512421,34.477074",35975,431,313
1622370831,2021-05-30T10:33:51Z,SBI1011,"57.598755,34.308243",36000,436,313
1622370895,2021-05-30T10:34:55Z,SBI1011,"57.687019,34.134346",36000,444,313
1622370955,2021-05-30T10:35:55Z,SBI1011,"57.772861,33.964142",36000,445,313
1622371017,2021-05-30T10:36:57Z,SBI1011,"57.85894,33.793213",36000,446,314
1622371078,2021-05-30T10:37:58Z,SBI1011,"57.955582,33.639694",36000,448,321
1622371138,2021-05-30T10:38:58Z,SBI1011,"58.052223,33.492004",36000,449,320
1622371200,2021-05-30T10:40:00Z,SBI1011,"58.152328,33.3381",36025,447,320
1622371264,2021-05-30T10:41:04Z,SBI1011,"58.253357,33.181725",35975,446,320
1622371325,2021-05-30T10:42:05Z,SBI1011,"58.350346,33.03067",36000,446,320
1622371388,2021-05-30T10:43:08Z,SBI1011,"58.450058,32.874107",36025,441,320
1622371449,2021-05-30T10:44:09Z,SBI1011,"58.545444,32.723328",35975,440,320
1622371511,2021-05-30T10:45:11Z,SBI1011,"58.643463,32.566933",35450,438,320
1622371573,2021-05-30T10:46:13Z,SBI1011,"58.739548,32.41259",34475,435,319
1622371634,2021-05-30T10:47:14Z,SBI1011,"58.832951,32.261261",32625,429,319
1622371695,2021-05-30T10:48:15Z,SBI1011,"58.923077,32.114079",30425,413,319
1622371757,2021-05-30T10:49:17Z,SBI1011,"59.010502,31.970879",28300,395,319
1622371821,2021-05-30T10:50:21Z,SBI1011,"59.097416,31.823793",26175,384,314
1622371834,2021-05-30T10:50:34Z,SBI1011,"59.112579,31.790222",25800,387,309
1622371835,2021-05-30T10:50:35Z,SBI1011,"59.113678,31.787476",25750,387,308
1622371837,2021-05-30T10:50:37Z,SBI1011,"59.11647,31.780609",25700,388,307
1622371839,2021-05-30T10:50:39Z,SBI1011,"59.118393,31.775665",25650,388,307
1622371840,2021-05-30T10:50:40Z,SBI1011,"59.119389,31.773125",25600,388,306
1622371841,2021-05-30T10:50:41Z,SBI1011,"59.120132,31.771135",25600,388,306
1622371903,2021-05-30T10:51:43Z,SBI1011,"59.180744,31.595448",24025,360,303
1622371965,2021-05-30T10:52:45Z,SBI1011,"59.235489,31.435638",22350,341,303
1622372026,2021-05-30T10:53:46Z,SBI1011,"59.287811,31.281372",20650,331,303
1622372087,2021-05-30T10:54:47Z,SBI1011,"59.338928,31.129856",19125,325,303
1622372147,2021-05-30T10:55:47Z,SBI1011,"59.387341,30.98514",17675,320,303
1622372179,2021-05-30T10:56:19Z,SBI1011,"59.412689,30.908844",16900,311,303
1622372218,2021-05-30T10:56:58Z,SBI1011,"59.443901,30.815136",15975,310,303
1622372249,2021-05-30T10:57:29Z,SBI1011,"59.467087,30.744955",15300,307,302
1622372280,2021-05-30T10:58:00Z,SBI1011,"59.491013,30.67218",14575,302,302
1622372312,2021-05-30T10:58:32Z,SBI1011,"59.515312,30.598438",13850,300,303
1622372344,2021-05-30T10:59:04Z,SBI1011,"59.539124,30.525513",13275,286,302
1622372357,2021-05-30T10:59:17Z,SBI1011,"59.546951,30.494293",13100,282,291
1622372360,2021-05-30T10:59:20Z,SBI1011,"59.54818,30.487345",13050,280,288
1622372361,2021-05-30T10:59:21Z,SBI1011,"59.548553,30.484863",13050,280,288
1622372363,2021-05-30T10:59:23Z,SBI1011,"59.549332,30.480011",13025,279,287
1622372367,2021-05-30T10:59:27Z,SBI1011,"59.550842,30.470398",12975,276,286
1622372369,2021-05-30T10:59:29Z,SBI1011,"59.551575,30.465637",12950,274,286
1622372370,2021-05-30T10:59:30Z,SBI1011,"59.551941,30.463257",12925,274,286
1622372372,2021-05-30T10:59:32Z,SBI1011,"59.552368,30.460352",12925,273,286
1622372375,2021-05-30T10:59:35Z,SBI1011,"59.553726,30.451355",12875,271,286
1622372376,2021-05-30T10:59:36Z,SBI1011,"59.554047,30.449272",12850,270,286
1622372379,2021-05-30T10:59:39Z,SBI1011,"59.555145,30.4422",12800,269,286
1622372411,2021-05-30T11:00:11Z,SBI1011,"59.566799,30.366684",12025,265,286
1622372447,2021-05-30T11:00:47Z,SBI1011,"59.579231,30.285139",11075,262,286
1622372463,2021-05-30T11:01:03Z,SBI1011,"59.584629,30.249149",10650,262,286
1622372475,2021-05-30T11:01:15Z,SBI1011,"59.588867,30.220831",10400,259,286
1622372490,2021-05-30T11:01:30Z,SBI1011,"59.5938,30.187872",10050,258,286
1622372505,2021-05-30T11:01:45Z,SBI1011,"59.598907,30.153534",9600,259,286
1622372517,2021-05-30T11:01:57Z,SBI1011,"59.60302,30.12631",9275,260,286
1622372532,2021-05-30T11:02:12Z,SBI1011,"59.608017,30.092468",9025,254,286
1622372545,2021-05-30T11:02:25Z,SBI1011,"59.61219,30.064655",9025,255,286
1622372556,2021-05-30T11:02:36Z,SBI1011,"59.616055,30.038515",9000,258,286
1622372574,2021-05-30T11:02:54Z,SBI1011,"59.622059,29.99798",9000,257,286
1622372587,2021-05-30T11:03:07Z,SBI1011,"59.626247,29.969662",8925,257,286
1622372598,2021-05-30T11:03:18Z,SBI1011,"59.630127,29.943237",8725,255,286
1622372627,2021-05-30T11:03:47Z,SBI1011,"59.639374,29.88035",8175,250,286
1622372642,2021-05-30T11:04:02Z,SBI1011,"59.644218,29.847391",7850,249,286
1622372653,2021-05-30T11:04:13Z,SBI1011,"59.647709,29.823429",7525,250,286
1622372666,2021-05-30T11:04:26Z,SBI1011,"59.652008,29.794098",7200,250,286
1622372676,2021-05-30T11:04:36Z,SBI1011,"59.655205,29.772285",7050,247,285
1622372689,2021-05-30T11:04:49Z,SBI1011,"59.659058,29.74585",6850,244,286
1622372701,2021-05-30T11:05:01Z,SBI1011,"59.66272,29.720398",6625,240,286
1622372711,2021-05-30T11:05:11Z,SBI1011,"59.665878,29.698608",6350,241,285
1622372743,2021-05-30T11:05:43Z,SBI1011,"59.675858,29.630402",5450,245,286
1622372755,2021-05-30T11:05:55Z,SBI1011,"59.679611,29.604675",5225,243,285
1622372763,2021-05-30T11:06:03Z,SBI1011,"59.683136,29.587603",5050,240,296
1622372764,2021-05-30T11:06:04Z,SBI1011,"59.68346,29.586466",5025,239,298
1622372766,2021-05-30T11:06:06Z,SBI1011,"59.684784,29.582153",4975,238,301
1622372770,2021-05-30T11:06:10Z,SBI1011,"59.687092,29.575668",4925,236,306
1622372773,2021-05-30T11:06:13Z,SBI1011,"59.689316,29.569794",4875,234,307
1622372776,2021-05-30T11:06:16Z,SBI1011,"59.690918,29.565765",4850,234,307
1622372779,2021-05-30T11:06:19Z,SBI1011,"59.693657,29.558905",4800,233,308
1622372785,2021-05-30T11:06:25Z,SBI1011,"59.697472,29.549244",4700,232,308
1622372789,2021-05-30T11:06:29Z,SBI1011,"59.699429,29.544226",4675,230,308
1622372791,2021-05-30T11:06:31Z,SBI1011,"59.700989,29.540314",4650,228,307
1622372797,2021-05-30T11:06:37Z,SBI1011,"59.704922,29.530302",4575,226,307
1622372804,2021-05-30T11:06:44Z,SBI1011,"59.709,29.519806",4550,222,307
1622372812,2021-05-30T11:06:52Z,SBI1011,"59.714417,29.506058",4500,220,308
1622372821,2021-05-30T11:07:01Z,SBI1011,"59.71994,29.492157",4400,215,308
1622372828,2021-05-30T11:07:08Z,SBI1011,"59.724102,29.481907",4325,211,309
1622372839,2021-05-30T11:07:19Z,SBI1011,"59.73262,29.468811",4175,203,331
1622372843,2021-05-30T11:07:23Z,SBI1011,"59.735596,29.466064",4100,200,335
1622372845,2021-05-30T11:07:25Z,SBI1011,"59.737694,29.464291",4075,199,337
1622372848,2021-05-30T11:07:28Z,SBI1011,"59.740395,29.462112",4025,197,338
1622372849,2021-05-30T11:07:29Z,SBI1011,"59.740719,29.461828",4000,197,338
1622372851,2021-05-30T11:07:31Z,SBI1011,"59.743374,29.459839",3950,196,339
1622372855,2021-05-30T11:07:35Z,SBI1011,"59.745941,29.457916",3900,196,339
1622372863,2021-05-30T11:07:43Z,SBI1011,"59.753101,29.452547",3775,195,339
1622372881,2021-05-30T11:08:01Z,SBI1011,"59.767822,29.441437",3625,190,339
1622372887,2021-05-30T11:08:07Z,SBI1011,"59.772949,29.437592",3550,190,339
1622372893,2021-05-30T11:08:13Z,SBI1011,"59.777756,29.434021",3500,188,339
1622372899,2021-05-30T11:08:19Z,SBI1011,"59.782928,29.430267",3475,188,339
1622372909,2021-05-30T11:08:29Z,SBI1011,"59.791229,29.426596",3400,191,354
1622372912,2021-05-30T11:08:32Z,SBI1011,"59.793915,29.42688",3375,192,4
1622372915,2021-05-30T11:08:35Z,SBI1011,"59.7957,29.427429",3375,193,6
1622372918,2021-05-30T11:08:38Z,SBI1011,"59.798538,29.428986",3350,191,18
1622372924,2021-05-30T11:08:44Z,SBI1011,"59.803299,29.433929",3250,189,34
1622372927,2021-05-30T11:08:47Z,SBI1011,"59.805519,29.437866",3250,189,44
1622372930,2021-05-30T11:08:50Z,SBI1011,"59.806915,29.441086",3225,188,48
1622372933,2021-05-30T11:08:53Z,SBI1011,"59.808472,29.44574",3200,190,59
1622372936,2021-05-30T11:08:56Z,SBI1011,"59.809479,29.449951",3200,190,67
1622372939,2021-05-30T11:08:59Z,SBI1011,"59.810268,29.455009",3175,192,74
1622372942,2021-05-30T11:09:02Z,SBI1011,"59.810825,29.460407",3150,193,80
1622372943,2021-05-30T11:09:03Z,SBI1011,"59.811081,29.462952",3150,194,80
1622372945,2021-05-30T11:09:05Z,SBI1011,"59.811386,29.466846",3150,195,81
1622372948,2021-05-30T11:09:08Z,SBI1011,"59.811722,29.472198",3125,194,83
1622372951,2021-05-30T11:09:11Z,SBI1011,"59.812038,29.477551",3100,196,83
1622372964,2021-05-30T11:09:24Z,SBI1011,"59.813435,29.498955",3000,192,81
1622372973,2021-05-30T11:09:33Z,SBI1011,"59.814697,29.514221",2975,188,79
1622372978,2021-05-30T11:09:38Z,SBI1011,"59.815704,29.523926",2950,187,78
1622372981,2021-05-30T11:09:41Z,SBI1011,"59.816116,29.528137",2925,187,78
1622372993,2021-05-30T11:09:53Z,SBI1011,"59.818268,29.549377",2875,186,78
1622373000,2021-05-30T11:10:00Z,SBI1011,"59.819302,29.559948",2875,190,79
1622373008,2021-05-30T11:10:08Z,SBI1011,"59.820648,29.575012",2800,195,80
1622373014,2021-05-30T11:10:14Z,SBI1011,"59.821564,29.585999",2750,196,80
1622373023,2021-05-30T11:10:23Z,SBI1011,"59.822792,29.600767",2700,190,80
1622373029,2021-05-30T11:10:29Z,SBI1011,"59.823715,29.610535",2675,189,79
1622373035,2021-05-30T11:10:35Z,SBI1011,"59.824795,29.621792",2650,185,79
1622373044,2021-05-30T11:10:44Z,SBI1011,"59.826096,29.636189",2600,181,80
1622373049,2021-05-30T11:10:49Z,SBI1011,"59.82692,29.645691",2650,175,79
1622373059,2021-05-30T11:10:59Z,SBI1011,"59.828201,29.659882",2650,173,80
1622373068,2021-05-30T11:11:08Z,SBI1011,"59.829483,29.674255",2625,175,79
1622373081,2021-05-30T11:11:21Z,SBI1011,"59.831268,29.694763",2575,173,80
1622373089,2021-05-30T11:11:29Z,SBI1011,"59.832413,29.707397",2525,170,79
1622373099,2021-05-30T11:11:39Z,SBI1011,"59.833683,29.722374",2475,169,80
1622373105,2021-05-30T11:11:45Z,SBI1011,"59.834431,29.731655",2475,176,81
1622373111,2021-05-30T11:11:51Z,SBI1011,"59.835159,29.740997",2400,174,81
1622373125,2021-05-30T11:12:05Z,SBI1011,"59.836945,29.763573",2325,169,80
1622373135,2021-05-30T11:12:15Z,SBI1011,"59.838245,29.7792",2300,171,80
1622373143,2021-05-30T11:12:23Z,SBI1011,"59.839272,29.791702",2275,175,80
1622373149,2021-05-30T11:12:29Z,SBI1011,"59.840015,29.801079",2250,176,80
1622373159,2021-05-30T11:12:39Z,SBI1011,"59.841274,29.815947",2175,177,80
1622373165,2021-05-30T11:12:45Z,SBI1011,"59.842205,29.826176",2175,178,80
1622373173,2021-05-30T11:12:53Z,SBI1011,"59.843307,29.8396",2150,174,80
1622373180,2021-05-30T11:13:00Z,SBI1011,"59.844204,29.850517",2150,174,80
1622373186,2021-05-30T11:13:06Z,SBI1011,"59.845001,29.860291",2150,172,80
1622373200,2021-05-30T11:13:20Z,SBI1011,"59.846767,29.881392",2150,164,80
1622373207,2021-05-30T11:13:27Z,SBI1011,"59.847519,29.890686",2150,162,81
1622373219,2021-05-30T11:13:39Z,SBI1011,"59.848984,29.908081",2150,161,80
1622373229,2021-05-30T11:13:49Z,SBI1011,"59.850174,29.922546",2150,158,81
1622373235,2021-05-30T11:13:55Z,SBI1011,"59.85091,29.931114",2175,160,80
1622373241,2021-05-30T11:14:01Z,SBI1011,"59.851501,29.940033",2150,162,83
1622373244,2021-05-30T11:14:04Z,SBI1011,"59.851593,29.944977",2150,163,86
1622373246,2021-05-30T11:14:06Z,SBI1011,"59.851547,29.947449",2150,162,88
1622373250,2021-05-30T11:14:10Z,SBI1011,"59.851326,29.953276",2150,162,88
1622373253,2021-05-30T11:14:13Z,SBI1011,"59.851044,29.957794",2150,156,97
1622373256,2021-05-30T11:14:16Z,SBI1011,"59.850677,29.961914",2150,157,99
1622373258,2021-05-30T11:14:18Z,SBI1011,"59.850445,29.964642",2175,157,99
1622373259,2021-05-30T11:14:19Z,SBI1011,"59.850304,29.966158",2150,157,99
1622373265,2021-05-30T11:14:25Z,SBI1011,"59.849327,29.974871",2150,159,103
1622373268,2021-05-30T11:14:28Z,SBI1011,"59.848812,29.979227",2150,160,104
1622373270,2021-05-30T11:14:30Z,SBI1011,"59.848442,29.981974",2150,161,104
1622373271,2021-05-30T11:14:31Z,SBI1011,"59.848297,29.983246",2150,162,104
1622373275,2021-05-30T11:14:35Z,SBI1011,"59.847557,29.988697",2150,161,105
1622373278,2021-05-30T11:14:38Z,SBI1011,"59.846924,29.993042",2150,162,105
1622373280,2021-05-30T11:14:40Z,SBI1011,"59.846485,29.996464",2150,161,105
1622373283,2021-05-30T11:14:43Z,SBI1011,"59.845917,30.000458",2150,162,105
1622373286,2021-05-30T11:14:46Z,SBI1011,"59.84523,30.005127",2150,160,105
1622373289,2021-05-30T11:14:49Z,SBI1011,"59.844624,30.009535",2125,159,106
1622373297,2021-05-30T11:14:57Z,SBI1011,"59.842995,30.019953",2100,153,107
1622373303,2021-05-30T11:15:03Z,SBI1011,"59.841797,30.028015",2025,153,106
1622373312,2021-05-30T11:15:12Z,SBI1011,"59.83997,30.0406",1875,155,106
1622373323,2021-05-30T11:15:23Z,SBI1011,"59.83778,30.055658",1700,152,105
1622373331,2021-05-30T11:15:31Z,SBI1011,"59.836166,30.066559",1625,150,106
1622373339,2021-05-30T11:15:39Z,SBI1011,"59.834747,30.07608",1525,147,106
1622373350,2021-05-30T11:15:50Z,SBI1011,"59.832565,30.090889",1375,145,106
1622373358,2021-05-30T11:15:58Z,SBI1011,"59.831039,30.101166",1250,142,106
1622373368,2021-05-30T11:16:08Z,SBI1011,"59.829262,30.113621",1150,140,106
1622373374,2021-05-30T11:16:14Z,SBI1011,"59.828201,30.12085",1050,139,106
1622373385,2021-05-30T11:16:25Z,SBI1011,"59.82637,30.133209",900,130,105
1622373390,2021-05-30T11:16:30Z,SBI1011,"59.825352,30.139854",875,133,107
1622373396,2021-05-30T11:16:36Z,SBI1011,"59.82428,30.146957",800,135,105
1622373406,2021-05-30T11:16:46Z,SBI1011,"59.822662,30.158112",675,137,106
1622373413,2021-05-30T11:16:53Z,SBI1011,"59.821381,30.166809",575,136,106
1622373421,2021-05-30T11:17:01Z,SBI1011,"59.82,30.176033",450,136,106
1622373428,2021-05-30T11:17:08Z,SBI1011,"59.81868,30.184753",375,131,106
1622373435,2021-05-30T11:17:15Z,SBI1011,"59.817436,30.193081",300,132,106
1622373448,2021-05-30T11:17:28Z,SBI1011,"59.815338,30.207733",150,133,105
1622373452,2021-05-30T11:17:32Z,SBI1011,"59.814514,30.213409",100,135,105
1622373483,2021-05-30T11:18:03Z,SBI1011,"59.809196,30.249149",0,133,106
1622373490,2021-05-30T11:18:10Z,SBI1011,"59.807968,30.257263",0,127,105
1622373499,2021-05-30T11:18:19Z,SBI1011,"59.806625,30.266363",0,86,106
1622373507,2021-05-30T11:18:27Z,SBI1011,"59.805897,30.271271",0,70,106
1622373516,2021-05-30T11:18:36Z,SBI1011,"59.805267,30.275711",0,41,106
1622373522,2021-05-30T11:18:42Z,SBI1011,"59.804996,30.277468",0,26,106
1622373528,2021-05-30T11:18:48Z,SBI1011,"59.804821,30.278509",0,14,112
1622373537,2021-05-30T11:18:57Z,SBI1011,"59.804512,30.278526",0,10,196
1622373541,2021-05-30T11:19:01Z,SBI1011,"59.804432,30.278252",0,9,233
1622373550,2021-05-30T11:19:10Z,SBI1011,"59.80431,30.277515",0,9,250
1622373553,2021-05-30T11:19:13Z,SBI1011,"59.804264,30.277254",0,10,250
1622373556,2021-05-30T11:19:16Z,SBI1011,"59.804214,30.277016",0,10,250
1622373567,2021-05-30T11:19:27Z,SBI1011,"59.804054,30.276024",0,10,250
1622373570,2021-05-30T11:19:30Z,SBI1011,"59.804008,30.275715",0,11,250
1622373578,2021-05-30T11:19:38Z,SBI1011,"59.803883,30.274956",0,11,250
1622373584,2021-05-30T11:19:44Z,SBI1011,"59.803787,30.274389",0,11,253
1622373590,2021-05-30T11:19:50Z,SBI1011,"59.803688,30.273766",0,12,253
1622373596,2021-05-30T11:19:56Z,SBI1011,"59.803577,30.273159",0,12,250
1622373602,2021-05-30T11:20:02Z,SBI1011,"59.803471,30.272484",0,12,255
1622373608,2021-05-30T11:20:08Z,SBI1011,"59.803493,30.271809",0,13,278
1622373612,2021-05-30T11:20:12Z,SBI1011,"59.803574,30.271362",0,13,286
1622373614,2021-05-30T11:20:14Z,SBI1011,"59.803596,30.271133",0,13,286
1622373616,2021-05-30T11:20:16Z,SBI1011,"59.803635,30.270885",0,13,286
1622373618,2021-05-30T11:20:18Z,SBI1011,"59.803665,30.27063",0,13,286
1622373620,2021-05-30T11:20:20Z,SBI1011,"59.803699,30.270424",0,13,286
1622373624,2021-05-30T11:20:24Z,SBI1011,"59.803776,30.269892",0,14,286
1622373626,2021-05-30T11:20:26Z,SBI1011,"59.803814,30.269669",0,14,286
1622373629,2021-05-30T11:20:29Z,SBI1011,"59.803867,30.269299",0,14,286
1622373632,2021-05-30T11:20:32Z,SBI1011,"59.803894,30.269028",0,10,281
1622373635,2021-05-30T11:20:35Z,SBI1011,"59.803856,30.268803",0,9,261
1622373638,2021-05-30T11:20:38Z,SBI1011,"59.803745,30.268593",0,10,230
1622373644,2021-05-30T11:20:44Z,SBI1011,"59.803509,30.268471",0,10,199
1622373650,2021-05-30T11:20:50Z,SBI1011,"59.803253,30.268318",0,10,196
1622373655,2021-05-30T11:20:55Z,SBI1011,"59.803024,30.268181",0,10,196
1622373660,2021-05-30T11:21:00Z,SBI1011,"59.802784,30.268044",0,10,196
1622373665,2021-05-30T11:21:05Z,SBI1011,"59.802555,30.267906",0,10,196
1622373671,2021-05-30T11:21:11Z,SBI1011,"59.802273,30.267736",0,11,196
1622373677,2021-05-30T11:21:17Z,SBI1011,"59.80196,30.26757",0,12,196
1622373684,2021-05-30T11:21:24Z,SBI1011,"59.801609,30.267357",0,12,196
1622373690,2021-05-30T11:21:30Z,SBI1011,"59.801273,30.267168",0,13,196
1622373696,2021-05-30T11:21:36Z,SBI1011,"59.800907,30.266945",0,13,196
1622373702,2021-05-30T11:21:42Z,SBI1011,"59.800575,30.266743",0,14,196
1622373708,2021-05-30T11:21:48Z,SBI1011,"59.800198,30.266533",0,14,196
1622373715,2021-05-30T11:21:55Z,SBI1011,"59.79977,30.266268",0,15,196
1622373721,2021-05-30T11:22:01Z,SBI1011,"59.799408,30.266052",0,14,196
1622373726,2021-05-30T11:22:06Z,SBI1011,"59.799049,30.265842",0,14,194
1622373732,2021-05-30T11:22:12Z,SBI1011,"59.798733,30.265686",0,12,196
1622373739,2021-05-30T11:22:19Z,SBI1011,"59.798374,30.265463",0,11,196
1622373745,2021-05-30T11:22:25Z,SBI1011,"59.79813,30.265297",0,10,196
1622373751,2021-05-30T11:22:31Z,SBI1011,"59.797874,30.265156",0,8,196
1622373758,2021-05-30T11:22:38Z,SBI1011,"59.797642,30.265108",0,8,180
1622373764,2021-05-30T11:22:44Z,SBI1011,"59.797543,30.265388",0,9,143
1622373770,2021-05-30T11:22:50Z,SBI1011,"59.797512,30.265699",0,5,106
1622373774,2021-05-30T11:22:54Z,SBI1011,"59.797478,30.265913",0,6,106
1622373782,2021-05-30T11:23:02Z,SBI1011,"59.79744,30.266121",0,2,106
1622373793,2021-05-30T11:23:13Z,SBI1011,"59.797428,30.26635",0,5,106
1622373816,2021-05-30T11:23:36Z,SBI1011,"59.797726,30.265091",0,1,106
