Timestamp,UTC,Callsign,Position,Altitude,Speed,Direction
1622109097,2021-05-27T09:51:37Z,SBI1011,"55.411011,37.895298",0,6,253
1622109103,2021-05-27T09:51:43Z,SBI1011,"55.411106,37.894989",0,7,289
1622109108,2021-05-27T09:51:48Z,SBI1011,"55.411186,37.894779",0,7,300
1622109112,2021-05-27T09:51:52Z,SBI1011,"55.411175,37.894531",0,8,275
1622109116,2021-05-27T09:51:56Z,SBI1011,"55.411102,37.894329",0,8,250
1622109124,2021-05-27T09:52:04Z,SBI1011,"55.410919,37.893845",0,9,236
1622109128,2021-05-27T09:52:08Z,SBI1011,"55.410816,37.893593",0,11,236
1622109137,2021-05-27T09:52:17Z,SBI1011,"55.410553,37.893177",0,9,210
1622109142,2021-05-27T09:52:22Z,SBI1011,"55.410324,37.893238",0,10,171
1622109147,2021-05-27T09:52:27Z,SBI1011,"55.410084,37.893543",0,12,146
1622109152,2021-05-27T09:52:32Z,SBI1011,"55.409901,37.893764",0,13,143
1622109155,2021-05-27T09:52:35Z,SBI1011,"55.409706,37.894005",0,14,146
1622109160,2021-05-27T09:52:40Z,SBI1011,"55.409466,37.894291",0,12,146
1622109165,2021-05-27T09:52:45Z,SBI1011,"55.409267,37.894531",0,12,146
1622109170,2021-05-27T09:52:50Z,SBI1011,"55.409035,37.894821",0,11,146
1622109176,2021-05-27T09:52:56Z,SBI1011,"55.408791,37.895119",0,11,146
1622109181,2021-05-27T09:53:01Z,SBI1011,"55.408573,37.895157",0,9,171
1622109198,2021-05-27T09:53:18Z,SBI1011,"55.408138,37.894493",0,6,236
1622109204,2021-05-27T09:53:24Z,SBI1011,"55.408012,37.894169",0,9,236
1622109210,2021-05-27T09:53:30Z,SBI1011,"55.407906,37.893887",0,6,236
1622109223,2021-05-27T09:53:43Z,SBI1011,"55.40765,37.893238",0,8,236
1622109228,2021-05-27T09:53:48Z,SBI1011,"55.407532,37.892918",0,9,236
1622109233,2021-05-27T09:53:53Z,SBI1011,"55.407394,37.8927",0,9,222
1622109244,2021-05-27T09:54:04Z,SBI1011,"55.406914,37.892796",0,11,154
1622109248,2021-05-27T09:54:08Z,SBI1011,"55.406731,37.893009",0,13,146
1622109251,2021-05-27T09:54:11Z,SBI1011,"55.406578,37.893219",0,14,146
1622109256,2021-05-27T09:54:16Z,SBI1011,"55.406277,37.893593",0,16,146
1622109259,2021-05-27T09:54:19Z,SBI1011,"55.406078,37.893806",0,16,146
1622109264,2021-05-27T09:54:24Z,SBI1011,"55.405762,37.894196",0,17,146
1622109270,2021-05-27T09:54:30Z,SBI1011,"55.405323,37.89476",0,19,146
1622109276,2021-05-27T09:54:36Z,SBI1011,"55.404869,37.89526",0,20,146
1622109283,2021-05-27T09:54:43Z,SBI1011,"55.404282,37.895966",0,22,146
1622109291,2021-05-27T09:54:51Z,SBI1011,"55.403564,37.896839",0,21,146
1622109321,2021-05-27T09:55:21Z,SBI1011,"55.400829,37.900127",0,25,146
1622109336,2021-05-27T09:55:36Z,SBI1011,"55.399349,37.901897",0,25,146
1622109345,2021-05-27T09:55:45Z,SBI1011,"55.398491,37.902916",0,24,146
1622109350,2021-05-27T09:55:50Z,SBI1011,"55.397991,37.903519",0,23,146
1622109362,2021-05-27T09:56:02Z,SBI1011,"55.397141,37.904549",0,17,146
1622109369,2021-05-27T09:56:09Z,SBI1011,"55.396767,37.905018",0,11,143
1622109377,2021-05-27T09:56:17Z,SBI1011,"55.39642,37.905434",0,12,146
1622109385,2021-05-27T09:56:25Z,SBI1011,"55.396103,37.905495",0,8,185
1622109390,2021-05-27T09:56:30Z,SBI1011,"55.395988,37.905289",0,8,216
1622109404,2021-05-27T09:56:44Z,SBI1011,"55.395905,37.905037",0,0,241
1622109422,2021-05-27T09:57:02Z,SBI1011,"55.396385,37.905479",0,0,89
1622109488,2021-05-27T09:58:08Z,SBI1011,"55.395916,37.905033",0,0,236
1622109760,2021-05-27T10:02:40Z,SBI1011,"55.395813,37.904793",0,5,236
1622109768,2021-05-27T10:02:48Z,SBI1011,"55.39571,37.904537",0,5,236
1622109774,2021-05-27T10:02:54Z,SBI1011,"55.395615,37.904289",0,6,236
1622109784,2021-05-27T10:03:04Z,SBI1011,"55.395489,37.903893",0,5,239
1622109793,2021-05-27T10:03:13Z,SBI1011,"55.395401,37.903519",0,6,250
1622109800,2021-05-27T10:03:20Z,SBI1011,"55.39539,37.903217",0,5,264
1622109805,2021-05-27T10:03:25Z,SBI1011,"55.395435,37.903015",0,5,281
1622109815,2021-05-27T10:03:35Z,SBI1011,"55.395618,37.902752",0,5,320
1622109862,2021-05-27T10:04:22Z,SBI1011,"55.395596,37.904224",0,0,271
1622109897,2021-05-27T10:04:57Z,SBI1011,"55.395744,37.902603",0,0,271
1622109912,2021-05-27T10:05:12Z,SBI1011,"55.396103,37.902164",0,25,326
1622109939,2021-05-27T10:05:39Z,SBI1011,"55.405609,37.890797",450,140,325
1622109944,2021-05-27T10:05:44Z,SBI1011,"55.408173,37.887726",450,150,325
1622109954,2021-05-27T10:05:54Z,SBI1011,"55.414852,37.879696",575,170,325
1622109969,2021-05-27T10:06:09Z,SBI1011,"55.424194,37.867771",1200,165,319
1622109978,2021-05-27T10:06:18Z,SBI1011,"55.429184,37.859371",1550,164,315
1622109984,2021-05-27T10:06:24Z,SBI1011,"55.432205,37.853798",1775,163,312
1622109990,2021-05-27T10:06:30Z,SBI1011,"55.435272,37.847576",1950,164,310
1622109996,2021-05-27T10:06:36Z,SBI1011,"55.438156,37.841518",2175,164,309
1622110003,2021-05-27T10:06:43Z,SBI1011,"55.441154,37.835083",2375,164,309
1622110008,2021-05-27T10:06:48Z,SBI1011,"55.443947,37.829102",2575,164,309
1622110014,2021-05-27T10:06:54Z,SBI1011,"55.446648,37.823181",2800,164,309
1622110029,2021-05-27T10:07:09Z,SBI1011,"55.453815,37.807991",3300,164,309
1622110043,2021-05-27T10:07:23Z,SBI1011,"55.460815,37.793552",3675,170,312
1622110045,2021-05-27T10:07:25Z,SBI1011,"55.461777,37.791939",3700,174,315
1622110048,2021-05-27T10:07:28Z,SBI1011,"55.463638,37.789192",3725,177,319
1622110049,2021-05-27T10:07:29Z,SBI1011,"55.464706,37.787807",3750,181,322
1622110057,2021-05-27T10:07:37Z,SBI1011,"55.47084,37.782398",3825,191,332
1622110059,2021-05-27T10:07:39Z,SBI1011,"55.473083,37.781315",3875,200,344
1622110060,2021-05-27T10:07:40Z,SBI1011,"55.473557,37.781124",3875,191,332
1622110063,2021-05-27T10:07:43Z,SBI1011,"55.476379,37.780567",3900,208,353
1622110069,2021-05-27T10:07:49Z,SBI1011,"55.482212,37.780609",4000,217,2
1622110072,2021-05-27T10:07:52Z,SBI1011,"55.485489,37.780983",4050,219,3
1622110082,2021-05-27T10:08:02Z,SBI1011,"55.496292,37.78265",4125,242,5
1622110084,2021-05-27T10:08:04Z,SBI1011,"55.498535,37.782982",4175,244,5
1622110088,2021-05-27T10:08:08Z,SBI1011,"55.503342,37.78373",4250,250,5
1622110094,2021-05-27T10:08:14Z,SBI1011,"55.509338,37.784645",4375,257,4
1622110103,2021-05-27T10:08:23Z,SBI1011,"55.520573,37.786274",4575,269,4
1622110111,2021-05-27T10:08:31Z,SBI1011,"55.531357,37.787807",4750,284,4
1622110123,2021-05-27T10:08:43Z,SBI1011,"55.547295,37.789963",4975,300,4
1622110131,2021-05-27T10:08:51Z,SBI1011,"55.558186,37.791424",5125,311,4
1622110142,2021-05-27T10:09:02Z,SBI1011,"55.574482,37.795715",5300,328,13
1622110144,2021-05-27T10:09:04Z,SBI1011,"55.577599,37.79726",5350,331,15
1622110147,2021-05-27T10:09:07Z,SBI1011,"55.581791,37.799835",5425,334,19
1622110148,2021-05-27T10:09:08Z,SBI1011,"55.583233,37.800865",5475,335,21
1622110157,2021-05-27T10:09:17Z,SBI1011,"55.595718,37.812195",5850,339,29
1622110162,2021-05-27T10:09:22Z,SBI1011,"55.602505,37.819145",6150,337,30
1622110165,2021-05-27T10:09:25Z,SBI1011,"55.606647,37.823441",6325,337,30
1622110168,2021-05-27T10:09:28Z,SBI1011,"55.611351,37.828247",6550,337,30
1622110169,2021-05-27T10:09:29Z,SBI1011,"55.612186,37.829102",6575,337,30
1622110171,2021-05-27T10:09:31Z,SBI1011,"55.614899,37.831837",6675,337,30
1622110172,2021-05-27T10:09:32Z,SBI1011,"55.616226,37.833252",6725,337,30
1622110174,2021-05-27T10:09:34Z,SBI1011,"55.618938,37.835968",6825,338,30
1622110175,2021-05-27T10:09:35Z,SBI1011,"55.620289,37.837429",6875,338,30
1622110178,2021-05-27T10:09:38Z,SBI1011,"55.624374,37.841576",7000,340,30
1622110189,2021-05-27T10:09:49Z,SBI1011,"55.639893,37.856224",7575,340,24
1622110193,2021-05-27T10:09:53Z,SBI1011,"55.645889,37.860302",7800,339,18
1622110195,2021-05-27T10:09:55Z,SBI1011,"55.648453,37.861717",7875,340,17
1622110196,2021-05-27T10:09:56Z,SBI1011,"55.649918,37.862549",7925,340,16
1622110197,2021-05-27T10:09:57Z,SBI1011,"55.651154,37.863049",7975,340,15
1622110199,2021-05-27T10:09:59Z,SBI1011,"55.655155,37.864639",8100,340,11
1622110200,2021-05-27T10:10:00Z,SBI1011,"55.655914,37.864964",8125,340,11
1622110202,2021-05-27T10:10:02Z,SBI1011,"55.659805,37.865963",8225,341,9
1622110204,2021-05-27T10:10:04Z,SBI1011,"55.662277,37.86644",8275,341,7
1622110205,2021-05-27T10:10:05Z,SBI1011,"55.663696,37.866627",8325,341,4
1622110207,2021-05-27T10:10:07Z,SBI1011,"55.667816,37.867043",8400,342,2
1622110210,2021-05-27T10:10:10Z,SBI1011,"55.672256,37.867294",8500,344,1
1622110214,2021-05-27T10:10:14Z,SBI1011,"55.678013,37.86747",8625,346,1
1622110216,2021-05-27T10:10:16Z,SBI1011,"55.682343,37.86747",8700,348,1
1622110217,2021-05-27T10:10:17Z,SBI1011,"55.682995,37.86747",8725,348,1
1622110219,2021-05-27T10:10:19Z,SBI1011,"55.686859,37.86747",8825,349,359
1622110220,2021-05-27T10:10:20Z,SBI1011,"55.687683,37.867458",8825,349,359
1622110222,2021-05-27T10:10:22Z,SBI1011,"55.690907,37.867386",8925,350,359
1622110223,2021-05-27T10:10:23Z,SBI1011,"55.693653,37.867386",9000,350,359
1622110225,2021-05-27T10:10:25Z,SBI1011,"55.696213,37.867298",9050,351,359
1622110226,2021-05-27T10:10:26Z,SBI1011,"55.697845,37.867294",9100,351,359
1622110229,2021-05-27T10:10:29Z,SBI1011,"55.701893,37.867126",9225,351,359
1622110230,2021-05-27T10:10:30Z,SBI1011,"55.704025,37.867126",9275,352,359
1622110241,2021-05-27T10:10:41Z,SBI1011,"55.72303,37.866611",9725,356,359
1622110254,2021-05-27T10:10:54Z,SBI1011,"55.743465,37.866268",10325,357,359
1622110265,2021-05-27T10:11:05Z,SBI1011,"55.76218,37.865925",10825,360,359
1622110278,2021-05-27T10:11:18Z,SBI1011,"55.78294,37.865753",11325,364,359
1622110289,2021-05-27T10:11:29Z,SBI1011,"55.802582,37.865543",11875,364,359
1622110302,2021-05-27T10:11:42Z,SBI1011,"55.824234,37.865326",12500,363,359
1622110314,2021-05-27T10:11:54Z,SBI1011,"55.843784,37.86129",13050,360,348
1622110315,2021-05-27T10:11:55Z,SBI1011,"55.846207,37.860218",13100,360,348
1622110317,2021-05-27T10:11:57Z,SBI1011,"55.848587,37.859055",13150,358,345
1622110318,2021-05-27T10:11:58Z,SBI1011,"55.850784,37.857887",13200,359,342
1622110320,2021-05-27T10:12:00Z,SBI1011,"55.853142,37.856483",13275,358,341
1622110321,2021-05-27T10:12:01Z,SBI1011,"55.855469,37.854851",13325,357,339
1622110323,2021-05-27T10:12:03Z,SBI1011,"55.858028,37.852966",13400,357,337
1622110326,2021-05-27T10:12:06Z,SBI1011,"55.862175,37.849445",13500,355,333
1622110329,2021-05-27T10:12:09Z,SBI1011,"55.86644,37.84507",13600,354,329
1622110335,2021-05-27T10:12:15Z,SBI1011,"55.873856,37.835667",13825,350,321
1622110338,2021-05-27T10:12:18Z,SBI1011,"55.877609,37.829838",13925,349,317
1622110344,2021-05-27T10:12:24Z,SBI1011,"55.88443,37.816856",14125,349,310
1622110346,2021-05-27T10:12:26Z,SBI1011,"55.886948,37.811279",14200,348,308
1622110347,2021-05-27T10:12:27Z,SBI1011,"55.887726,37.809448",14225,348,308
1622110353,2021-05-27T10:12:33Z,SBI1011,"55.893177,37.796917",14400,351,307
1622110354,2021-05-27T10:12:34Z,SBI1011,"55.895142,37.792385",14450,351,307
1622110356,2021-05-27T10:12:36Z,SBI1011,"55.896881,37.788223",14500,352,307
1622110359,2021-05-27T10:12:39Z,SBI1011,"55.89946,37.782154",14575,352,307
1622110360,2021-05-27T10:12:40Z,SBI1011,"55.900021,37.780781",14600,352,307
1622110362,2021-05-27T10:12:42Z,SBI1011,"55.902115,37.775887",14650,354,307
1622110363,2021-05-27T10:12:43Z,SBI1011,"55.902969,37.773827",14700,354,307
1622110364,2021-05-27T10:12:44Z,SBI1011,"55.903976,37.771496",14725,355,306
1622110365,2021-05-27T10:12:45Z,SBI1011,"55.905514,37.767647",14775,355,306
1622110366,2021-05-27T10:12:46Z,SBI1011,"55.905991,37.766502",14775,355,305
1622110371,2021-05-27T10:12:51Z,SBI1011,"55.910843,37.752602",14925,355,300
1622110374,2021-05-27T10:12:54Z,SBI1011,"55.91301,37.745075",15000,354,296
1622110377,2021-05-27T10:12:57Z,SBI1011,"55.914825,37.737953",15100,354,293
1622110381,2021-05-27T10:13:01Z,SBI1011,"55.91729,37.725334",15250,352,288
1622110383,2021-05-27T10:13:03Z,SBI1011,"55.917984,37.721226",15325,351,285
1622110384,2021-05-27T10:13:04Z,SBI1011,"55.918167,37.719559",15350,351,285
1622110387,2021-05-27T10:13:07Z,SBI1011,"55.919312,37.710819",15475,349,282
1622110389,2021-05-27T10:13:09Z,SBI1011,"55.920135,37.704411",15575,348,282
1622110393,2021-05-27T10:13:13Z,SBI1011,"55.921341,37.694351",15725,347,281
1622110396,2021-05-27T10:13:16Z,SBI1011,"55.922333,37.685936",15875,348,281
1622110402,2021-05-27T10:13:22Z,SBI1011,"55.924393,37.668541",16100,349,281
1622110404,2021-05-27T10:13:24Z,SBI1011,"55.925034,37.66288",16175,349,281
1622110442,2021-05-27T10:14:02Z,SBI1011,"55.937496,37.5541",17450,357,281
1622110473,2021-05-27T10:14:33Z,SBI1011,"55.947693,37.462379",18675,357,281
1622110537,2021-05-27T10:15:37Z,SBI1011,"55.967987,37.276096",20775,364,281
1622110549,2021-05-27T10:15:49Z,SBI1011,"55.973713,37.241852",21175,370,290
1622110550,2021-05-27T10:15:50Z,SBI1011,"55.973946,37.240734",21175,371,291
1622110551,2021-05-27T10:15:51Z,SBI1011,"55.975296,37.235081",21225,372,293
1622110554,2021-05-27T10:15:54Z,SBI1011,"55.977448,37.227005",21325,374,296
1622110555,2021-05-27T10:15:55Z,SBI1011,"55.977768,37.225925",21325,374,296
1622110558,2021-05-27T10:15:58Z,SBI1011,"55.980286,37.21777",21400,377,299
1622110562,2021-05-27T10:16:02Z,SBI1011,"55.984543,37.2062",21475,383,303
1622110565,2021-05-27T10:16:05Z,SBI1011,"55.987656,37.198792",21525,386,307
1622110567,2021-05-27T10:16:07Z,SBI1011,"55.989307,37.195072",21550,387,308
1622110570,2021-05-27T10:16:10Z,SBI1011,"55.993076,37.186577",21625,389,308
1622110576,2021-05-27T10:16:16Z,SBI1011,"55.999924,37.171658",21800,390,309
1622110583,2021-05-27T10:16:23Z,SBI1011,"56.007416,37.155502",21925,392,309
1622110585,2021-05-27T10:16:25Z,SBI1011,"56.010086,37.149769",21975,394,309
1622110646,2021-05-27T10:17:26Z,SBI1011,"56.082092,36.995045",23525,406,309
1622110707,2021-05-27T10:18:27Z,SBI1011,"56.155777,36.835358",25175,411,309
1622110769,2021-05-27T10:19:29Z,SBI1011,"56.231461,36.670116",26475,421,309
1622110830,2021-05-27T10:20:30Z,SBI1011,"56.308331,36.501732",27725,429,309
1622110893,2021-05-27T10:21:33Z,SBI1011,"56.385235,36.324318",28750,436,305
1622110955,2021-05-27T10:22:35Z,SBI1011,"56.469131,36.152512",29725,454,318
1622111015,2021-05-27T10:23:35Z,SBI1011,"56.561966,36.002113",31300,445,318
1622111076,2021-05-27T10:24:36Z,SBI1011,"56.654957,35.850513",32625,438,317
1622111137,2021-05-27T10:25:37Z,SBI1011,"56.744888,35.703163",33925,432,317
1622111199,2021-05-27T10:26:39Z,SBI1011,"56.835617,35.553303",35100,425,317
1622111261,2021-05-27T10:27:41Z,SBI1011,"56.926125,35.402733",35750,430,317
1622111322,2021-05-27T10:28:42Z,SBI1011,"57.015839,35.252552",36000,434,317
1622111383,2021-05-27T10:29:43Z,SBI1011,"57.10619,35.100166",36000,431,317
1622111445,2021-05-27T10:30:45Z,SBI1011,"57.197384,34.945473",36000,432,317
1622111506,2021-05-27T10:31:46Z,SBI1011,"57.286953,34.792374",36000,433,317
1622111569,2021-05-27T10:32:49Z,SBI1011,"57.378288,34.635197",36000,433,317
1622111631,2021-05-27T10:33:51Z,SBI1011,"57.468273,34.479263",36000,432,316
1622111694,2021-05-27T10:34:54Z,SBI1011,"57.559845,34.319313",36000,431,316
1622111756,2021-05-27T10:35:56Z,SBI1011,"57.650803,34.159412",36000,432,316
1622111817,2021-05-27T10:36:57Z,SBI1011,"57.739067,34.003143",36000,432,316
1622111883,2021-05-27T10:38:03Z,SBI1011,"57.834221,33.833313",36000,432,316
1622111947,2021-05-27T10:39:07Z,SBI1011,"57.931549,33.67593",36000,438,321
1622112014,2021-05-27T10:40:14Z,SBI1011,"58.036331,33.516098",36000,437,320
1622112074,2021-05-27T10:41:14Z,SBI1011,"58.130447,33.371769",36000,436,320
1622112138,2021-05-27T10:42:18Z,SBI1011,"58.22905,33.219379",36000,435,320
1622112201,2021-05-27T10:43:21Z,SBI1011,"58.327255,33.066467",35950,439,320
1622112267,2021-05-27T10:44:27Z,SBI1011,"58.431484,32.903229",36025,442,320
1622112328,2021-05-27T10:45:28Z,SBI1011,"58.526321,32.753345",36050,439,320
1622112389,2021-05-27T10:46:29Z,SBI1011,"58.620857,32.602661",35000,436,320
1622112450,2021-05-27T10:47:30Z,SBI1011,"58.713497,32.454712",33575,418,320
1622112512,2021-05-27T10:48:32Z,SBI1011,"58.804832,32.306946",32025,409,319
1622112574,2021-05-27T10:49:34Z,SBI1011,"58.892944,32.163574",30425,398,319
1622112634,2021-05-27T10:50:34Z,SBI1011,"58.976303,32.026978",28850,392,319
1622112699,2021-05-27T10:51:39Z,SBI1011,"59.064651,31.881409",27150,384,319
1622112735,2021-05-27T10:52:15Z,SBI1011,"59.10989,31.796232",26200,363,309
1622112741,2021-05-27T10:52:21Z,SBI1011,"59.115463,31.782806",26075,360,308
1622112745,2021-05-27T10:52:25Z,SBI1011,"59.119854,31.771608",25950,357,306
1622112748,2021-05-27T10:52:28Z,SBI1011,"59.122227,31.765169",25875,355,305
1622112750,2021-05-27T10:52:30Z,SBI1011,"59.124973,31.757591",25800,353,304
1622112752,2021-05-27T10:52:32Z,SBI1011,"59.126789,31.752382",25750,351,304
1622112754,2021-05-27T10:52:34Z,SBI1011,"59.127811,31.74954",25725,351,304
1622112756,2021-05-27T10:52:36Z,SBI1011,"59.129517,31.744537",25675,350,303
1622112817,2021-05-27T10:53:37Z,SBI1011,"59.183723,31.587114",24100,341,303
1622112876,2021-05-27T10:54:36Z,SBI1011,"59.235069,31.43681",22550,331,303
1622112939,2021-05-27T10:55:39Z,SBI1011,"59.288452,31.279175",20875,331,303
1622113001,2021-05-27T10:56:41Z,SBI1011,"59.339859,31.128021",19025,323,303
1622113065,2021-05-27T10:57:45Z,SBI1011,"59.392414,30.973774",16950,323,303
1622113097,2021-05-27T10:58:17Z,SBI1011,"59.418671,30.896112",15900,323,303
1622113136,2021-05-27T10:58:56Z,SBI1011,"59.451233,30.799622",14625,322,303
1622113169,2021-05-27T10:59:29Z,SBI1011,"59.478149,30.719696",13675,317,303
1622113201,2021-05-27T11:00:01Z,SBI1011,"59.503922,30.642792",12700,314,303
1622113232,2021-05-27T11:00:32Z,SBI1011,"59.528137,30.570374",11800,311,303
1622113243,2021-05-27T11:00:43Z,SBI1011,"59.537155,30.543274",11475,309,303
1622113254,2021-05-27T11:00:54Z,SBI1011,"59.54562,30.517746",11175,307,303
1622113274,2021-05-27T11:01:14Z,SBI1011,"59.559036,30.470673",10600,301,292
1622113275,2021-05-27T11:01:15Z,SBI1011,"59.559814,30.466644",10550,300,291
1622113283,2021-05-27T11:01:23Z,SBI1011,"59.563263,30.447376",10375,297,288
1622113289,2021-05-27T11:01:29Z,SBI1011,"59.565765,30.432312",10250,295,287
1622113294,2021-05-27T11:01:34Z,SBI1011,"59.56778,30.419817",10125,293,287
1622113306,2021-05-27T11:01:46Z,SBI1011,"59.572712,30.389132",9825,290,287
1622113320,2021-05-27T11:02:00Z,SBI1011,"59.577785,30.353804",9475,286,282
1622113326,2021-05-27T11:02:06Z,SBI1011,"59.579041,30.338196",9325,284,277
1622113329,2021-05-27T11:02:09Z,SBI1011,"59.579498,30.33078",9250,283,276
1622113330,2021-05-27T11:02:10Z,SBI1011,"59.579681,30.326935",9225,283,275
1622113332,2021-05-27T11:02:12Z,SBI1011,"59.57988,30.322077",9175,282,275
1622113334,2021-05-27T11:02:14Z,SBI1011,"59.580021,30.318478",9125,281,274
1622113335,2021-05-27T11:02:15Z,SBI1011,"59.580162,30.314215",9100,281,274
1622113339,2021-05-27T11:02:19Z,SBI1011,"59.58046,30.303955",9000,280,272
1622113350,2021-05-27T11:02:30Z,SBI1011,"59.581375,30.277222",8725,277,276
1622113365,2021-05-27T11:02:45Z,SBI1011,"59.585793,30.240341",8425,274,286
1622113366,2021-05-27T11:02:46Z,SBI1011,"59.586136,30.238129",8425,273,286
1622113368,2021-05-27T11:02:48Z,SBI1011,"59.586956,30.232954",8375,272,286
1622113381,2021-05-27T11:03:01Z,SBI1011,"59.591751,30.203026",8175,266,287
1622113396,2021-05-27T11:03:16Z,SBI1011,"59.597477,30.167604",7900,261,287
1622113407,2021-05-27T11:03:27Z,SBI1011,"59.601196,30.14447",7725,258,287
1622113418,2021-05-27T11:03:38Z,SBI1011,"59.605251,30.119303",7550,256,287
1622113433,2021-05-27T11:03:53Z,SBI1011,"59.610672,30.085693",7300,253,287
1622113449,2021-05-27T11:04:09Z,SBI1011,"59.616287,30.050259",7050,255,287
1622113461,2021-05-27T11:04:21Z,SBI1011,"59.620476,30.024403",6850,253,287
1622113473,2021-05-27T11:04:33Z,SBI1011,"59.62468,29.998444",6650,253,287
1622113485,2021-05-27T11:04:45Z,SBI1011,"59.629135,29.971176",6425,250,288
1622113500,2021-05-27T11:05:00Z,SBI1011,"59.635345,29.93985",6200,249,292
1622113512,2021-05-27T11:05:12Z,SBI1011,"59.640957,29.914066",6025,250,293
1622113524,2021-05-27T11:05:24Z,SBI1011,"59.64645,29.888685",5825,250,292
1622113543,2021-05-27T11:05:43Z,SBI1011,"59.654846,29.849762",5500,251,293
1622113559,2021-05-27T11:05:59Z,SBI1011,"59.662125,29.815796",5225,250,292
1622113570,2021-05-27T11:06:10Z,SBI1011,"59.667259,29.791512",5050,250,292
1622113607,2021-05-27T11:06:47Z,SBI1011,"59.683552,29.715082",4500,248,292
1622113619,2021-05-27T11:06:59Z,SBI1011,"59.688858,29.690552",4375,243,294
1622113628,2021-05-27T11:07:08Z,SBI1011,"59.694958,29.673031",4300,244,310
1622113689,2021-05-27T11:08:09Z,SBI1011,"59.758301,29.682129",3800,237,28
1622113698,2021-05-27T11:08:18Z,SBI1011,"59.766815,29.691284",3700,234,28
1622113707,2021-05-27T11:08:27Z,SBI1011,"59.775169,29.700117",3625,238,28
1622113716,2021-05-27T11:08:36Z,SBI1011,"59.783268,29.70883",3550,232,28
1622113721,2021-05-27T11:08:41Z,SBI1011,"59.788761,29.714703",3525,231,28
1622113728,2021-05-27T11:08:48Z,SBI1011,"59.794464,29.720947",3500,231,28
1622113737,2021-05-27T11:08:57Z,SBI1011,"59.802841,29.730103",3475,233,29
1622113743,2021-05-27T11:09:03Z,SBI1011,"59.808426,29.736328",3475,234,29
1622113751,2021-05-27T11:09:11Z,SBI1011,"59.816273,29.744915",3475,238,28
1622113757,2021-05-27T11:09:17Z,SBI1011,"59.823071,29.752398",3475,241,28
1622113767,2021-05-27T11:09:27Z,SBI1011,"59.832092,29.761871",3475,238,27
1622113773,2021-05-27T11:09:33Z,SBI1011,"59.837769,29.768005",3475,236,28
1622113782,2021-05-27T11:09:42Z,SBI1011,"59.845367,29.778992",3475,232,43
1622113785,2021-05-27T11:09:45Z,SBI1011,"59.847794,29.78476",3475,230,52
1622113787,2021-05-27T11:09:47Z,SBI1011,"59.849186,29.78924",3475,230,56
1622113788,2021-05-27T11:09:48Z,SBI1011,"59.849487,29.790344",3475,228,60
1622113791,2021-05-27T11:09:51Z,SBI1011,"59.850815,29.796204",3475,226,68
1622113796,2021-05-27T11:09:56Z,SBI1011,"59.852352,29.807329",3475,222,78
1622113800,2021-05-27T11:10:00Z,SBI1011,"59.852783,29.813324",3500,220,82
1622113806,2021-05-27T11:10:06Z,SBI1011,"59.853104,29.8255",3500,222,88
1622113812,2021-05-27T11:10:12Z,SBI1011,"59.852921,29.837952",3475,223,93
1622113818,2021-05-27T11:10:18Z,SBI1011,"59.852211,29.850706",3450,223,97
1622113821,2021-05-27T11:10:21Z,SBI1011,"59.851776,29.855988",3425,224,99
1622113824,2021-05-27T11:10:24Z,SBI1011,"59.851093,29.863302",3375,223,101
1622113827,2021-05-27T11:10:27Z,SBI1011,"59.850449,29.869263",3300,223,102
1622113833,2021-05-27T11:10:33Z,SBI1011,"59.849094,29.880634",3175,223,103
1622113836,2021-05-27T11:10:36Z,SBI1011,"59.848526,29.885193",3125,222,104
1622113842,2021-05-27T11:10:42Z,SBI1011,"59.846878,29.897552",2975,223,105
1622113847,2021-05-27T11:10:47Z,SBI1011,"59.845322,29.909088",2825,224,105
1622113854,2021-05-27T11:10:54Z,SBI1011,"59.843445,29.92218",2675,224,106
1622113860,2021-05-27T11:11:00Z,SBI1011,"59.841705,29.934357",2550,223,106
1622113866,2021-05-27T11:11:06Z,SBI1011,"59.83997,29.946268",2500,219,106
1622113874,2021-05-27T11:11:14Z,SBI1011,"59.83786,29.960175",2500,206,106
1622113882,2021-05-27T11:11:22Z,SBI1011,"59.835983,29.973358",2500,190,106
1622113891,2021-05-27T11:11:31Z,SBI1011,"59.833733,29.988319",2400,183,106
1622113897,2021-05-27T11:11:37Z,SBI1011,"59.832275,29.998352",2325,177,105
1622113903,2021-05-27T11:11:43Z,SBI1011,"59.830994,30.007233",2225,171,106
1622113909,2021-05-27T11:11:49Z,SBI1011,"59.829681,30.015974",2150,166,106
1622113918,2021-05-27T11:11:58Z,SBI1011,"59.827744,30.029205",2025,157,106
1622113923,2021-05-27T11:12:03Z,SBI1011,"59.826748,30.036148",1950,152,105
1622113936,2021-05-27T11:12:16Z,SBI1011,"59.824326,30.053101",1775,143,106
1622113960,2021-05-27T11:12:40Z,SBI1011,"59.820053,30.081665",1425,133,106
1622113969,2021-05-27T11:12:49Z,SBI1011,"59.818451,30.092468",1325,132,106
1622113979,2021-05-27T11:12:59Z,SBI1011,"59.816738,30.104244",1225,137,106
1622113988,2021-05-27T11:13:08Z,SBI1011,"59.815155,30.11499",1125,138,106
1622114000,2021-05-27T11:13:20Z,SBI1011,"59.812969,30.12991",975,141,105
1622114009,2021-05-27T11:13:29Z,SBI1011,"59.811218,30.141724",850,139,106
1622114035,2021-05-27T11:13:55Z,SBI1011,"59.806545,30.173286",525,137,106
1622114050,2021-05-27T11:14:10Z,SBI1011,"59.803894,30.191437",350,137,106
1622114076,2021-05-27T11:14:36Z,SBI1011,"59.799282,30.222725",25,138,105
1622114088,2021-05-27T11:14:48Z,SBI1011,"59.797302,30.236115",25,110,106
1622114094,2021-05-27T11:14:54Z,SBI1011,"59.796547,30.241104",0,82,106
1622114100,2021-05-27T11:15:00Z,SBI1011,"59.795952,30.245155",0,72,106
1622114108,2021-05-27T11:15:08Z,SBI1011,"59.795254,30.249836",0,62,106
1622114113,2021-05-27T11:15:13Z,SBI1011,"59.794956,30.252571",0,52,95
1622114135,2021-05-27T11:15:35Z,SBI1011,"59.795242,30.257816",0,9,75
1622114142,2021-05-27T11:15:42Z,SBI1011,"59.795326,30.25843",0,9,75
1622114148,2021-05-27T11:15:48Z,SBI1011,"59.79538,30.259003",0,11,78
1622114155,2021-05-27T11:15:55Z,SBI1011,"59.795429,30.259804",0,14,87
1622114157,2021-05-27T11:15:57Z,SBI1011,"59.795425,30.260078",0,14,90
1622114159,2021-05-27T11:15:59Z,SBI1011,"59.795418,30.260326",0,15,92
1622114166,2021-05-27T11:16:06Z,SBI1011,"59.795334,30.261337",0,16,104
1622114169,2021-05-27T11:16:09Z,SBI1011,"59.79528,30.261652",0,16,106
1622114171,2021-05-27T11:16:11Z,SBI1011,"59.795219,30.262047",0,16,106
1622114174,2021-05-27T11:16:14Z,SBI1011,"59.795162,30.262386",0,16,106
1622114176,2021-05-27T11:16:16Z,SBI1011,"59.795116,30.262688",0,16,106
1622114179,2021-05-27T11:16:19Z,SBI1011,"59.795059,30.263144",0,13,106
1622114184,2021-05-27T11:16:24Z,SBI1011,"59.795105,30.263475",0,8,75
1622114193,2021-05-27T11:16:33Z,SBI1011,"59.795414,30.263741",0,8,22
1622114198,2021-05-27T11:16:38Z,SBI1011,"59.795628,30.26383",0,9,14
1622114203,2021-05-27T11:16:43Z,SBI1011,"59.795872,30.263971",0,10,16
1622114209,2021-05-27T11:16:49Z,SBI1011,"59.796139,30.264137",0,10,16
1622114214,2021-05-27T11:16:54Z,SBI1011,"59.796341,30.264244",0,10,16
1622114223,2021-05-27T11:17:03Z,SBI1011,"59.796627,30.264421",0,8,16
1622114229,2021-05-27T11:17:09Z,SBI1011,"59.796867,30.264565",0,9,16
1622114235,2021-05-27T11:17:15Z,SBI1011,"59.797092,30.264706",0,8,16
1622114241,2021-05-27T11:17:21Z,SBI1011,"59.797314,30.264824",0,8,16
1622114249,2021-05-27T11:17:29Z,SBI1011,"59.797523,30.264942",0,4,16
1622114259,2021-05-27T11:17:39Z,SBI1011,"59.797745,30.26506",0,6,14
1622114266,2021-05-27T11:17:46Z,SBI1011,"59.797909,30.265411",0,8,50
1622114270,2021-05-27T11:17:50Z,SBI1011,"59.797886,30.265676",0,9,81
1622114274,2021-05-27T11:17:54Z,SBI1011,"59.797874,30.265984",0,9,92
1622114278,2021-05-27T11:17:58Z,SBI1011,"59.797863,30.26634",0,7,95
1622114287,2021-05-27T11:18:07Z,SBI1011,"59.797852,30.266647",0,3,95
1622114303,2021-05-27T11:18:23Z,SBI1011,"59.79784,30.266945",0,1,92
