Timestamp,UTC,Callsign,Position,Altitude,Speed,Direction
1622022292,2021-05-26T09:44:52Z,SBI2105,"55.412819,37.898247",0,1,59
1622022328,2021-05-26T09:45:28Z,SBI2105,"55.412769,37.898045",0,3,53
1622022341,2021-05-26T09:45:41Z,SBI2105,"55.412689,37.897778",0,2,28
1622022362,2021-05-26T09:46:02Z,SBI2105,"55.412445,37.897671",0,3,180
1622022380,2021-05-26T09:46:20Z,SBI2105,"55.412224,37.897701",0,3,50
1622022396,2021-05-26T09:46:36Z,SBI2105,"55.412098,37.897438",0,3,53
1622022408,2021-05-26T09:46:48Z,SBI2105,"55.411995,37.897156",0,4,36
1622022422,2021-05-26T09:47:02Z,SBI2105,"55.411858,37.896954",0,4,5
1622022437,2021-05-26T09:47:17Z,SBI2105,"55.411652,37.896923",0,3,329
1622022451,2021-05-26T09:47:31Z,SBI2105,"55.411446,37.897118",0,3,326
1622022468,2021-05-26T09:47:48Z,SBI2105,"55.41124,37.897358",0,3,331
1622022480,2021-05-26T09:48:00Z,SBI2105,"55.411091,37.89756",0,3,345
1622022497,2021-05-26T09:48:17Z,SBI2105,"55.410862,37.897652",0,2,36
1622022515,2021-05-26T09:48:35Z,SBI2105,"55.410656,37.897381",0,4,53
1622022658,2021-05-26T09:50:58Z,SBI2105,"55.410709,37.897587",0,7,56
1622022669,2021-05-26T09:51:09Z,SBI2105,"55.410931,37.897701",0,10,19
1622022677,2021-05-26T09:51:17Z,SBI2105,"55.411049,37.897484",0,5,329
1622022684,2021-05-26T09:51:24Z,SBI2105,"55.411049,37.897255",0,4,289
1622022711,2021-05-26T09:51:51Z,SBI2105,"55.410656,37.896168",0,9,236
1622022716,2021-05-26T09:51:56Z,SBI2105,"55.410583,37.895966",0,6,241
1622022731,2021-05-26T09:52:11Z,SBI2105,"55.410801,37.895363",0,6,317
1622022741,2021-05-26T09:52:21Z,SBI2105,"55.411049,37.895069",0,7,323
1622022745,2021-05-26T09:52:25Z,SBI2105,"55.41114,37.894863",0,7,312
1622022749,2021-05-26T09:52:29Z,SBI2105,"55.411175,37.894653",0,8,292
1622022752,2021-05-26T09:52:32Z,SBI2105,"55.411148,37.894451",0,9,270
1622022761,2021-05-26T09:52:41Z,SBI2105,"55.410942,37.893948",0,9,236
1622022766,2021-05-26T09:52:46Z,SBI2105,"55.410839,37.893635",0,10,236
1622022778,2021-05-26T09:52:58Z,SBI2105,"55.410255,37.893318",0,13,168
1622022782,2021-05-26T09:53:02Z,SBI2105,"55.410057,37.893574",0,13,146
1622022786,2021-05-26T09:53:06Z,SBI2105,"55.409859,37.893803",0,13,143
1622022789,2021-05-26T09:53:09Z,SBI2105,"55.409695,37.894005",0,13,146
1622022793,2021-05-26T09:53:13Z,SBI2105,"55.4095,37.894238",0,14,146
1622022796,2021-05-26T09:53:16Z,SBI2105,"55.409359,37.894489",0,15,146
1622022802,2021-05-26T09:53:22Z,SBI2105,"55.408978,37.894863",0,15,146
1622022808,2021-05-26T09:53:28Z,SBI2105,"55.408638,37.895237",0,15,149
1622022812,2021-05-26T09:53:32Z,SBI2105,"55.408424,37.895439",0,13,151
1622022818,2021-05-26T09:53:38Z,SBI2105,"55.408115,37.895824",0,12,135
1622022820,2021-05-26T09:53:40Z,SBI2105,"55.408092,37.896027",0,12,118
1622022822,2021-05-26T09:53:42Z,SBI2105,"55.408092,37.896236",0,13,98
1622022826,2021-05-26T09:53:46Z,SBI2105,"55.408184,37.896572",0,13,67
1622022829,2021-05-26T09:53:49Z,SBI2105,"55.408298,37.896854",0,13,56
1622022832,2021-05-26T09:53:52Z,SBI2105,"55.408401,37.897118",0,14,53
1622022834,2021-05-26T09:53:54Z,SBI2105,"55.408485,37.89732",0,15,56
1622022837,2021-05-26T09:53:57Z,SBI2105,"55.408604,37.89761",0,15,56
1622022839,2021-05-26T09:53:59Z,SBI2105,"55.408684,37.897839",0,16,56
1622022843,2021-05-26T09:54:03Z,SBI2105,"55.408859,37.898289",0,17,56
1622022845,2021-05-26T09:54:05Z,SBI2105,"55.408962,37.898529",0,18,53
1622022852,2021-05-26T09:54:12Z,SBI2105,"55.40929,37.89938",0,18,56
1622022857,2021-05-26T09:54:17Z,SBI2105,"55.409512,37.900005",0,16,61
1622022861,2021-05-26T09:54:21Z,SBI2105,"55.409615,37.900562",0,19,78
1622022864,2021-05-26T09:54:24Z,SBI2105,"55.409626,37.900982",0,17,81
1622022897,2021-05-26T09:54:57Z,SBI2105,"55.41116,37.904305",0,14,30
1622022909,2021-05-26T09:55:09Z,SBI2105,"55.411652,37.905453",0,15,56
1622022915,2021-05-26T09:55:15Z,SBI2105,"55.411892,37.906063",0,13,56
1622022925,2021-05-26T09:55:25Z,SBI2105,"55.412167,37.906769",0,9,56
1622022946,2021-05-26T09:55:46Z,SBI2105,"55.412281,37.908554",0,14,132
1622022958,2021-05-26T09:55:58Z,SBI2105,"55.411812,37.909336",0,12,118
1622022961,2021-05-26T09:56:01Z,SBI2105,"55.411839,37.909657",0,13,84
1622022970,2021-05-26T09:56:10Z,SBI2105,"55.412128,37.910404",0,14,56
1622022972,2021-05-26T09:56:12Z,SBI2105,"55.412212,37.910606",0,14,56
1622022988,2021-05-26T09:56:28Z,SBI2105,"55.412815,37.912174",0,12,56
1622022991,2021-05-26T09:56:31Z,SBI2105,"55.412922,37.912426",0,12,56
1622022995,2021-05-26T09:56:35Z,SBI2105,"55.413082,37.912666",0,11,39
1622023003,2021-05-26T09:56:43Z,SBI2105,"55.413494,37.912506",0,11,331
1622023015,2021-05-26T09:56:55Z,SBI2105,"55.414021,37.912083",0,11,340
1622023020,2021-05-26T09:57:00Z,SBI2105,"55.414249,37.911858",0,11,334
1622023025,2021-05-26T09:57:05Z,SBI2105,"55.414482,37.911697",0,10,334
1622023030,2021-05-26T09:57:10Z,SBI2105,"55.414719,37.911575",0,11,345
1622023037,2021-05-26T09:57:17Z,SBI2105,"55.415016,37.911819",0,12,33
1622023040,2021-05-26T09:57:20Z,SBI2105,"55.415131,37.912102",0,12,50
1622023044,2021-05-26T09:57:24Z,SBI2105,"55.415249,37.912403",0,14,56
1622023046,2021-05-26T09:57:26Z,SBI2105,"55.415337,37.912628",0,14,56
1622023048,2021-05-26T09:57:28Z,SBI2105,"55.415405,37.91283",0,15,56
1622023050,2021-05-26T09:57:30Z,SBI2105,"55.415485,37.913033",0,15,56
1622023052,2021-05-26T09:57:32Z,SBI2105,"55.415573,37.913258",0,16,56
1622023055,2021-05-26T09:57:35Z,SBI2105,"55.41568,37.913528",0,16,56
1622023059,2021-05-26T09:57:39Z,SBI2105,"55.415878,37.914028",0,16,56
1622023061,2021-05-26T09:57:41Z,SBI2105,"55.415958,37.914257",0,16,56
1622023064,2021-05-26T09:57:44Z,SBI2105,"55.416069,37.914524",0,16,53
1622023070,2021-05-26T09:57:50Z,SBI2105,"55.416321,37.91515",0,15,53
1622023073,2021-05-26T09:57:53Z,SBI2105,"55.416424,37.915474",0,12,61
1622023077,2021-05-26T09:57:57Z,SBI2105,"55.416435,37.915798",0,11,87
1622023079,2021-05-26T09:57:59Z,SBI2105,"55.416367,37.916",0,12,106
1622023085,2021-05-26T09:58:05Z,SBI2105,"55.416111,37.916355",0,14,143
1622023089,2021-05-26T09:58:09Z,SBI2105,"55.415771,37.916794",0,25,146
1622023091,2021-05-26T09:58:11Z,SBI2105,"55.415485,37.91711",0,38,146
1622023094,2021-05-26T09:58:14Z,SBI2105,"55.414761,37.917999",0,58,146
1622023097,2021-05-26T09:58:17Z,SBI2105,"55.414097,37.918793",0,68,146
1622023098,2021-05-26T09:58:18Z,SBI2105,"55.413818,37.919125",0,72,146
1622023099,2021-05-26T09:58:19Z,SBI2105,"55.413479,37.919521",0,76,146
1622023100,2021-05-26T09:58:20Z,SBI2105,"55.413155,37.919914",0,82,146
1622023101,2021-05-26T09:58:21Z,SBI2105,"55.412769,37.920395",0,90,146
1622023133,2021-05-26T09:58:53Z,SBI2105,"55.396225,37.940155",850,150,145
1622023146,2021-05-26T09:59:06Z,SBI2105,"55.38818,37.947025",1375,150,156
1622023169,2021-05-26T09:59:29Z,SBI2105,"55.373608,37.956348",2350,145,161
1622023184,2021-05-26T09:59:44Z,SBI2105,"55.363552,37.962341",2700,159,160
1622023197,2021-05-26T09:59:57Z,SBI2105,"55.353424,37.96859",2850,179,160
1622023203,2021-05-26T10:00:03Z,SBI2105,"55.348656,37.971497",2950,186,160
1622023209,2021-05-26T10:00:09Z,SBI2105,"55.343304,37.974911",3075,196,159
1622023218,2021-05-26T10:00:18Z,SBI2105,"55.335205,37.980141",3175,214,159
1622023224,2021-05-26T10:00:24Z,SBI2105,"55.329941,37.983646",3250,223,159
1622023235,2021-05-26T10:00:35Z,SBI2105,"55.318359,37.987087",3600,237,179
1622023236,2021-05-26T10:00:36Z,SBI2105,"55.316719,37.986977",3675,237,181
1622023238,2021-05-26T10:00:38Z,SBI2105,"55.314972,37.986763",3725,238,184
1622023241,2021-05-26T10:00:41Z,SBI2105,"55.311787,37.985813",3825,239,188
1622023242,2021-05-26T10:00:42Z,SBI2105,"55.310074,37.985069",3900,241,192
1622023246,2021-05-26T10:00:46Z,SBI2105,"55.306732,37.983047",3975,245,199
1622023247,2021-05-26T10:00:47Z,SBI2105,"55.305267,37.981998",4025,248,202
1622023251,2021-05-26T10:00:51Z,SBI2105,"55.30159,37.978489",4100,253,209
1622023253,2021-05-26T10:00:53Z,SBI2105,"55.299408,37.975941",4150,256,212
1622023258,2021-05-26T10:00:58Z,SBI2105,"55.294609,37.969997",4275,261,216
1622023262,2021-05-26T10:01:02Z,SBI2105,"55.290371,37.96434",4400,268,217
1622023266,2021-05-26T10:01:06Z,SBI2105,"55.286739,37.959263",4525,272,218
1622023267,2021-05-26T10:01:07Z,SBI2105,"55.285858,37.958008",4550,273,218
1622023270,2021-05-26T10:01:10Z,SBI2105,"55.282829,37.95377",4625,278,218
1622023271,2021-05-26T10:01:11Z,SBI2105,"55.281342,37.951687",4650,280,218
1622023274,2021-05-26T10:01:14Z,SBI2105,"55.278259,37.947342",4700,285,218
1622023280,2021-05-26T10:01:20Z,SBI2105,"55.271988,37.938782",4825,295,218
1622023283,2021-05-26T10:01:23Z,SBI2105,"55.268646,37.934174",4900,299,217
1622023289,2021-05-26T10:01:29Z,SBI2105,"55.262238,37.925449",5100,304,217
1622023300,2021-05-26T10:01:40Z,SBI2105,"55.250015,37.90897",5675,306,217
1622023314,2021-05-26T10:01:54Z,SBI2105,"55.233856,37.887321",6350,313,217
1622023327,2021-05-26T10:02:07Z,SBI2105,"55.218777,37.86721",7075,313,217
1622023341,2021-05-26T10:02:21Z,SBI2105,"55.202545,37.845558",7575,322,217
1622023357,2021-05-26T10:02:37Z,SBI2105,"55.181438,37.823429",7950,336,203
1622023359,2021-05-26T10:02:39Z,SBI2105,"55.178692,37.821598",8000,336,200
1622023362,2021-05-26T10:02:42Z,SBI2105,"55.17421,37.819221",8050,336,195
1622023365,2021-05-26T10:02:45Z,SBI2105,"55.169804,37.81752",8100,337,191
1622023366,2021-05-26T10:02:46Z,SBI2105,"55.167343,37.816879",8125,337,189
1622023367,2021-05-26T10:02:47Z,SBI2105,"55.165798,37.816525",8125,338,188
1622023368,2021-05-26T10:02:48Z,SBI2105,"55.164867,37.816357",8150,338,186
1622023370,2021-05-26T10:02:50Z,SBI2105,"55.161144,37.816105",8175,338,183
1622023378,2021-05-26T10:02:58Z,SBI2105,"55.149078,37.818172",8325,343,169
1622023381,2021-05-26T10:03:01Z,SBI2105,"55.144592,37.82011",8400,346,165
1622023384,2021-05-26T10:03:04Z,SBI2105,"55.140106,37.822212",8475,348,164
1622023389,2021-05-26T10:03:09Z,SBI2105,"55.132919,37.825928",8600,353,163
1622023395,2021-05-26T10:03:15Z,SBI2105,"55.122162,37.831745",8750,360,162
1622023396,2021-05-26T10:03:16Z,SBI2105,"55.120735,37.832504",8750,360,162
1622023408,2021-05-26T10:03:28Z,SBI2105,"55.102535,37.842491",8950,362,162
1622023419,2021-05-26T10:03:39Z,SBI2105,"55.084259,37.852425",9150,365,162
1622023432,2021-05-26T10:03:52Z,SBI2105,"55.063522,37.863571",9400,367,163
1622023442,2021-05-26T10:04:02Z,SBI2105,"55.046158,37.872787",9575,365,163
1622023454,2021-05-26T10:04:14Z,SBI2105,"55.028046,37.882477",9750,369,162
1622023467,2021-05-26T10:04:27Z,SBI2105,"55.006962,37.893677",9775,370,162
1622023485,2021-05-26T10:04:45Z,SBI2105,"54.97596,37.910072",9800,377,162
1622023497,2021-05-26T10:04:57Z,SBI2105,"54.957138,37.92004",9775,382,163
1622023509,2021-05-26T10:05:09Z,SBI2105,"54.936493,37.930943",9800,384,163
1622023522,2021-05-26T10:05:22Z,SBI2105,"54.914883,37.942284",9900,386,163
1622023535,2021-05-26T10:05:35Z,SBI2105,"54.89114,37.954769",10025,386,163
1622023547,2021-05-26T10:05:47Z,SBI2105,"54.871822,37.96492",10125,385,163
1622023558,2021-05-26T10:05:58Z,SBI2105,"54.852036,37.975407",10200,385,162
1622023570,2021-05-26T10:06:10Z,SBI2105,"54.832764,37.985477",10300,385,163
1622023583,2021-05-26T10:06:23Z,SBI2105,"54.810978,37.996964",10425,385,163
1622023595,2021-05-26T10:06:35Z,SBI2105,"54.790329,38.007687",10650,387,163
1622023610,2021-05-26T10:06:50Z,SBI2105,"54.763641,38.021744",10950,388,163
1622023622,2021-05-26T10:07:02Z,SBI2105,"54.743179,38.032486",11200,390,163
1622023634,2021-05-26T10:07:14Z,SBI2105,"54.722717,38.043232",11450,393,163
1622023645,2021-05-26T10:07:25Z,SBI2105,"54.7033,38.05331",11700,396,163
1622023659,2021-05-26T10:07:39Z,SBI2105,"54.678257,38.066296",12000,399,163
1622023688,2021-05-26T10:08:08Z,SBI2105,"54.626175,38.093395",12650,404,163
1622023722,2021-05-26T10:08:42Z,SBI2105,"54.564575,38.125473",13000,408,163
1622023754,2021-05-26T10:09:14Z,SBI2105,"54.507156,38.155113",13800,414,163
1622023784,2021-05-26T10:09:44Z,SBI2105,"54.45163,38.183872",14950,412,163
1622023815,2021-05-26T10:10:15Z,SBI2105,"54.395416,38.212791",16125,415,163
1622023847,2021-05-26T10:10:47Z,SBI2105,"54.335815,38.242519",17225,418,163
1622023878,2021-05-26T10:11:18Z,SBI2105,"54.278824,38.267239",18325,419,165
1622023939,2021-05-26T10:12:19Z,SBI2105,"54.164322,38.321362",20675,419,160
1622024000,2021-05-26T10:13:20Z,SBI2105,"54.052643,38.38686",22400,425,161
1622024061,2021-05-26T10:14:21Z,SBI2105,"53.937984,38.453682",23425,431,161
1622024121,2021-05-26T10:15:21Z,SBI2105,"53.824162,38.519844",24375,438,161
1622024184,2021-05-26T10:16:24Z,SBI2105,"53.70187,38.590446",25425,445,161
1622024254,2021-05-26T10:17:34Z,SBI2105,"53.566681,38.667915",27175,445,161
1622024317,2021-05-26T10:18:37Z,SBI2105,"53.441689,38.739086",28250,459,161
1622024381,2021-05-26T10:19:41Z,SBI2105,"53.312485,38.812263",29525,466,161
1622024442,2021-05-26T10:20:42Z,SBI2105,"53.187935,38.882313",30525,470,161
1622024503,2021-05-26T10:21:43Z,SBI2105,"53.061543,38.953045",31625,473,161
1622024564,2021-05-26T10:22:44Z,SBI2105,"52.93515,39.023132",32875,471,161
1622024625,2021-05-26T10:23:45Z,SBI2105,"52.810162,39.092182",34000,467,161
1622024690,2021-05-26T10:24:50Z,SBI2105,"52.67828,39.164455",35325,459,161
1622024751,2021-05-26T10:25:51Z,SBI2105,"52.556313,39.230999",36400,453,161
1622024813,2021-05-26T10:26:53Z,SBI2105,"52.432484,39.298096",37000,448,161
1622024875,2021-05-26T10:27:55Z,SBI2105,"52.312134,39.362869",37000,450,161
1622024936,2021-05-26T10:28:56Z,SBI2105,"52.19083,39.427971",37000,452,161
1622024997,2021-05-26T10:29:57Z,SBI2105,"52.070122,39.492241",37025,454,161
1622025060,2021-05-26T10:31:00Z,SBI2105,"51.94455,39.558716",37025,454,161
1622025121,2021-05-26T10:32:01Z,SBI2105,"51.823627,39.622421",37050,450,161
1622025185,2021-05-26T10:33:05Z,SBI2105,"51.697422,39.688644",36975,446,161
1622025245,2021-05-26T10:34:05Z,SBI2105,"51.578671,39.750366",36975,445,162
1622025307,2021-05-26T10:35:07Z,SBI2105,"51.458656,39.812546",36950,446,162
1622025369,2021-05-26T10:36:09Z,SBI2105,"51.336914,39.875248",37000,449,162
1622025430,2021-05-26T10:37:10Z,SBI2105,"51.215374,39.937439",37000,451,162
1622025492,2021-05-26T10:38:12Z,SBI2105,"51.092789,39.999958",37025,451,162
1622025554,2021-05-26T10:39:14Z,SBI2105,"50.970558,40.061874",37050,447,162
1622025616,2021-05-26T10:40:16Z,SBI2105,"50.84845,40.123367",36975,445,162
1622025677,2021-05-26T10:41:17Z,SBI2105,"50.729836,40.182877",37000,444,162
1622025739,2021-05-26T10:42:19Z,SBI2105,"50.607029,40.243885",36975,444,162
1622025801,2021-05-26T10:43:21Z,SBI2105,"50.486786,40.303417",37000,447,162
1622025862,2021-05-26T10:44:22Z,SBI2105,"50.366455,40.362686",37000,439,162
1622025896,2021-05-26T10:44:56Z,SBI2105,"50.298481,40.395985",37025,449,162
1622026010,2021-05-26T10:46:50Z,SBI2105,"50.073681,40.505699",36975,445,162
1622026074,2021-05-26T10:47:54Z,SBI2105,"49.948105,40.566364",37000,445,162
1622026137,2021-05-26T10:48:57Z,SBI2105,"49.824188,40.626068",37000,445,162
1622026200,2021-05-26T10:50:00Z,SBI2105,"49.699726,40.684601",36975,451,164
1622026220,2021-05-26T10:50:20Z,SBI2105,"49.660629,40.697407",37000,446,168
1622026309,2021-05-26T10:51:49Z,SBI2105,"49.477535,40.708057",37025,447,181
1622026341,2021-05-26T10:52:21Z,SBI2105,"49.41069,40.706108",37000,447,181
1622026429,2021-05-26T10:53:49Z,SBI2105,"49.228573,40.701237",36975,450,181
1622026468,2021-05-26T10:54:28Z,SBI2105,"49.149124,40.699203",37000,451,181
1622026588,2021-05-26T10:56:28Z,SBI2105,"48.946053,40.694221",37000,451,183
1622026652,2021-05-26T10:57:32Z,SBI2105,"48.812523,40.669476",37025,451,191
1622026712,2021-05-26T10:58:32Z,SBI2105,"48.687454,40.629044",37025,451,192
1622026777,2021-05-26T10:59:37Z,SBI2105,"48.556011,40.589256",36979,451,192
1622026840,2021-05-26T11:00:40Z,SBI2105,"48.421398,40.555939",37000,451,186
1622026900,2021-05-26T11:01:40Z,SBI2105,"48.299423,40.514034",37000,451,192
1622026960,2021-05-26T11:02:40Z,SBI2105,"48.176888,40.478588",37000,451,191
1622027024,2021-05-26T11:03:44Z,SBI2105,"48.04454,40.441525",37004,451,191
1622027084,2021-05-26T11:04:44Z,SBI2105,"47.920212,40.407578",36975,451,191
1622027148,2021-05-26T11:05:48Z,SBI2105,"47.791054,40.359016",37000,451,200
1622027156,2021-05-26T11:05:56Z,SBI2105,"47.775749,40.350159",36999,451,201
1622027220,2021-05-26T11:07:00Z,SBI2105,"47.654236,40.250755",37000,451,213
1622027281,2021-05-26T11:08:01Z,SBI2105,"47.552464,40.145729",37011,451,215
1622027344,2021-05-26T11:09:04Z,SBI2105,"47.437794,40.03812",37000,451,212
1622027408,2021-05-26T11:10:08Z,SBI2105,"47.33012,39.941044",37000,451,212
1622027472,2021-05-26T11:11:12Z,SBI2105,"47.209023,39.825886",37000,451,215
1622027536,2021-05-26T11:12:16Z,SBI2105,"47.113144,39.683186",36999,451,231
1622027600,2021-05-26T11:13:20Z,SBI2105,"47.032948,39.519054",37025,451,235
1622027660,2021-05-26T11:14:20Z,SBI2105,"46.956425,39.370384",37000,451,233
1622027724,2021-05-26T11:15:24Z,SBI2105,"46.87175,39.21323",37000,451,232
1622027788,2021-05-26T11:16:28Z,SBI2105,"46.787697,39.058537",37007,451,232
1622027852,2021-05-26T11:17:32Z,SBI2105,"46.702438,38.903065",37000,451,232
1622027912,2021-05-26T11:18:32Z,SBI2105,"46.624672,38.76115",37000,451,232
1622027976,2021-05-26T11:19:36Z,SBI2105,"46.538593,38.612034",37000,451,229
1622028040,2021-05-26T11:20:40Z,SBI2105,"46.448803,38.467949",36448,451,228
1622028104,2021-05-26T11:21:44Z,SBI2105,"46.359512,38.324707",34648,453,228
1622028173,2021-05-26T11:22:53Z,SBI2105,"46.229599,38.116863",30950,449,228
1622028234,2021-05-26T11:23:54Z,SBI2105,"46.146744,37.98476",28500,433,227
1622028297,2021-05-26T11:24:57Z,SBI2105,"46.063301,37.853394",26100,418,227
1622028358,2021-05-26T11:25:58Z,SBI2105,"45.984627,37.731651",23850,404,227
1622028420,2021-05-26T11:27:00Z,SBI2105,"45.907059,37.610554",21525,394,227
1622028481,2021-05-26T11:28:01Z,SBI2105,"45.833099,37.495308",19275,385,227
1622028541,2021-05-26T11:29:01Z,SBI2105,"45.761169,37.386875",17500,368,217
1622028544,2021-05-26T11:29:04Z,SBI2105,"45.756149,37.381874",17375,367,214
1622028545,2021-05-26T11:29:05Z,SBI2105,"45.755543,37.381393",17375,366,213
1622028547,2021-05-26T11:29:07Z,SBI2105,"45.752655,37.378853",17325,367,212
1622028549,2021-05-26T11:29:09Z,SBI2105,"45.748764,37.375889",17250,366,208
1622028551,2021-05-26T11:29:11Z,SBI2105,"45.746521,37.374283",17200,366,205
1622028552,2021-05-26T11:29:12Z,SBI2105,"45.744324,37.372944",17175,366,204
1622028553,2021-05-26T11:29:13Z,SBI2105,"45.74358,37.372467",17150,365,203
1622028554,2021-05-26T11:29:14Z,SBI2105,"45.741997,37.371643",17125,365,201
1622028555,2021-05-26T11:29:15Z,SBI2105,"45.739574,37.370407",17075,365,200
1622028557,2021-05-26T11:29:17Z,SBI2105,"45.736225,37.368896",17025,365,197
1622028558,2021-05-26T11:29:18Z,SBI2105,"45.734592,37.368279",17000,365,196
1622028559,2021-05-26T11:29:19Z,SBI2105,"45.733749,37.367985",17000,365,194
1622028560,2021-05-26T11:29:20Z,SBI2105,"45.732788,37.367649",16975,365,194
1622028561,2021-05-26T11:29:21Z,SBI2105,"45.730316,37.366913",16925,365,192
1622028562,2021-05-26T11:29:22Z,SBI2105,"45.728497,37.366425",16900,364,190
1622028563,2021-05-26T11:29:23Z,SBI2105,"45.727798,37.366287",16900,364,190
1622028564,2021-05-26T11:29:24Z,SBI2105,"45.725143,37.365776",16850,364,187
1622028565,2021-05-26T11:29:25Z,SBI2105,"45.723495,37.365505",16825,364,189
1622028568,2021-05-26T11:29:28Z,SBI2105,"45.718815,37.365051",16750,363,183
1622028570,2021-05-26T11:29:30Z,SBI2105,"45.714432,37.364635",16700,362,183
1622028571,2021-05-26T11:29:31Z,SBI2105,"45.713745,37.364571",16675,362,183
1622028572,2021-05-26T11:29:32Z,SBI2105,"45.711922,37.364433",16650,362,182
1622028573,2021-05-26T11:29:33Z,SBI2105,"45.709595,37.364296",16600,362,182
1622028574,2021-05-26T11:29:34Z,SBI2105,"45.708755,37.364235",16600,362,182
1622028577,2021-05-26T11:29:37Z,SBI2105,"45.704224,37.363968",16525,362,182
1622028578,2021-05-26T11:29:38Z,SBI2105,"45.701706,37.363831",16500,362,182
1622028579,2021-05-26T11:29:39Z,SBI2105,"45.700058,37.363697",16450,362,182
1622028580,2021-05-26T11:29:40Z,SBI2105,"45.698364,37.363632",16425,362,182
1622028586,2021-05-26T11:29:46Z,SBI2105,"45.689026,37.363163",16275,361,181
1622028619,2021-05-26T11:30:19Z,SBI2105,"45.633621,37.360519",15350,359,181
1622028649,2021-05-26T11:30:49Z,SBI2105,"45.583485,37.357979",14550,356,182
1622028683,2021-05-26T11:31:23Z,SBI2105,"45.528042,37.355324",13650,353,181
1622028716,2021-05-26T11:31:56Z,SBI2105,"45.474602,37.352913",12775,350,181
1622028746,2021-05-26T11:32:26Z,SBI2105,"45.42572,37.350636",12000,346,181
1622028771,2021-05-26T11:32:51Z,SBI2105,"45.387085,37.346714",11350,341,192
1622028774,2021-05-26T11:32:54Z,SBI2105,"45.38269,37.345013",11275,341,195
1622028780,2021-05-26T11:33:00Z,SBI2105,"45.374039,37.34037",11125,339,202
1622028786,2021-05-26T11:33:06Z,SBI2105,"45.365204,37.334156",10950,338,207
1622028787,2021-05-26T11:33:07Z,SBI2105,"45.363804,37.333149",10925,337,207
1622028790,2021-05-26T11:33:10Z,SBI2105,"45.359665,37.33004",10850,336,207
1622028795,2021-05-26T11:33:15Z,SBI2105,"45.352959,37.324909",10700,336,208
1622028799,2021-05-26T11:33:19Z,SBI2105,"45.347214,37.320492",10575,336,208
1622028801,2021-05-26T11:33:21Z,SBI2105,"45.344345,37.318279",10525,335,208
1622028802,2021-05-26T11:33:22Z,SBI2105,"45.343136,37.317276",10500,335,208
1622028813,2021-05-26T11:33:33Z,SBI2105,"45.328426,37.30582",10300,330,208
1622028824,2021-05-26T11:33:44Z,SBI2105,"45.31366,37.29427",10150,323,208
1622028835,2021-05-26T11:33:55Z,SBI2105,"45.300308,37.283848",10050,313,208
1622028846,2021-05-26T11:34:06Z,SBI2105,"45.285877,37.272659",9875,306,208
1622028861,2021-05-26T11:34:21Z,SBI2105,"45.266697,37.257721",9525,303,208
1622028874,2021-05-26T11:34:34Z,SBI2105,"45.251724,37.246006",9225,303,208
1622028885,2021-05-26T11:34:45Z,SBI2105,"45.23737,37.23481",8925,302,208
1622028898,2021-05-26T11:34:58Z,SBI2105,"45.222198,37.223118",8625,299,208
1622028913,2021-05-26T11:35:13Z,SBI2105,"45.203018,37.20821",8225,296,208
1622028925,2021-05-26T11:35:25Z,SBI2105,"45.188816,37.197163",7950,293,208
1622028937,2021-05-26T11:35:37Z,SBI2105,"45.174942,37.18631",7675,292,208
1622028950,2021-05-26T11:35:50Z,SBI2105,"45.159721,37.174519",7375,290,208
1622028961,2021-05-26T11:36:01Z,SBI2105,"45.147537,37.165047",7150,287,208
1622028972,2021-05-26T11:36:12Z,SBI2105,"45.134491,37.154911",7025,287,208
1622028984,2021-05-26T11:36:24Z,SBI2105,"45.12085,37.144318",7000,277,208
1622028994,2021-05-26T11:36:34Z,SBI2105,"45.109676,37.135597",7000,267,209
1622029008,2021-05-26T11:36:48Z,SBI2105,"45.094437,37.126202",7000,250,197
1622029010,2021-05-26T11:36:50Z,SBI2105,"45.092697,37.125484",6975,249,197
1622029011,2021-05-26T11:36:51Z,SBI2105,"45.090916,37.124744",6950,247,196
1622029013,2021-05-26T11:36:53Z,SBI2105,"45.089382,37.124077",6925,247,196
1622029014,2021-05-26T11:36:54Z,SBI2105,"45.087708,37.12339",6875,247,195
1622029016,2021-05-26T11:36:56Z,SBI2105,"45.085518,37.122536",6825,248,195
1622029019,2021-05-26T11:36:59Z,SBI2105,"45.082214,37.121235",6750,248,195
1622029025,2021-05-26T11:37:05Z,SBI2105,"45.075394,37.118553",6575,250,195
1622029029,2021-05-26T11:37:09Z,SBI2105,"45.070854,37.116776",6525,249,195
1622029041,2021-05-26T11:37:21Z,SBI2105,"45.057724,37.111614",6425,240,195
1622029054,2021-05-26T11:37:34Z,SBI2105,"45.04483,37.10659",6275,234,195
1622029065,2021-05-26T11:37:45Z,SBI2105,"45.032501,37.101746",6125,229,195
1622029076,2021-05-26T11:37:56Z,SBI2105,"45.022156,37.097755",6025,223,195
1622029088,2021-05-26T11:38:08Z,SBI2105,"45.009636,37.092857",5825,221,195
1622029099,2021-05-26T11:38:19Z,SBI2105,"44.998837,37.08857",5575,223,195
1622029110,2021-05-26T11:38:30Z,SBI2105,"44.987896,37.084351",5375,224,194
1622029122,2021-05-26T11:38:42Z,SBI2105,"44.976303,37.079861",5225,221,195
1622029133,2021-05-26T11:38:53Z,SBI2105,"44.966019,37.075844",5050,218,195
1622029144,2021-05-26T11:39:04Z,SBI2105,"44.955414,37.071728",4875,214,195
1622029151,2021-05-26T11:39:11Z,SBI2105,"44.948235,37.068874",4725,214,195
1622029157,2021-05-26T11:39:17Z,SBI2105,"44.942871,37.066826",4625,214,194
1622029163,2021-05-26T11:39:23Z,SBI2105,"44.936462,37.065319",4500,212,185
1622029166,2021-05-26T11:39:26Z,SBI2105,"44.933571,37.065193",4425,211,180
1622029167,2021-05-26T11:39:27Z,SBI2105,"44.933075,37.065254",4400,210,178
1622029169,2021-05-26T11:39:29Z,SBI2105,"44.930649,37.065517",4350,209,175
1622029170,2021-05-26T11:39:30Z,SBI2105,"44.930172,37.065594",4350,209,173
1622029172,2021-05-26T11:39:32Z,SBI2105,"44.928169,37.066128",4300,208,169
1622029173,2021-05-26T11:39:33Z,SBI2105,"44.926758,37.066563",4250,208,167
1622029175,2021-05-26T11:39:35Z,SBI2105,"44.925018,37.067348",4200,207,163
1622029176,2021-05-26T11:39:36Z,SBI2105,"44.924149,37.067806",4175,207,161
1622029179,2021-05-26T11:39:39Z,SBI2105,"44.921513,37.069412",4100,206,154
1622029181,2021-05-26T11:39:41Z,SBI2105,"44.919792,37.070885",4050,205,150
1622029183,2021-05-26T11:39:43Z,SBI2105,"44.91861,37.071991",4025,205,146
1622029187,2021-05-26T11:39:47Z,SBI2105,"44.915413,37.07571",3900,203,137
1622029189,2021-05-26T11:39:49Z,SBI2105,"44.914249,37.07745",3875,202,134
1622029190,2021-05-26T11:39:50Z,SBI2105,"44.913483,37.078594",3850,203,132
1622029193,2021-05-26T11:39:53Z,SBI2105,"44.911972,37.080952",3825,201,131
1622029194,2021-05-26T11:39:54Z,SBI2105,"44.911366,37.08194",3800,201,131
1622029197,2021-05-26T11:39:57Z,SBI2105,"44.909546,37.084873",3750,202,130
1622029199,2021-05-26T11:39:59Z,SBI2105,"44.908012,37.087364",3700,201,130
1622029205,2021-05-26T11:40:05Z,SBI2105,"44.904236,37.093311",3600,201,132
1622029209,2021-05-26T11:40:09Z,SBI2105,"44.901962,37.096809",3525,200,132
1622029211,2021-05-26T11:40:11Z,SBI2105,"44.900517,37.099022",3475,200,132
1622029212,2021-05-26T11:40:12Z,SBI2105,"44.900238,37.099422",3475,200,132
1622029218,2021-05-26T11:40:18Z,SBI2105,"44.896225,37.105408",3325,201,133
1622029224,2021-05-26T11:40:24Z,SBI2105,"44.89238,37.111294",3200,201,132
1622029230,2021-05-26T11:40:30Z,SBI2105,"44.888508,37.11731",3050,203,132
1622029237,2021-05-26T11:40:37Z,SBI2105,"44.884037,37.124142",2900,205,132
1622029244,2021-05-26T11:40:44Z,SBI2105,"44.879883,37.130585",2775,205,132
1622029253,2021-05-26T11:40:53Z,SBI2105,"44.873657,37.140221",2600,203,132
1622029260,2021-05-26T11:41:00Z,SBI2105,"44.869747,37.146988",2475,203,125
1622029262,2021-05-26T11:41:02Z,SBI2105,"44.868622,37.149876",2425,202,120
1622029263,2021-05-26T11:41:03Z,SBI2105,"44.868397,37.150471",2425,202,120
1622029266,2021-05-26T11:41:06Z,SBI2105,"44.86734,37.154716",2400,198,108
1622029269,2021-05-26T11:41:09Z,SBI2105,"44.866837,37.15818",2375,195,100
1622029273,2021-05-26T11:41:13Z,SBI2105,"44.866699,37.162758",2300,191,89
1622029275,2021-05-26T11:41:15Z,SBI2105,"44.866974,37.165833",2275,189,83
1622029278,2021-05-26T11:41:18Z,SBI2105,"44.867615,37.169231",2225,188,79
1622029279,2021-05-26T11:41:19Z,SBI2105,"44.867886,37.170231",2225,186,72
1622029282,2021-05-26T11:41:22Z,SBI2105,"44.868759,37.173092",2175,184,65
1622029283,2021-05-26T11:41:23Z,SBI2105,"44.869095,37.174049",2175,183,63
1622029286,2021-05-26T11:41:26Z,SBI2105,"44.870491,37.177467",2125,183,58
1622029288,2021-05-26T11:41:28Z,SBI2105,"44.871231,37.178978",2100,180,56
1622029290,2021-05-26T11:41:30Z,SBI2105,"44.872215,37.180748",2075,179,53
1622029292,2021-05-26T11:41:32Z,SBI2105,"44.873611,37.182964",2050,177,48
1622029294,2021-05-26T11:41:34Z,SBI2105,"44.87471,37.184536",2025,176,45
1622029296,2021-05-26T11:41:36Z,SBI2105,"44.875706,37.185905",2000,176,42
1622029299,2021-05-26T11:41:39Z,SBI2105,"44.877502,37.188198",1925,176,41
1622029305,2021-05-26T11:41:45Z,SBI2105,"44.881531,37.193233",1800,177,41
1622029309,2021-05-26T11:41:49Z,SBI2105,"44.883545,37.195782",1750,176,41
1622029315,2021-05-26T11:41:55Z,SBI2105,"44.887344,37.200623",1700,174,42
1622029318,2021-05-26T11:41:58Z,SBI2105,"44.889065,37.202789",1700,175,42
1622029321,2021-05-26T11:42:01Z,SBI2105,"44.890961,37.205265",1675,176,42
1622029327,2021-05-26T11:42:07Z,SBI2105,"44.89476,37.210041",1675,177,42
1622029333,2021-05-26T11:42:13Z,SBI2105,"44.898422,37.214748",1675,177,42
1622029341,2021-05-26T11:42:21Z,SBI2105,"44.90332,37.220959",1675,178,41
1622029351,2021-05-26T11:42:31Z,SBI2105,"44.909363,37.228676",1675,176,42
1622029358,2021-05-26T11:42:38Z,SBI2105,"44.913364,37.233738",1675,174,42
1622029364,2021-05-26T11:42:44Z,SBI2105,"44.917099,37.238552",1675,168,42
1622029370,2021-05-26T11:42:50Z,SBI2105,"44.920212,37.242474",1700,159,42
1622029379,2021-05-26T11:42:59Z,SBI2105,"44.925003,37.248676",1700,150,42
1622029385,2021-05-26T11:43:05Z,SBI2105,"44.927856,37.252285",1675,145,41
1622029391,2021-05-26T11:43:11Z,SBI2105,"44.93074,37.256012",1650,138,42
1622029400,2021-05-26T11:43:20Z,SBI2105,"44.934967,37.261337",1550,133,41
1622029406,2021-05-26T11:43:26Z,SBI2105,"44.937901,37.265022",1475,131,41
1622029412,2021-05-26T11:43:32Z,SBI2105,"44.940647,37.268574",1400,132,41
1622029418,2021-05-26T11:43:38Z,SBI2105,"44.943253,37.271923",1325,131,42
1622029424,2021-05-26T11:43:44Z,SBI2105,"44.946045,37.275471",1250,130,42
1622029431,2021-05-26T11:43:51Z,SBI2105,"44.949142,37.279358",1175,129,41
1622029435,2021-05-26T11:43:55Z,SBI2105,"44.951019,37.281776",1125,128,42
1622029442,2021-05-26T11:44:02Z,SBI2105,"44.954098,37.285789",1050,126,42
1622029449,2021-05-26T11:44:09Z,SBI2105,"44.95694,37.289474",975,126,42
1622029455,2021-05-26T11:44:15Z,SBI2105,"44.959454,37.29269",925,127,42
1622029461,2021-05-26T11:44:21Z,SBI2105,"44.962246,37.296173",850,128,41
1622029467,2021-05-26T11:44:27Z,SBI2105,"44.964806,37.299454",800,127,42
1622029473,2021-05-26T11:44:33Z,SBI2105,"44.96759,37.303032",725,127,42
1622029479,2021-05-26T11:44:39Z,SBI2105,"44.970108,37.306236",650,127,42
1622029485,2021-05-26T11:44:45Z,SBI2105,"44.972813,37.309772",600,126,42
1622029494,2021-05-26T11:44:54Z,SBI2105,"44.976585,37.314594",500,128,42
1622029500,2021-05-26T11:45:00Z,SBI2105,"44.979401,37.318138",425,128,42
1622029507,2021-05-26T11:45:07Z,SBI2105,"44.982285,37.3218",350,126,42
1622029515,2021-05-26T11:45:15Z,SBI2105,"44.985989,37.326584",250,127,42
1622029522,2021-05-26T11:45:22Z,SBI2105,"44.988693,37.330105",175,129,42
1622029528,2021-05-26T11:45:28Z,SBI2105,"44.991348,37.333439",100,128,42
1622029533,2021-05-26T11:45:33Z,SBI2105,"44.993591,37.336315",50,128,42
1622029540,2021-05-26T11:45:40Z,SBI2105,"44.996742,37.340385",0,127,41
1622029546,2021-05-26T11:45:46Z,SBI2105,"44.999115,37.343468",0,111,42
1622029552,2021-05-26T11:45:52Z,SBI2105,"45.001122,37.345997",0,92,44
1622029557,2021-05-26T11:45:57Z,SBI2105,"45.002644,37.347973",0,82,42
1622029563,2021-05-26T11:46:03Z,SBI2105,"45.004246,37.350002",0,70,42
1622029570,2021-05-26T11:46:10Z,SBI2105,"45.00563,37.351784",0,61,42
1622029576,2021-05-26T11:46:16Z,SBI2105,"45.006924,37.353447",0,53,42
1622029583,2021-05-26T11:46:23Z,SBI2105,"45.008137,37.354988",0,44,42
1622029590,2021-05-26T11:46:30Z,SBI2105,"45.008926,37.35601",0,31,42
1622029597,2021-05-26T11:46:37Z,SBI2105,"45.00951,37.356766",0,19,42
1622029603,2021-05-26T11:46:43Z,SBI2105,"45.009876,37.357212",0,14,36
1622029606,2021-05-26T11:46:46Z,SBI2105,"45.010082,37.357292",0,15,19
1622029610,2021-05-26T11:46:50Z,SBI2105,"45.010345,37.357235",0,15,348
1622029614,2021-05-26T11:46:54Z,SBI2105,"45.010544,37.357018",0,15,320
1622029617,2021-05-26T11:46:57Z,SBI2105,"45.010624,37.356766",0,15,298
1622029619,2021-05-26T11:46:59Z,SBI2105,"45.010651,37.356564",0,15,286
1622029623,2021-05-26T11:47:03Z,SBI2105,"45.010723,37.356182",0,15,284
1622029625,2021-05-26T11:47:05Z,SBI2105,"45.010757,37.355919",0,16,281
1622029627,2021-05-26T11:47:07Z,SBI2105,"45.010754,37.355694",0,17,272
1622029630,2021-05-26T11:47:10Z,SBI2105,"45.010712,37.355412",0,15,258
1622029633,2021-05-26T11:47:13Z,SBI2105,"45.010609,37.355118",0,15,244
1622029636,2021-05-26T11:47:16Z,SBI2105,"45.010498,37.354904",0,15,236
1622029639,2021-05-26T11:47:19Z,SBI2105,"45.010345,37.354671",0,16,225
1622029642,2021-05-26T11:47:22Z,SBI2105,"45.010147,37.35442",0,17,222
1622029645,2021-05-26T11:47:25Z,SBI2105,"45.009979,37.354202",0,18,222
1622029648,2021-05-26T11:47:28Z,SBI2105,"45.009808,37.353989",0,19,222
1622029650,2021-05-26T11:47:30Z,SBI2105,"45.009636,37.353767",0,19,222
1622029653,2021-05-26T11:47:33Z,SBI2105,"45.009403,37.3535",0,20,222
1622029659,2021-05-26T11:47:39Z,SBI2105,"45.008984,37.352928",0,22,222
1622029667,2021-05-26T11:47:47Z,SBI2105,"45.008438,37.352226",0,21,222
1622029672,2021-05-26T11:47:52Z,SBI2105,"45.008045,37.351734",0,18,222
1622029679,2021-05-26T11:47:59Z,SBI2105,"45.007683,37.351273",0,15,222
1622029684,2021-05-26T11:48:04Z,SBI2105,"45.007389,37.350887",0,15,222
1622029691,2021-05-26T11:48:11Z,SBI2105,"45.007053,37.350452",0,14,222
1622029697,2021-05-26T11:48:17Z,SBI2105,"45.006763,37.350082",0,14,222
1622029703,2021-05-26T11:48:23Z,SBI2105,"45.006466,37.349705",0,14,222
1622029708,2021-05-26T11:48:28Z,SBI2105,"45.006203,37.349361",0,14,222
1622029714,2021-05-26T11:48:34Z,SBI2105,"45.005894,37.348972",0,15,222
1622029721,2021-05-26T11:48:41Z,SBI2105,"45.005516,37.348492",0,17,222
1622029728,2021-05-26T11:48:48Z,SBI2105,"45.005096,37.347954",0,16,222
1622029734,2021-05-26T11:48:54Z,SBI2105,"45.004841,37.347603",0,11,227
1622029738,2021-05-26T11:48:58Z,SBI2105,"45.004807,37.34737",0,9,253
1622029743,2021-05-26T11:49:03Z,SBI2105,"45.004875,37.347168",0,9,284
1622029750,2021-05-26T11:49:10Z,SBI2105,"45.005116,37.346992",0,7,337
1622029760,2021-05-26T11:49:20Z,SBI2105,"45.005318,37.347202",0,5,30
1622029769,2021-05-26T11:49:29Z,SBI2105,"45.00547,37.347404",0,5,42
1622029834,2021-05-26T11:50:34Z,SBI2105,"45.004864,37.347664",0,0,271
