Timestamp,UTC,Callsign,Position,Altitude,Speed,Direction
1622284885,2021-05-29T10:41:25Z,SBI3216,"40.777817,43.854492",13275,369,343
1622284928,2021-05-29T10:42:08Z,SBI3216,"40.848473,43.830204",15000,377,350
1622284952,2021-05-29T10:42:32Z,SBI3216,"40.890461,43.819096",15850,381,348
1622285010,2021-05-29T10:43:30Z,SBI3216,"40.991993,43.792938",18200,378,345
1622285018,2021-05-29T10:43:38Z,SBI3216,"41.005051,43.788818",18525,376,347
1622285045,2021-05-29T10:44:05Z,SBI3216,"41.05188,43.783447",19225,388,1
1622285121,2021-05-29T10:45:21Z,SBI3216,"41.188202,43.801514",21675,399,11
1622285127,2021-05-29T10:45:27Z,SBI3216,"41.199005,43.804321",21750,403,11
1622285211,2021-05-29T10:46:51Z,SBI3216,"41.356842,43.852051",23350,433,21
1622285214,2021-05-29T10:46:54Z,SBI3216,"41.363892,43.855835",23425,434,22
1622285215,2021-05-29T10:46:55Z,SBI3216,"41.364624,43.856201",23425,433,22
1622285218,2021-05-29T10:46:58Z,SBI3216,"41.3713,43.859921",23500,434,22
1622285220,2021-05-29T10:47:00Z,SBI3216,"41.374653,43.861855",23550,435,23
1622285221,2021-05-29T10:47:01Z,SBI3216,"41.375351,43.862289",23550,436,23
1622285223,2021-05-29T10:47:03Z,SBI3216,"41.379959,43.865036",23600,436,24
1622285224,2021-05-29T10:47:04Z,SBI3216,"41.380875,43.865601",23625,436,24
1622285288,2021-05-29T10:48:08Z,SBI3216,"41.498795,43.945999",24875,456,32
1622285349,2021-05-29T10:49:09Z,SBI3216,"41.599457,44.047871",26925,446,38
1622285410,2021-05-29T10:50:10Z,SBI3216,"41.698196,44.155739",28475,448,40
1622285473,2021-05-29T10:51:13Z,SBI3216,"41.797207,44.266663",30000,448,40
1622285533,2021-05-29T10:52:13Z,SBI3216,"41.890778,44.3764",31450,439,41
1622285564,2021-05-29T10:52:44Z,SBI3216,"41.94054,44.428902",32100,432,31
1622285565,2021-05-29T10:52:45Z,SBI3216,"41.941238,44.429413",32100,432,31
1622285566,2021-05-29T10:52:46Z,SBI3216,"41.942093,44.430084",32100,432,31
1622285568,2021-05-29T10:52:48Z,SBI3216,"41.945755,44.432957",32150,432,30
1622285569,2021-05-29T10:52:49Z,SBI3216,"41.947662,44.434395",32175,432,30
1622285581,2021-05-29T10:53:01Z,SBI3216,"41.970337,44.449123",32375,428,23
1622285584,2021-05-29T10:53:04Z,SBI3216,"41.975872,44.451962",32425,427,21
1622285585,2021-05-29T10:53:05Z,SBI3216,"41.977524,44.452805",32450,426,20
1622285590,2021-05-29T10:53:10Z,SBI3216,"41.986496,44.456738",32525,425,17
1622285592,2021-05-29T10:53:12Z,SBI3216,"41.989517,44.457924",32550,424,16
1622285593,2021-05-29T10:53:13Z,SBI3216,"41.992538,44.459049",32575,423,15
1622285595,2021-05-29T10:53:15Z,SBI3216,"41.995377,44.460049",32600,423,15
1622285598,2021-05-29T10:53:18Z,SBI3216,"42.001476,44.461861",32650,423,12
1622285599,2021-05-29T10:53:19Z,SBI3216,"42.003204,44.462357",32650,422,11
1622285601,2021-05-29T10:53:21Z,SBI3216,"42.007809,44.463459",32700,421,9
1622285602,2021-05-29T10:53:22Z,SBI3216,"42.009888,44.463978",32725,421,9
1622285604,2021-05-29T10:53:24Z,SBI3216,"42.013161,44.464607",32750,420,8
1622285606,2021-05-29T10:53:26Z,SBI3216,"42.016251,44.465164",32775,419,7
1622285609,2021-05-29T10:53:29Z,SBI3216,"42.02182,44.46595",32800,419,6
1622285611,2021-05-29T10:53:31Z,SBI3216,"42.025497,44.46627",32850,418,4
1622285615,2021-05-29T10:53:35Z,SBI3216,"42.035088,44.466782",32925,416,1
1622285616,2021-05-29T10:53:36Z,SBI3216,"42.037045,44.466843",32950,416,1
1622285618,2021-05-29T10:53:38Z,SBI3216,"42.039139,44.46685",32950,415,1
1622285619,2021-05-29T10:53:39Z,SBI3216,"42.041245,44.466789",32975,415,359
1622285620,2021-05-29T10:53:40Z,SBI3216,"42.044121,44.466652",33000,414,358
1622285621,2021-05-29T10:53:41Z,SBI3216,"42.045044,44.466602",33000,414,358
1622285623,2021-05-29T10:53:43Z,SBI3216,"42.05003,44.466206",33050,413,357
1622285624,2021-05-29T10:53:44Z,SBI3216,"42.050949,44.466164",33050,412,356
1622285626,2021-05-29T10:53:46Z,SBI3216,"42.054932,44.465664",33100,411,354
1622285627,2021-05-29T10:53:47Z,SBI3216,"42.05722,44.465351",33125,413,358
1622285629,2021-05-29T10:53:49Z,SBI3216,"42.060226,44.464863",33150,409,353
1622285630,2021-05-29T10:53:50Z,SBI3216,"42.063034,44.464291",33175,409,352
1622285632,2021-05-29T10:53:52Z,SBI3216,"42.066044,44.463715",33200,409,351
1622285635,2021-05-29T10:53:55Z,SBI3216,"42.071587,44.462372",33250,407,349
1622285636,2021-05-29T10:53:56Z,SBI3216,"42.074005,44.46167",33275,407,348
1622285638,2021-05-29T10:53:58Z,SBI3216,"42.077312,44.460712",33300,406,347
1622285639,2021-05-29T10:53:59Z,SBI3216,"42.078186,44.460423",33325,406,347
1622285641,2021-05-29T10:54:01Z,SBI3216,"42.082764,44.458862",33350,405,345
1622285642,2021-05-29T10:54:02Z,SBI3216,"42.084732,44.458176",33375,405,345
1622285644,2021-05-29T10:54:04Z,SBI3216,"42.088856,44.456558",33425,404,344
1622285645,2021-05-29T10:54:05Z,SBI3216,"42.0896,44.456242",33425,404,344
1622285647,2021-05-29T10:54:07Z,SBI3216,"42.093658,44.454491",33475,403,342
1622285648,2021-05-29T10:54:08Z,SBI3216,"42.094711,44.453991",33475,402,341
1622285649,2021-05-29T10:54:09Z,SBI3216,"42.097328,44.452793",33500,402,341
1622285650,2021-05-29T10:54:10Z,SBI3216,"42.099098,44.451962",33525,401,340
1622285652,2021-05-29T10:54:12Z,SBI3216,"42.102951,44.450123",33550,401,340
1622285653,2021-05-29T10:54:13Z,SBI3216,"42.10437,44.449497",33575,401,340
1622285657,2021-05-29T10:54:17Z,SBI3216,"42.109943,44.446789",33625,401,340
1622285719,2021-05-29T10:55:19Z,SBI3216,"42.220184,44.392944",34325,406,339
1622285780,2021-05-29T10:56:20Z,SBI3216,"42.328598,44.339478",34850,416,339
1622285843,2021-05-29T10:57:23Z,SBI3216,"42.442886,44.282822",35375,420,339
1622285904,2021-05-29T10:58:24Z,SBI3216,"42.556091,44.22665",35875,424,339
1622285968,2021-05-29T10:59:28Z,SBI3216,"42.676346,44.175579",36000,442,347
1622286029,2021-05-29T11:00:29Z,SBI3216,"42.800812,44.137634",35975,458,347
1622286090,2021-05-29T11:01:30Z,SBI3216,"42.92675,44.099186",35975,458,347
1622286152,2021-05-29T11:02:32Z,SBI3216,"43.055145,44.059837",36000,454,347
1622286213,2021-05-29T11:03:33Z,SBI3216,"43.179806,44.021431",35975,453,347
1622286275,2021-05-29T11:04:35Z,SBI3216,"43.306103,43.981998",35975,454,347
1622286336,2021-05-29T11:05:36Z,SBI3216,"43.431793,43.942566",36000,453,347
1622286401,2021-05-29T11:06:41Z,SBI3216,"43.563263,43.901493",36025,452,347
1622286462,2021-05-29T11:07:42Z,SBI3216,"43.687637,43.862148",36000,453,347
1622286523,2021-05-29T11:08:43Z,SBI3216,"43.813522,43.822304",36000,454,347
1622286585,2021-05-29T11:09:45Z,SBI3216,"43.940323,43.782307",36000,454,347
1622286646,2021-05-29T11:10:46Z,SBI3216,"44.064022,43.743176",36025,450,347
1622286708,2021-05-29T11:11:48Z,SBI3216,"44.18985,43.702961",36000,447,347
1622286770,2021-05-29T11:12:50Z,SBI3216,"44.313766,43.663525",36000,445,347
1622286831,2021-05-29T11:13:51Z,SBI3216,"44.436218,43.624485",36000,441,347
1622286892,2021-05-29T11:14:52Z,SBI3216,"44.556519,43.585968",36000,439,347
1622286953,2021-05-29T11:15:53Z,SBI3216,"44.677486,43.547192",35975,438,347
1622287014,2021-05-29T11:16:54Z,SBI3216,"44.797497,43.508606",36000,440,347
1622287076,2021-05-29T11:17:56Z,SBI3216,"44.921886,43.468548",35975,443,347
1622287137,2021-05-29T11:18:57Z,SBI3216,"45.043106,43.429356",36000,448,346
1622287198,2021-05-29T11:19:58Z,SBI3216,"45.168148,43.390167",36025,451,347
1622287260,2021-05-29T11:21:00Z,SBI3216,"45.293427,43.351788",36025,451,347
1622287321,2021-05-29T11:22:01Z,SBI3216,"45.417107,43.313667",36025,450,347
1622287382,2021-05-29T11:23:02Z,SBI3216,"45.541683,43.275013",35975,451,347
1622287442,2021-05-29T11:24:02Z,SBI3216,"45.665882,43.236488",36000,453,347
1622287505,2021-05-29T11:25:05Z,SBI3216,"45.793533,43.197571",36000,455,348
1622287565,2021-05-29T11:26:05Z,SBI3216,"45.919128,43.161369",36025,454,348
1622287628,2021-05-29T11:27:08Z,SBI3216,"46.047333,43.124359",36025,453,348
1622287689,2021-05-29T11:28:09Z,SBI3216,"46.172325,43.087761",36000,452,348
1622287750,2021-05-29T11:29:10Z,SBI3216,"46.296528,43.051437",36000,451,348
1622287811,2021-05-29T11:30:11Z,SBI3216,"46.422543,43.014565",35975,452,348
1622287872,2021-05-29T11:31:12Z,SBI3216,"46.546875,42.978115",36025,452,348
1622287934,2021-05-29T11:32:14Z,SBI3216,"46.673904,42.940464",36025,450,348
1622287996,2021-05-29T11:33:16Z,SBI3216,"46.799385,42.903122",36000,447,348
1622288057,2021-05-29T11:34:17Z,SBI3216,"46.923294,42.866112",35975,446,348
1622288118,2021-05-29T11:35:18Z,SBI3216,"47.046669,42.829075",35975,446,348
1622288179,2021-05-29T11:36:19Z,SBI3216,"47.1698,42.79203",35975,449,348
1622288240,2021-05-29T11:37:20Z,SBI3216,"47.294605,42.754421",36025,450,348
1622288301,2021-05-29T11:38:21Z,SBI3216,"47.417679,42.717247",36025,447,348
1622288362,2021-05-29T11:39:22Z,SBI3216,"47.542591,42.679489",35950,449,348
1622288423,2021-05-29T11:40:23Z,SBI3216,"47.667538,42.641602",35975,454,348
1622288485,2021-05-29T11:41:25Z,SBI3216,"47.794464,42.602852",36025,457,348
1622288546,2021-05-29T11:42:26Z,SBI3216,"47.920593,42.564205",36025,459,348
1622288607,2021-05-29T11:43:27Z,SBI3216,"48.049438,42.524574",36000,462,348
1622288669,2021-05-29T11:44:29Z,SBI3216,"48.178867,42.484493",36050,461,348
1622288731,2021-05-29T11:45:31Z,SBI3216,"48.306015,42.434128",36000,459,343
1622288792,2021-05-29T11:46:32Z,SBI3216,"48.428192,42.378777",36025,455,343
1622288853,2021-05-29T11:47:33Z,SBI3216,"48.550598,42.322788",35975,453,343
1622288914,2021-05-29T11:48:34Z,SBI3216,"48.674057,42.266445",35975,453,343
1622288976,2021-05-29T11:49:36Z,SBI3216,"48.797836,42.209614",36000,453,343
1622289038,2021-05-29T11:50:38Z,SBI3216,"48.922398,42.152012",36000,452,343
1622289100,2021-05-29T11:51:40Z,SBI3216,"49.04425,42.09771",36000,453,346
1622289161,2021-05-29T11:52:41Z,SBI3216,"49.171738,42.06686",36000,454,351
1622289221,2021-05-29T11:53:41Z,SBI3216,"49.297283,42.039837",36025,453,352
1622289283,2021-05-29T11:54:43Z,SBI3216,"49.423904,42.012512",36025,450,351
1622289344,2021-05-29T11:55:44Z,SBI3216,"49.549877,41.985218",36000,448,352
1622289405,2021-05-29T11:56:45Z,SBI3216,"49.674915,41.957973",35975,448,351
1622289466,2021-05-29T11:57:46Z,SBI3216,"49.799862,41.930508",36000,450,351
