Timestamp,UTC,Callsign,Position,Altitude,Speed,Direction
1621948489,2021-05-25T13:14:49Z,RWZ103,"55.416424,37.883507",0,0,170
1621948779,2021-05-25T13:19:39Z,RWZ103,"55.416527,37.883827",0,3,67
1621948794,2021-05-25T13:19:54Z,RWZ103,"55.416492,37.884167",0,3,95
1621948811,2021-05-25T13:20:11Z,RWZ103,"55.416344,37.884377",0,3,135
1621948844,2021-05-25T13:20:44Z,RWZ103,"55.416012,37.884857",0,3,135
1621948905,2021-05-25T13:21:45Z,RWZ103,"55.415405,37.884758",0,3,233
1621948935,2021-05-25T13:22:15Z,RWZ103,"55.415176,37.884171",0,3,236
1621948995,2021-05-25T13:23:15Z,RWZ103,"55.415981,37.884918",0,0,236
1621949193,2021-05-25T13:26:33Z,RWZ103,"55.414993,37.883808",0,5,230
1621949282,2021-05-25T13:28:02Z,RWZ103,"55.409428,37.889786",0,18,146
1621949291,2021-05-25T13:28:11Z,RWZ103,"55.408695,37.890659",0,22,146
1621949298,2021-05-25T13:28:18Z,RWZ103,"55.408092,37.891407",0,24,146
1621949305,2021-05-25T13:28:25Z,RWZ103,"55.407383,37.892242",0,26,146
1621949312,2021-05-25T13:28:32Z,RWZ103,"55.406681,37.893074",0,26,146
1621949318,2021-05-25T13:28:38Z,RWZ103,"55.406113,37.893764",0,22,146
1621949324,2021-05-25T13:28:44Z,RWZ103,"55.405624,37.894363",0,18,146
1621949334,2021-05-25T13:28:54Z,RWZ103,"55.405048,37.895058",0,15,146
1621949342,2021-05-25T13:29:02Z,RWZ103,"55.40451,37.895702",0,18,146
1621949350,2021-05-25T13:29:10Z,RWZ103,"55.403881,37.896469",0,21,146
1621949463,2021-05-25T13:31:03Z,RWZ103,"55.398262,37.903194",0,5,146
1621949486,2021-05-25T13:31:26Z,RWZ103,"55.39809,37.903419",0,1,146
1621949588,2021-05-25T13:33:08Z,RWZ103,"55.403629,37.896774",0,0,147
1621949624,2021-05-25T13:33:44Z,RWZ103,"55.397953,37.90358",0,5,146
1621949632,2021-05-25T13:33:52Z,RWZ103,"55.397713,37.903862",0,9,146
1621949641,2021-05-25T13:34:01Z,RWZ103,"55.397396,37.904247",0,9,146
1621949648,2021-05-25T13:34:08Z,RWZ103,"55.397232,37.904449",0,4,146
1621949692,2021-05-25T13:34:52Z,RWZ103,"55.397015,37.904709",0,6,146
1621949701,2021-05-25T13:35:01Z,RWZ103,"55.396763,37.905014",0,9,146
1621949719,2021-05-25T13:35:19Z,RWZ103,"55.396328,37.905437",0,6,160
1621949732,2021-05-25T13:35:32Z,RWZ103,"55.39608,37.90535",0,4,194
1621949743,2021-05-25T13:35:43Z,RWZ103,"55.395943,37.905121",0,3,222
1621949845,2021-05-25T13:37:25Z,RWZ103,"55.395813,37.904911",0,5,230
1621949851,2021-05-25T13:37:31Z,RWZ103,"55.395721,37.904671",0,7,236
1621949855,2021-05-25T13:37:35Z,RWZ103,"55.395638,37.904453",0,8,236
1621949859,2021-05-25T13:37:39Z,RWZ103,"55.395557,37.904247",0,9,236
1621949865,2021-05-25T13:37:45Z,RWZ103,"55.395428,37.903851",0,9,239
1621949869,2021-05-25T13:37:49Z,RWZ103,"55.395344,37.903599",0,8,239
1621949873,2021-05-25T13:37:53Z,RWZ103,"55.395302,37.903393",0,7,247
1621949878,2021-05-25T13:37:58Z,RWZ103,"55.395313,37.903187",0,5,267
1621949884,2021-05-25T13:38:04Z,RWZ103,"55.395378,37.902973",0,5,292
1621949892,2021-05-25T13:38:12Z,RWZ103,"55.395584,37.90279",0,5,326
1621949905,2021-05-25T13:38:25Z,RWZ103,"55.395756,37.902569",0,4,326
1621949916,2021-05-25T13:38:36Z,RWZ103,"55.395996,37.902306",0,9,326
1621949921,2021-05-25T13:38:41Z,RWZ103,"55.396374,37.901863",0,25,326
1621949924,2021-05-25T13:38:44Z,RWZ103,"55.396812,37.901333",0,39,323
1621949961,2021-05-25T13:39:21Z,RWZ103,"55.412758,37.882191",500,163,325
1621949971,2021-05-25T13:39:31Z,RWZ103,"55.419067,37.874317",925,159,324
1621949986,2021-05-25T13:39:46Z,RWZ103,"55.427261,37.861473",1625,157,314
1621949989,2021-05-25T13:39:49Z,RWZ103,"55.42905,37.858303",1750,157,314
1621949992,2021-05-25T13:39:52Z,RWZ103,"55.430466,37.855656",1850,158,313
1621949995,2021-05-25T13:39:55Z,RWZ103,"55.432068,37.852665",1950,159,313
1621950001,2021-05-25T13:40:01Z,RWZ103,"55.435055,37.846817",2075,165,312
1621950003,2021-05-25T13:40:03Z,RWZ103,"55.435802,37.845402",2075,169,311
1621950004,2021-05-25T13:40:04Z,RWZ103,"55.436592,37.843822",2100,170,311
1621950016,2021-05-25T13:40:16Z,RWZ103,"55.443111,37.830673",2375,185,311
1621950024,2021-05-25T13:40:24Z,RWZ103,"55.447632,37.821598",2575,196,311
1621950034,2021-05-25T13:40:34Z,RWZ103,"55.454086,37.808285",2825,211,309
1621950039,2021-05-25T13:40:39Z,RWZ103,"55.456749,37.80138",2950,220,302
1621950040,2021-05-25T13:40:40Z,RWZ103,"55.457016,37.800625",2975,218,304
1621950041,2021-05-25T13:40:41Z,RWZ103,"55.45752,37.798962",3000,218,304
1621950042,2021-05-25T13:40:42Z,RWZ103,"55.458206,37.796547",3050,224,296
1621950044,2021-05-25T13:40:44Z,RWZ103,"55.458797,37.793999",3125,224,296
1621950045,2021-05-25T13:40:45Z,RWZ103,"55.459358,37.791424",3175,226,290
1621950048,2021-05-25T13:40:48Z,RWZ103,"55.460129,37.78606",3325,227,283
1621950052,2021-05-25T13:40:52Z,RWZ103,"55.460567,37.779064",3550,227,281
1621950057,2021-05-25T13:40:57Z,RWZ103,"55.460194,37.769623",3850,228,263
1621950060,2021-05-25T13:41:00Z,RWZ103,"55.459579,37.764172",4000,230,257
1621950064,2021-05-25T13:41:04Z,RWZ103,"55.458241,37.757347",4150,232,251
1621950066,2021-05-25T13:41:06Z,RWZ103,"55.457336,37.753849",4225,232,251
1621950069,2021-05-25T13:41:09Z,RWZ103,"55.455631,37.748508",4375,237,239
1621950072,2021-05-25T13:41:12Z,RWZ103,"55.453857,37.74353",4525,239,237
1621950075,2021-05-25T13:41:15Z,RWZ103,"55.452,37.73864",4675,241,236
1621950084,2021-05-25T13:41:24Z,RWZ103,"55.446121,37.723557",5225,242,235
1621950086,2021-05-25T13:41:26Z,RWZ103,"55.445251,37.72131",5300,242,235
1621950087,2021-05-25T13:41:27Z,RWZ103,"55.444366,37.71907",5400,242,235
1621950090,2021-05-25T13:41:30Z,RWZ103,"55.442364,37.714066",5575,242,235
1621950094,2021-05-25T13:41:34Z,RWZ103,"55.439991,37.708073",5800,243,235
1621950106,2021-05-25T13:41:46Z,RWZ103,"55.431381,37.688923",6500,246,225
1621950107,2021-05-25T13:41:47Z,RWZ103,"55.430923,37.688114",6525,246,224
1621950108,2021-05-25T13:41:48Z,RWZ103,"55.429642,37.686096",6600,246,223
1621950109,2021-05-25T13:41:49Z,RWZ103,"55.428772,37.684803",6650,246,223
1621950111,2021-05-25T13:41:51Z,RWZ103,"55.426956,37.682358",6775,248,218
1621950112,2021-05-25T13:41:52Z,RWZ103,"55.42598,37.68119",6825,248,216
1621950115,2021-05-25T13:41:55Z,RWZ103,"55.423138,37.678028",6975,250,211
1621950120,2021-05-25T13:42:00Z,RWZ103,"55.417786,37.673702",7275,251,202
1621950132,2021-05-25T13:42:12Z,RWZ103,"55.404007,37.669777",7825,260,181
1621950136,2021-05-25T13:42:16Z,RWZ103,"55.398743,37.670746",7950,266,172
1621950138,2021-05-25T13:42:18Z,RWZ103,"55.396324,37.671619",8000,269,169
1621950140,2021-05-25T13:42:20Z,RWZ103,"55.394371,37.672451",8050,272,166
1621950141,2021-05-25T13:42:21Z,RWZ103,"55.393112,37.673035",8075,274,165
1621950142,2021-05-25T13:42:22Z,RWZ103,"55.391739,37.673737",8100,275,165
1621950143,2021-05-25T13:42:23Z,RWZ103,"55.391006,37.674057",8125,277,164
1621950146,2021-05-25T13:42:26Z,RWZ103,"55.387436,37.675915",8200,280,163
1621950148,2021-05-25T13:42:28Z,RWZ103,"55.384686,37.677444",8275,282,162
1621950158,2021-05-25T13:42:38Z,RWZ103,"55.372055,37.684723",8700,291,161
1621950161,2021-05-25T13:42:41Z,RWZ103,"55.368301,37.686901",8800,294,161
1621950164,2021-05-25T13:42:44Z,RWZ103,"55.36467,37.689014",8925,295,161
1621950167,2021-05-25T13:42:47Z,RWZ103,"55.360474,37.691425",9075,298,161
1621950181,2021-05-25T13:43:01Z,RWZ103,"55.341934,37.702007",9775,302,162
1621950196,2021-05-25T13:43:16Z,RWZ103,"55.322296,37.712833",10725,299,162
1621950208,2021-05-25T13:43:28Z,RWZ103,"55.306248,37.721642",11350,301,162
1621950220,2021-05-25T13:43:40Z,RWZ103,"55.290001,37.730629",11900,306,162
1621950235,2021-05-25T13:43:55Z,RWZ103,"55.269333,37.741997",12575,312,162
1621950266,2021-05-25T13:44:26Z,RWZ103,"55.226269,37.765503",13800,321,162
1621950298,2021-05-25T13:44:58Z,RWZ103,"55.18071,37.790062",15150,325,165
1621950311,2021-05-25T13:45:11Z,RWZ103,"55.16077,37.792969",15525,326,182
1621950314,2021-05-25T13:45:14Z,RWZ103,"55.155991,37.79192",15650,325,187
1621950315,2021-05-25T13:45:15Z,RWZ103,"55.154526,37.791435",15700,324,188
1621950316,2021-05-25T13:45:16Z,RWZ103,"55.15379,37.791222",15700,325,190
1621950317,2021-05-25T13:45:17Z,RWZ103,"55.152191,37.790627",15750,323,191
1621950320,2021-05-25T13:45:20Z,RWZ103,"55.147503,37.788891",15900,323,192
1621950322,2021-05-25T13:45:22Z,RWZ103,"55.145035,37.787891",16000,323,193
1621950324,2021-05-25T13:45:24Z,RWZ103,"55.141113,37.786263",16150,322,193
1621950325,2021-05-25T13:45:25Z,RWZ103,"55.140564,37.786022",16175,322,193
1621950326,2021-05-25T13:45:26Z,RWZ103,"55.138519,37.785145",16250,321,193
1621950327,2021-05-25T13:45:27Z,RWZ103,"55.137959,37.784977",16275,321,193
1621950329,2021-05-25T13:45:29Z,RWZ103,"55.135075,37.78373",16375,321,193
1621950331,2021-05-25T13:45:31Z,RWZ103,"55.131721,37.782398",16500,321,193
1621950332,2021-05-25T13:45:32Z,RWZ103,"55.129715,37.781498",16550,321,193
1621950334,2021-05-25T13:45:34Z,RWZ103,"55.126972,37.780399",16650,321,193
1621950336,2021-05-25T13:45:36Z,RWZ103,"55.124222,37.779236",16750,321,193
1621950369,2021-05-25T13:46:09Z,RWZ103,"55.076603,37.759426",18175,325,193
1621950398,2021-05-25T13:46:38Z,RWZ103,"55.033077,37.738121",19050,338,203
1621950399,2021-05-25T13:46:39Z,RWZ103,"55.03252,37.737705",19050,338,203
1621950400,2021-05-25T13:46:40Z,RWZ103,"55.031075,37.736454",19050,339,205
1621950401,2021-05-25T13:46:41Z,RWZ103,"55.029282,37.734886",19075,339,207
1621950402,2021-05-25T13:46:42Z,RWZ103,"55.02861,37.734127",19075,337,204
1621950403,2021-05-25T13:46:43Z,RWZ103,"55.027119,37.732628",19075,340,208
1621950406,2021-05-25T13:46:46Z,RWZ103,"55.023254,37.728298",19125,341,212
1621950407,2021-05-25T13:46:47Z,RWZ103,"55.021999,37.726719",19125,342,215
1621950408,2021-05-25T13:46:48Z,RWZ103,"55.020355,37.724548",19150,342,216
1621950409,2021-05-25T13:46:49Z,RWZ103,"55.019253,37.722973",19175,343,218
1621950410,2021-05-25T13:46:50Z,RWZ103,"55.017948,37.720974",19200,342,219
1621950411,2021-05-25T13:46:51Z,RWZ103,"55.016876,37.719296",19200,342,219
1621950412,2021-05-25T13:46:52Z,RWZ103,"55.015732,37.717438",19225,343,222
1621950413,2021-05-25T13:46:53Z,RWZ103,"55.014503,37.715233",19250,343,224
1621950414,2021-05-25T13:46:54Z,RWZ103,"55.013107,37.71265",19275,343,226
1621950415,2021-05-25T13:46:55Z,RWZ103,"55.012455,37.711403",19300,344,227
1621950416,2021-05-25T13:46:56Z,RWZ103,"55.01152,37.709522",19325,343,229
1621950417,2021-05-25T13:46:57Z,RWZ103,"55.010548,37.707325",19350,343,230
1621950420,2021-05-25T13:47:00Z,RWZ103,"55.007767,37.700634",19425,343,233
1621950421,2021-05-25T13:47:01Z,RWZ103,"55.006821,37.698086",19475,343,236
1621950422,2021-05-25T13:47:02Z,RWZ103,"55.006031,37.695755",19500,343,236
1621950423,2021-05-25T13:47:03Z,RWZ103,"55.005241,37.693344",19525,342,239
1621950424,2021-05-25T13:47:04Z,RWZ103,"55.004333,37.690456",19575,342,241
1621950425,2021-05-25T13:47:05Z,RWZ103,"55.003983,37.689182",19600,342,241
1621950426,2021-05-25T13:47:06Z,RWZ103,"55.003052,37.686012",19650,341,242
1621950428,2021-05-25T13:47:08Z,RWZ103,"55.001701,37.681026",19725,341,244
1621950429,2021-05-25T13:47:09Z,RWZ103,"55.001129,37.678825",19750,342,243
1621950430,2021-05-25T13:47:10Z,RWZ103,"55.000305,37.675835",19800,341,245
1621950431,2021-05-25T13:47:11Z,RWZ103,"54.999748,37.673534",19850,341,245
1621950432,2021-05-25T13:47:12Z,RWZ103,"54.999096,37.671036",19900,341,245
1621950433,2021-05-25T13:47:13Z,RWZ103,"54.998348,37.668289",19950,341,245
1621950434,2021-05-25T13:47:14Z,RWZ103,"54.99765,37.665577",20000,341,245
1621950435,2021-05-25T13:47:15Z,RWZ103,"54.997093,37.66338",20025,341,245
1621950436,2021-05-25T13:47:16Z,RWZ103,"54.996506,37.661133",20075,341,245
1621950497,2021-05-25T13:48:17Z,RWZ103,"54.956406,37.504662",22100,354,246
1621950559,2021-05-25T13:49:19Z,RWZ103,"54.914043,37.339699",24075,363,245
1621950621,2021-05-25T13:50:21Z,RWZ103,"54.872005,37.176819",26000,368,245
1621950682,2021-05-25T13:51:22Z,RWZ103,"54.828598,37.009789",27475,380,245
1621950742,2021-05-25T13:52:22Z,RWZ103,"54.784817,36.842567",29000,386,245
1621950804,2021-05-25T13:53:24Z,RWZ103,"54.745331,36.664204",30575,383,256
1621950865,2021-05-25T13:54:25Z,RWZ103,"54.735004,36.478188",31625,391,270
1621950928,2021-05-25T13:55:28Z,RWZ103,"54.736267,36.278229",32625,401,270
1621950988,2021-05-25T13:56:28Z,RWZ103,"54.737183,36.085323",33650,406,270
1621951051,2021-05-25T13:57:31Z,RWZ103,"54.737823,35.880219",34000,407,270
1621951113,2021-05-25T13:58:33Z,RWZ103,"54.738144,35.677616",34000,409,270
1621951175,2021-05-25T13:59:35Z,RWZ103,"54.738125,35.476017",34000,408,269
1621951237,2021-05-25T14:00:37Z,RWZ103,"54.73761,35.276268",34000,408,269
1621951298,2021-05-25T14:01:38Z,RWZ103,"54.735535,35.078861",34000,407,268
1621951361,2021-05-25T14:02:41Z,RWZ103,"54.731792,34.872021",34000,407,268
1621951422,2021-05-25T14:03:42Z,RWZ103,"54.727928,34.673019",34000,407,268
1621951486,2021-05-25T14:04:46Z,RWZ103,"54.72369,34.468105",34000,408,267
1621951548,2021-05-25T14:05:48Z,RWZ103,"54.719177,34.263695",34000,410,267
1621951608,2021-05-25T14:06:48Z,RWZ103,"54.714474,34.06744",34000,412,267
1621951670,2021-05-25T14:07:50Z,RWZ103,"54.709122,33.863441",34025,412,266
1621951732,2021-05-25T14:08:52Z,RWZ103,"54.696552,33.661026",34025,411,263
1621951793,2021-05-25T14:09:53Z,RWZ103,"54.683807,33.46468",34000,410,263
1621951854,2021-05-25T14:10:54Z,RWZ103,"54.670574,33.265602",34000,409,263
1621951917,2021-05-25T14:11:57Z,RWZ103,"54.65657,33.060528",33975,410,263
1621951979,2021-05-25T14:12:59Z,RWZ103,"54.642654,32.862289",34000,410,262
1621952040,2021-05-25T14:14:00Z,RWZ103,"54.62854,32.664433",34000,411,262
1621952101,2021-05-25T14:15:01Z,RWZ103,"54.613907,32.466053",34000,411,262
1621952164,2021-05-25T14:16:04Z,RWZ103,"54.598465,32.260937",34000,412,262
1621952225,2021-05-25T14:17:05Z,RWZ103,"54.58329,32.061935",34000,411,262
1621952287,2021-05-25T14:18:07Z,RWZ103,"54.567417,31.860102",34000,410,262
1621952348,2021-05-25T14:19:08Z,RWZ103,"54.55188,31.665829",33975,411,262
1621952411,2021-05-25T14:20:11Z,RWZ103,"54.53511,31.460932",33975,413,261
1621952472,2021-05-25T14:21:12Z,RWZ103,"54.518555,31.262728",34000,416,261
1621952533,2021-05-25T14:22:13Z,RWZ103,"54.515137,31.06093",34025,422,275
1621952594,2021-05-25T14:23:14Z,RWZ103,"54.541069,30.859264",34025,427,285
1621952655,2021-05-25T14:24:15Z,RWZ103,"54.573715,30.659126",33975,427,285
1621952716,2021-05-25T14:25:16Z,RWZ103,"54.605869,30.461092",33975,429,285
1621952777,2021-05-25T14:26:17Z,RWZ103,"54.638031,30.259579",34025,429,285
1621952838,2021-05-25T14:27:18Z,RWZ103,"54.669785,30.059175",34025,428,285
1621952899,2021-05-25T14:28:19Z,RWZ103,"54.701019,29.859386",34000,426,285
1621952960,2021-05-25T14:29:20Z,RWZ103,"54.73201,29.658886",34000,426,284
1621953021,2021-05-25T14:30:21Z,RWZ103,"54.762703,29.457758",34000,423,284
1621953083,2021-05-25T14:31:23Z,RWZ103,"54.793335,29.254261",34000,423,284
1621953144,2021-05-25T14:32:24Z,RWZ103,"54.822521,29.057007",34000,422,284
1621953205,2021-05-25T14:33:25Z,RWZ103,"54.852493,28.85446",34000,422,284
1621953267,2021-05-25T14:34:27Z,RWZ103,"54.881699,28.653637",34000,422,283
1621953328,2021-05-25T14:35:28Z,RWZ103,"54.910492,28.45257",34000,422,283
1621953389,2021-05-25T14:36:29Z,RWZ103,"54.938484,28.253756",33975,422,283
1621953450,2021-05-25T14:37:30Z,RWZ103,"54.966881,28.050426",33975,425,283
1621953511,2021-05-25T14:38:31Z,RWZ103,"54.995041,27.845657",34025,427,283
1621953574,2021-05-25T14:39:34Z,RWZ103,"55.023376,27.637077",34025,428,283
1621953635,2021-05-25T14:40:35Z,RWZ103,"55.05035,27.434111",34000,426,282
1621953698,2021-05-25T14:41:38Z,RWZ103,"55.070755,27.21895",34000,427,279
1621953758,2021-05-25T14:42:38Z,RWZ103,"55.089268,27.015547",34025,427,279
1621953820,2021-05-25T14:43:40Z,RWZ103,"55.107925,26.806721",34000,425,278
1621953881,2021-05-25T14:44:41Z,RWZ103,"55.126041,26.599648",33975,426,278
1621953942,2021-05-25T14:45:42Z,RWZ103,"55.133514,26.390371",34025,422,267
1621954003,2021-05-25T14:46:43Z,RWZ103,"55.125778,26.183893",34025,418,266
1621954064,2021-05-25T14:47:44Z,RWZ103,"55.117722,25.979435",33975,418,265
1621954127,2021-05-25T14:48:47Z,RWZ103,"55.108704,25.77029",34000,417,265
1621954188,2021-05-25T14:49:48Z,RWZ103,"55.099869,25.56567",34000,419,265
1621954250,2021-05-25T14:50:50Z,RWZ103,"55.090622,25.356768",34050,415,265
1621954311,2021-05-25T14:51:51Z,RWZ103,"55.081192,25.154329",34000,413,265
1621954373,2021-05-25T14:52:53Z,RWZ103,"55.071251,24.949701",33975,411,264
1621954435,2021-05-25T14:53:55Z,RWZ103,"55.060963,24.744539",33950,414,264
1621954496,2021-05-25T14:54:56Z,RWZ103,"55.050522,24.541679",34000,416,264
1621954557,2021-05-25T14:55:57Z,RWZ103,"55.039547,24.338961",34025,416,264
1621954618,2021-05-25T14:56:58Z,RWZ103,"55.02832,24.136963",33875,414,264
1621954679,2021-05-25T14:57:59Z,RWZ103,"55.016926,23.934797",32875,414,264
1621954740,2021-05-25T14:59:00Z,RWZ103,"55.0051,23.734381",31050,408,263
1621954801,2021-05-25T15:00:01Z,RWZ103,"54.993229,23.538374",28875,400,263
1621954863,2021-05-25T15:01:03Z,RWZ103,"54.980988,23.341827",26525,394,263
1621954925,2021-05-25T15:02:05Z,RWZ103,"54.968674,23.149324",24225,382,263
1621954986,2021-05-25T15:03:06Z,RWZ103,"54.956772,22.966757",22375,363,263
1621955048,2021-05-25T15:04:08Z,RWZ103,"54.944817,22.786894",22000,362,263
1621955109,2021-05-25T15:05:09Z,RWZ103,"54.941837,22.605701",19925,365,270
1621955172,2021-05-25T15:06:12Z,RWZ103,"54.945419,22.43384",18850,322,272
1621955233,2021-05-25T15:07:13Z,RWZ103,"54.948353,22.278276",16325,308,271
1621955265,2021-05-25T15:07:45Z,RWZ103,"54.949795,22.20237",15150,299,271
1621955295,2021-05-25T15:08:15Z,RWZ103,"54.951096,22.129292",13975,295,271
1621955329,2021-05-25T15:08:49Z,RWZ103,"54.952423,22.051743",13100,273,271
1621955361,2021-05-25T15:09:21Z,RWZ103,"54.953384,21.982431",11825,272,271
1621955372,2021-05-25T15:09:32Z,RWZ103,"54.953754,21.959423",11375,273,271
1621955384,2021-05-25T15:09:44Z,RWZ103,"54.95417,21.933372",11000,276,271
1621955396,2021-05-25T15:09:56Z,RWZ103,"54.954483,21.905607",10700,274,271
1621955407,2021-05-25T15:10:07Z,RWZ103,"54.954823,21.881519",10475,271,271
1621955420,2021-05-25T15:10:20Z,RWZ103,"54.955261,21.8531",10225,267,271
1621955432,2021-05-25T15:10:32Z,RWZ103,"54.95557,21.829168",9975,265,271
1621955444,2021-05-25T15:10:44Z,RWZ103,"54.955986,21.803949",9750,260,271
1621955454,2021-05-25T15:10:54Z,RWZ103,"54.95636,21.781931",9525,259,271
1621955466,2021-05-25T15:11:06Z,RWZ103,"54.95668,21.758018",9175,260,271
1621955478,2021-05-25T15:11:18Z,RWZ103,"54.957012,21.733204",8900,260,271
1621955490,2021-05-25T15:11:30Z,RWZ103,"54.957382,21.708319",8675,261,271
1621955501,2021-05-25T15:11:41Z,RWZ103,"54.957851,21.684931",8475,264,271
1621955512,2021-05-25T15:11:52Z,RWZ103,"54.958237,21.661728",8250,263,271
1621955523,2021-05-25T15:12:03Z,RWZ103,"54.958603,21.638382",8025,261,271
1621955535,2021-05-25T15:12:15Z,RWZ103,"54.958923,21.613016",7800,262,271
1621955546,2021-05-25T15:12:26Z,RWZ103,"54.959198,21.589588",7600,263,271
1621955562,2021-05-25T15:12:42Z,RWZ103,"54.95961,21.555256",7275,262,271
1621955577,2021-05-25T15:12:57Z,RWZ103,"54.95993,21.524641",7000,261,271
1621955589,2021-05-25T15:13:09Z,RWZ103,"54.960224,21.498829",6775,261,271
1621955601,2021-05-25T15:13:21Z,RWZ103,"54.960548,21.47436",6525,261,271
1621955613,2021-05-25T15:13:33Z,RWZ103,"54.960876,21.449141",6300,259,271
1621955625,2021-05-25T15:13:45Z,RWZ103,"54.961121,21.423986",6075,256,271
1621955635,2021-05-25T15:13:55Z,RWZ103,"54.961349,21.403145",5875,254,271
1621955647,2021-05-25T15:14:07Z,RWZ103,"54.96162,21.378563",5675,253,271
1621955664,2021-05-25T15:14:24Z,RWZ103,"54.961994,21.344604",5350,251,271
1621955676,2021-05-25T15:14:36Z,RWZ103,"54.962265,21.320505",5125,250,271
1621955688,2021-05-25T15:14:48Z,RWZ103,"54.96254,21.296028",4900,250,271
1621955694,2021-05-25T15:14:54Z,RWZ103,"54.962677,21.284637",4800,250,271
1621955700,2021-05-25T15:15:00Z,RWZ103,"54.96283,21.272028",4675,249,271
1621955707,2021-05-25T15:15:07Z,RWZ103,"54.962997,21.259434",4575,249,271
1621955714,2021-05-25T15:15:14Z,RWZ103,"54.963135,21.245863",4450,249,271
1621955722,2021-05-25T15:15:22Z,RWZ103,"54.963295,21.229248",4300,249,271
1621955728,2021-05-25T15:15:28Z,RWZ103,"54.963409,21.217104",4175,249,270
1621955734,2021-05-25T15:15:34Z,RWZ103,"54.963577,21.204113",4050,248,270
1621955746,2021-05-25T15:15:46Z,RWZ103,"54.963776,21.181963",3850,246,270
1621955753,2021-05-25T15:15:53Z,RWZ103,"54.963902,21.167992",3725,244,270
1621955773,2021-05-25T15:16:13Z,RWZ103,"54.964233,21.128162",3450,243,270
1621955780,2021-05-25T15:16:20Z,RWZ103,"54.964321,21.114807",3425,245,270
1621955788,2021-05-25T15:16:28Z,RWZ103,"54.964458,21.098993",3375,242,270
1621955795,2021-05-25T15:16:35Z,RWZ103,"54.9646,21.085348",3325,239,270
1621955801,2021-05-25T15:16:41Z,RWZ103,"54.964691,21.07412",3250,236,270
1621955809,2021-05-25T15:16:49Z,RWZ103,"54.964878,21.059126",3150,232,271
1621955816,2021-05-25T15:16:56Z,RWZ103,"54.964973,21.047474",3075,228,270
1621955822,2021-05-25T15:17:02Z,RWZ103,"54.965111,21.034822",2975,224,270
1621955828,2021-05-25T15:17:08Z,RWZ103,"54.965206,21.025751",2925,221,270
1621955833,2021-05-25T15:17:13Z,RWZ103,"54.965286,21.015392",2875,218,270
1621955839,2021-05-25T15:17:19Z,RWZ103,"54.965343,21.005693",2825,215,270
1621955849,2021-05-25T15:17:29Z,RWZ103,"54.965439,20.988214",2725,209,270
1621955855,2021-05-25T15:17:35Z,RWZ103,"54.96553,20.978144",2650,206,270
1621955862,2021-05-25T15:17:42Z,RWZ103,"54.965576,20.967657",2600,202,270
1621955868,2021-05-25T15:17:48Z,RWZ103,"54.965698,20.958359",2550,198,270
1621955874,2021-05-25T15:17:54Z,RWZ103,"54.965763,20.947847",2475,195,270
1621955882,2021-05-25T15:18:02Z,RWZ103,"54.965855,20.936113",2425,191,270
1621955889,2021-05-25T15:18:09Z,RWZ103,"54.96595,20.926125",2350,188,270
1621955896,2021-05-25T15:18:16Z,RWZ103,"54.966019,20.915222",2300,184,270
1621955902,2021-05-25T15:18:22Z,RWZ103,"54.966091,20.905567",2225,181,270
1621955908,2021-05-25T15:18:28Z,RWZ103,"54.96595,20.897827",2175,177,265
1621955910,2021-05-25T15:18:30Z,RWZ103,"54.965717,20.894997",2125,176,262
1621955913,2021-05-25T15:18:33Z,RWZ103,"54.965252,20.890753",2100,174,258
1621955914,2021-05-25T15:18:34Z,RWZ103,"54.965057,20.889534",2075,173,256
1621955916,2021-05-25T15:18:36Z,RWZ103,"54.964554,20.886463",2075,171,254
1621955917,2021-05-25T15:18:37Z,RWZ103,"54.964321,20.885176",2075,170,253
1621955918,2021-05-25T15:18:38Z,RWZ103,"54.964134,20.884178",2075,168,252
1621955920,2021-05-25T15:18:40Z,RWZ103,"54.963638,20.881779",2100,165,251
1621955923,2021-05-25T15:18:43Z,RWZ103,"54.96283,20.877851",2100,162,250
1621955924,2021-05-25T15:18:44Z,RWZ103,"54.962597,20.876604",2100,160,250
1621955925,2021-05-25T15:18:45Z,RWZ103,"54.962311,20.875154",2100,159,249
1621955929,2021-05-25T15:18:49Z,RWZ103,"54.961388,20.871027",2075,156,249
1621955933,2021-05-25T15:18:53Z,RWZ103,"54.960205,20.865864",2025,154,248
1621955934,2021-05-25T15:18:54Z,RWZ103,"54.960022,20.864975",2025,153,248
1621955936,2021-05-25T15:18:56Z,RWZ103,"54.95948,20.862703",2000,152,247
1621955938,2021-05-25T15:18:58Z,RWZ103,"54.958878,20.86021",1975,151,247
1621955939,2021-05-25T15:18:59Z,RWZ103,"54.958649,20.859159",1975,150,247
1621955941,2021-05-25T15:19:01Z,RWZ103,"54.958099,20.856897",1950,149,247
1621955945,2021-05-25T15:19:05Z,RWZ103,"54.957092,20.852859",1925,147,246
1621955946,2021-05-25T15:19:06Z,RWZ103,"54.95668,20.851242",1900,146,246
1621955947,2021-05-25T15:19:07Z,RWZ103,"54.956451,20.850304",1900,146,246
1621955949,2021-05-25T15:19:09Z,RWZ103,"54.95594,20.848305",1875,145,246
1621955955,2021-05-25T15:19:15Z,RWZ103,"54.954498,20.84248",1850,141,246
1621955962,2021-05-25T15:19:22Z,RWZ103,"54.952744,20.835651",1825,134,246
1621955969,2021-05-25T15:19:29Z,RWZ103,"54.950775,20.827997",1825,130,245
1621955977,2021-05-25T15:19:37Z,RWZ103,"54.949051,20.821257",1800,130,245
1621955983,2021-05-25T15:19:43Z,RWZ103,"54.947525,20.815456",1800,129,245
1621955988,2021-05-25T15:19:48Z,RWZ103,"54.946163,20.810102",1800,129,245
1621955994,2021-05-25T15:19:54Z,RWZ103,"54.944675,20.804443",1800,129,245
1621956001,2021-05-25T15:20:01Z,RWZ103,"54.943176,20.798573",1800,128,246
1621956007,2021-05-25T15:20:07Z,RWZ103,"54.941605,20.792376",1825,128,246
1621956013,2021-05-25T15:20:13Z,RWZ103,"54.940113,20.786715",1825,129,245
1621956019,2021-05-25T15:20:19Z,RWZ103,"54.938644,20.780962",1825,128,245
1621956026,2021-05-25T15:20:26Z,RWZ103,"54.93718,20.775227",1800,128,246
1621956031,2021-05-25T15:20:31Z,RWZ103,"54.93576,20.769733",1800,128,246
1621956038,2021-05-25T15:20:38Z,RWZ103,"54.934296,20.763826",1800,126,246
1621956049,2021-05-25T15:20:49Z,RWZ103,"54.931499,20.75309",1800,128,246
1621956055,2021-05-25T15:20:55Z,RWZ103,"54.930012,20.747265",1725,129,245
1621956061,2021-05-25T15:21:01Z,RWZ103,"54.928528,20.741461",1650,129,245
1621956068,2021-05-25T15:21:08Z,RWZ103,"54.926937,20.735445",1550,128,246
1621956074,2021-05-25T15:21:14Z,RWZ103,"54.925507,20.729666",1500,128,246
1621956080,2021-05-25T15:21:20Z,RWZ103,"54.924007,20.723961",1425,128,245
1621956086,2021-05-25T15:21:26Z,RWZ103,"54.922562,20.718384",1350,129,245
1621956093,2021-05-25T15:21:33Z,RWZ103,"54.920795,20.711393",1275,128,246
1621956100,2021-05-25T15:21:40Z,RWZ103,"54.919327,20.705673",1200,127,245
1621956107,2021-05-25T15:21:47Z,RWZ103,"54.917404,20.698404",1100,127,245
1621956113,2021-05-25T15:21:53Z,RWZ103,"54.916092,20.693249",1050,127,245
1621956136,2021-05-25T15:22:16Z,RWZ103,"54.910446,20.671423",775,128,246
1621956141,2021-05-25T15:22:21Z,RWZ103,"54.909439,20.667465",725,128,246
1621956148,2021-05-25T15:22:28Z,RWZ103,"54.907516,20.659952",650,128,246
1621956154,2021-05-25T15:22:34Z,RWZ103,"54.906052,20.654297",575,128,246
1621956161,2021-05-25T15:22:41Z,RWZ103,"54.904541,20.648319",500,129,245
