Timestamp,UTC,Callsign,Position,Altitude,Speed,Direction
1620392442,2021-05-07T13:00:42Z,RWZ271,"55.415668,37.885269",0,2,154
1620393236,2021-05-07T13:13:56Z,RWZ271,"55.414249,37.883961",0,11,149
1620393248,2021-05-07T13:14:08Z,RWZ271,"55.413643,37.884697",0,15,146
1620393255,2021-05-07T13:14:15Z,RWZ271,"55.413174,37.885281",0,18,146
1620393269,2021-05-07T13:14:29Z,RWZ271,"55.412048,37.886623",0,22,146
1620393279,2021-05-07T13:14:39Z,RWZ271,"55.411171,37.887665",0,22,146
1620393395,2021-05-07T13:16:35Z,RWZ271,"55.39983,37.901299",0,25,146
1620393583,2021-05-07T13:19:43Z,RWZ271,"55.419022,37.874237",1375,160,322
1620393595,2021-05-07T13:19:55Z,RWZ271,"55.425236,37.86438",1875,156,315
1620393598,2021-05-07T13:19:58Z,RWZ271,"55.426769,37.861633",2000,156,314
1620393605,2021-05-07T13:20:05Z,RWZ271,"55.430401,37.854893",2250,158,313
1620393611,2021-05-07T13:20:11Z,RWZ271,"55.433334,37.849316",2425,159,312
1620393617,2021-05-07T13:20:17Z,RWZ271,"55.436371,37.843376",2650,160,311
1620393623,2021-05-07T13:20:23Z,RWZ271,"55.439529,37.837074",2925,160,310
1620393629,2021-05-07T13:20:29Z,RWZ271,"55.442505,37.831089",3125,162,310
1620393648,2021-05-07T13:20:48Z,RWZ271,"55.452095,37.811249",3550,186,310
1620393663,2021-05-07T13:21:03Z,RWZ271,"55.459076,37.790554",4050,196,292
1620393669,2021-05-07T13:21:09Z,RWZ271,"55.460335,37.781555",4200,202,282
1620393674,2021-05-07T13:21:14Z,RWZ271,"55.460567,37.772797",4350,208,275
1620393677,2021-05-07T13:21:17Z,RWZ271,"55.46022,37.76725",4450,216,262
1620393680,2021-05-07T13:21:20Z,RWZ271,"55.459496,37.76207",4550,220,256
1620393683,2021-05-07T13:21:23Z,RWZ271,"55.458344,37.756596",4650,220,256
1620393686,2021-05-07T13:21:26Z,RWZ271,"55.456879,37.751438",4750,227,242
1620393695,2021-05-07T13:21:35Z,RWZ271,"55.451843,37.738121",4925,228,234
1620393698,2021-05-07T13:21:38Z,RWZ271,"55.449921,37.733459",4975,227,234
1620393701,2021-05-07T13:21:41Z,RWZ271,"55.448135,37.72913",5000,227,233
1620393704,2021-05-07T13:21:44Z,RWZ271,"55.446136,37.724388",5025,228,233
1620393707,2021-05-07T13:21:47Z,RWZ271,"55.444229,37.719925",5050,228,233
1620393710,2021-05-07T13:21:50Z,RWZ271,"55.442322,37.71542",5050,230,233
1620393722,2021-05-07T13:22:02Z,RWZ271,"55.434723,37.696678",5050,229,235
1620393738,2021-05-07T13:22:18Z,RWZ271,"55.423092,37.676697",5050,230,216
1620393745,2021-05-07T13:22:25Z,RWZ271,"55.416294,37.671288",5050,231,199
1620393746,2021-05-07T13:22:26Z,RWZ271,"55.414856,37.670586",5050,231,197
1620393751,2021-05-07T13:22:31Z,RWZ271,"55.410198,37.669205",5100,235,186
1620393752,2021-05-07T13:22:32Z,RWZ271,"55.408401,37.669048",5125,236,184
1620393753,2021-05-07T13:22:33Z,RWZ271,"55.407173,37.669125",5150,238,181
1620393756,2021-05-07T13:22:36Z,RWZ271,"55.403728,37.669704",5225,246,172
1620393763,2021-05-07T13:22:43Z,RWZ271,"55.396233,37.672787",5500,254,164
1620393767,2021-05-07T13:22:47Z,RWZ271,"55.391235,37.67543",5700,257,163
1620393769,2021-05-07T13:22:49Z,RWZ271,"55.389389,37.676449",5775,259,163
1620393771,2021-05-07T13:22:51Z,RWZ271,"55.387665,37.677368",5850,257,163
1620393772,2021-05-07T13:22:52Z,RWZ271,"55.385788,37.678341",5925,261,162
1620393773,2021-05-07T13:22:53Z,RWZ271,"55.384735,37.678905",5950,262,162
1620393776,2021-05-07T13:22:56Z,RWZ271,"55.381027,37.680923",6100,263,162
1620393777,2021-05-07T13:22:57Z,RWZ271,"55.380569,37.681168",6125,264,162
1620393780,2021-05-07T13:23:00Z,RWZ271,"55.376083,37.68359",6250,265,162
1620393783,2021-05-07T13:23:03Z,RWZ271,"55.373421,37.68502",6325,265,162
1620393786,2021-05-07T13:23:06Z,RWZ271,"55.369976,37.686852",6400,266,162
1620393798,2021-05-07T13:23:18Z,RWZ271,"55.355778,37.694675",6650,268,162
1620393811,2021-05-07T13:23:31Z,RWZ271,"55.339718,37.703663",6975,267,162
1620393822,2021-05-07T13:23:42Z,RWZ271,"55.326736,37.710732",7250,271,162
1620393838,2021-05-07T13:23:58Z,RWZ271,"55.308426,37.720669",7625,269,162
1620393851,2021-05-07T13:24:11Z,RWZ271,"55.292404,37.729313",7925,277,162
1620393863,2021-05-07T13:24:23Z,RWZ271,"55.27684,37.737877",8000,275,162
1620393875,2021-05-07T13:24:35Z,RWZ271,"55.263653,37.745113",8125,270,162
1620393886,2021-05-07T13:24:46Z,RWZ271,"55.250011,37.752518",8475,276,162
1620393909,2021-05-07T13:25:09Z,RWZ271,"55.221542,37.767845",9025,279,162
1620393923,2021-05-07T13:25:23Z,RWZ271,"55.204857,37.776905",9350,277,162
1620393935,2021-05-07T13:25:35Z,RWZ271,"55.189774,37.785053",9675,278,162
1620393947,2021-05-07T13:25:47Z,RWZ271,"55.175034,37.793129",9975,283,162
1620393959,2021-05-07T13:25:59Z,RWZ271,"55.159698,37.801533",10300,285,162
1620393971,2021-05-07T13:26:11Z,RWZ271,"55.144524,37.80978",10800,290,162
1620393983,2021-05-07T13:26:23Z,RWZ271,"55.129486,37.81802",11375,292,162
1620393996,2021-05-07T13:26:36Z,RWZ271,"55.112682,37.827175",11950,293,162
1620394008,2021-05-07T13:26:48Z,RWZ271,"55.096481,37.836166",12650,293,162
1620394044,2021-05-07T13:27:24Z,RWZ271,"55.049149,37.862118",14300,308,162
1620394075,2021-05-07T13:27:55Z,RWZ271,"55.006165,37.885624",15775,313,162
1620394110,2021-05-07T13:28:30Z,RWZ271,"54.958145,37.9118",17325,319,162
1620394140,2021-05-07T13:29:00Z,RWZ271,"54.913578,37.935959",17975,342,162
1620394174,2021-05-07T13:29:34Z,RWZ271,"54.860962,37.96471",18400,368,162
1620394235,2021-05-07T13:30:35Z,RWZ271,"54.759567,38.018593",20550,385,163
1620394297,2021-05-07T13:31:37Z,RWZ271,"54.652885,38.074783",22625,396,162
1620394359,2021-05-07T13:32:39Z,RWZ271,"54.542816,38.133625",24775,402,162
1620394420,2021-05-07T13:33:40Z,RWZ271,"54.434322,38.196632",26775,406,160
1620394483,2021-05-07T13:34:43Z,RWZ271,"54.317478,38.265297",27250,444,161
1620394544,2021-05-07T13:35:44Z,RWZ271,"54.196812,38.335823",28525,456,161
1620394610,2021-05-07T13:36:50Z,RWZ271,"54.066559,38.411594",30450,449,161
1620394670,2021-05-07T13:37:50Z,RWZ271,"53.948639,38.479378",31775,452,161
1620394734,2021-05-07T13:38:54Z,RWZ271,"53.822754,38.551418",33000,442,161
1620394796,2021-05-07T13:39:56Z,RWZ271,"53.701778,38.620419",33000,447,161
1620394859,2021-05-07T13:40:59Z,RWZ271,"53.578228,38.690292",33000,448,161
1620394920,2021-05-07T13:42:00Z,RWZ271,"53.458263,38.757664",33000,450,161
1620394982,2021-05-07T13:43:02Z,RWZ271,"53.33569,38.826008",33000,452,161
1620395046,2021-05-07T13:44:06Z,RWZ271,"53.209209,38.896286",33050,450,161
1620395110,2021-05-07T13:45:10Z,RWZ271,"53.084446,38.96521",33000,447,161
1620395170,2021-05-07T13:46:10Z,RWZ271,"52.965454,39.030304",32975,448,161
1620395233,2021-05-07T13:47:13Z,RWZ271,"52.843216,39.096889",32975,448,161
1620395294,2021-05-07T13:48:14Z,RWZ271,"52.721695,39.16275",32975,451,161
1620395355,2021-05-07T13:49:15Z,RWZ271,"52.601166,39.227753",33025,452,161
1620395415,2021-05-07T13:50:15Z,RWZ271,"52.481457,39.291897",33025,450,161
1620395477,2021-05-07T13:51:17Z,RWZ271,"52.36005,39.35656",33025,447,162
1620395538,2021-05-07T13:52:18Z,RWZ271,"52.239716,39.42009",33000,446,162
1620395599,2021-05-07T13:53:19Z,RWZ271,"52.120678,39.482746",32975,445,162
1620395663,2021-05-07T13:54:23Z,RWZ271,"51.994568,39.548897",32975,445,161
1620395726,2021-05-07T13:55:26Z,RWZ271,"51.87125,39.613037",33000,446,162
1620395788,2021-05-07T13:56:28Z,RWZ271,"51.750542,39.675598",33000,449,162
1620395849,2021-05-07T13:57:29Z,RWZ271,"51.628784,39.738365",33000,449,162
1620395911,2021-05-07T13:58:31Z,RWZ271,"51.505234,39.801315",33025,451,162
1620395971,2021-05-07T13:59:31Z,RWZ271,"51.386921,39.861908",33025,452,162
1620396036,2021-05-07T14:00:36Z,RWZ271,"51.258591,39.926842",33000,452,162
1620396099,2021-05-07T14:01:39Z,RWZ271,"51.132385,39.990162",32975,457,162
1620396160,2021-05-07T14:02:40Z,RWZ271,"51.007751,40.052567",33025,460,162
1620396223,2021-05-07T14:03:43Z,RWZ271,"50.880058,40.115967",33025,461,162
1620396284,2021-05-07T14:04:44Z,RWZ271,"50.756744,40.176849",33025,460,162
1620396346,2021-05-07T14:05:46Z,RWZ271,"50.630402,40.239017",33000,459,162
1620396406,2021-05-07T14:06:46Z,RWZ271,"50.508572,40.298595",33000,460,162
1620396468,2021-05-07T14:07:48Z,RWZ271,"50.383942,40.35907",33000,459,162
1620396522,2021-05-07T14:08:42Z,RWZ271,"50.274857,40.41198",33000,458,162
1620396573,2021-05-07T14:09:33Z,RWZ271,"50.171394,40.46183",33000,457,162
1620396662,2021-05-07T14:11:02Z,RWZ271,"49.991283,40.548088",33000,456,162
1620396724,2021-05-07T14:12:04Z,RWZ271,"49.865845,40.607708",32975,458,162
1620396795,2021-05-07T14:13:15Z,RWZ271,"49.723934,40.674801",33000,459,163
1620396856,2021-05-07T14:14:16Z,RWZ271,"49.597359,40.708576",33025,448,176
1620396916,2021-05-07T14:15:16Z,RWZ271,"49.473541,40.707958",33000,443,180
1620396967,2021-05-07T14:16:07Z,RWZ271,"49.370544,40.705612",32975,444,181
1620397050,2021-05-07T14:17:30Z,RWZ271,"49.19915,40.700516",33025,446,181
1620397140,2021-05-07T14:19:00Z,RWZ271,"49.011475,40.695683",32975,447,181
1620397202,2021-05-07T14:20:02Z,RWZ271,"48.88591,40.683498",33000,442,188
1620397264,2021-05-07T14:21:04Z,RWZ271,"48.762131,40.647793",32975,444,190
1620397303,2021-05-07T14:21:43Z,RWZ271,"48.683395,40.624977",33000,451,190
1620397390,2021-05-07T14:23:10Z,RWZ271,"48.500309,40.57193",33000,466,190
1620397451,2021-05-07T14:24:11Z,RWZ271,"48.372894,40.534996",33000,461,190
1620397572,2021-05-07T14:26:12Z,RWZ271,"48.172268,40.475681",33000,466,189
1620397640,2021-05-07T14:27:20Z,RWZ271,"48.037033,40.438435",32975,466,193
1620397704,2021-05-07T14:28:24Z,RWZ271,"47.908707,40.404446",33000,466,190
1620397768,2021-05-07T14:29:28Z,RWZ271,"47.775066,40.374115",33000,448,187
1620397828,2021-05-07T14:30:28Z,RWZ271,"47.600456,40.395672",33050,450,179
1620397965,2021-05-07T14:32:45Z,RWZ271,"47.411503,40.340401",32975,452,191
1620397980,2021-05-07T14:33:00Z,RWZ271,"47.369614,40.313648",32975,452,191
1620398033,2021-05-07T14:33:53Z,RWZ271,"47.264427,40.235096",32975,452,212
1620398036,2021-05-07T14:33:56Z,RWZ271,"47.255695,40.227737",32975,452,212
1620398040,2021-05-07T14:34:00Z,RWZ271,"47.250832,40.222984",32975,452,212
1620398044,2021-05-07T14:34:04Z,RWZ271,"47.245117,40.217861",32975,452,212
1620398048,2021-05-07T14:34:08Z,RWZ271,"47.239025,40.214027",32975,452,209
1620398052,2021-05-07T14:34:12Z,RWZ271,"47.23262,40.209068",32975,452,209
1620398056,2021-05-07T14:34:16Z,RWZ271,"47.224354,40.203167",32975,452,207
1620398124,2021-05-07T14:35:24Z,RWZ271,"47.107994,40.126694",33000,445,203
1620398165,2021-05-07T14:36:05Z,RWZ271,"47.027706,40.07793",33025,447,203
1620398245,2021-05-07T14:37:25Z,RWZ271,"46.833225,39.965858",33025,428,201
1620398350,2021-05-07T14:39:10Z,RWZ271,"46.641991,39.852562",33025,424,201
1620398383,2021-05-07T14:39:43Z,RWZ271,"46.581612,39.817749",33000,423,201
1620398475,2021-05-07T14:41:15Z,RWZ271,"46.418839,39.720398",33000,441,200
1620398538,2021-05-07T14:42:18Z,RWZ271,"46.302532,39.655907",32975,419,201
1620398610,2021-05-07T14:43:30Z,RWZ271,"46.172333,39.581329",33000,419,201
1620398671,2021-05-07T14:44:31Z,RWZ271,"46.062275,39.518578",33000,420,201
1620398732,2021-05-07T14:45:32Z,RWZ271,"45.950783,39.455063",33000,421,201
1620398794,2021-05-07T14:46:34Z,RWZ271,"45.838669,39.391613",33000,423,201
1620398855,2021-05-07T14:47:35Z,RWZ271,"45.727753,39.329063",33000,424,201
1620398916,2021-05-07T14:48:36Z,RWZ271,"45.616074,39.266304",31450,428,201
1620398977,2021-05-07T14:49:37Z,RWZ271,"45.50565,39.204578",29400,414,201
1620399038,2021-05-07T14:50:38Z,RWZ271,"45.396057,39.143501",26600,414,201
1620399100,2021-05-07T14:51:40Z,RWZ271,"45.287613,39.083275",24275,401,201
1620399165,2021-05-07T14:52:45Z,RWZ271,"45.175037,39.02116",21725,391,201
1620399227,2021-05-07T14:53:47Z,RWZ271,"45.074753,38.965889",20050,366,201
1620399291,2021-05-07T14:54:51Z,RWZ271,"44.974503,38.910698",18350,357,201
1620399352,2021-05-07T14:55:52Z,RWZ271,"44.881107,38.859715",16575,346,201
1620399385,2021-05-07T14:56:25Z,RWZ271,"44.832825,38.83353",15575,338,201
1620399420,2021-05-07T14:57:00Z,RWZ271,"44.783207,38.806057",14400,333,203
1620399431,2021-05-07T14:57:11Z,RWZ271,"44.768402,38.795071",13975,331,211
1620399434,2021-05-07T14:57:14Z,RWZ271,"44.764572,38.791615",13850,330,213
1620399435,2021-05-07T14:57:15Z,RWZ271,"44.763142,38.790314",13800,330,213
1620399437,2021-05-07T14:57:17Z,RWZ271,"44.760727,38.788017",13725,330,214
1620399438,2021-05-07T14:57:18Z,RWZ271,"44.758575,38.785923",13650,331,214
1620399440,2021-05-07T14:57:20Z,RWZ271,"44.756718,38.784149",13600,330,214
1620399442,2021-05-07T14:57:22Z,RWZ271,"44.753551,38.781067",13500,330,214
1620399443,2021-05-07T14:57:23Z,RWZ271,"44.752945,38.780495",13475,330,214
1620399444,2021-05-07T14:57:24Z,RWZ271,"44.7509,38.778522",13425,330,214
1620399445,2021-05-07T14:57:25Z,RWZ271,"44.74992,38.777519",13400,330,214
1620399447,2021-05-07T14:57:27Z,RWZ271,"44.74736,38.775105",13300,330,214
1620399448,2021-05-07T14:57:28Z,RWZ271,"44.746243,38.773968",13275,330,214
1620399452,2021-05-07T14:57:32Z,RWZ271,"44.74173,38.769611",13150,330,214
1620399484,2021-05-07T14:58:04Z,RWZ271,"44.702133,38.731579",12275,320,214
1620399515,2021-05-07T14:58:35Z,RWZ271,"44.664452,38.694988",11350,315,214
1620399526,2021-05-07T14:58:46Z,RWZ271,"44.651413,38.682533",11150,307,214
1620399539,2021-05-07T14:58:59Z,RWZ271,"44.635803,38.667427",10625,309,214
1620399552,2021-05-07T14:59:12Z,RWZ271,"44.620743,38.652843",10350,304,214
1620399563,2021-05-07T14:59:23Z,RWZ271,"44.608063,38.640617",10200,297,214
1620399575,2021-05-07T14:59:35Z,RWZ271,"44.594376,38.627537",10025,288,214
1620399586,2021-05-07T14:59:46Z,RWZ271,"44.582378,38.616005",9825,284,214
1620399597,2021-05-07T14:59:57Z,RWZ271,"44.571075,38.605106",9600,280,214
1620399609,2021-05-07T15:00:09Z,RWZ271,"44.557709,38.592224",9300,277,214
1620399620,2021-05-07T15:00:20Z,RWZ271,"44.546349,38.581306",8975,278,214
1620399634,2021-05-07T15:00:34Z,RWZ271,"44.531067,38.566589",8575,279,214
1620399646,2021-05-07T15:00:46Z,RWZ271,"44.519119,38.555016",8300,276,214
1620399658,2021-05-07T15:00:58Z,RWZ271,"44.506405,38.542786",8050,271,214
1620399671,2021-05-07T15:01:11Z,RWZ271,"44.493187,38.530125",7725,270,214
1620399683,2021-05-07T15:01:23Z,RWZ271,"44.480942,38.51833",7575,265,214
1620399695,2021-05-07T15:01:35Z,RWZ271,"44.468857,38.506752",7475,270,214
1620399706,2021-05-07T15:01:46Z,RWZ271,"44.456829,38.495289",7375,271,214
1620399719,2021-05-07T15:01:59Z,RWZ271,"44.443588,38.482624",7275,270,214
1620399731,2021-05-07T15:02:11Z,RWZ271,"44.431229,38.470654",7175,268,214
1620399743,2021-05-07T15:02:23Z,RWZ271,"44.418468,38.458447",7075,268,214
1620399755,2021-05-07T15:02:35Z,RWZ271,"44.406693,38.447124",7025,268,214
1620399767,2021-05-07T15:02:47Z,RWZ271,"44.394356,38.435333",7000,267,214
1620399779,2021-05-07T15:02:59Z,RWZ271,"44.38266,38.424225",7000,267,214
1620399791,2021-05-07T15:03:11Z,RWZ271,"44.369659,38.4118",7000,267,214
1620399803,2021-05-07T15:03:23Z,RWZ271,"44.357208,38.399895",6975,268,214
1620399815,2021-05-07T15:03:35Z,RWZ271,"44.345169,38.388256",6875,267,214
1620399830,2021-05-07T15:03:50Z,RWZ271,"44.329971,38.373478",6750,266,214
1620399845,2021-05-07T15:04:05Z,RWZ271,"44.314728,38.358765",6525,266,214
1620399857,2021-05-07T15:04:17Z,RWZ271,"44.302601,38.346973",6275,265,214
1620399869,2021-05-07T15:04:29Z,RWZ271,"44.29129,38.334373",6075,258,224
1620399870,2021-05-07T15:04:30Z,RWZ271,"44.290871,38.333778",6075,258,225
1620399876,2021-05-07T15:04:36Z,RWZ271,"44.286575,38.326328",6000,255,234
1620399879,2021-05-07T15:04:39Z,RWZ271,"44.284679,38.322121",5950,254,238
1620399882,2021-05-07T15:04:42Z,RWZ271,"44.282864,38.317032",5925,252,243
1620399885,2021-05-07T15:04:45Z,RWZ271,"44.281586,38.312531",5875,251,249
1620399894,2021-05-07T15:04:54Z,RWZ271,"44.279663,38.298668",5775,248,263
1620399897,2021-05-07T15:04:57Z,RWZ271,"44.279652,38.293247",5725,248,270
1620399909,2021-05-07T15:05:09Z,RWZ271,"44.282501,38.275257",5500,247,289
1620399912,2021-05-07T15:05:12Z,RWZ271,"44.284027,38.269936",5425,247,292
1620399915,2021-05-07T15:05:15Z,RWZ271,"44.285145,38.266251",5375,247,292
1620399918,2021-05-07T15:05:18Z,RWZ271,"44.286728,38.261162",5300,247,293
1620399921,2021-05-07T15:05:21Z,RWZ271,"44.288124,38.256607",5225,246,293
1620399930,2021-05-07T15:05:30Z,RWZ271,"44.292221,38.24361",5025,247,293
1620400041,2021-05-07T15:07:21Z,RWZ271,"44.342075,38.080826",1975,222,292
1620400066,2021-05-07T15:07:46Z,RWZ271,"44.351433,38.050278",1975,200,293
1620400076,2021-05-07T15:07:56Z,RWZ271,"44.354927,38.038956",2000,193,293
1620400083,2021-05-07T15:08:03Z,RWZ271,"44.357208,38.031521",2000,188,293
1620400089,2021-05-07T15:08:09Z,RWZ271,"44.359161,38.025154",2000,177,293
1620400096,2021-05-07T15:08:16Z,RWZ271,"44.361374,38.01786",1975,173,293
1620400105,2021-05-07T15:08:25Z,RWZ271,"44.364212,38.008511",1975,171,292
1620400193,2021-05-07T15:09:53Z,RWZ271,"44.415676,37.955822",1975,175,8
1620400200,2021-05-07T15:10:00Z,RWZ271,"44.421402,37.957294",1975,175,10
1620400207,2021-05-07T15:10:07Z,RWZ271,"44.42688,37.958874",1975,175,11
1620400219,2021-05-07T15:10:19Z,RWZ271,"44.436264,37.961884",1975,175,13
1620400311,2021-05-07T15:11:51Z,RWZ271,"44.499844,37.984158",1250,146,13
1620400318,2021-05-07T15:11:58Z,RWZ271,"44.504452,37.985832",1150,146,14
