Timestamp,UTC,Callsign,Position,Altitude,Speed,Direction
1621544828,2021-05-20T21:07:08Z,RWZ421,"55.410664,37.904579",0,3,289
1621544847,2021-05-20T21:07:27Z,RWZ421,"55.410656,37.903984",0,6,264
1621544853,2021-05-20T21:07:33Z,RWZ421,"55.410576,37.903702",0,7,247
1621544901,2021-05-20T21:08:21Z,RWZ421,"55.409615,37.900471",0,9,275
1621544918,2021-05-20T21:08:38Z,RWZ421,"55.409294,37.899338",0,10,236
1621544946,2021-05-20T21:09:06Z,RWZ421,"55.408562,37.897438",0,10,236
1621544960,2021-05-20T21:09:20Z,RWZ421,"55.40823,37.896591",0,9,236
1621544966,2021-05-20T21:09:26Z,RWZ421,"55.408127,37.896187",0,9,253
1621544971,2021-05-20T21:09:31Z,RWZ421,"55.408173,37.89584",0,8,281
1621544975,2021-05-20T21:09:35Z,RWZ421,"55.408241,37.895622",0,8,292
1621544980,2021-05-20T21:09:40Z,RWZ421,"55.408298,37.895279",0,9,286
1621544983,2021-05-20T21:09:43Z,RWZ421,"55.408298,37.895035",0,9,272
1621544986,2021-05-20T21:09:46Z,RWZ421,"55.408264,37.894802",0,10,258
1621544990,2021-05-20T21:09:50Z,RWZ421,"55.408173,37.89455",0,10,241
1621544993,2021-05-20T21:09:53Z,RWZ421,"55.408092,37.894329",0,10,239
1621544997,2021-05-20T21:09:57Z,RWZ421,"55.407997,37.894073",0,9,236
1621545002,2021-05-20T21:10:02Z,RWZ421,"55.407906,37.893761",0,9,241
1621545009,2021-05-20T21:10:09Z,RWZ421,"55.40781,37.893219",0,11,258
1621545013,2021-05-20T21:10:13Z,RWZ421,"55.407799,37.892822",0,11,267
1621545016,2021-05-20T21:10:16Z,RWZ421,"55.407822,37.892574",0,11,275
1621545029,2021-05-20T21:10:29Z,RWZ421,"55.408081,37.891556",0,10,303
1621545033,2021-05-20T21:10:33Z,RWZ421,"55.40823,37.891281",0,10,312
1621545049,2021-05-20T21:10:49Z,RWZ421,"55.408894,37.890453",0,11,326
1621545054,2021-05-20T21:10:54Z,RWZ421,"55.409122,37.890171",0,12,326
1621545060,2021-05-20T21:11:00Z,RWZ421,"55.409351,37.889908",0,12,326
1621545071,2021-05-20T21:11:11Z,RWZ421,"55.409866,37.889282",0,13,326
1621545077,2021-05-20T21:11:17Z,RWZ421,"55.410198,37.888878",0,13,326
1621545422,2021-05-20T21:17:02Z,RWZ421,"55.419102,37.878174",0,10,326
1621545429,2021-05-20T21:17:09Z,RWZ421,"55.419399,37.877811",0,11,326
1621545441,2021-05-20T21:17:21Z,RWZ421,"55.419823,37.877304",0,9,326
1621545451,2021-05-20T21:17:31Z,RWZ421,"55.420147,37.876907",0,8,326
1621545780,2021-05-20T21:23:00Z,RWZ421,"55.420021,37.873432",0,30,146
1621545787,2021-05-20T21:23:07Z,RWZ421,"55.418713,37.874981",0,61,146
1621545798,2021-05-20T21:23:18Z,RWZ421,"55.414806,37.879696",950,102,145
1621545804,2021-05-20T21:23:24Z,RWZ421,"55.411972,37.883121",925,125,145
1621545816,2021-05-20T21:23:36Z,RWZ421,"55.405029,37.89143",875,165,145
1621545825,2021-05-20T21:23:45Z,RWZ421,"55.399658,37.897663",1125,168,146
1621545846,2021-05-20T21:24:06Z,RWZ421,"55.38588,37.90881",2200,151,160
1621545847,2021-05-20T21:24:07Z,RWZ421,"55.385246,37.909241",2250,150,160
1621545853,2021-05-20T21:24:13Z,RWZ421,"55.381393,37.9118",2525,147,159
1621545877,2021-05-20T21:24:37Z,RWZ421,"55.36528,37.922543",3125,166,159
1621545883,2021-05-20T21:24:43Z,RWZ421,"55.36084,37.925449",3225,174,159
1621545895,2021-05-20T21:24:55Z,RWZ421,"55.351364,37.931591",3450,188,159
1621545903,2021-05-20T21:25:03Z,RWZ421,"55.344589,37.936035",3675,196,159
1621545909,2021-05-20T21:25:09Z,RWZ421,"55.339252,37.939537",3775,205,159
1621545920,2021-05-20T21:25:20Z,RWZ421,"55.328934,37.945969",4200,212,162
1621545931,2021-05-20T21:25:31Z,RWZ421,"55.318542,37.947746",4700,213,183
1621545940,2021-05-20T21:25:40Z,RWZ421,"55.309647,37.943447",5175,214,203
1621545952,2021-05-20T21:25:52Z,RWZ421,"55.300415,37.929893",5825,219,231
1621545954,2021-05-20T21:25:54Z,RWZ421,"55.299358,37.927052",5925,220,235
1621545955,2021-05-20T21:25:55Z,RWZ421,"55.298813,37.925533",5975,222,237
1621545957,2021-05-20T21:25:57Z,RWZ421,"55.29768,37.922058",6075,222,240
1621545958,2021-05-20T21:25:58Z,RWZ421,"55.297256,37.920605",6125,223,240
1621545960,2021-05-20T21:26:00Z,RWZ421,"55.296387,37.917778",6225,223,241
1621545961,2021-05-20T21:26:01Z,RWZ421,"55.295864,37.915981",6275,224,242
1621545963,2021-05-20T21:26:03Z,RWZ421,"55.294842,37.912571",6375,225,243
1621545970,2021-05-20T21:26:10Z,RWZ421,"55.291534,37.900585",6650,230,244
1621545974,2021-05-20T21:26:14Z,RWZ421,"55.289932,37.894836",6775,233,244
1621545980,2021-05-20T21:26:20Z,RWZ421,"55.287067,37.884106",6925,242,245
1621545983,2021-05-20T21:26:23Z,RWZ421,"55.28595,37.879112",6975,248,249
1621545992,2021-05-20T21:26:32Z,RWZ421,"55.283478,37.859856",7150,267,263
1621545995,2021-05-20T21:26:35Z,RWZ421,"55.28334,37.853474",7225,271,267
1621546001,2021-05-20T21:26:41Z,RWZ421,"55.283432,37.840469",7425,280,271
1621546010,2021-05-20T21:26:50Z,RWZ421,"55.284622,37.819061",7875,285,279
1621546013,2021-05-20T21:26:53Z,RWZ421,"55.285439,37.812195",8050,286,282
1621546016,2021-05-20T21:26:56Z,RWZ421,"55.286499,37.805004",8225,287,284
1621546019,2021-05-20T21:26:59Z,RWZ421,"55.287811,37.798378",8375,290,289
1621546037,2021-05-20T21:27:17Z,RWZ421,"55.30201,37.763172",9325,304,318
1621546040,2021-05-20T21:27:20Z,RWZ421,"55.304523,37.759594",9425,306,321
1621546043,2021-05-20T21:27:23Z,RWZ421,"55.307831,37.755566",9525,309,324
1621546055,2021-05-20T21:27:35Z,RWZ421,"55.324356,37.743862",10025,318,347
1621546058,2021-05-20T21:27:38Z,RWZ421,"55.32843,37.742722",10150,319,352
1621546060,2021-05-20T21:27:40Z,RWZ421,"55.331543,37.742237",10250,320,354
1621546061,2021-05-20T21:27:41Z,RWZ421,"55.332733,37.742157",10275,322,357
1621546063,2021-05-20T21:27:43Z,RWZ421,"55.335995,37.742199",10350,323,358
1621546064,2021-05-20T21:27:44Z,RWZ421,"55.337357,37.742317",10400,324,2
1621546065,2021-05-20T21:27:45Z,RWZ421,"55.338692,37.742447",10425,324,2
1621546068,2021-05-20T21:27:48Z,RWZ421,"55.343765,37.74361",10525,325,7
1621546070,2021-05-20T21:27:50Z,RWZ421,"55.346001,37.74453",10575,326,9
1621546073,2021-05-20T21:27:53Z,RWZ421,"55.351078,37.747108",10700,329,18
1621546077,2021-05-20T21:27:57Z,RWZ421,"55.356663,37.751354",10800,330,23
1621546080,2021-05-20T21:28:00Z,RWZ421,"55.360519,37.755245",10875,332,30
1621546081,2021-05-20T21:28:01Z,RWZ421,"55.361832,37.756763",10900,332,32
1621546082,2021-05-20T21:28:02Z,RWZ421,"55.363319,37.758595",10950,332,34
1621546084,2021-05-20T21:28:04Z,RWZ421,"55.365646,37.761841",11000,334,36
1621546085,2021-05-20T21:28:05Z,RWZ421,"55.366699,37.763401",11025,334,40
1621546088,2021-05-20T21:28:08Z,RWZ421,"55.370209,37.769497",11100,335,44
1621546090,2021-05-20T21:28:10Z,RWZ421,"55.372147,37.773418",11150,336,49
1621546094,2021-05-20T21:28:14Z,RWZ421,"55.37598,37.78265",11275,337,55
1621546095,2021-05-20T21:28:15Z,RWZ421,"55.376495,37.784084",11300,337,56
1621546096,2021-05-20T21:28:16Z,RWZ421,"55.377365,37.786346",11325,337,56
1621546097,2021-05-20T21:28:17Z,RWZ421,"55.37859,37.789806",11375,338,57
1621546098,2021-05-20T21:28:18Z,RWZ421,"55.378914,37.790806",11400,339,58
1621546100,2021-05-20T21:28:20Z,RWZ421,"55.380638,37.795715",11450,339,58
1621546101,2021-05-20T21:28:21Z,RWZ421,"55.381428,37.79813",11475,339,58
1621546102,2021-05-20T21:28:22Z,RWZ421,"55.382313,37.800709",11525,341,59
1621546103,2021-05-20T21:28:23Z,RWZ421,"55.383385,37.804123",11575,342,59
1621546104,2021-05-20T21:28:24Z,RWZ421,"55.38382,37.805328",11575,342,59
1621546106,2021-05-20T21:28:26Z,RWZ421,"55.385666,37.811111",11650,343,60
1621546108,2021-05-20T21:28:28Z,RWZ421,"55.386841,37.814781",11700,345,60
1621546109,2021-05-20T21:28:29Z,RWZ421,"55.388084,37.818687",11750,346,60
1621546110,2021-05-20T21:28:30Z,RWZ421,"55.38855,37.820187",11775,346,60
1621546112,2021-05-20T21:28:32Z,RWZ421,"55.390228,37.825363",11825,347,60
1621546123,2021-05-20T21:28:43Z,RWZ421,"55.399292,37.853878",12150,356,60
1621546158,2021-05-20T21:29:18Z,RWZ421,"55.429138,37.944111",13100,382,59
1621546194,2021-05-20T21:29:54Z,RWZ421,"55.462143,38.04166",14150,399,59
1621546225,2021-05-20T21:30:25Z,RWZ421,"55.491619,38.129166",15275,406,59
1621546257,2021-05-20T21:30:57Z,RWZ421,"55.522713,38.221779",16350,414,59
1621546291,2021-05-20T21:31:31Z,RWZ421,"55.555534,38.320312",17500,420,59
1621546322,2021-05-20T21:32:02Z,RWZ421,"55.586334,38.412613",18650,422,59
1621546383,2021-05-20T21:33:03Z,RWZ421,"55.647568,38.597717",20475,435,59
1621546445,2021-05-20T21:34:05Z,RWZ421,"55.71125,38.791695",22125,444,59
1621546462,2021-05-20T21:34:22Z,RWZ421,"55.725777,38.845768",22475,444,69
1621546464,2021-05-20T21:34:24Z,RWZ421,"55.726959,38.85165",22525,444,71
1621546465,2021-05-20T21:34:25Z,RWZ421,"55.727592,38.855125",22550,444,71
1621546467,2021-05-20T21:34:27Z,RWZ421,"55.728699,38.861721",22600,444,72
1621546468,2021-05-20T21:34:28Z,RWZ421,"55.729313,38.865509",22625,444,73
1621546469,2021-05-20T21:34:29Z,RWZ421,"55.729919,38.86937",22650,443,74
1621546470,2021-05-20T21:34:30Z,RWZ421,"55.730618,38.874352",22675,444,74
1621546471,2021-05-20T21:34:31Z,RWZ421,"55.731083,38.877869",22725,442,76
1621546473,2021-05-20T21:34:33Z,RWZ421,"55.73172,38.88353",22750,443,77
1621546474,2021-05-20T21:34:34Z,RWZ421,"55.732059,38.886711",22775,442,78
1621546475,2021-05-20T21:34:35Z,RWZ421,"55.732433,38.890656",22825,442,79
1621546476,2021-05-20T21:34:36Z,RWZ421,"55.732819,38.894596",22850,441,79
1621546477,2021-05-20T21:34:37Z,RWZ421,"55.733223,38.899239",22875,441,81
1621546478,2021-05-20T21:34:38Z,RWZ421,"55.73341,38.90173",22900,441,81
1621546479,2021-05-20T21:34:39Z,RWZ421,"55.733734,38.905251",22925,441,81
1621546482,2021-05-20T21:34:42Z,RWZ421,"55.73465,38.917484",23025,441,82
1621546483,2021-05-20T21:34:43Z,RWZ421,"55.734806,38.919239",23025,442,82
1621546484,2021-05-20T21:34:44Z,RWZ421,"55.735062,38.922813",23050,442,82
1621546485,2021-05-20T21:34:45Z,RWZ421,"55.735474,38.927891",23075,442,82
1621546546,2021-05-20T21:35:46Z,RWZ421,"55.752274,39.15078",24425,451,82
1621546609,2021-05-20T21:36:49Z,RWZ421,"55.768929,39.381783",25700,460,82
1621546670,2021-05-20T21:37:50Z,RWZ421,"55.785038,39.612495",26950,466,83
1621546733,2021-05-20T21:38:53Z,RWZ421,"55.801422,39.852989",28050,473,83
1621546793,2021-05-20T21:39:53Z,RWZ421,"55.816406,40.081287",30250,449,83
1621546855,2021-05-20T21:40:55Z,RWZ421,"55.830612,40.303688",31375,450,83
1621546916,2021-05-20T21:41:56Z,RWZ421,"55.844715,40.531311",32400,452,83
1621546976,2021-05-20T21:42:56Z,RWZ421,"55.858028,40.7537",33575,448,84
1621547038,2021-05-20T21:43:58Z,RWZ421,"55.871113,40.979004",34500,449,84
1621547098,2021-05-20T21:44:58Z,RWZ421,"55.883682,41.200188",35025,442,84
1621547160,2021-05-20T21:46:00Z,RWZ421,"55.896065,41.425064",35000,449,84
1621547221,2021-05-20T21:47:01Z,RWZ421,"55.907822,41.647091",35000,447,84
1621547284,2021-05-20T21:48:04Z,RWZ421,"55.919525,41.878853",35000,444,84
1621547345,2021-05-20T21:49:05Z,RWZ421,"55.930325,42.099094",34975,442,85
1621547406,2021-05-20T21:50:06Z,RWZ421,"55.940643,42.316837",34975,442,85
1621547468,2021-05-20T21:51:08Z,RWZ421,"55.950947,42.544556",35000,445,85
1621547537,2021-05-20T21:52:17Z,RWZ421,"55.962029,42.798874",35025,446,85
1621547599,2021-05-20T21:53:19Z,RWZ421,"55.971478,43.026321",35050,443,85
1621547660,2021-05-20T21:54:20Z,RWZ421,"55.980286,43.246597",34975,442,85
1621547723,2021-05-20T21:55:23Z,RWZ421,"55.988937,43.473816",35000,441,86
1621547785,2021-05-20T21:56:25Z,RWZ421,"55.997128,43.699665",35025,440,86
1621547846,2021-05-20T21:57:26Z,RWZ421,"56.004623,43.921196",35000,439,86
1621547908,2021-05-20T21:58:28Z,RWZ421,"56.011887,44.146328",35000,441,86
1621547969,2021-05-20T21:59:29Z,RWZ421,"56.018635,44.366398",35000,444,86
1621548031,2021-05-20T22:00:31Z,RWZ421,"56.025105,44.595222",35025,443,87
1621548092,2021-05-20T22:01:32Z,RWZ421,"56.031052,44.815395",35000,443,87
1621548154,2021-05-20T22:02:34Z,RWZ421,"56.036652,45.042744",35000,442,87
1621548215,2021-05-20T22:03:35Z,RWZ421,"56.041855,45.264088",34975,443,87
1621548276,2021-05-20T22:04:36Z,RWZ421,"56.046707,45.487091",34975,446,87
1621548337,2021-05-20T22:05:37Z,RWZ421,"56.05101,45.712864",35025,447,88
1621548398,2021-05-20T22:06:38Z,RWZ421,"56.054947,45.936584",35025,446,88
1621548459,2021-05-20T22:07:39Z,RWZ421,"56.058483,46.160172",35000,445,88
1621548520,2021-05-20T22:08:40Z,RWZ421,"56.061741,46.386078",35000,444,88
1621548581,2021-05-20T22:09:41Z,RWZ421,"56.064442,46.608124",35000,444,88
1621548642,2021-05-20T22:10:42Z,RWZ421,"56.066483,46.829971",35000,444,89
1621548703,2021-05-20T22:11:43Z,RWZ421,"56.068359,47.054859",34975,445,89
1621548764,2021-05-20T22:12:44Z,RWZ421,"56.069595,47.2785",35000,446,89
1621548825,2021-05-20T22:13:45Z,RWZ421,"56.07045,47.505913",35025,447,89
1621548886,2021-05-20T22:14:46Z,RWZ421,"56.071098,47.727959",35025,445,89
1621548949,2021-05-20T22:15:49Z,RWZ421,"56.071198,47.958317",35025,441,90
1621548992,2021-05-20T22:16:32Z,RWZ421,"56.074036,48.116703",34975,444,80
1621548993,2021-05-20T22:16:33Z,RWZ421,"56.074219,48.118484",34975,444,80
1621548995,2021-05-20T22:16:35Z,RWZ421,"56.075008,48.125694",34975,445,78
1621548998,2021-05-20T22:16:38Z,RWZ421,"56.076141,48.135014",34975,446,77
1621548999,2021-05-20T22:16:39Z,RWZ421,"56.076641,48.138657",34975,446,76
1621549000,2021-05-20T22:16:40Z,RWZ421,"56.077572,48.145008",34975,447,75
1621549001,2021-05-20T22:16:41Z,RWZ421,"56.077896,48.147156",34975,448,75
1621549004,2021-05-20T22:16:44Z,RWZ421,"56.079437,48.156406",34975,448,73
1621549005,2021-05-20T22:16:45Z,RWZ421,"56.080399,48.162064",34975,449,72
1621549007,2021-05-20T22:16:47Z,RWZ421,"56.081406,48.167309",34975,449,71
1621549008,2021-05-20T22:16:48Z,RWZ421,"56.082504,48.173332",34975,449,71
1621549009,2021-05-20T22:16:49Z,RWZ421,"56.082783,48.174706",34975,450,71
1621549010,2021-05-20T22:16:50Z,RWZ421,"56.083668,48.179253",34975,449,70
1621549011,2021-05-20T22:16:51Z,RWZ421,"56.084015,48.181042",34975,449,70
1621549013,2021-05-20T22:16:53Z,RWZ421,"56.085716,48.189468",34975,450,70
1621549014,2021-05-20T22:16:54Z,RWZ421,"56.086029,48.191196",34975,450,70
1621549015,2021-05-20T22:16:55Z,RWZ421,"56.087082,48.196438",34975,450,70
1621549076,2021-05-20T22:17:56Z,RWZ421,"56.130524,48.406509",35025,445,69
1621549137,2021-05-20T22:18:57Z,RWZ421,"56.168907,48.616646",35025,433,74
1621549199,2021-05-20T22:19:59Z,RWZ421,"56.202003,48.830193",34950,427,74
1621549261,2021-05-20T22:21:01Z,RWZ421,"56.235428,49.039364",34975,425,73
1621549322,2021-05-20T22:22:02Z,RWZ421,"56.269501,49.245468",34950,428,73
1621549384,2021-05-20T22:23:04Z,RWZ421,"56.305256,49.458733",35025,425,77
1621549397,2021-05-20T22:23:17Z,RWZ421,"56.309261,49.502594",35025,421,83
1621549400,2021-05-20T22:23:20Z,RWZ421,"56.309868,49.512634",35025,420,84
1621549401,2021-05-20T22:23:21Z,RWZ421,"56.310005,49.516151",35050,419,84
1621549402,2021-05-20T22:23:22Z,RWZ421,"56.31015,49.519627",35025,419,85
1621549403,2021-05-20T22:23:23Z,RWZ421,"56.310287,49.522373",35050,419,85
1621549404,2021-05-20T22:23:24Z,RWZ421,"56.310379,49.525509",35050,419,85
1621549465,2021-05-20T22:24:25Z,RWZ421,"56.304428,49.733944",35025,411,94
1621549526,2021-05-20T22:25:26Z,RWZ421,"56.295685,49.943848",34975,410,94
1621549587,2021-05-20T22:26:27Z,RWZ421,"56.28685,50.149426",35025,407,94
1621549648,2021-05-20T22:27:28Z,RWZ421,"56.277832,50.351925",35025,404,94
1621549709,2021-05-20T22:28:29Z,RWZ421,"56.268265,50.556503",34950,403,94
1621549770,2021-05-20T22:29:30Z,RWZ421,"56.258514,50.758583",34975,404,95
1621549831,2021-05-20T22:30:31Z,RWZ421,"56.248184,50.963432",35025,405,95
1621549892,2021-05-20T22:31:32Z,RWZ421,"56.237663,51.167877",35000,405,95
1621549953,2021-05-20T22:32:33Z,RWZ421,"56.226723,51.371986",35000,407,95
1621550014,2021-05-20T22:33:34Z,RWZ421,"56.215412,51.578751",35025,410,95
1621550076,2021-05-20T22:34:36Z,RWZ421,"56.203541,51.78672",35025,410,95
1621550137,2021-05-20T22:35:37Z,RWZ421,"56.191532,51.993141",35000,412,96
1621550197,2021-05-20T22:36:37Z,RWZ421,"56.179195,52.199306",35025,412,96
1621550259,2021-05-20T22:37:39Z,RWZ421,"56.166298,52.40736",34975,414,96
1621550320,2021-05-20T22:38:40Z,RWZ421,"56.153,52.616272",35000,417,96
1621550381,2021-05-20T22:39:41Z,RWZ421,"56.139175,52.827011",35000,415,96
1621550443,2021-05-20T22:40:43Z,RWZ421,"56.125168,53.036415",35000,415,96
1621550504,2021-05-20T22:41:44Z,RWZ421,"56.110901,53.243694",35000,418,97
1621550565,2021-05-20T22:42:45Z,RWZ421,"56.096146,53.454582",35025,420,97
1621550628,2021-05-20T22:43:48Z,RWZ421,"56.089508,53.672043",35025,424,87
1621550691,2021-05-20T22:44:51Z,RWZ421,"56.093353,53.893932",34975,428,88
1621550752,2021-05-20T22:45:52Z,RWZ421,"56.096878,54.110329",34975,434,88
1621550813,2021-05-20T22:46:53Z,RWZ421,"56.100662,54.328938",35050,434,86
1621550874,2021-05-20T22:47:54Z,RWZ421,"56.117744,54.546261",35000,437,81
1621550937,2021-05-20T22:48:57Z,RWZ421,"56.137344,54.774914",34950,441,81
1621550998,2021-05-20T22:49:58Z,RWZ421,"56.155872,54.995758",35000,447,81
1621551061,2021-05-20T22:51:01Z,RWZ421,"56.17482,55.22501",35050,446,81
1621551125,2021-05-20T22:52:05Z,RWZ421,"56.193558,55.458317",35000,445,81
1621551186,2021-05-20T22:53:06Z,RWZ421,"56.211136,55.682373",34975,448,82
1621551247,2021-05-20T22:54:07Z,RWZ421,"56.228447,55.907448",34975,450,82
1621551308,2021-05-20T22:55:08Z,RWZ421,"56.245331,56.132729",35050,446,82
1621551370,2021-05-20T22:56:10Z,RWZ421,"56.261627,56.353786",35000,432,82
1621551431,2021-05-20T22:57:11Z,RWZ421,"56.277279,56.574268",35000,439,82
1621551492,2021-05-20T22:58:12Z,RWZ421,"56.292664,56.794407",35025,442,82
1621551554,2021-05-20T22:59:14Z,RWZ421,"56.308098,57.021873",35050,442,83
1621551615,2021-05-20T23:00:15Z,RWZ421,"56.32283,57.243515",35025,441,83
1621551676,2021-05-20T23:01:16Z,RWZ421,"56.342331,57.464405",34600,439,80
1621551736,2021-05-20T23:02:16Z,RWZ421,"56.36348,57.681885",33100,438,80
1621551798,2021-05-20T23:03:18Z,RWZ421,"56.384354,57.901443",31250,436,80
1621551861,2021-05-20T23:04:21Z,RWZ421,"56.405159,58.123512",29425,419,80
1621551922,2021-05-20T23:05:22Z,RWZ421,"56.424225,58.332409",27625,416,80
1621551983,2021-05-20T23:06:23Z,RWZ421,"56.443005,58.540478",25825,414,80
1621552044,2021-05-20T23:07:24Z,RWZ421,"56.461113,58.746559",24025,402,81
1621552106,2021-05-20T23:08:26Z,RWZ421,"56.478653,58.951389",22200,397,81
1621552167,2021-05-20T23:09:27Z,RWZ421,"56.495178,59.147644",20450,391,81
1621552228,2021-05-20T23:10:28Z,RWZ421,"56.511532,59.344196",18725,381,81
1621552290,2021-05-20T23:11:30Z,RWZ421,"56.526848,59.533112",17175,366,81
1621552322,2021-05-20T23:12:02Z,RWZ421,"56.534546,59.629295",16400,365,81
1621552354,2021-05-20T23:12:34Z,RWZ421,"56.54221,59.725716",15600,361,81
1621552385,2021-05-20T23:13:05Z,RWZ421,"56.549423,59.818642",14800,349,82
1621552421,2021-05-20T23:13:41Z,RWZ421,"56.557205,59.919682",13925,339,82
1621552452,2021-05-20T23:14:12Z,RWZ421,"56.56398,60.007076",13125,331,82
1621552485,2021-05-20T23:14:45Z,RWZ421,"56.570618,60.094799",12375,321,82
1621552517,2021-05-20T23:15:17Z,RWZ421,"56.576935,60.178558",11600,313,82
1621552531,2021-05-20T23:15:31Z,RWZ421,"56.579777,60.216236",11250,309,82
1621552544,2021-05-20T23:15:44Z,RWZ421,"56.58215,60.248165",10950,306,82
1621552555,2021-05-20T23:15:55Z,RWZ421,"56.584339,60.277092",10675,304,82
1621552570,2021-05-20T23:16:10Z,RWZ421,"56.58704,60.313309",10300,301,82
1621552581,2021-05-20T23:16:21Z,RWZ421,"56.589157,60.341991",10025,299,82
1621552592,2021-05-20T23:16:32Z,RWZ421,"56.591183,60.369701",9750,297,82
1621552602,2021-05-20T23:16:42Z,RWZ421,"56.592957,60.393761",9525,295,82
1621552614,2021-05-20T23:16:54Z,RWZ421,"56.595062,60.422829",9225,293,82
1621552627,2021-05-20T23:17:07Z,RWZ421,"56.597351,60.45433",8900,291,82
1621552638,2021-05-20T23:17:18Z,RWZ421,"56.599228,60.480595",8650,290,82
1621552649,2021-05-20T23:17:29Z,RWZ421,"56.601143,60.508175",8350,288,82
1621552664,2021-05-20T23:17:44Z,RWZ421,"56.603622,60.542736",8000,286,82
1621552677,2021-05-20T23:17:57Z,RWZ421,"56.605892,60.573742",7700,284,82
1621552689,2021-05-20T23:18:09Z,RWZ421,"56.607925,60.601444",7400,282,82
1621552700,2021-05-20T23:18:20Z,RWZ421,"56.609848,60.628223",7175,280,82
1621552713,2021-05-20T23:18:33Z,RWZ421,"56.611942,60.657555",6950,277,82
1621552725,2021-05-20T23:18:45Z,RWZ421,"56.613945,60.68644",6750,279,82
1621552738,2021-05-20T23:18:58Z,RWZ421,"56.616028,60.716026",6550,278,82
1621552749,2021-05-20T23:19:09Z,RWZ421,"56.617767,60.741608",6350,275,82
1621552762,2021-05-20T23:19:22Z,RWZ421,"56.619736,60.769329",6175,276,82
1621552774,2021-05-20T23:19:34Z,RWZ421,"56.621719,60.797897",5975,278,82
1621552786,2021-05-20T23:19:46Z,RWZ421,"56.623672,60.825378",5775,278,82
1621552798,2021-05-20T23:19:58Z,RWZ421,"56.625629,60.853539",5550,277,82
1621552811,2021-05-20T23:20:11Z,RWZ421,"56.627773,60.883839",5350,278,82
1621552823,2021-05-20T23:20:23Z,RWZ421,"56.629681,60.910507",5150,279,82
1621552835,2021-05-20T23:20:35Z,RWZ421,"56.631729,60.940189",4950,279,82
1621552842,2021-05-20T23:20:42Z,RWZ421,"56.632736,60.954811",4825,278,82
1621552850,2021-05-20T23:20:50Z,RWZ421,"56.634064,60.974205",4700,278,82
1621552859,2021-05-20T23:20:59Z,RWZ421,"56.635498,60.995384",4550,277,82
1621552865,2021-05-20T23:21:05Z,RWZ421,"56.636478,61.009651",4450,277,82
1621552875,2021-05-20T23:21:15Z,RWZ421,"56.63792,61.031002",4300,274,83
1621552880,2021-05-20T23:21:20Z,RWZ421,"56.638779,61.0439",4225,272,83
1621552886,2021-05-20T23:21:26Z,RWZ421,"56.639648,61.057205",4150,270,83
1621552897,2021-05-20T23:21:37Z,RWZ421,"56.64127,61.080971",4025,268,83
1621552905,2021-05-20T23:21:45Z,RWZ421,"56.642948,61.097717",3925,258,76
1621552908,2021-05-20T23:21:48Z,RWZ421,"56.643997,61.103897",3900,257,71
1621552909,2021-05-20T23:21:49Z,RWZ421,"56.644253,61.104893",3875,257,71
1621552913,2021-05-20T23:21:53Z,RWZ421,"56.646484,61.114021",3850,254,63
1621552917,2021-05-20T23:21:57Z,RWZ421,"56.648941,61.121235",3800,252,56
1621552920,2021-05-20T23:22:00Z,RWZ421,"56.651093,61.126247",3775,251,53
1621552927,2021-05-20T23:22:07Z,RWZ421,"56.656311,61.135139",3725,246,39
1621552930,2021-05-20T23:22:10Z,RWZ421,"56.659286,61.138828",3700,243,34
1621552933,2021-05-20T23:22:13Z,RWZ421,"56.662128,61.141663",3675,241,28
1621552939,2021-05-20T23:22:19Z,RWZ421,"56.668552,61.145916",3625,236,15
1621552945,2021-05-20T23:22:25Z,RWZ421,"56.674713,61.147583",3575,230,4
1621552947,2021-05-20T23:22:27Z,RWZ421,"56.677322,61.147671",3550,238,22
1621552954,2021-05-20T23:22:34Z,RWZ421,"56.684738,61.146042",3500,228,358
1621552963,2021-05-20T23:22:43Z,RWZ421,"56.692944,61.141487",3450,215,341
1621552966,2021-05-20T23:22:46Z,RWZ421,"56.69577,61.139774",3425,214,341
1621552972,2021-05-20T23:22:52Z,RWZ421,"56.701649,61.136257",3375,210,341
1621552975,2021-05-20T23:22:55Z,RWZ421,"56.704193,61.134712",3400,206,342
1621552976,2021-05-20T23:22:56Z,RWZ421,"56.704742,61.134453",3400,206,342
1621552983,2021-05-20T23:23:03Z,RWZ421,"56.711285,61.130676",3450,209,341
1621552990,2021-05-20T23:23:10Z,RWZ421,"56.717476,61.127575",3450,192,344
1621552991,2021-05-20T23:23:11Z,RWZ421,"56.718018,61.127327",3425,192,346
1621552994,2021-05-20T23:23:14Z,RWZ421,"56.720444,61.126556",3425,193,349
1621552996,2021-05-20T23:23:16Z,RWZ421,"56.72287,61.125954",3400,192,348
1621553005,2021-05-20T23:23:25Z,RWZ421,"56.73056,61.12484",3325,191,352
1621553008,2021-05-20T23:23:28Z,RWZ421,"56.7327,61.123943",3300,191,352
1621553011,2021-05-20T23:23:31Z,RWZ421,"56.735184,61.122093",3275,186,338
1621553019,2021-05-20T23:23:39Z,RWZ421,"56.740616,61.1134",3200,186,338
1621553023,2021-05-20T23:23:43Z,RWZ421,"56.741871,61.109146",3175,172,294
1621553038,2021-05-20T23:23:58Z,RWZ421,"56.743546,61.088505",3075,167,272
1621553047,2021-05-20T23:24:07Z,RWZ421,"56.743732,61.074772",3000,165,271
1621553051,2021-05-20T23:24:11Z,RWZ421,"56.743778,61.070518",2975,165,271
1621553053,2021-05-20T23:24:13Z,RWZ421,"56.743828,61.06662",2950,165,271
1621553058,2021-05-20T23:24:18Z,RWZ421,"56.743919,61.06015",2925,164,271
1621553082,2021-05-20T23:24:42Z,RWZ421,"56.744152,61.026836",2725,162,270
1621553088,2021-05-20T23:24:48Z,RWZ421,"56.744202,61.018925",2675,161,270
1621553095,2021-05-20T23:24:55Z,RWZ421,"56.744244,61.010448",2625,161,270
1621553101,2021-05-20T23:25:01Z,RWZ421,"56.744293,61.001232",2575,161,270
1621553346,2021-05-20T23:29:06Z,RWZ421,"56.746365,60.791893",0,7,270
1621553353,2021-05-20T23:29:13Z,RWZ421,"56.746586,60.791893",0,8,270
1621553443,2021-05-20T23:30:43Z,RWZ421,"56.747761,60.795723",0,6,270
