Timestamp,UTC,Callsign,Position,Altitude,Speed,Direction
1620788369,2021-05-12T02:59:29Z,RWZ827,"43.447609,39.941753",0,0,334
1620788477,2021-05-12T03:01:17Z,RWZ827,"43.447895,39.941673",0,0,350
1620788508,2021-05-12T03:01:48Z,RWZ827,"43.447689,39.941769",0,1,334
1620788521,2021-05-12T03:02:01Z,RWZ827,"43.447449,39.941875",0,2,334
1620788538,2021-05-12T03:02:18Z,RWZ827,"43.447243,39.941994",0,2,334
1620788558,2021-05-12T03:02:38Z,RWZ827,"43.447037,39.94212",0,2,334
1620788582,2021-05-12T03:03:02Z,RWZ827,"43.446785,39.94228",0,2,334
1620788606,2021-05-12T03:03:26Z,RWZ827,"43.446575,39.942432",0,2,357
1620788635,2021-05-12T03:03:55Z,RWZ827,"43.446342,39.942364",0,2,50
1620788844,2021-05-12T03:07:24Z,RWZ827,"43.446419,39.94257",0,4,64
1620788867,2021-05-12T03:07:47Z,RWZ827,"43.446613,39.943111",0,3,64
1620788886,2021-05-12T03:08:06Z,RWZ827,"43.446785,39.943592",0,5,64
1620788898,2021-05-12T03:08:18Z,RWZ827,"43.446911,39.944",0,6,64
1620788905,2021-05-12T03:08:25Z,RWZ827,"43.447002,39.944229",0,6,64
1620788911,2021-05-12T03:08:31Z,RWZ827,"43.447071,39.944435",0,7,64
1620788920,2021-05-12T03:08:40Z,RWZ827,"43.447197,39.944805",0,7,64
1620788926,2021-05-12T03:08:46Z,RWZ827,"43.447289,39.945061",0,7,64
1620788934,2021-05-12T03:08:54Z,RWZ827,"43.447403,39.945389",0,7,64
1620788942,2021-05-12T03:09:02Z,RWZ827,"43.447529,39.945778",0,8,64
1620788948,2021-05-12T03:09:08Z,RWZ827,"43.447624,39.946026",0,8,64
1620788956,2021-05-12T03:09:16Z,RWZ827,"43.447762,39.946453",0,9,64
1620788966,2021-05-12T03:09:26Z,RWZ827,"43.447952,39.946991",0,10,64
1620788980,2021-05-12T03:09:40Z,RWZ827,"43.448273,39.947918",0,12,64
1620788988,2021-05-12T03:09:48Z,RWZ827,"43.448433,39.948399",0,12,64
1620788994,2021-05-12T03:09:54Z,RWZ827,"43.448601,39.948887",0,12,64
1620789005,2021-05-12T03:10:05Z,RWZ827,"43.448868,39.949657",0,13,64
1620789010,2021-05-12T03:10:10Z,RWZ827,"43.449005,39.950058",0,13,64
1620789020,2021-05-12T03:10:20Z,RWZ827,"43.449287,39.950882",0,14,64
1620789028,2021-05-12T03:10:28Z,RWZ827,"43.449532,39.951496",0,15,61
1620789038,2021-05-12T03:10:38Z,RWZ827,"43.449783,39.952244",0,11,64
1620789053,2021-05-12T03:10:53Z,RWZ827,"43.450008,39.952911",0,6,67
1620789067,2021-05-12T03:11:07Z,RWZ827,"43.449829,39.953381",0,8,140
1620789073,2021-05-12T03:11:13Z,RWZ827,"43.449589,39.953514",0,10,154
1620789088,2021-05-12T03:11:28Z,RWZ827,"43.449017,39.953793",0,6,174
1620789096,2021-05-12T03:11:36Z,RWZ827,"43.448925,39.953564",0,5,230
1620789109,2021-05-12T03:11:49Z,RWZ827,"43.448856,39.953281",0,6,244
1620789113,2021-05-12T03:11:53Z,RWZ827,"43.448765,39.95303",0,13,244
1620789120,2021-05-12T03:12:00Z,RWZ827,"43.448322,39.951683",0,47,244
1620789127,2021-05-12T03:12:07Z,RWZ827,"43.447266,39.948589",0,90,244
1620789159,2021-05-12T03:12:39Z,RWZ827,"43.438545,39.922291",650,162,246
1620789175,2021-05-12T03:12:55Z,RWZ827,"43.433716,39.906944",1450,167,246
1620789191,2021-05-12T03:13:11Z,RWZ827,"43.42836,39.8904",1775,179,245
1620789198,2021-05-12T03:13:18Z,RWZ827,"43.426804,39.882607",1850,190,252
1620789203,2021-05-12T03:13:23Z,RWZ827,"43.426575,39.875515",1950,204,271
1620789206,2021-05-12T03:13:26Z,RWZ827,"43.426861,39.872196",2000,208,278
1620789208,2021-05-12T03:13:28Z,RWZ827,"43.427326,39.86919",2025,211,282
1620789214,2021-05-12T03:13:34Z,RWZ827,"43.429512,39.861797",2125,221,296
1620789222,2021-05-12T03:13:42Z,RWZ827,"43.433983,39.852119",2225,237,305
1620789225,2021-05-12T03:13:45Z,RWZ827,"43.436356,39.847805",2300,242,307
1620789241,2021-05-12T03:14:01Z,RWZ827,"43.448456,39.827293",2700,268,309
1620789249,2021-05-12T03:14:09Z,RWZ827,"43.454929,39.816284",3000,277,308
1620789270,2021-05-12T03:14:30Z,RWZ827,"43.471939,39.786156",3925,293,307
1620789277,2021-05-12T03:14:37Z,RWZ827,"43.477158,39.776768",4225,297,307
1620789283,2021-05-12T03:14:43Z,RWZ827,"43.482697,39.766804",4575,298,307
1620789290,2021-05-12T03:14:50Z,RWZ827,"43.488464,39.756199",5025,297,306
1620789303,2021-05-12T03:15:03Z,RWZ827,"43.499084,39.736847",5975,290,306
1620789314,2021-05-12T03:15:14Z,RWZ827,"43.507534,39.721397",6750,284,306
1620789325,2021-05-12T03:15:25Z,RWZ827,"43.516521,39.704983",7575,279,306
1620789338,2021-05-12T03:15:38Z,RWZ827,"43.52597,39.687653",8400,272,306
1620789347,2021-05-12T03:15:47Z,RWZ827,"43.532581,39.675556",8875,274,306
1620789360,2021-05-12T03:16:00Z,RWZ827,"43.543304,39.655918",9475,280,306
1620789373,2021-05-12T03:16:13Z,RWZ827,"43.553391,39.637428",10050,285,306
1620789385,2021-05-12T03:16:25Z,RWZ827,"43.563118,39.619576",10550,290,306
1620789397,2021-05-12T03:16:37Z,RWZ827,"43.5728,39.601723",10800,305,306
1620789408,2021-05-12T03:16:48Z,RWZ827,"43.582344,39.584198",10975,318,306
1620789419,2021-05-12T03:16:59Z,RWZ827,"43.592514,39.565472",11275,328,306
1620789431,2021-05-12T03:17:11Z,RWZ827,"43.603088,39.546181",11800,331,306
1620789442,2021-05-12T03:17:22Z,RWZ827,"43.613159,39.527721",12275,333,307
1620789457,2021-05-12T03:17:37Z,RWZ827,"43.628677,39.50198",13000,337,316
1620789458,2021-05-12T03:17:38Z,RWZ827,"43.629269,39.501278",13025,337,316
1620789459,2021-05-12T03:17:39Z,RWZ827,"43.630432,39.49984",13075,337,317
1620789461,2021-05-12T03:17:41Z,RWZ827,"43.632713,39.497223",13175,337,320
1620789462,2021-05-12T03:17:42Z,RWZ827,"43.633804,39.495975",13225,337,321
1620789463,2021-05-12T03:17:43Z,RWZ827,"43.634903,39.494869",13300,337,321
1620789464,2021-05-12T03:17:44Z,RWZ827,"43.636066,39.49369",13350,336,322
1620789465,2021-05-12T03:17:45Z,RWZ827,"43.638115,39.49173",13450,337,325
1620789466,2021-05-12T03:17:46Z,RWZ827,"43.638794,39.491188",13475,337,325
1620789468,2021-05-12T03:17:48Z,RWZ827,"43.641418,39.488983",13600,336,327
1620789469,2021-05-12T03:17:49Z,RWZ827,"43.643608,39.487282",13700,336,330
1620789470,2021-05-12T03:17:50Z,RWZ827,"43.644165,39.486889",13725,336,330
1620789471,2021-05-12T03:17:51Z,RWZ827,"43.645702,39.485844",13800,336,330
1620789472,2021-05-12T03:17:52Z,RWZ827,"43.647938,39.484341",13900,335,334
1620789474,2021-05-12T03:17:54Z,RWZ827,"43.650032,39.483032",13975,335,334
1620789475,2021-05-12T03:17:55Z,RWZ827,"43.650917,39.48251",14025,335,336
1620789476,2021-05-12T03:17:56Z,RWZ827,"43.65303,39.481224",14125,335,336
1620789478,2021-05-12T03:17:58Z,RWZ827,"43.655731,39.479626",14225,334,336
1620789479,2021-05-12T03:17:59Z,RWZ827,"43.657295,39.478718",14300,335,336
1620789485,2021-05-12T03:18:05Z,RWZ827,"43.665581,39.473942",14600,334,337
1620789487,2021-05-12T03:18:07Z,RWZ827,"43.66814,39.472504",14675,334,337
1620789489,2021-05-12T03:18:09Z,RWZ827,"43.671864,39.470345",14800,334,337
1620789490,2021-05-12T03:18:10Z,RWZ827,"43.672714,39.469852",14825,334,337
1620789491,2021-05-12T03:18:11Z,RWZ827,"43.674332,39.468971",14875,334,337
1620789494,2021-05-12T03:18:14Z,RWZ827,"43.678619,39.46653",15025,335,337
1620789525,2021-05-12T03:18:45Z,RWZ827,"43.723801,39.441238",16075,345,338
1620789556,2021-05-12T03:19:16Z,RWZ827,"43.769989,39.415688",17125,355,338
1620789587,2021-05-12T03:19:47Z,RWZ827,"43.818008,39.389053",18275,359,338
1620789640,2021-05-12T03:20:40Z,RWZ827,"43.902786,39.344852",19700,387,348
1620789641,2021-05-12T03:20:41Z,RWZ827,"43.904755,39.344341",19725,388,349
1620789642,2021-05-12T03:20:42Z,RWZ827,"43.906719,39.343872",19725,389,349
1620789643,2021-05-12T03:20:43Z,RWZ827,"43.907417,39.343742",19725,389,349
1620789644,2021-05-12T03:20:44Z,RWZ827,"43.910118,39.34322",19750,392,352
1620789645,2021-05-12T03:20:45Z,RWZ827,"43.911026,39.343128",19750,392,352
1620789646,2021-05-12T03:20:46Z,RWZ827,"43.912857,39.342873",19775,393,353
1620789648,2021-05-12T03:20:48Z,RWZ827,"43.916542,39.342499",19775,397,355
1620789649,2021-05-12T03:20:49Z,RWZ827,"43.919102,39.342369",19800,400,357
1620789650,2021-05-12T03:20:50Z,RWZ827,"43.921738,39.342361",19800,402,359
1620789651,2021-05-12T03:20:51Z,RWZ827,"43.922836,39.342361",19825,404,359
1620789652,2021-05-12T03:20:52Z,RWZ827,"43.923805,39.342434",19825,404,3
1620789654,2021-05-12T03:20:54Z,RWZ827,"43.927734,39.342743",19825,407,3
1620789655,2021-05-12T03:20:55Z,RWZ827,"43.92984,39.342999",19850,407,3
1620789656,2021-05-12T03:20:56Z,RWZ827,"43.931534,39.34322",19850,409,5
1620789657,2021-05-12T03:20:57Z,RWZ827,"43.933228,39.343575",19850,411,6
1620789658,2021-05-12T03:20:58Z,RWZ827,"43.935677,39.344002",19875,413,7
1620789660,2021-05-12T03:21:00Z,RWZ827,"43.939678,39.344852",19900,415,8
1620789661,2021-05-12T03:21:01Z,RWZ827,"43.942154,39.345364",19925,417,8
1620789662,2021-05-12T03:21:02Z,RWZ827,"43.943264,39.345638",19925,417,9
1620789663,2021-05-12T03:21:03Z,RWZ827,"43.944992,39.346066",19950,417,9
1620789664,2021-05-12T03:21:04Z,RWZ827,"43.946915,39.346512",19975,417,9
1620789668,2021-05-12T03:21:08Z,RWZ827,"43.955154,39.348427",20050,420,9
1620789670,2021-05-12T03:21:10Z,RWZ827,"43.959915,39.349579",20125,421,9
1620789672,2021-05-12T03:21:12Z,RWZ827,"43.962814,39.350281",20150,422,9
1620789673,2021-05-12T03:21:13Z,RWZ827,"43.965515,39.350933",20175,422,9
1620789735,2021-05-12T03:22:15Z,RWZ827,"44.086487,39.380238",21900,434,9
1620789797,2021-05-12T03:23:17Z,RWZ827,"44.210289,39.410172",23225,447,9
1620789858,2021-05-12T03:24:18Z,RWZ827,"44.334824,39.44046",24725,449,9
1620789920,2021-05-12T03:25:20Z,RWZ827,"44.461063,39.466038",26350,450,7
1620789947,2021-05-12T03:25:47Z,RWZ827,"44.516647,39.486172",27050,463,21
1620789948,2021-05-12T03:25:48Z,RWZ827,"44.51944,39.48774",27075,463,22
1620789953,2021-05-12T03:25:53Z,RWZ827,"44.527679,39.492973",27175,466,24
1620789956,2021-05-12T03:25:56Z,RWZ827,"44.533859,39.497223",27250,468,27
1620789957,2021-05-12T03:25:57Z,RWZ827,"44.535782,39.498665",27275,468,27
1620789958,2021-05-12T03:25:58Z,RWZ827,"44.538853,39.500942",27325,468,28
1620789959,2021-05-12T03:25:59Z,RWZ827,"44.54039,39.502148",27325,469,28
1620789960,2021-05-12T03:26:00Z,RWZ827,"44.541508,39.503086",27350,469,28
1620789962,2021-05-12T03:26:02Z,RWZ827,"44.545837,39.506634",27400,471,30
1620789963,2021-05-12T03:26:03Z,RWZ827,"44.546722,39.507423",27400,471,30
1620789964,2021-05-12T03:26:04Z,RWZ827,"44.548599,39.50906",27425,472,31
1620789965,2021-05-12T03:26:05Z,RWZ827,"44.551189,39.511391",27450,473,32
1620789968,2021-05-12T03:26:08Z,RWZ827,"44.556961,39.516884",27525,475,34
1620789969,2021-05-12T03:26:09Z,RWZ827,"44.558075,39.517952",27525,474,35
1620789970,2021-05-12T03:26:10Z,RWZ827,"44.559662,39.519566",27550,473,33
1620789971,2021-05-12T03:26:11Z,RWZ827,"44.562504,39.522511",27600,476,36
1620789974,2021-05-12T03:26:14Z,RWZ827,"44.567001,39.527435",27650,477,37
1620789975,2021-05-12T03:26:15Z,RWZ827,"44.568741,39.529411",27650,478,38
1620789977,2021-05-12T03:26:17Z,RWZ827,"44.573227,39.534496",27725,478,38
1620789978,2021-05-12T03:26:18Z,RWZ827,"44.575119,39.536648",27750,479,38
1620789980,2021-05-12T03:26:20Z,RWZ827,"44.5784,39.540382",27775,479,39
1620789981,2021-05-12T03:26:21Z,RWZ827,"44.580276,39.542542",27800,479,39
1620789984,2021-05-12T03:26:24Z,RWZ827,"44.584194,39.547031",27850,480,39
1620790045,2021-05-12T03:27:25Z,RWZ827,"44.689262,39.668549",29075,487,39
1620790106,2021-05-12T03:28:26Z,RWZ827,"44.797173,39.794022",30225,494,39
1620790167,2021-05-12T03:29:27Z,RWZ827,"44.904942,39.920029",31250,502,39
1620790229,2021-05-12T03:30:29Z,RWZ827,"45.015015,40.049221",32250,506,39
1620790290,2021-05-12T03:31:30Z,RWZ827,"45.125038,40.179146",33250,508,40
1620790351,2021-05-12T03:32:31Z,RWZ827,"45.23439,40.308971",34000,504,40
1620790412,2021-05-12T03:33:32Z,RWZ827,"45.344021,40.439468",34000,504,39
1620790474,2021-05-12T03:34:34Z,RWZ827,"45.455795,40.570873",34000,505,37
1620790536,2021-05-12T03:35:36Z,RWZ827,"45.572266,40.693359",34000,506,36
1620790597,2021-05-12T03:36:37Z,RWZ827,"45.686832,40.814072",34025,508,36
1620790659,2021-05-12T03:37:39Z,RWZ827,"45.803074,40.937393",34000,509,36
1620790720,2021-05-12T03:38:40Z,RWZ827,"45.917908,41.059727",34000,510,36
1620790781,2021-05-12T03:39:41Z,RWZ827,"46.032669,41.182922",34050,508,36
1620790841,2021-05-12T03:40:41Z,RWZ827,"46.146515,41.305244",34000,507,36
1620790903,2021-05-12T03:41:43Z,RWZ827,"46.261459,41.429779",33950,509,37
1620790965,2021-05-12T03:42:45Z,RWZ827,"46.379158,41.557846",34000,507,37
1620791025,2021-05-12T03:43:45Z,RWZ827,"46.491718,41.681236",34000,506,37
1620791087,2021-05-12T03:44:47Z,RWZ827,"46.606064,41.806931",34000,508,37
1620791148,2021-05-12T03:45:48Z,RWZ827,"46.720688,41.933674",34000,507,37
1620791209,2021-05-12T03:46:49Z,RWZ827,"46.831421,42.056667",34000,493,37
1620791269,2021-05-12T03:47:49Z,RWZ827,"46.941322,42.178768",34000,495,37
1620791330,2021-05-12T03:48:50Z,RWZ827,"47.052841,42.303406",34000,495,37
1620791392,2021-05-12T03:49:52Z,RWZ827,"47.163666,42.428238",33975,495,37
1620791453,2021-05-12T03:50:53Z,RWZ827,"47.274353,42.553551",33975,496,37
1620791514,2021-05-12T03:51:54Z,RWZ827,"47.385757,42.680477",34000,496,37
1620791577,2021-05-12T03:52:57Z,RWZ827,"47.499996,42.811398",34000,503,37
1620791638,2021-05-12T03:53:58Z,RWZ827,"47.612228,42.940681",34025,503,37
1620791699,2021-05-12T03:54:59Z,RWZ827,"47.723724,43.069786",34000,504,38
1620791761,2021-05-12T03:56:01Z,RWZ827,"47.837032,43.201973",34375,496,38
1620791823,2021-05-12T03:57:03Z,RWZ827,"47.946487,43.330559",35000,483,38
1620791884,2021-05-12T03:58:04Z,RWZ827,"48.051544,43.45491",35000,472,38
1620791944,2021-05-12T03:59:04Z,RWZ827,"48.15477,43.577339",35000,478,38
1620792006,2021-05-12T04:00:06Z,RWZ827,"48.261448,43.705494",34950,481,39
1620792067,2021-05-12T04:01:07Z,RWZ827,"48.368286,43.835522",35000,486,39
1620792128,2021-05-12T04:02:08Z,RWZ827,"48.474426,43.964962",35025,480,39
1620792188,2021-05-12T04:03:08Z,RWZ827,"48.578659,44.092854",35000,482,39
1620792251,2021-05-12T04:04:11Z,RWZ827,"48.685959,44.225174",35025,476,39
1620792312,2021-05-12T04:05:12Z,RWZ827,"48.791866,44.350723",35000,482,34
1620792374,2021-05-12T04:06:14Z,RWZ827,"48.91304,44.459644",35000,485,30
1620792436,2021-05-12T04:07:16Z,RWZ827,"49.031982,44.564812",35000,487,30
1620792496,2021-05-12T04:08:16Z,RWZ827,"49.149155,44.668747",35000,488,30
1620792559,2021-05-12T04:09:19Z,RWZ827,"49.273361,44.779709",35025,488,30
1620792620,2021-05-12T04:10:20Z,RWZ827,"49.390778,44.885349",35000,488,30
1620792683,2021-05-12T04:11:23Z,RWZ827,"49.512405,44.995373",35000,489,30
1620792744,2021-05-12T04:12:24Z,RWZ827,"49.632462,45.102219",35050,488,27
1620792805,2021-05-12T04:13:25Z,RWZ827,"49.758804,45.177635",35050,488,17
1620792868,2021-05-12T04:14:28Z,RWZ827,"49.89386,45.237072",35000,483,15
1620792929,2021-05-12T04:15:29Z,RWZ827,"50.025547,45.294254",35000,478,13
1620792992,2021-05-12T04:16:32Z,RWZ827,"50.161285,45.340649",34975,474,12
1620793053,2021-05-12T04:17:33Z,RWZ827,"50.290146,45.384666",34975,471,12
1620793115,2021-05-12T04:18:35Z,RWZ827,"50.422173,45.429951",34975,468,12
1620793176,2021-05-12T04:19:36Z,RWZ827,"50.551392,45.474724",34975,469,12
1620793240,2021-05-12T04:20:40Z,RWZ827,"50.687073,45.521702",34975,471,12
1620793304,2021-05-12T04:21:44Z,RWZ827,"50.823029,45.569359",35025,473,12
1620793365,2021-05-12T04:22:45Z,RWZ827,"50.954216,45.616455",35050,472,12
1620793428,2021-05-12T04:23:48Z,RWZ827,"51.083176,45.683678",35025,464,23
1620793489,2021-05-12T04:24:49Z,RWZ827,"51.199966,45.77095",35000,459,25
1620793551,2021-05-12T04:25:51Z,RWZ827,"51.318863,45.860596",34975,458,25
1620793612,2021-05-12T04:26:52Z,RWZ827,"51.435101,45.948563",34975,458,25
1620793674,2021-05-12T04:27:54Z,RWZ827,"51.551903,46.044846",34975,457,31
1620793737,2021-05-12T04:28:57Z,RWZ827,"51.656204,46.175758",35025,452,40
1620793798,2021-05-12T04:29:58Z,RWZ827,"51.752472,46.31012",35025,452,40
1620793859,2021-05-12T04:30:59Z,RWZ827,"51.841644,46.453979",35000,446,50
1620793921,2021-05-12T04:32:01Z,RWZ827,"51.920059,46.616821",35000,447,52
1620793986,2021-05-12T04:33:06Z,RWZ827,"52.002434,46.789043",35025,446,52
1620794047,2021-05-12T04:34:07Z,RWZ827,"52.079865,46.952362",35000,447,52
1620794108,2021-05-12T04:35:08Z,RWZ827,"52.156631,47.115479",35000,447,52
1620794175,2021-05-12T04:36:15Z,RWZ827,"52.239384,47.292297",35000,445,52
1620794238,2021-05-12T04:37:18Z,RWZ827,"52.316849,47.459133",35025,442,52
1620794304,2021-05-12T04:38:24Z,RWZ827,"52.397873,47.634659",34975,442,53
1620794365,2021-05-12T04:39:25Z,RWZ827,"52.473125,47.798687",34975,443,53
1620794426,2021-05-12T04:40:26Z,RWZ827,"52.548073,47.963326",35000,445,53
1620794489,2021-05-12T04:41:29Z,RWZ827,"52.625721,48.134636",35000,458,53
1620794550,2021-05-12T04:42:30Z,RWZ827,"52.702301,48.30508",35000,456,53
1620794611,2021-05-12T04:43:31Z,RWZ827,"52.778645,48.475994",35000,454,53
1620794674,2021-05-12T04:44:34Z,RWZ827,"52.856461,48.651581",34975,453,53
1620794735,2021-05-12T04:45:35Z,RWZ827,"52.931534,48.822021",34975,454,53
1620794798,2021-05-12T04:46:38Z,RWZ827,"53.009312,49.000122",35000,456,54
1620794859,2021-05-12T04:47:39Z,RWZ827,"53.083748,49.171509",35000,447,54
1620794920,2021-05-12T04:48:40Z,RWZ827,"53.156982,49.34156",35000,450,54
1620794981,2021-05-12T04:49:41Z,RWZ827,"53.231182,49.514332",35000,447,54
1620795042,2021-05-12T04:50:42Z,RWZ827,"53.302685,49.682358",35025,443,54
1620795102,2021-05-12T04:51:42Z,RWZ827,"53.374054,49.851326",34975,442,54
1620795165,2021-05-12T04:52:45Z,RWZ827,"53.44725,50.025616",34975,441,54
1620795226,2021-05-12T04:53:46Z,RWZ827,"53.518341,50.196297",35025,438,55
1620795287,2021-05-12T04:54:47Z,RWZ827,"53.58815,50.365879",34975,437,55
1620795348,2021-05-12T04:55:48Z,RWZ827,"53.658417,50.537895",34975,439,55
1620795409,2021-05-12T04:56:49Z,RWZ827,"53.728592,50.710629",35000,443,55
1620795471,2021-05-12T04:57:51Z,RWZ827,"53.799637,50.886711",35025,444,55
1620795532,2021-05-12T04:58:52Z,RWZ827,"53.870911,51.065002",34975,450,55
1620795595,2021-05-12T04:59:55Z,RWZ827,"53.944874,51.250977",35025,454,56
1620795656,2021-05-12T05:00:56Z,RWZ827,"54.017303,51.429512",35050,455,52
1620795718,2021-05-12T05:01:58Z,RWZ827,"54.097332,51.60149",35025,454,51
1620795778,2021-05-12T05:02:58Z,RWZ827,"54.176376,51.772022",35025,450,51
1620795839,2021-05-12T05:03:59Z,RWZ827,"54.252071,51.936737",35000,439,51
1620795901,2021-05-12T05:05:01Z,RWZ827,"54.329132,52.105247",35000,437,52
1620795962,2021-05-12T05:06:02Z,RWZ827,"54.404438,52.271366",35000,440,52
1620796023,2021-05-12T05:07:03Z,RWZ827,"54.480503,52.440323",35000,442,52
1620796084,2021-05-12T05:08:04Z,RWZ827,"54.556244,52.610031",35000,445,52
1620796145,2021-05-12T05:09:05Z,RWZ827,"54.632584,52.784298",35025,447,55
1620796206,2021-05-12T05:10:06Z,RWZ827,"54.696259,52.974136",35025,445,61
1620796268,2021-05-12T05:11:08Z,RWZ827,"54.756931,53.163589",35025,443,61
1620796328,2021-05-12T05:12:08Z,RWZ827,"54.816658,53.352272",34975,444,61
1620796390,2021-05-12T05:13:10Z,RWZ827,"54.876709,53.543533",35000,438,61
1620796451,2021-05-12T05:14:11Z,RWZ827,"54.935074,53.73098",35000,440,61
1620796512,2021-05-12T05:15:12Z,RWZ827,"54.993694,53.92065",35025,440,61
1620796572,2021-05-12T05:16:12Z,RWZ827,"55.050861,54.106918",35025,437,61
1620796635,2021-05-12T05:17:15Z,RWZ827,"55.110542,54.303005",34975,437,62
1620796696,2021-05-12T05:18:16Z,RWZ827,"55.168171,54.493851",34975,438,62
1620796757,2021-05-12T05:19:17Z,RWZ827,"55.225433,54.68478",34975,440,62
1620796818,2021-05-12T05:20:18Z,RWZ827,"55.282654,54.877274",35000,442,62
1620796879,2021-05-12T05:21:19Z,RWZ827,"55.340424,55.07309",35050,442,62
1620796941,2021-05-12T05:22:21Z,RWZ827,"55.398003,55.270218",35050,438,62
1620797002,2021-05-12T05:23:22Z,RWZ827,"55.453857,55.462894",35000,436,63
1620797064,2021-05-12T05:24:24Z,RWZ827,"55.509796,55.657322",34975,434,63
1620797125,2021-05-12T05:25:25Z,RWZ827,"55.564453,55.848831",35000,432,63
1620797186,2021-05-12T05:26:26Z,RWZ827,"55.61911,56.041676",35000,430,63
1620797248,2021-05-12T05:27:28Z,RWZ827,"55.673126,56.234207",34975,429,63
1620797309,2021-05-12T05:28:29Z,RWZ827,"55.726501,56.426365",35000,428,63
1620797370,2021-05-12T05:29:30Z,RWZ827,"55.780334,56.621037",35025,426,64
1620797432,2021-05-12T05:30:32Z,RWZ827,"55.833405,56.81485",35000,422,64
1620797493,2021-05-12T05:31:33Z,RWZ827,"55.884842,57.004227",34975,419,64
1620797555,2021-05-12T05:32:35Z,RWZ827,"55.936295,57.195324",34975,421,64
1620797616,2021-05-12T05:33:36Z,RWZ827,"55.98782,57.387512",34975,424,64
1620797677,2021-05-12T05:34:37Z,RWZ827,"56.038193,57.577847",35025,425,64
1620797739,2021-05-12T05:35:39Z,RWZ827,"56.090881,57.778183",35025,427,64
1620797800,2021-05-12T05:36:40Z,RWZ827,"56.141602,57.973022",35025,428,65
1620797862,2021-05-12T05:37:42Z,RWZ827,"56.193924,58.175522",33550,438,65
1620797925,2021-05-12T05:38:45Z,RWZ827,"56.247345,58.384426",30625,447,65
1620797987,2021-05-12T05:39:47Z,RWZ827,"56.299812,58.591721",28350,436,65
1620798049,2021-05-12T05:40:49Z,RWZ827,"56.350132,58.791702",25550,433,65
1620798110,2021-05-12T05:41:50Z,RWZ827,"56.399094,58.98801",23250,414,65
1620798152,2021-05-12T05:42:32Z,RWZ827,"56.429443,59.123341",21700,405,75
1620798155,2021-05-12T05:42:35Z,RWZ827,"56.430763,59.134171",21600,405,77
1620798156,2021-05-12T05:42:36Z,RWZ827,"56.430901,59.135544",21575,405,78
1620798159,2021-05-12T05:42:39Z,RWZ827,"56.431831,59.145157",21475,405,80
1620798162,2021-05-12T05:42:42Z,RWZ827,"56.432766,59.15683",21325,404,82
1620798165,2021-05-12T05:42:45Z,RWZ827,"56.433289,59.164871",21250,404,83
1620798168,2021-05-12T05:42:48Z,RWZ827,"56.434021,59.176224",21125,403,83
1620798171,2021-05-12T05:42:51Z,RWZ827,"56.434578,59.185238",21025,403,83
1620798174,2021-05-12T05:42:54Z,RWZ827,"56.435211,59.195251",20900,402,83
1620798180,2021-05-12T05:43:00Z,RWZ827,"56.436443,59.215195",20700,401,83
1620798241,2021-05-12T05:44:01Z,RWZ827,"56.448029,59.415146",19000,377,84
1620798303,2021-05-12T05:45:03Z,RWZ827,"56.458321,59.600143",17475,356,84
1620798336,2021-05-12T05:45:36Z,RWZ827,"56.463547,59.697376",16500,349,84
1620798369,2021-05-12T05:46:09Z,RWZ827,"56.468628,59.791344",15825,335,84
1620798400,2021-05-12T05:46:40Z,RWZ827,"56.472931,59.874905",15275,321,84
1620798434,2021-05-12T05:47:14Z,RWZ827,"56.479202,59.964211",14300,319,76
1620798443,2021-05-12T05:47:23Z,RWZ827,"56.482761,59.988613",14050,317,74
1620798473,2021-05-12T05:47:53Z,RWZ827,"56.494167,60.065861",13225,314,75
1620798507,2021-05-12T05:48:27Z,RWZ827,"56.506714,60.149647",12350,311,74
1620798540,2021-05-12T05:49:00Z,RWZ827,"56.518978,60.233658",11500,306,75
1620798552,2021-05-12T05:49:12Z,RWZ827,"56.523216,60.2631",11200,304,75
1620798574,2021-05-12T05:49:34Z,RWZ827,"56.530746,60.315441",10750,300,75
1620798586,2021-05-12T05:49:46Z,RWZ827,"56.535038,60.345325",10450,297,75
1620798599,2021-05-12T05:49:59Z,RWZ827,"56.539352,60.375282",10075,297,75
1620798611,2021-05-12T05:50:11Z,RWZ827,"56.543606,60.404892",9750,297,75
1620798623,2021-05-12T05:50:23Z,RWZ827,"56.547607,60.432961",9425,296,75
1620798638,2021-05-12T05:50:38Z,RWZ827,"56.552811,60.469582",9075,291,75
1620798651,2021-05-12T05:50:51Z,RWZ827,"56.557106,60.499649",8750,290,75
1620798664,2021-05-12T05:51:04Z,RWZ827,"56.561462,60.530338",8400,288,75
1620798677,2021-05-12T05:51:17Z,RWZ827,"56.565811,60.560932",8225,280,75
1620798689,2021-05-12T05:51:29Z,RWZ827,"56.569656,60.588268",8075,273,75
1620798702,2021-05-12T05:51:42Z,RWZ827,"56.573685,60.616817",7800,270,75
1620798718,2021-05-12T05:51:58Z,RWZ827,"56.578568,60.651226",7425,270,75
1620798730,2021-05-12T05:52:10Z,RWZ827,"56.582245,60.676823",7150,269,75
1620798742,2021-05-12T05:52:22Z,RWZ827,"56.58606,60.703667",6925,266,75
1620798753,2021-05-12T05:52:33Z,RWZ827,"56.589504,60.728218",6700,264,75
1620798764,2021-05-12T05:52:44Z,RWZ827,"56.592682,60.7509",6500,262,75
1620798775,2021-05-12T05:52:55Z,RWZ827,"56.596024,60.775127",6250,260,75
1620798788,2021-05-12T05:53:08Z,RWZ827,"56.599747,60.801884",6025,258,75
1620798800,2021-05-12T05:53:20Z,RWZ827,"56.603394,60.827782",5850,260,75
1620798814,2021-05-12T05:53:34Z,RWZ827,"56.607239,60.85516",5625,262,75
1620798826,2021-05-12T05:53:46Z,RWZ827,"56.610992,60.88237",5400,261,76
1620798838,2021-05-12T05:53:58Z,RWZ827,"56.614288,60.906658",5200,258,76
1620798848,2021-05-12T05:54:08Z,RWZ827,"56.617264,60.9282",5050,256,76
1620798859,2021-05-12T05:54:19Z,RWZ827,"56.620464,60.951351",4850,252,76
1620798868,2021-05-12T05:54:28Z,RWZ827,"56.62294,60.969574",4700,250,76
1620798878,2021-05-12T05:54:38Z,RWZ827,"56.625629,60.989182",4550,248,76
1620798884,2021-05-12T05:54:44Z,RWZ827,"56.627197,61.000729",4450,247,76
1620798890,2021-05-12T05:54:50Z,RWZ827,"56.629074,61.014523",4350,246,76
1620798897,2021-05-12T05:54:57Z,RWZ827,"56.630722,61.026909",4250,243,76
1620798903,2021-05-12T05:55:03Z,RWZ827,"56.632427,61.03933",4150,242,76
1620798916,2021-05-12T05:55:16Z,RWZ827,"56.635872,61.064049",3975,239,75
1620798922,2021-05-12T05:55:22Z,RWZ827,"56.637634,61.076691",3875,237,75
1620798928,2021-05-12T05:55:28Z,RWZ827,"56.639465,61.087589",3750,235,72
1620798932,2021-05-12T05:55:32Z,RWZ827,"56.641224,61.094704",3700,232,65
1620798935,2021-05-12T05:55:35Z,RWZ827,"56.642761,61.099579",3650,230,60
1620798942,2021-05-12T05:55:42Z,RWZ827,"56.647202,61.109474",3525,227,47
1620798944,2021-05-12T05:55:44Z,RWZ827,"56.649353,61.113083",3475,224,41
1620798951,2021-05-12T05:55:51Z,RWZ827,"56.654663,61.119263",3375,221,29
1620798954,2021-05-12T05:55:54Z,RWZ827,"56.657776,61.121666",3325,219,23
1620798957,2021-05-12T05:55:57Z,RWZ827,"56.66087,61.123322",3275,218,16
1620798960,2021-05-12T05:56:00Z,RWZ827,"56.663635,61.124153",3225,216,10
1620798963,2021-05-12T05:56:03Z,RWZ827,"56.666702,61.12458",3175,215,5
1620798965,2021-05-12T05:56:05Z,RWZ827,"56.668671,61.124756",3150,215,2
1620798970,2021-05-12T05:56:10Z,RWZ827,"56.673531,61.124741",3075,214,359
1620798973,2021-05-12T05:56:13Z,RWZ827,"56.676559,61.124561",3025,214,358
1620798982,2021-05-12T05:56:22Z,RWZ827,"56.685242,61.124413",2850,212,359
1620798989,2021-05-12T05:56:29Z,RWZ827,"56.691971,61.124496",2725,208,359
1620799291,2021-05-12T06:01:31Z,RWZ827,"56.744785,60.800465",0,90,270
1620799307,2021-05-12T06:01:47Z,RWZ827,"56.744804,60.7934",0,20,270
1620799317,2021-05-12T06:01:57Z,RWZ827,"56.744831,60.792355",0,9,278
1620799328,2021-05-12T06:02:08Z,RWZ827,"56.745186,60.791924",0,9,343
1620799333,2021-05-12T06:02:13Z,RWZ827,"56.745392,60.791924",0,9,357
1620799344,2021-05-12T06:02:24Z,RWZ827,"56.745792,60.791916",0,8,357
1620799358,2021-05-12T06:02:38Z,RWZ827,"56.746227,60.791924",0,6,357
1620799367,2021-05-12T06:02:47Z,RWZ827,"56.746433,60.791916",0,5,359
1620799382,2021-05-12T06:03:02Z,RWZ827,"56.74662,60.792446",0,6,70
1620799397,2021-05-12T06:03:17Z,RWZ827,"56.746609,60.793358",0,8,90
1620799409,2021-05-12T06:03:29Z,RWZ827,"56.746605,60.794304",0,10,90
1620799432,2021-05-12T06:03:52Z,RWZ827,"56.746605,60.796623",0,14,90
1620799444,2021-05-12T06:04:04Z,RWZ827,"56.746609,60.798073",0,15,90
1620799507,2021-05-12T06:05:07Z,RWZ827,"56.746723,60.806469",0,10,50
1620799515,2021-05-12T06:05:15Z,RWZ827,"56.747086,60.806534",0,11,353
1620799529,2021-05-12T06:05:29Z,RWZ827,"56.747841,60.806515",0,13,357
1620799540,2021-05-12T06:05:40Z,RWZ827,"56.748413,60.806473",0,10,348
1620799582,2021-05-12T06:06:22Z,RWZ827,"56.748516,60.802761",0,7,275
1620799591,2021-05-12T06:06:31Z,RWZ827,"56.748734,60.802502",0,7,334
