Timestamp,UTC,Callsign,Position,Altitude,Speed,Direction
1620665863,2021-05-10T16:57:43Z,LLM242,"55.412968,37.900043",0,0,232
1620665906,2021-05-10T16:58:26Z,LLM242,"55.413109,37.900295",0,2,241
1620665919,2021-05-10T16:58:39Z,LLM242,"55.413174,37.900528",0,2,244
1620665926,2021-05-10T16:58:46Z,LLM242,"55.41312,37.900314",0,2,250
1620665963,2021-05-10T16:59:23Z,LLM242,"55.413132,37.901459",0,2,312
1620665969,2021-05-10T16:59:29Z,LLM242,"55.413425,37.901134",0,2,323
1620665971,2021-05-10T16:59:31Z,LLM242,"55.413242,37.901398",0,2,326
1620665976,2021-05-10T16:59:36Z,LLM242,"55.413105,37.9016",0,3,326
1620665988,2021-05-10T16:59:48Z,LLM242,"55.412922,37.901821",0,3,326
1620666006,2021-05-10T17:00:06Z,LLM242,"55.412727,37.902065",0,3,323
1620666024,2021-05-10T17:00:24Z,LLM242,"55.412544,37.902287",0,3,323
1620666040,2021-05-10T17:00:40Z,LLM242,"55.412373,37.902519",0,3,326
1620666058,2021-05-10T17:00:58Z,LLM242,"55.412189,37.902748",0,3,326
1620666075,2021-05-10T17:01:15Z,LLM242,"55.411983,37.902931",0,3,295
1620666087,2021-05-10T17:01:27Z,LLM242,"55.411896,37.903206",0,3,270
1620666112,2021-05-10T17:01:52Z,LLM242,"55.41193,37.903831",0,3,239
1620666120,2021-05-10T17:02:00Z,LLM242,"55.412155,37.902771",0,3,236
1620666356,2021-05-10T17:05:56Z,LLM242,"55.411736,37.90358",0,9,216
1620666367,2021-05-10T17:06:07Z,LLM242,"55.411221,37.903851",0,12,151
1620666381,2021-05-10T17:06:21Z,LLM242,"55.410564,37.904812",0,15,123
1620666401,2021-05-10T17:06:41Z,LLM242,"55.410793,37.906853",0,15,53
1620666427,2021-05-10T17:07:07Z,LLM242,"55.41156,37.909157",0,11,84
1620666434,2021-05-10T17:07:14Z,LLM242,"55.411285,37.909657",0,13,143
1620666445,2021-05-10T17:07:25Z,LLM242,"55.410675,37.910366",0,12,146
1620666459,2021-05-10T17:07:39Z,LLM242,"55.410091,37.911072",0,12,146
1620666465,2021-05-10T17:07:45Z,LLM242,"55.40987,37.911446",0,10,129
1620666469,2021-05-10T17:07:49Z,LLM242,"55.409801,37.911777",0,11,109
1620666471,2021-05-10T17:07:51Z,LLM242,"55.409801,37.911987",0,12,98
1620666477,2021-05-10T17:07:57Z,LLM242,"55.409897,37.912613",0,13,67
1620666482,2021-05-10T17:08:02Z,LLM242,"55.410095,37.913113",0,14,56
1620666488,2021-05-10T17:08:08Z,LLM242,"55.410324,37.913692",0,15,53
1620666496,2021-05-10T17:08:16Z,LLM242,"55.410629,37.914486",0,13,53
1620666505,2021-05-10T17:08:25Z,LLM242,"55.410908,37.91515",0,10,53
1620666517,2021-05-10T17:08:37Z,LLM242,"55.411228,37.915958",0,9,59
1620666525,2021-05-10T17:08:45Z,LLM242,"55.411148,37.916584",0,11,112
1620666539,2021-05-10T17:08:59Z,LLM242,"55.410645,37.917496",0,12,135
1620666545,2021-05-10T17:09:05Z,LLM242,"55.410374,37.917957",0,14,135
1620666551,2021-05-10T17:09:11Z,LLM242,"55.410107,37.918423",0,13,135
1620666666,2021-05-10T17:11:06Z,LLM242,"55.403629,37.92638",0,17,146
1620666681,2021-05-10T17:11:21Z,LLM242,"55.40255,37.927677",0,19,146
1620666687,2021-05-10T17:11:27Z,LLM242,"55.402084,37.928238",0,20,146
1620666695,2021-05-10T17:11:35Z,LLM242,"55.40147,37.928967",0,21,146
1620666700,2021-05-10T17:11:40Z,LLM242,"55.400997,37.929531",0,22,146
1620666905,2021-05-10T17:15:05Z,LLM242,"55.397335,37.938679",0,12,11
1620666911,2021-05-10T17:15:11Z,LLM242,"55.397667,37.938557",0,12,340
1620666919,2021-05-10T17:15:19Z,LLM242,"55.39801,37.938114",0,12,323
1620666924,2021-05-10T17:15:24Z,LLM242,"55.398228,37.93787",0,12,326
1620667010,2021-05-10T17:16:50Z,LLM242,"55.422672,37.908157",975,160,324
1620667019,2021-05-10T17:16:59Z,LLM242,"55.428398,37.902",1400,162,330
1620667022,2021-05-10T17:17:02Z,LLM242,"55.430466,37.900166",1475,165,332
1620667040,2021-05-10T17:17:20Z,LLM242,"55.443855,37.890732",1900,183,340
1620667049,2021-05-10T17:17:29Z,LLM242,"55.451157,37.88652",2075,196,342
1620667059,2021-05-10T17:17:39Z,LLM242,"55.460102,37.881462",2250,215,341
1620667065,2021-05-10T17:17:45Z,LLM242,"55.466721,37.877529",2500,223,340
1620667074,2021-05-10T17:17:54Z,LLM242,"55.474907,37.872276",2925,228,339
1620667080,2021-05-10T17:18:00Z,LLM242,"55.480816,37.868328",3250,229,339
1620667092,2021-05-10T17:18:12Z,LLM242,"55.492641,37.860001",3900,230,337
1620667100,2021-05-10T17:18:20Z,LLM242,"55.501205,37.853737",4250,229,337
1620667106,2021-05-10T17:18:26Z,LLM242,"55.507168,37.849274",4425,232,336
1620667120,2021-05-10T17:18:40Z,LLM242,"55.520481,37.839233",4600,241,336
1620667128,2021-05-10T17:18:48Z,LLM242,"55.528858,37.832878",4650,241,336
1620667137,2021-05-10T17:18:57Z,LLM242,"55.538124,37.825844",4675,241,336
1620667146,2021-05-10T17:19:06Z,LLM242,"55.547379,37.818771",4675,243,336
1620667158,2021-05-10T17:19:18Z,LLM242,"55.559723,37.809448",4675,242,336
1620667165,2021-05-10T17:19:25Z,LLM242,"55.567337,37.803955",4675,239,339
1620667180,2021-05-10T17:19:40Z,LLM242,"55.583603,37.801468",4675,235,10
1620667182,2021-05-10T17:19:42Z,LLM242,"55.585281,37.802124",4700,235,12
1620667183,2021-05-10T17:19:43Z,LLM242,"55.586288,37.802624",4700,235,14
1620667184,2021-05-10T17:19:44Z,LLM242,"55.587376,37.803268",4700,236,16
1620667185,2021-05-10T17:19:45Z,LLM242,"55.588352,37.803871",4725,237,19
1620667186,2021-05-10T17:19:46Z,LLM242,"55.589905,37.805038",4750,238,23
1620667190,2021-05-10T17:19:50Z,LLM242,"55.593334,37.808247",4825,239,27
1620667192,2021-05-10T17:19:52Z,LLM242,"55.595856,37.810947",4900,240,30
1620667194,2021-05-10T17:19:54Z,LLM242,"55.597153,37.812366",4950,242,31
1620667201,2021-05-10T17:20:01Z,LLM242,"55.603821,37.819935",5225,249,32
1620667204,2021-05-10T17:20:04Z,LLM242,"55.606796,37.823349",5325,251,32
1620667205,2021-05-10T17:20:05Z,LLM242,"55.608307,37.825012",5375,252,32
1620667206,2021-05-10T17:20:06Z,LLM242,"55.608791,37.8255",5375,252,32
1620667207,2021-05-10T17:20:07Z,LLM242,"55.610413,37.827343",5425,253,32
1620667212,2021-05-10T17:20:12Z,LLM242,"55.614716,37.832088",5575,259,31
1620667213,2021-05-10T17:20:13Z,LLM242,"55.615913,37.833397",5625,260,31
1620667224,2021-05-10T17:20:24Z,LLM242,"55.627808,37.846153",6100,270,30
1620667236,2021-05-10T17:20:36Z,LLM242,"55.640724,37.859917",6750,274,32
1620667243,2021-05-10T17:20:43Z,LLM242,"55.647568,37.869873",7125,277,43
1620667246,2021-05-10T17:20:46Z,LLM242,"55.650127,37.875023",7275,277,48
1620667248,2021-05-10T17:20:48Z,LLM242,"55.651703,37.878696",7400,279,54
1620667259,2021-05-10T17:20:59Z,LLM242,"55.657902,37.900513",7925,284,67
1620667260,2021-05-10T17:21:00Z,LLM242,"55.658695,37.903946",7975,286,67
1620667264,2021-05-10T17:21:04Z,LLM242,"55.660648,37.912529",8100,290,68
1620667270,2021-05-10T17:21:10Z,LLM242,"55.663559,37.925968",8300,297,68
1620667278,2021-05-10T17:21:18Z,LLM242,"55.667538,37.944546",8650,302,69
1620667289,2021-05-10T17:21:29Z,LLM242,"55.672989,37.970081",9200,305,69
1620667299,2021-05-10T17:21:39Z,LLM242,"55.678154,37.994583",9625,312,69
1620667312,2021-05-10T17:21:52Z,LLM242,"55.684708,38.025013",9925,325,69
1620667326,2021-05-10T17:22:06Z,LLM242,"55.692627,38.061634",10400,336,68
1620667342,2021-05-10T17:22:22Z,LLM242,"55.701149,38.100929",11200,337,69
1620667355,2021-05-10T17:22:35Z,LLM242,"55.708458,38.134491",11850,339,68
1620667375,2021-05-10T17:22:55Z,LLM242,"55.719955,38.187363",12750,345,68
1620667410,2021-05-10T17:23:30Z,LLM242,"55.740463,38.281361",14225,355,68
1620667441,2021-05-10T17:24:01Z,LLM242,"55.758591,38.36742",15375,365,70
1620667472,2021-05-10T17:24:32Z,LLM242,"55.774887,38.456226",16550,372,72
1620667503,2021-05-10T17:25:03Z,LLM242,"55.787933,38.546532",17300,374,77
1620667535,2021-05-10T17:25:35Z,LLM242,"55.799194,38.643494",18275,384,78
1620667597,2021-05-10T17:26:37Z,LLM242,"55.82341,38.838169",20375,394,77
1620667665,2021-05-10T17:27:45Z,LLM242,"55.851002,39.05545",22400,403,77
1620667725,2021-05-10T17:28:45Z,LLM242,"55.875916,39.253403",23975,414,77
1620667790,2021-05-10T17:29:50Z,LLM242,"55.902786,39.471298",25325,430,77
1620667853,2021-05-10T17:30:53Z,LLM242,"55.929932,39.694851",26375,448,77
1620667913,2021-05-10T17:31:53Z,LLM242,"55.956528,39.916245",27650,458,78
1620667976,2021-05-10T17:32:56Z,LLM242,"55.984131,40.152283",28850,469,78
1620668039,2021-05-10T17:33:59Z,LLM242,"56.01178,40.392319",29900,481,78
1620668101,2021-05-10T17:35:01Z,LLM242,"56.039303,40.635166",31150,484,78
1620668164,2021-05-10T17:36:04Z,LLM242,"56.066483,40.87888",32775,476,78
1620668227,2021-05-10T17:37:07Z,LLM242,"56.092712,41.119747",34275,470,79
1620668289,2021-05-10T17:38:09Z,LLM242,"56.11821,41.358032",35000,474,79
1620668350,2021-05-10T17:39:10Z,LLM242,"56.142929,41.594486",35000,473,79
1620668412,2021-05-10T17:40:12Z,LLM242,"56.167236,41.833023",35000,475,79
1620668473,2021-05-10T17:41:13Z,LLM242,"56.188271,42.069481",35000,475,85
1620668535,2021-05-10T17:42:15Z,LLM242,"56.184082,42.31324",34975,476,95
1620668596,2021-05-10T17:43:16Z,LLM242,"56.170723,42.553825",35000,481,95
1620668659,2021-05-10T17:44:19Z,LLM242,"56.156475,42.802048",35025,483,95
1620668720,2021-05-10T17:45:20Z,LLM242,"56.141953,43.047009",35025,483,96
1620668780,2021-05-10T17:46:20Z,LLM242,"56.130875,43.284416",35025,486,90
1620668842,2021-05-10T17:47:22Z,LLM242,"56.12883,43.531326",35950,482,91
1620668902,2021-05-10T17:48:22Z,LLM242,"56.126083,43.7687",36975,467,91
1620668964,2021-05-10T17:49:24Z,LLM242,"56.123154,44.003574",37000,465,91
1620669025,2021-05-10T17:50:25Z,LLM242,"56.119675,44.241943",37000,466,91
1620669086,2021-05-10T17:51:26Z,LLM242,"56.115883,44.473515",37000,465,91
1620669149,2021-05-10T17:52:29Z,LLM242,"56.111435,44.71727",37000,470,91
1620669211,2021-05-10T17:53:31Z,LLM242,"56.106571,44.95657",37000,470,92
1620669272,2021-05-10T17:54:32Z,LLM242,"56.101078,45.193806",37000,472,92
1620669332,2021-05-10T17:55:32Z,LLM242,"56.095402,45.430954",37025,473,92
1620669394,2021-05-10T17:56:34Z,LLM242,"56.089005,45.670582",37000,472,92
1620669456,2021-05-10T17:57:36Z,LLM242,"56.082275,45.913113",37000,472,93
1620669517,2021-05-10T17:58:37Z,LLM242,"56.075058,46.149529",37000,472,93
1620669578,2021-05-10T17:59:38Z,LLM242,"56.067329,46.388824",37000,472,93
1620669640,2021-05-10T18:00:40Z,LLM242,"56.064331,46.629887",37000,473,88
1620669701,2021-05-10T18:01:41Z,LLM242,"56.066586,46.868103",37000,473,89
1620669763,2021-05-10T18:02:43Z,LLM242,"56.068306,47.106369",37000,473,89
1620669823,2021-05-10T18:03:43Z,LLM242,"56.069595,47.341087",37000,473,89
1620669886,2021-05-10T18:04:46Z,LLM242,"56.070496,47.586594",37000,474,89
1620669946,2021-05-10T18:05:46Z,LLM242,"56.070923,47.824318",37025,474,90
1620670008,2021-05-10T18:06:48Z,LLM242,"56.070969,48.064102",37000,472,90
1620670069,2021-05-10T18:07:49Z,LLM242,"56.070602,48.30106",37000,471,90
1620670131,2021-05-10T18:08:51Z,LLM242,"56.069424,48.543949",36975,473,90
1620670192,2021-05-10T18:09:52Z,LLM242,"56.068073,48.780842",37000,474,90
1620670253,2021-05-10T18:10:53Z,LLM242,"56.066299,49.02058",37000,475,90
1620670314,2021-05-10T18:11:54Z,LLM242,"56.063931,49.258919",37025,474,91
1620670376,2021-05-10T18:12:56Z,LLM242,"56.061092,49.498642",37000,474,91
1620670437,2021-05-10T18:13:57Z,LLM242,"56.057831,49.73877",37000,474,91
1620670500,2021-05-10T18:15:00Z,LLM242,"56.054031,49.987045",37000,475,91
1620670562,2021-05-10T18:16:02Z,LLM242,"56.050152,50.228378",37000,476,91
1620670622,2021-05-10T18:17:02Z,LLM242,"56.045498,50.464325",37000,476,92
1620670684,2021-05-10T18:18:04Z,LLM242,"56.040375,50.706367",37000,476,92
1620670745,2021-05-10T18:19:05Z,LLM242,"56.03627,50.945766",37000,477,89
1620670806,2021-05-10T18:20:06Z,LLM242,"56.038651,51.185635",37000,479,89
1620670867,2021-05-10T18:21:07Z,LLM242,"56.03907,51.426315",37000,480,90
1620670928,2021-05-10T18:22:08Z,LLM242,"56.039024,51.667587",37000,481,90
1620670989,2021-05-10T18:23:09Z,LLM242,"56.041679,51.909798",37000,482,86
1620671050,2021-05-10T18:24:10Z,LLM242,"56.050152,52.152702",37000,482,86
1620671111,2021-05-10T18:25:11Z,LLM242,"56.058296,52.393715",37025,482,86
1620671172,2021-05-10T18:26:12Z,LLM242,"56.065746,52.639359",37000,482,87
1620671232,2021-05-10T18:27:12Z,LLM242,"56.071976,52.876034",37000,481,87
1620671294,2021-05-10T18:28:14Z,LLM242,"56.077744,53.122143",37000,480,87
1620671355,2021-05-10T18:29:15Z,LLM242,"56.082832,53.361969",37025,476,87
1620671416,2021-05-10T18:30:16Z,LLM242,"56.087631,53.598385",37000,471,88
1620671478,2021-05-10T18:31:18Z,LLM242,"56.092117,53.84058",36975,471,88
1620671539,2021-05-10T18:32:19Z,LLM242,"56.0961,54.078537",36975,474,88
1620671600,2021-05-10T18:33:20Z,LLM242,"56.10001,54.316406",37000,475,86
1620671660,2021-05-10T18:34:20Z,LLM242,"56.118073,54.550812",37025,474,81
1620671722,2021-05-10T18:35:22Z,LLM242,"56.138695,54.791908",37000,475,81
1620671784,2021-05-10T18:36:24Z,LLM242,"56.158573,55.028885",37000,474,81
1620671845,2021-05-10T18:37:25Z,LLM242,"56.178402,55.268955",37000,475,81
1620671906,2021-05-10T18:38:26Z,LLM242,"56.197311,55.508007",37000,476,81
1620671968,2021-05-10T18:39:28Z,LLM242,"56.216171,55.748707",37000,476,82
1620672029,2021-05-10T18:40:29Z,LLM242,"56.234173,55.984097",37025,462,82
1620672090,2021-05-10T18:41:30Z,LLM242,"56.251007,56.214378",37000,458,82
1620672151,2021-05-10T18:42:31Z,LLM242,"56.267441,56.441345",37000,452,82
1620672211,2021-05-10T18:43:31Z,LLM242,"56.28685,56.662319",37000,444,74
1620672273,2021-05-10T18:44:33Z,LLM242,"56.321224,56.885834",37000,454,74
1620672334,2021-05-10T18:45:34Z,LLM242,"56.355103,57.108932",37000,448,74
1620672397,2021-05-10T18:46:37Z,LLM242,"56.388351,57.330093",37000,444,74
1620672459,2021-05-10T18:47:39Z,LLM242,"56.421524,57.55521",36975,442,75
1620672519,2021-05-10T18:48:39Z,LLM242,"56.452606,57.769028",36975,443,75
1620672581,2021-05-10T18:49:41Z,LLM242,"56.484146,57.989254",37025,442,75
1620672642,2021-05-10T18:50:42Z,LLM242,"56.514977,58.206081",37025,440,75
1620672704,2021-05-10T18:51:44Z,LLM242,"56.545559,58.425896",37000,438,75
1620672765,2021-05-10T18:52:45Z,LLM242,"56.575401,58.643044",37000,436,76
1620672826,2021-05-10T18:53:46Z,LLM242,"56.60463,58.859253",37000,435,76
1620672887,2021-05-10T18:54:47Z,LLM242,"56.633469,59.074688",37000,435,76
1620672948,2021-05-10T18:55:48Z,LLM242,"56.661942,59.291088",36975,436,76
1620673011,2021-05-10T18:56:51Z,LLM242,"56.69133,59.516975",36975,439,76
1620673074,2021-05-10T18:57:54Z,LLM242,"56.720039,59.744717",37025,442,77
1620673136,2021-05-10T18:58:56Z,LLM242,"56.748249,59.967365",37050,441,77
1620673197,2021-05-10T18:59:57Z,LLM242,"56.775063,60.183903",37025,437,77
1620673260,2021-05-10T19:01:00Z,LLM242,"56.802612,60.410301",37000,434,77
1620673323,2021-05-10T19:02:03Z,LLM242,"56.829987,60.638695",36950,441,77
1620673387,2021-05-10T19:03:07Z,LLM242,"56.867569,60.862968",37025,442,66
1620673447,2021-05-10T19:04:07Z,LLM242,"56.912338,61.069908",37025,450,77
1620673448,2021-05-10T19:04:08Z,LLM242,"56.912998,61.07539",37025,451,77
1620673451,2021-05-10T19:04:11Z,LLM242,"56.914398,61.087334",37025,450,77
1620673454,2021-05-10T19:04:14Z,LLM242,"56.915745,61.098782",37025,451,78
1620673457,2021-05-10T19:04:17Z,LLM242,"56.916954,61.109325",37025,451,78
1620673519,2021-05-10T19:05:19Z,LLM242,"56.944561,61.343491",37000,453,77
1620673554,2021-05-10T19:05:54Z,LLM242,"56.954849,61.475773",37025,461,87
1620673555,2021-05-10T19:05:55Z,LLM242,"56.954956,61.479752",37025,461,87
1620673621,2021-05-10T19:07:01Z,LLM242,"56.960632,61.737244",37025,461,87
1620673684,2021-05-10T19:08:04Z,LLM242,"56.966904,61.980167",37025,460,87
1620673747,2021-05-10T19:09:07Z,LLM242,"56.972351,62.22488",36350,451,87
1620673809,2021-05-10T19:10:09Z,LLM242,"56.976517,62.456932",34600,436,87
1620673870,2021-05-10T19:11:10Z,LLM242,"56.980965,62.684357",32600,450,88
1620673933,2021-05-10T19:12:13Z,LLM242,"56.984592,62.927116",30225,462,88
1620673994,2021-05-10T19:13:14Z,LLM242,"56.987961,63.165207",27225,458,88
1620674057,2021-05-10T19:14:17Z,LLM242,"56.991066,63.406174",24500,446,88
1620674119,2021-05-10T19:15:19Z,LLM242,"56.993484,63.638481",21800,434,89
1620674181,2021-05-10T19:16:21Z,LLM242,"56.995533,63.858562",19150,403,89
1620674242,2021-05-10T19:17:22Z,LLM242,"56.996841,64.061539",16725,382,89
1620674273,2021-05-10T19:17:53Z,LLM242,"56.997395,64.160156",15525,372,89
1620674304,2021-05-10T19:18:24Z,LLM242,"56.997849,64.255341",14350,364,89
1620674335,2021-05-10T19:18:55Z,LLM242,"56.99826,64.349838",13200,357,89
1620674366,2021-05-10T19:19:26Z,LLM242,"56.998512,64.442253",12050,349,89
1620674396,2021-05-10T19:19:56Z,LLM242,"56.998699,64.531387",10975,341,90
1620674412,2021-05-10T19:20:12Z,LLM242,"56.99881,64.576523",10400,337,89
1620674423,2021-05-10T19:20:23Z,LLM242,"56.998886,64.60714",10025,334,89
1620674437,2021-05-10T19:20:37Z,LLM242,"56.998978,64.646034",9550,331,89
1620674451,2021-05-10T19:20:51Z,LLM242,"56.999073,64.684486",9050,328,89
1620674467,2021-05-10T19:21:07Z,LLM242,"56.999119,64.730202",8475,323,90
1620674481,2021-05-10T19:21:21Z,LLM242,"56.999084,64.766296",8025,320,90
1620674494,2021-05-10T19:21:34Z,LLM242,"56.999084,64.803116",7575,317,90
1620674506,2021-05-10T19:21:46Z,LLM242,"56.999073,64.833244",7200,315,90
1620674520,2021-05-10T19:22:00Z,LLM242,"56.99913,64.872551",6700,312,90
1620674536,2021-05-10T19:22:16Z,LLM242,"56.999119,64.913696",6200,308,90
1620674577,2021-05-10T19:22:57Z,LLM242,"56.999084,65.019836",4875,301,90
1620674632,2021-05-10T19:23:52Z,LLM242,"56.998718,65.158279",3150,291,90
1620674639,2021-05-10T19:23:59Z,LLM242,"56.998672,65.174675",3050,286,90
1620674646,2021-05-10T19:24:06Z,LLM242,"56.998627,65.190895",2975,280,90
1620674656,2021-05-10T19:24:16Z,LLM242,"56.998562,65.2136",2850,274,90
1620674662,2021-05-10T19:24:22Z,LLM242,"56.998562,65.229019",2800,269,90
1620674672,2021-05-10T19:24:32Z,LLM242,"56.998512,65.251259",2700,261,90
1620674684,2021-05-10T19:24:44Z,LLM242,"56.998444,65.275696",2650,251,90
1620674693,2021-05-10T19:24:53Z,LLM242,"56.998421,65.294846",2650,243,90
1620674705,2021-05-10T19:25:05Z,LLM242,"56.998325,65.318413",2650,229,90
1620674713,2021-05-10T19:25:13Z,LLM242,"56.998306,65.333893",2650,221,90
1620674730,2021-05-10T19:25:30Z,LLM242,"56.998169,65.365479",2650,216,90
1620674737,2021-05-10T19:25:37Z,LLM242,"56.998142,65.377869",2650,215,90
1620674743,2021-05-10T19:25:43Z,LLM242,"56.998077,65.389595",2650,215,90
1620674754,2021-05-10T19:25:54Z,LLM242,"56.998764,65.408218",2600,216,79
1620674757,2021-05-10T19:25:57Z,LLM242,"56.999588,65.413712",2600,216,72
1620674760,2021-05-10T19:26:00Z,LLM242,"57.000839,65.419243",2575,217,66
1620674767,2021-05-10T19:26:07Z,LLM242,"57.004471,65.429428",2525,219,51
1620674777,2021-05-10T19:26:17Z,LLM242,"57.011902,65.443413",2525,219,44
1620674780,2021-05-10T19:26:20Z,LLM242,"57.014099,65.447273",2525,219,43
1620674787,2021-05-10T19:26:27Z,LLM242,"57.018951,65.455658",2500,220,42
1620674790,2021-05-10T19:26:30Z,LLM242,"57.021183,65.459465",2500,220,42
1620674800,2021-05-10T19:26:40Z,LLM242,"57.028748,65.472504",2450,216,43
1620674807,2021-05-10T19:26:47Z,LLM242,"57.033752,65.481354",2450,213,44
1620674814,2021-05-10T19:26:54Z,LLM242,"57.038502,65.489944",2450,209,44
1620674820,2021-05-10T19:27:00Z,LLM242,"57.042755,65.497658",2450,202,44
1620674831,2021-05-10T19:27:11Z,LLM242,"57.049393,65.509842",2475,192,44
1620674837,2021-05-10T19:27:17Z,LLM242,"57.053493,65.517319",2475,190,44
1620674848,2021-05-10T19:27:28Z,LLM242,"57.060566,65.52813",2450,189,32
1620674851,2021-05-10T19:27:31Z,LLM242,"57.062943,65.530083",2450,191,20
1620674854,2021-05-10T19:27:34Z,LLM242,"57.065689,65.531319",2450,191,11
1620674864,2021-05-10T19:27:44Z,LLM242,"57.074524,65.529671",2400,194,341
1620674875,2021-05-10T19:27:55Z,LLM242,"57.082809,65.520058",2275,193,320
1620674878,2021-05-10T19:27:58Z,LLM242,"57.085007,65.516525",2200,194,318
1620674882,2021-05-10T19:28:02Z,LLM242,"57.08757,65.512077",2150,194,316
1620674889,2021-05-10T19:28:09Z,LLM242,"57.092102,65.504089",2050,193,315
1620674896,2021-05-10T19:28:16Z,LLM242,"57.096272,65.49659",2050,185,315
1620674906,2021-05-10T19:28:26Z,LLM242,"57.10228,65.485695",2000,181,315
1620674959,2021-05-10T19:29:19Z,LLM242,"57.133209,65.42865",1150,164,315
1620674972,2021-05-10T19:29:32Z,LLM242,"57.139519,65.416939",950,156,314
1620674989,2021-05-10T19:29:49Z,LLM242,"57.148041,65.40126",725,144,314
1620674998,2021-05-10T19:29:58Z,LLM242,"57.15184,65.394142",625,143,314
1620675008,2021-05-10T19:30:08Z,LLM242,"57.156792,65.384956",475,142,314
1620675237,2021-05-10T19:33:57Z,LLM242,"57.18364,65.340767",0,11,135
1620675418,2021-05-10T19:36:58Z,LLM242,"57.18251,65.342964",0,1,194
1620675452,2021-05-10T19:37:32Z,LLM242,"57.182739,65.34314",0,2,222
1620675461,2021-05-10T19:37:41Z,LLM242,"57.149017,65.399399",0,1,222
