Timestamp,UTC,Callsign,Position,Altitude,Speed,Direction
1621210781,2021-05-17T00:19:41Z,LLM032,"55.399899,37.904285",0,0,236
1621211060,2021-05-17T00:24:20Z,LLM032,"55.39983,37.904037",0,5,241
1621211064,2021-05-17T00:24:24Z,LLM032,"55.399853,37.903831",0,6,267
1621211092,2021-05-17T00:24:52Z,LLM032,"55.400455,37.902435",0,10,267
1621211113,2021-05-17T00:25:13Z,LLM032,"55.400253,37.900913",0,12,298
1621211116,2021-05-17T00:25:16Z,LLM032,"55.400398,37.900688",0,13,317
1621211120,2021-05-17T00:25:20Z,LLM032,"55.400608,37.90044",0,14,323
1621211123,2021-05-17T00:25:23Z,LLM032,"55.400784,37.90023",0,15,326
1621211129,2021-05-17T00:25:29Z,LLM032,"55.401188,37.899754",0,17,326
1621211132,2021-05-17T00:25:32Z,LLM032,"55.401363,37.89954",0,18,326
1621211139,2021-05-17T00:25:39Z,LLM032,"55.401867,37.898933",0,20,323
1621211165,2021-05-17T00:26:05Z,LLM032,"55.404156,37.896194",0,22,326
1621211174,2021-05-17T00:26:14Z,LLM032,"55.404934,37.895218",0,22,326
1621211180,2021-05-17T00:26:20Z,LLM032,"55.405449,37.894592",0,22,326
1621211186,2021-05-17T00:26:26Z,LLM032,"55.405998,37.893948",0,21,326
1621211194,2021-05-17T00:26:34Z,LLM032,"55.406647,37.893158",0,21,326
1621211202,2021-05-17T00:26:42Z,LLM032,"55.407253,37.892429",0,21,326
1621211210,2021-05-17T00:26:50Z,LLM032,"55.407921,37.891624",0,21,326
1621211215,2021-05-17T00:26:55Z,LLM032,"55.408394,37.891056",0,21,326
1621211223,2021-05-17T00:27:03Z,LLM032,"55.409046,37.890263",0,21,326
1621211229,2021-05-17T00:27:09Z,LLM032,"55.409523,37.889706",0,21,326
1621211240,2021-05-17T00:27:20Z,LLM032,"55.4105,37.888515",0,24,326
1621211247,2021-05-17T00:27:27Z,LLM032,"55.411186,37.887707",0,25,326
1621211294,2021-05-17T00:28:14Z,LLM032,"55.415901,37.882023",0,26,326
1621211301,2021-05-17T00:28:21Z,LLM032,"55.416641,37.881123",0,26,326
1621211390,2021-05-17T00:29:50Z,LLM032,"55.420578,37.872807",0,14,168
1621211394,2021-05-17T00:29:54Z,LLM032,"55.420345,37.873035",0,15,149
1621211398,2021-05-17T00:29:58Z,LLM032,"55.420101,37.873325",0,15,146
1621211401,2021-05-17T00:30:01Z,LLM032,"55.419903,37.873577",0,16,146
1621211405,2021-05-17T00:30:05Z,LLM032,"55.419605,37.873932",0,21,146
1621211411,2021-05-17T00:30:11Z,LLM032,"55.41893,37.874741",0,41,146
1621211422,2021-05-17T00:30:22Z,LLM032,"55.416016,37.878239",0,90,146
1621211428,2021-05-17T00:30:28Z,LLM032,"55.413502,37.881275",600,112,145
1621211435,2021-05-17T00:30:35Z,LLM032,"55.409824,37.885685",575,138,145
1621211473,2021-05-17T00:31:13Z,LLM032,"55.385513,37.913818",1800,165,151
1621211484,2021-05-17T00:31:24Z,LLM032,"55.377518,37.920059",2100,170,158
1621211489,2021-05-17T00:31:29Z,LLM032,"55.373749,37.922558",2225,172,159
1621211496,2021-05-17T00:31:36Z,LLM032,"55.368484,37.925613",2425,174,161
1621211502,2021-05-17T00:31:42Z,LLM032,"55.363739,37.928219",2625,174,163
1621211508,2021-05-17T00:31:48Z,LLM032,"55.359146,37.930622",2850,173,163
1621211514,2021-05-17T00:31:54Z,LLM032,"55.354385,37.933044",3050,173,163
1621211521,2021-05-17T00:32:01Z,LLM032,"55.34903,37.935875",3275,173,163
1621211527,2021-05-17T00:32:07Z,LLM032,"55.344727,37.938213",3425,174,162
1621211564,2021-05-17T00:32:44Z,LLM032,"55.320694,37.972305",4025,211,107
1621211570,2021-05-17T00:32:50Z,LLM032,"55.319641,37.982967",4125,219,97
1621211572,2021-05-17T00:32:52Z,LLM032,"55.319561,37.985561",4150,223,93
1621211581,2021-05-17T00:33:01Z,LLM032,"55.321014,38.003326",4225,240,74
1621211584,2021-05-17T00:33:04Z,LLM032,"55.32225,38.008415",4275,247,64
1621211587,2021-05-17T00:33:07Z,LLM032,"55.324261,38.014359",4325,252,57
1621211593,2021-05-17T00:33:13Z,LLM032,"55.328842,38.023438",4450,262,44
1621211608,2021-05-17T00:33:28Z,LLM032,"55.343769,38.04274",4950,275,32
1621211615,2021-05-17T00:33:35Z,LLM032,"55.351044,38.050339",5250,278,30
1621211626,2021-05-17T00:33:46Z,LLM032,"55.364483,38.062302",5800,282,24
1621211645,2021-05-17T00:34:05Z,LLM032,"55.387207,38.079987",6700,288,24
1621211660,2021-05-17T00:34:20Z,LLM032,"55.40559,38.094925",7350,294,25
1621211677,2021-05-17T00:34:37Z,LLM032,"55.426529,38.112946",8050,301,26
1621211689,2021-05-17T00:34:49Z,LLM032,"55.442039,38.12672",8600,305,26
1621211712,2021-05-17T00:35:12Z,LLM032,"55.470474,38.152603",9675,307,27
1621211724,2021-05-17T00:35:24Z,LLM032,"55.485306,38.166256",10150,311,27
1621211735,2021-05-17T00:35:35Z,LLM032,"55.499672,38.179466",10475,320,27
1621211747,2021-05-17T00:35:47Z,LLM032,"55.516243,38.194572",10650,336,27
1621211770,2021-05-17T00:36:10Z,LLM032,"55.549015,38.224442",11000,362,27
1621211784,2021-05-17T00:36:24Z,LLM032,"55.571037,38.244438",11225,377,27
1621211809,2021-05-17T00:36:49Z,LLM032,"55.610001,38.279884",11800,393,27
1621211824,2021-05-17T00:37:04Z,LLM032,"55.635231,38.302887",12425,397,27
1621211855,2021-05-17T00:37:35Z,LLM032,"55.686626,38.349838",13500,405,27
1621211886,2021-05-17T00:38:06Z,LLM032,"55.73877,38.397385",14600,410,27
1621211919,2021-05-17T00:38:39Z,LLM032,"55.794022,38.447987",15700,415,27
1621211949,2021-05-17T00:39:09Z,LLM032,"55.845879,38.49575",16700,419,27
1621211983,2021-05-17T00:39:43Z,LLM032,"55.903931,38.549309",17750,424,27
1621212015,2021-05-17T00:40:15Z,LLM032,"55.959652,38.600723",18650,431,27
1621212076,2021-05-17T00:41:16Z,LLM032,"56.069962,38.703003",20375,441,27
1621212137,2021-05-17T00:42:17Z,LLM032,"56.181839,38.807541",21725,455,27
1621212199,2021-05-17T00:43:19Z,LLM032,"56.297241,38.916153",23200,462,27
1621212260,2021-05-17T00:44:20Z,LLM032,"56.414749,39.027641",24325,473,27
1621212321,2021-05-17T00:45:21Z,LLM032,"56.534729,39.142208",25350,483,27
1621212382,2021-05-17T00:46:22Z,LLM032,"56.655842,39.258671",26300,492,28
1621212444,2021-05-17T00:47:24Z,LLM032,"56.77916,39.378456",27650,491,28
1621212505,2021-05-17T00:48:25Z,LLM032,"56.902359,39.498512",28875,492,28
1621212566,2021-05-17T00:49:26Z,LLM032,"57.023792,39.617851",30225,487,28
1621212628,2021-05-17T00:50:28Z,LLM032,"57.144314,39.737637",31650,478,28
1621212688,2021-05-17T00:51:28Z,LLM032,"57.259872,39.852734",32900,472,28
1621212749,2021-05-17T00:52:29Z,LLM032,"57.376286,39.970123",33900,467,28
1621212810,2021-05-17T00:53:30Z,LLM032,"57.491829,40.08725",34625,468,28
1621212874,2021-05-17T00:54:34Z,LLM032,"57.614075,40.21138",35000,477,28
1621212936,2021-05-17T00:55:36Z,LLM032,"57.735123,40.336037",35000,487,28
1621212997,2021-05-17T00:56:37Z,LLM032,"57.855167,40.460266",35000,485,28
1621213059,2021-05-17T00:57:39Z,LLM032,"57.976044,40.586597",34975,479,29
1621213120,2021-05-17T00:58:40Z,LLM032,"58.092583,40.70929",34950,478,29
1621213183,2021-05-17T00:59:43Z,LLM032,"58.214722,40.838753",34975,482,29
1621213244,2021-05-17T01:00:44Z,LLM032,"58.332981,40.965088",35025,484,29
1621213305,2021-05-17T01:01:45Z,LLM032,"58.450333,41.091789",35050,480,29
1621213366,2021-05-17T01:02:46Z,LLM032,"58.568024,41.219376",34975,475,29
1621213428,2021-05-17T01:03:48Z,LLM032,"58.685669,41.347931",34950,475,29
1621213489,2021-05-17T01:04:49Z,LLM032,"58.799744,41.482868",35000,478,36
1621213551,2021-05-17T01:05:51Z,LLM032,"58.909195,41.639191",35000,478,36
1621213612,2021-05-17T01:06:52Z,LLM032,"59.017765,41.795307",34975,477,36
1621213672,2021-05-17T01:07:52Z,LLM032,"59.124741,41.949589",35000,478,36
1621213733,2021-05-17T01:08:53Z,LLM032,"59.232697,42.107185",35000,479,36
1621213794,2021-05-17T01:09:54Z,LLM032,"59.339581,42.2645",35000,479,37
1621213856,2021-05-17T01:10:56Z,LLM032,"59.439388,42.451454",35000,486,48
1621213917,2021-05-17T01:11:57Z,LLM032,"59.530025,42.649776",35025,484,48
1621213978,2021-05-17T01:12:58Z,LLM032,"59.619217,42.846016",35000,470,48
1621214041,2021-05-17T01:14:01Z,LLM032,"59.710972,43.050304",35000,473,48
1621214102,2021-05-17T01:15:02Z,LLM032,"59.798676,43.245758",34975,468,48
1621214165,2021-05-17T01:16:05Z,LLM032,"59.888672,43.447632",34950,469,48
1621214225,2021-05-17T01:17:05Z,LLM032,"59.976013,43.64603",35000,476,48
1621214287,2021-05-17T01:18:07Z,LLM032,"60.065186,43.85051",35000,481,48
1621214348,2021-05-17T01:19:08Z,LLM032,"60.154385,44.055962",35025,483,49
1621214408,2021-05-17T01:20:08Z,LLM032,"60.242111,44.260979",35025,482,49
1621214469,2021-05-17T01:21:09Z,LLM032,"60.32991,44.467354",35025,477,49
1621214531,2021-05-17T01:22:11Z,LLM032,"60.418488,44.675903",34950,474,49
1621214593,2021-05-17T01:23:13Z,LLM032,"60.505295,44.883858",34950,474,49
1621214654,2021-05-17T01:24:14Z,LLM032,"60.591415,45.09103",34975,476,49
1621214716,2021-05-17T01:25:16Z,LLM032,"60.679138,45.305061",35000,477,50
1621214777,2021-05-17T01:26:17Z,LLM032,"60.764263,45.513416",35050,474,50
1621214837,2021-05-17T01:27:17Z,LLM032,"60.848942,45.721565",35000,470,50
1621214899,2021-05-17T01:28:19Z,LLM032,"60.933884,45.93251",34975,470,50
1621214960,2021-05-17T01:29:20Z,LLM032,"61.017975,46.143524",34975,471,50
1621215023,2021-05-17T01:30:23Z,LLM032,"61.103439,46.361813",35000,472,51
1621215084,2021-05-17T01:31:24Z,LLM032,"61.186398,46.577961",35025,471,51
1621215145,2021-05-17T01:32:25Z,LLM032,"61.268738,46.793617",35000,471,51
1621215206,2021-05-17T01:33:26Z,LLM032,"61.350403,47.010303",35000,472,52
1621215269,2021-05-17T01:34:29Z,LLM032,"61.435455,47.239075",35025,472,52
1621215330,2021-05-17T01:35:30Z,LLM032,"61.515896,47.457275",35000,471,52
1621215391,2021-05-17T01:36:31Z,LLM032,"61.596523,47.677917",35000,471,52
1621215452,2021-05-17T01:37:32Z,LLM032,"61.676968,47.901104",35000,470,52
1621215513,2021-05-17T01:38:33Z,LLM032,"61.756664,48.123882",34975,471,53
1621215575,2021-05-17T01:39:35Z,LLM032,"61.836967,48.350323",35000,473,53
1621215637,2021-05-17T01:40:37Z,LLM032,"61.917873,48.581543",35000,475,53
1621215699,2021-05-17T01:41:39Z,LLM032,"61.998093,48.813236",35025,476,53
1621215760,2021-05-17T01:42:40Z,LLM032,"62.078106,49.045612",35025,475,53
1621215822,2021-05-17T01:43:42Z,LLM032,"62.156502,49.275902",35000,471,53
1621215883,2021-05-17T01:44:43Z,LLM032,"62.235359,49.508408",35000,470,54
1621215945,2021-05-17T01:45:45Z,LLM032,"62.312824,49.739544",35000,468,54
1621216006,2021-05-17T01:46:46Z,LLM032,"62.389309,49.969833",34975,469,54
1621216069,2021-05-17T01:47:49Z,LLM032,"62.468216,50.209843",35000,469,54
1621216131,2021-05-17T01:48:51Z,LLM032,"62.545677,50.447952",35000,470,54
1621216192,2021-05-17T01:49:52Z,LLM032,"62.622711,50.683796",35000,472,54
1621216253,2021-05-17T01:50:53Z,LLM032,"62.698837,50.918884",35025,473,55
1621216315,2021-05-17T01:51:55Z,LLM032,"62.775787,51.159668",35025,471,55
1621216377,2021-05-17T01:52:57Z,LLM032,"62.851868,51.402081",35000,470,55
1621216437,2021-05-17T01:53:57Z,LLM032,"62.925201,51.637165",35000,469,55
1621216498,2021-05-17T01:54:58Z,LLM032,"63.000259,51.880081",35000,469,55
1621216559,2021-05-17T01:55:59Z,LLM032,"63.073608,52.12138",35000,470,56
1621216622,2021-05-17T01:57:02Z,LLM032,"63.148438,52.370029",35000,471,56
1621216683,2021-05-17T01:58:03Z,LLM032,"63.221466,52.615215",35000,473,56
1621216744,2021-05-17T01:59:04Z,LLM032,"63.294113,52.863781",35025,474,57
1621216805,2021-05-17T02:00:05Z,LLM032,"63.366905,53.114391",35025,473,57
1621216867,2021-05-17T02:01:07Z,LLM032,"63.440041,53.368397",35000,473,57
1621216929,2021-05-17T02:02:09Z,LLM032,"63.512878,53.625324",34975,474,57
1621216990,2021-05-17T02:03:10Z,LLM032,"63.583981,53.876293",35000,473,55
1621217051,2021-05-17T02:04:11Z,LLM032,"63.660736,54.118019",35000,473,54
1621217114,2021-05-17T02:05:14Z,LLM032,"63.738693,54.372921",35000,475,55
1621217175,2021-05-17T02:06:15Z,LLM032,"63.814774,54.62487",35000,477,55
1621217236,2021-05-17T02:07:16Z,LLM032,"63.889847,54.876183",35025,478,55
1621217297,2021-05-17T02:08:17Z,LLM032,"63.96492,55.130558",35000,479,56
1621217359,2021-05-17T02:09:19Z,LLM032,"64.040726,55.390427",35000,480,56
1621217420,2021-05-17T02:10:20Z,LLM032,"64.114349,55.646961",35050,478,56
1621217481,2021-05-17T02:11:21Z,LLM032,"64.188583,55.908051",34975,477,56
1621217542,2021-05-17T02:12:22Z,LLM032,"64.260864,56.164116",34975,478,57
1621217604,2021-05-17T02:13:24Z,LLM032,"64.335144,56.431732",35000,478,57
1621217666,2021-05-17T02:14:26Z,LLM032,"64.407349,56.693344",35000,473,57
1621217727,2021-05-17T02:15:27Z,LLM032,"64.477409,56.949463",35000,444,57
1621217790,2021-05-17T02:16:30Z,LLM032,"64.54509,57.19878",35000,445,57
1621217851,2021-05-17T02:17:31Z,LLM032,"64.611465,57.446632",35000,446,58
1621217912,2021-05-17T02:18:32Z,LLM032,"64.677399,57.695389",35000,445,58
1621217973,2021-05-17T02:19:33Z,LLM032,"64.742432,57.945786",35025,444,59
1621218034,2021-05-17T02:20:34Z,LLM032,"64.806953,58.199158",35000,443,59
1621218096,2021-05-17T02:21:36Z,LLM032,"64.871292,58.453529",35000,442,59
1621218157,2021-05-17T02:22:37Z,LLM032,"64.93399,58.70636",35025,439,59
1621218220,2021-05-17T02:23:40Z,LLM032,"64.998322,58.96648",34975,438,59
1621218282,2021-05-17T02:24:42Z,LLM032,"65.060707,59.222717",35000,439,60
1621218344,2021-05-17T02:25:44Z,LLM032,"65.122879,59.48119",35000,441,60
1621218405,2021-05-17T02:26:45Z,LLM032,"65.183807,59.738159",35025,442,60
1621218467,2021-05-17T02:27:47Z,LLM032,"65.245941,60.001945",35025,442,60
1621218529,2021-05-17T02:28:49Z,LLM032,"65.307358,60.266712",35025,442,61
1621218593,2021-05-17T02:29:53Z,LLM032,"65.369675,60.538013",35000,441,61
1621218655,2021-05-17T02:30:55Z,LLM032,"65.429543,60.803116",34975,441,61
1621218716,2021-05-17T02:31:56Z,LLM032,"65.488953,61.068535",35000,443,61
1621218776,2021-05-17T02:32:56Z,LLM032,"65.546585,61.329689",35025,442,62
1621218839,2021-05-17T02:33:59Z,LLM032,"65.605957,61.601944",35000,441,62
1621218899,2021-05-17T02:34:59Z,LLM032,"65.662628,61.864491",35025,440,62
1621218960,2021-05-17T02:36:00Z,LLM032,"65.718979,62.130432",34350,433,62
1621219022,2021-05-17T02:37:02Z,LLM032,"65.775467,62.393188",32400,422,62
1621219083,2021-05-17T02:38:03Z,LLM032,"65.830078,62.651825",30325,417,62
1621219148,2021-05-17T02:39:08Z,LLM032,"65.886475,62.921333",28175,414,63
1621219208,2021-05-17T02:40:08Z,LLM032,"65.937057,63.167152",26650,400,63
1621219272,2021-05-17T02:41:12Z,LLM032,"65.988876,63.42144",24825,388,63
1621219334,2021-05-17T02:42:14Z,LLM032,"66.037514,63.663143",23075,380,63
1621219394,2021-05-17T02:43:14Z,LLM032,"66.082672,63.889847",21650,353,64
1621219457,2021-05-17T02:44:17Z,LLM032,"66.12606,64.11084",19425,337,64
1621219519,2021-05-17T02:45:19Z,LLM032,"66.167023,64.321007",17125,324,64
1621219551,2021-05-17T02:45:51Z,LLM032,"66.18737,64.426216",15900,321,64
1621219582,2021-05-17T02:46:22Z,LLM032,"66.206779,64.527245",14925,309,64
1621219613,2021-05-17T02:46:53Z,LLM032,"66.225494,64.625168",14300,300,64
1621219647,2021-05-17T02:47:27Z,LLM032,"66.245178,64.72847",13800,287,64
1621219680,2021-05-17T02:48:00Z,LLM032,"66.26326,64.823456",13175,281,64
1621219711,2021-05-17T02:48:31Z,LLM032,"66.280655,64.915352",12550,278,64
1621219742,2021-05-17T02:49:02Z,LLM032,"66.29718,65.003357",11850,277,65
1621219754,2021-05-17T02:49:14Z,LLM032,"66.303421,65.036797",11625,276,65
1621219767,2021-05-17T02:49:27Z,LLM032,"66.310364,65.074196",11450,271,65
1621219780,2021-05-17T02:49:40Z,LLM032,"66.317322,65.111618",11225,268,65
1621219792,2021-05-17T02:49:52Z,LLM032,"66.323395,65.143791",11025,265,65
1621219806,2021-05-17T02:50:06Z,LLM032,"66.330658,65.182838",10800,262,65
1621219819,2021-05-17T02:50:19Z,LLM032,"66.337082,65.217468",10575,259,65
1621219830,2021-05-17T02:50:30Z,LLM032,"66.34285,65.24852",10325,259,65
1621219841,2021-05-17T02:50:41Z,LLM032,"66.348343,65.277893",10100,259,65
1621219854,2021-05-17T02:50:54Z,LLM032,"66.354858,65.31324",9825,258,65
1621219865,2021-05-17T02:51:05Z,LLM032,"66.36026,65.342445",9625,257,65
1621219876,2021-05-17T02:51:16Z,LLM032,"66.365524,65.371147",9425,254,65
1621219887,2021-05-17T02:51:27Z,LLM032,"66.370918,65.400864",9250,252,65
1621219898,2021-05-17T02:51:38Z,LLM032,"66.376236,65.429672",9075,248,65
1621219910,2021-05-17T02:51:50Z,LLM032,"66.381767,65.459785",9025,244,65
1621219921,2021-05-17T02:52:01Z,LLM032,"66.387123,65.488754",9000,247,65
1621219933,2021-05-17T02:52:13Z,LLM032,"66.393173,65.521507",9000,249,65
1621219945,2021-05-17T02:52:25Z,LLM032,"66.398483,65.550804",9000,250,65
1621219956,2021-05-17T02:52:36Z,LLM032,"66.403656,65.579659",9000,250,66
1621219968,2021-05-17T02:52:48Z,LLM032,"66.408539,65.613724",9000,250,72
1621219980,2021-05-17T02:53:00Z,LLM032,"66.412537,65.646179",8950,250,72
1621219993,2021-05-17T02:53:13Z,LLM032,"66.417053,65.68264",8750,247,72
1621220006,2021-05-17T02:53:26Z,LLM032,"66.421341,65.717346",8475,247,72
1621220017,2021-05-17T02:53:37Z,LLM032,"66.425125,65.748039",8125,252,73
1621220028,2021-05-17T02:53:48Z,LLM032,"66.428879,65.778893",7875,253,73
1621220039,2021-05-17T02:53:59Z,LLM032,"66.432449,65.808228",7700,251,73
1621220048,2021-05-17T02:54:08Z,LLM032,"66.435654,65.834732",7525,249,73
1621220060,2021-05-17T02:54:20Z,LLM032,"66.439545,65.867218",7325,247,73
1621220073,2021-05-17T02:54:33Z,LLM032,"66.443527,65.900894",7100,244,73
1621220085,2021-05-17T02:54:45Z,LLM032,"66.44751,65.934326",6850,245,73
1621220099,2021-05-17T02:54:59Z,LLM032,"66.451309,65.971825",6575,245,82
1621220102,2021-05-17T02:55:02Z,LLM032,"66.451508,65.980515",6525,245,88
1621220105,2021-05-17T02:55:05Z,LLM032,"66.451309,65.989258",6475,243,94
1621220109,2021-05-17T02:55:09Z,LLM032,"66.450432,66.00074",6425,241,102
1621220112,2021-05-17T02:55:12Z,LLM032,"66.449478,66.008484",6400,240,108
1621220116,2021-05-17T02:55:16Z,LLM032,"66.447594,66.018715",6350,239,116
1621220119,2021-05-17T02:55:19Z,LLM032,"66.445869,66.025581",6300,237,122
1621220122,2021-05-17T02:55:22Z,LLM032,"66.443848,66.032127",6250,236,128
1621220126,2021-05-17T02:55:26Z,LLM032,"66.440826,66.039658",6150,236,136
1621220129,2021-05-17T02:55:29Z,LLM032,"66.43824,66.044685",6100,235,142
1621220132,2021-05-17T02:55:32Z,LLM032,"66.435471,66.049088",6025,235,148
1621220136,2021-05-17T02:55:36Z,LLM032,"66.431488,66.053505",5925,234,157
1621220140,2021-05-17T02:55:40Z,LLM032,"66.427277,66.056496",5850,234,165
1621220142,2021-05-17T02:55:42Z,LLM032,"66.425156,66.057419",5800,234,172
1621220147,2021-05-17T02:55:47Z,LLM032,"66.419662,66.057922",5700,233,182
1621220150,2021-05-17T02:55:50Z,LLM032,"66.41629,66.056969",5625,232,188
1621220157,2021-05-17T02:55:57Z,LLM032,"66.409515,66.051804",5475,232,201
1621220161,2021-05-17T02:56:01Z,LLM032,"66.406265,66.047417",5375,231,210
1621220164,2021-05-17T02:56:04Z,LLM032,"66.403564,66.042763",5325,231,216
1621220167,2021-05-17T02:56:07Z,LLM032,"66.400665,66.036324",5250,230,223
1621220171,2021-05-17T02:56:11Z,LLM032,"66.398338,66.029327",5175,230,231
1621220174,2021-05-17T02:56:14Z,LLM032,"66.396194,66.020905",5100,229,240
1621220178,2021-05-17T02:56:18Z,LLM032,"66.394661,66.01223",5050,229,245
1621220181,2021-05-17T02:56:21Z,LLM032,"66.39373,66.00486",5025,227,254
1621220185,2021-05-17T02:56:25Z,LLM032,"66.393082,65.994751",5000,226,263
1621220191,2021-05-17T02:56:31Z,LLM032,"66.39341,65.977646",5000,231,275
1621220195,2021-05-17T02:56:35Z,LLM032,"66.394318,65.967888",4975,234,284
1621220202,2021-05-17T02:56:42Z,LLM032,"66.39743,65.950691",4950,235,299
1621220205,2021-05-17T02:56:45Z,LLM032,"66.399178,65.944313",4950,235,305
1621220209,2021-05-17T02:56:49Z,LLM032,"66.402115,65.936195",4950,236,313
1621220212,2021-05-17T02:56:52Z,LLM032,"66.404755,65.930626",4950,237,320
1621220215,2021-05-17T02:56:55Z,LLM032,"66.407509,65.925835",4950,237,326
1621220219,2021-05-17T02:56:59Z,LLM032,"66.411255,65.921074",4950,237,334
1621220223,2021-05-17T02:57:03Z,LLM032,"66.415604,65.917488",4950,236,343
1621220226,2021-05-17T02:57:06Z,LLM032,"66.41906,65.915848",4950,234,349
1621220229,2021-05-17T02:57:09Z,LLM032,"66.422272,65.915222",4950,234,355
1621220233,2021-05-17T02:57:13Z,LLM032,"66.426369,65.915718",4950,234,4
1621220236,2021-05-17T02:57:16Z,LLM032,"66.429657,65.917252",4950,233,10
1621220239,2021-05-17T02:57:19Z,LLM032,"66.432587,65.919518",4950,234,16
1621220243,2021-05-17T02:57:23Z,LLM032,"66.436615,65.923943",4950,233,25
1621220251,2021-05-17T02:57:31Z,LLM032,"66.443497,65.936821",4950,233,42
1621220255,2021-05-17T02:57:35Z,LLM032,"66.445862,65.943527",4950,233,50
1621220258,2021-05-17T02:57:38Z,LLM032,"66.448059,65.951881",4950,233,57
1621220262,2021-05-17T02:57:42Z,LLM032,"66.449829,65.960915",4950,233,64
1621220265,2021-05-17T02:57:45Z,LLM032,"66.45108,65.968719",4950,232,68
1621220269,2021-05-17T02:57:49Z,LLM032,"66.452316,65.97744",4975,232,70
1621220272,2021-05-17T02:57:52Z,LLM032,"66.453323,65.984726",4950,232,70
1621220274,2021-05-17T02:57:54Z,LLM032,"66.454437,65.992004",4950,231,68
1621220278,2021-05-17T02:57:58Z,LLM032,"66.455978,66.001442",4925,230,67
1621220282,2021-05-17T02:58:02Z,LLM032,"66.457397,66.009323",4850,229,65
1621220285,2021-05-17T02:58:05Z,LLM032,"66.458809,66.016846",4800,229,64
1621220293,2021-05-17T02:58:13Z,LLM032,"66.462936,66.036552",4600,230,61
1621220296,2021-05-17T02:58:16Z,LLM032,"66.464676,66.044434",4500,231,60
1621220299,2021-05-17T02:58:19Z,LLM032,"66.466217,66.051178",4425,231,60
1621220303,2021-05-17T02:58:23Z,LLM032,"66.468018,66.058762",4350,229,59
1621220306,2021-05-17T02:58:26Z,LLM032,"66.469894,66.066536",4300,228,58
1621220310,2021-05-17T02:58:30Z,LLM032,"66.471848,66.074646",4250,225,58
1621220313,2021-05-17T02:58:33Z,LLM032,"66.473557,66.081688",4200,223,58
1621220316,2021-05-17T02:58:36Z,LLM032,"66.475288,66.088882",4175,221,58
1621220326,2021-05-17T02:58:46Z,LLM032,"66.480515,66.110466",4050,212,59
1621220333,2021-05-17T02:58:53Z,LLM032,"66.483902,66.12484",3950,207,59
1621220340,2021-05-17T02:59:00Z,LLM032,"66.487061,66.138412",3875,203,59
1621220347,2021-05-17T02:59:07Z,LLM032,"66.490143,66.15168",3775,199,60
1621220354,2021-05-17T02:59:14Z,LLM032,"66.493401,66.166161",3600,197,60
1621220360,2021-05-17T02:59:20Z,LLM032,"66.496307,66.179131",3475,196,60
1621220371,2021-05-17T02:59:31Z,LLM032,"66.500992,66.199615",3225,195,59
1621220382,2021-05-17T02:59:42Z,LLM032,"66.505737,66.220573",3000,192,60
1621220388,2021-05-17T02:59:48Z,LLM032,"66.508667,66.234077",2900,188,61
1621220396,2021-05-17T02:59:56Z,LLM032,"66.51165,66.24781",2800,185,61
1621220402,2021-05-17T03:00:02Z,LLM032,"66.514114,66.259262",2700,182,61
1621220409,2021-05-17T03:00:09Z,LLM032,"66.517097,66.272774",2550,180,61
1621220417,2021-05-17T03:00:17Z,LLM032,"66.520119,66.286507",2375,179,61
1621220424,2021-05-17T03:00:24Z,LLM032,"66.522919,66.299248",2225,178,61
1621220430,2021-05-17T03:00:30Z,LLM032,"66.525429,66.310852",2100,175,61
1621220438,2021-05-17T03:00:38Z,LLM032,"66.528267,66.323715",1950,173,61
1621220444,2021-05-17T03:00:44Z,LLM032,"66.530693,66.334824",1850,173,61
1621220451,2021-05-17T03:00:51Z,LLM032,"66.533249,66.346436",1775,170,61
1621220457,2021-05-17T03:00:57Z,LLM032,"66.535538,66.356941",1725,168,61
1621220467,2021-05-17T03:01:07Z,LLM032,"66.539162,66.373528",1675,160,61
1621220474,2021-05-17T03:01:14Z,LLM032,"66.541534,66.384529",1700,151,61
1621220480,2021-05-17T03:01:20Z,LLM032,"66.543587,66.394005",1675,145,61
1621220487,2021-05-17T03:01:27Z,LLM032,"66.545723,66.403618",1675,134,61
1621220494,2021-05-17T03:01:34Z,LLM032,"66.547806,66.413307",1675,128,61
1621220500,2021-05-17T03:01:40Z,LLM032,"66.549545,66.42131",1650,127,61
1621220507,2021-05-17T03:01:47Z,LLM032,"66.551468,66.430145",1675,127,61
1621220517,2021-05-17T03:01:57Z,LLM032,"66.554245,66.44294",1525,132,61
1621220527,2021-05-17T03:02:07Z,LLM032,"66.55732,66.457047",1350,128,61
1621220534,2021-05-17T03:02:14Z,LLM032,"66.559158,66.465492",1300,125,61
1621220540,2021-05-17T03:02:20Z,LLM032,"66.560951,66.473656",1275,128,61
1621220554,2021-05-17T03:02:34Z,LLM032,"66.564651,66.490929",1100,128,61
1621220560,2021-05-17T03:02:40Z,LLM032,"66.566582,66.499619",1025,128,61
1621220567,2021-05-17T03:02:47Z,LLM032,"66.568542,66.508606",925,127,61
1621220574,2021-05-17T03:02:54Z,LLM032,"66.570465,66.517563",850,127,61
1621220581,2021-05-17T03:03:01Z,LLM032,"66.572342,66.526161",775,127,61
1621220590,2021-05-17T03:03:10Z,LLM032,"66.575043,66.538818",650,128,61
1621220597,2021-05-17T03:03:17Z,LLM032,"66.577011,66.547813",575,127,61
1621220603,2021-05-17T03:03:23Z,LLM032,"66.578636,66.55555",500,127,61
1621220610,2021-05-17T03:03:30Z,LLM032,"66.58049,66.563896",425,127,61
1621220620,2021-05-17T03:03:40Z,LLM032,"66.583435,66.577644",300,126,61
1621220628,2021-05-17T03:03:48Z,LLM032,"66.585526,66.587418",200,127,62
1621220634,2021-05-17T03:03:54Z,LLM032,"66.58725,66.595497",150,126,61
1621220641,2021-05-17T03:04:01Z,LLM032,"66.58902,66.603615",150,108,61
1621220648,2021-05-17T03:04:08Z,LLM032,"66.59037,66.609825",0,80,59
1621220653,2021-05-17T03:04:13Z,LLM032,"66.591171,66.61351",0,61,61
1621220660,2021-05-17T03:04:20Z,LLM032,"66.591827,66.61657",0,41,61
1621220672,2021-05-17T03:04:32Z,LLM032,"66.592415,66.619499",0,15,61
1621220674,2021-05-17T03:04:34Z,LLM032,"66.592499,66.619751",0,12,50
1621220690,2021-05-17T03:04:50Z,LLM032,"66.592789,66.620285",0,4,50
1621220706,2021-05-17T03:05:06Z,LLM032,"66.592583,66.620285",0,3,163
1621220713,2021-05-17T03:05:13Z,LLM032,"66.592522,66.620064",0,4,202
1621220760,2021-05-17T03:06:00Z,LLM032,"66.591217,66.613731",0,22,241
1621220768,2021-05-17T03:06:08Z,LLM032,"66.590813,66.611855",0,25,241
1621220798,2021-05-17T03:06:38Z,LLM032,"66.58979,66.606018",0,10,286
1621220803,2021-05-17T03:06:43Z,LLM032,"66.589996,66.605629",0,11,326
1621220806,2021-05-17T03:06:46Z,LLM032,"66.590172,66.605423",0,12,331
1621220810,2021-05-17T03:06:50Z,LLM032,"66.590347,66.605179",0,12,331
1621220821,2021-05-17T03:07:01Z,LLM032,"66.590866,66.604439",0,11,329
1621220825,2021-05-17T03:07:05Z,LLM032,"66.590958,66.604103",0,9,306
1621220827,2021-05-17T03:07:07Z,LLM032,"66.590958,66.603836",0,9,286
1621220830,2021-05-17T03:07:10Z,LLM032,"66.590942,66.603584",0,9,267
1621220832,2021-05-17T03:07:12Z,LLM032,"66.590881,66.603333",0,10,250
1621220835,2021-05-17T03:07:15Z,LLM032,"66.590797,66.60302",0,10,241
1621220843,2021-05-17T03:07:23Z,LLM032,"66.590599,66.602089",0,12,241
1621220852,2021-05-17T03:07:32Z,LLM032,"66.590363,66.600975",0,13,241
1621220857,2021-05-17T03:07:37Z,LLM032,"66.590218,66.600319",0,13,241
1621220862,2021-05-17T03:07:42Z,LLM032,"66.590073,66.599632",0,14,241
1621220867,2021-05-17T03:07:47Z,LLM032,"66.589912,66.5989",0,14,241
1621220874,2021-05-17T03:07:54Z,LLM032,"66.589676,66.597809",0,15,241
1621220883,2021-05-17T03:08:03Z,LLM032,"66.589386,66.596436",0,15,241
1621220889,2021-05-17T03:08:09Z,LLM032,"66.589188,66.595512",0,15,241
1621220895,2021-05-17T03:08:15Z,LLM032,"66.588997,66.594658",0,15,241
1621220901,2021-05-17T03:08:21Z,LLM032,"66.588837,66.593864",0,10,244
1621220904,2021-05-17T03:08:24Z,LLM032,"66.588821,66.593567",0,10,258
1621220906,2021-05-17T03:08:26Z,LLM032,"66.588844,66.593285",0,10,275
1621220911,2021-05-17T03:08:31Z,LLM032,"66.588974,66.592819",0,10,306
1621220915,2021-05-17T03:08:35Z,LLM032,"66.589104,66.592567",0,9,317
1621220920,2021-05-17T03:08:40Z,LLM032,"66.58931,66.592407",0,8,343
1621220926,2021-05-17T03:08:46Z,LLM032,"66.589531,66.592659",0,8,25
1621220931,2021-05-17T03:08:51Z,LLM032,"66.589615,66.592941",0,6,60
1621220937,2021-05-17T03:08:57Z,LLM032,"66.589691,66.593163",0,4,47
1621220957,2021-05-17T03:09:17Z,LLM032,"66.588867,66.594063",0,0,319
