Timestamp,UTC,Callsign,Position,Altitude,Speed,Direction
1622065852,2021-05-26T21:50:52Z,LLM386,"43.444096,39.933929",0,0,5
1622065902,2021-05-26T21:51:42Z,LLM386,"43.443794,39.93388",0,2,11
1622065922,2021-05-26T21:52:02Z,LLM386,"43.443573,39.93383",0,2,36
1622065945,2021-05-26T21:52:25Z,LLM386,"43.443363,39.933624",0,2,64
1622066281,2021-05-26T21:58:01Z,LLM386,"43.443478,39.93396",0,4,64
1622066289,2021-05-26T21:58:09Z,LLM386,"43.443546,39.934185",0,5,64
1622066297,2021-05-26T21:58:17Z,LLM386,"43.443619,39.934387",0,5,64
1622066303,2021-05-26T21:58:23Z,LLM386,"43.443687,39.934601",0,5,64
1622066312,2021-05-26T21:58:32Z,LLM386,"43.443783,39.93486",0,6,64
1622066319,2021-05-26T21:58:39Z,LLM386,"43.443867,39.935112",0,6,64
1622066325,2021-05-26T21:58:45Z,LLM386,"43.443943,39.935318",0,6,64
1622066331,2021-05-26T21:58:51Z,LLM386,"43.444027,39.935581",0,7,64
1622066340,2021-05-26T21:59:00Z,LLM386,"43.444141,39.935909",0,7,64
1622066347,2021-05-26T21:59:07Z,LLM386,"43.44426,39.936253",0,7,64
1622066353,2021-05-26T21:59:13Z,LLM386,"43.444347,39.936516",0,8,64
1622066359,2021-05-26T21:59:19Z,LLM386,"43.444447,39.93679",0,9,64
1622066365,2021-05-26T21:59:25Z,LLM386,"43.444561,39.937119",0,9,64
1622066371,2021-05-26T21:59:31Z,LLM386,"43.444679,39.937462",0,10,64
1622066381,2021-05-26T21:59:41Z,LLM386,"43.444889,39.938084",0,11,64
1622066390,2021-05-26T21:59:50Z,LLM386,"43.445114,39.938721",0,12,64
1622066399,2021-05-26T21:59:59Z,LLM386,"43.44532,39.939342",0,13,64
1622066404,2021-05-26T22:00:04Z,LLM386,"43.445469,39.939774",0,13,64
1622066410,2021-05-26T22:00:10Z,LLM386,"43.445618,39.940205",0,14,64
1622066419,2021-05-26T22:00:19Z,LLM386,"43.445866,39.940926",0,14,64
1622066426,2021-05-26T22:00:26Z,LLM386,"43.446087,39.941563",0,15,64
1622066431,2021-05-26T22:00:31Z,LLM386,"43.446239,39.942005",0,15,64
1622066443,2021-05-26T22:00:43Z,LLM386,"43.44659,39.943031",0,15,64
1622066454,2021-05-26T22:00:54Z,LLM386,"43.446926,39.944035",0,16,64
1622066467,2021-05-26T22:01:07Z,LLM386,"43.447346,39.945267",0,16,64
1622066479,2021-05-26T22:01:19Z,LLM386,"43.447746,39.946415",0,16,64
1622066486,2021-05-26T22:01:26Z,LLM386,"43.447983,39.94709",0,16,64
1622066493,2021-05-26T22:01:33Z,LLM386,"43.448227,39.947811",0,16,64
1622066503,2021-05-26T22:01:43Z,LLM386,"43.448544,39.948727",0,14,64
1622066510,2021-05-26T22:01:50Z,LLM386,"43.448719,39.949261",0,14,64
1622066515,2021-05-26T22:01:55Z,LLM386,"43.448868,39.949692",0,14,64
1622066522,2021-05-26T22:02:02Z,LLM386,"43.449062,39.950283",0,15,64
1622066530,2021-05-26T22:02:10Z,LLM386,"43.449287,39.950916",0,15,61
1622066557,2021-05-26T22:02:37Z,LLM386,"43.449963,39.952976",0,9,84
1622066562,2021-05-26T22:02:42Z,LLM386,"43.449879,39.953236",0,10,112
1622066572,2021-05-26T22:02:52Z,LLM386,"43.449463,39.953579",0,10,154
1622066578,2021-05-26T22:02:58Z,LLM386,"43.4492,39.953716",0,9,160
1622066585,2021-05-26T22:03:05Z,LLM386,"43.448936,39.953556",0,8,213
1622066593,2021-05-26T22:03:13Z,LLM386,"43.448845,39.95322",0,5,244
1622066620,2021-05-26T22:03:40Z,LLM386,"43.448738,39.952911",0,12,244
1622066633,2021-05-26T22:03:53Z,LLM386,"43.447437,39.949085",0,80,244
1622066655,2021-05-26T22:04:15Z,LLM386,"43.441681,39.932236",25,166,244
1622066661,2021-05-26T22:04:21Z,LLM386,"43.439621,39.926361",275,167,244
1622066677,2021-05-26T22:04:37Z,LLM386,"43.434494,39.911041",1050,167,248
1622066686,2021-05-26T22:04:46Z,LLM386,"43.432446,39.901165",1625,162,256
1622066696,2021-05-26T22:04:56Z,LLM386,"43.431236,39.89188",2150,157,261
1622066702,2021-05-26T22:05:02Z,LLM386,"43.430649,39.885738",2475,155,262
1622066708,2021-05-26T22:05:08Z,LLM386,"43.430145,39.879795",2750,155,263
1622066721,2021-05-26T22:05:21Z,LLM386,"43.429096,39.866573",3125,168,263
1622066733,2021-05-26T22:05:33Z,LLM386,"43.427746,39.853168",3400,183,261
1622066743,2021-05-26T22:05:43Z,LLM386,"43.426254,39.840809",3650,196,259
1622066754,2021-05-26T22:05:54Z,LLM386,"43.424301,39.827534",3925,210,257
1622066760,2021-05-26T22:06:00Z,LLM386,"43.423042,39.819553",4050,221,257
1622066762,2021-05-26T22:06:02Z,LLM386,"43.422546,39.816624",4125,224,256
1622066765,2021-05-26T22:06:05Z,LLM386,"43.421814,39.812599",4225,228,256
1622066771,2021-05-26T22:06:11Z,LLM386,"43.42025,39.803139",4425,237,257
1622066784,2021-05-26T22:06:24Z,LLM386,"43.419846,39.783218",4775,256,273
1622066787,2021-05-26T22:06:27Z,LLM386,"43.420486,39.778557",4875,265,283
1622066790,2021-05-26T22:06:30Z,LLM386,"43.421692,39.773384",4975,268,287
1622066793,2021-05-26T22:06:33Z,LLM386,"43.423416,39.768143",5100,273,296
1622066815,2021-05-26T22:06:55Z,LLM386,"43.443897,39.742649",6400,279,326
1622066818,2021-05-26T22:06:58Z,LLM386,"43.44754,39.739403",6650,279,326
1622066821,2021-05-26T22:07:01Z,LLM386,"43.450745,39.736656",6850,278,327
1622066837,2021-05-26T22:07:17Z,LLM386,"43.467964,39.721985",7850,280,328
1622066848,2021-05-26T22:07:28Z,LLM386,"43.480728,39.711426",8575,282,328
1622066861,2021-05-26T22:07:41Z,LLM386,"43.495102,39.699417",9350,285,328
1622066871,2021-05-26T22:07:51Z,LLM386,"43.506466,39.689877",9975,286,328
1622066882,2021-05-26T22:08:02Z,LLM386,"43.519318,39.678978",10525,291,328
1622066896,2021-05-26T22:08:16Z,LLM386,"43.535419,39.665222",10975,307,328
1622066907,2021-05-26T22:08:27Z,LLM386,"43.54855,39.653908",11300,317,327
1622066919,2021-05-26T22:08:39Z,LLM386,"43.564133,39.640526",11725,329,327
1622066931,2021-05-26T22:08:51Z,LLM386,"43.580063,39.626835",12125,339,327
1622066962,2021-05-26T22:09:22Z,LLM386,"43.623405,39.589428",13150,362,327
1622066993,2021-05-26T22:09:53Z,LLM386,"43.667767,39.550911",14850,360,327
1622067024,2021-05-26T22:10:24Z,LLM386,"43.711761,39.51252",15975,373,327
1622067055,2021-05-26T22:10:55Z,LLM386,"43.75827,39.472088",17200,382,327
1622067087,2021-05-26T22:11:27Z,LLM386,"43.807098,39.433594",18575,385,333
1622067148,2021-05-26T22:12:28Z,LLM386,"43.909561,39.38435",21350,383,347
1622067209,2021-05-26T22:13:29Z,LLM386,"44.018051,39.370594",23375,395,1
1622067272,2021-05-26T22:14:32Z,LLM386,"44.133133,39.392502",25225,407,9
1622067333,2021-05-26T22:15:33Z,LLM386,"44.247665,39.420319",27100,412,9
1622067395,2021-05-26T22:16:35Z,LLM386,"44.363865,39.448486",28700,420,9
1622067457,2021-05-26T22:17:37Z,LLM386,"44.48299,39.48801",30075,432,18
1622067518,2021-05-26T22:18:38Z,LLM386,"44.594345,39.565117",31375,441,32
1622067581,2021-05-26T22:19:41Z,LLM386,"44.694057,39.675049",33175,436,39
1622067643,2021-05-26T22:20:43Z,LLM386,"44.788879,39.784763",34975,424,39
1622067704,2021-05-26T22:21:44Z,LLM386,"44.881622,39.893188",35975,429,39
1622067765,2021-05-26T22:22:45Z,LLM386,"44.97747,40.005375",36000,447,39
1622067826,2021-05-26T22:23:46Z,LLM386,"45.073654,40.118801",36000,443,40
1622067890,2021-05-26T22:24:50Z,LLM386,"45.175129,40.238701",36025,444,39
1622067951,2021-05-26T22:25:51Z,LLM386,"45.270004,40.351509",36025,444,40
1622068012,2021-05-26T22:26:52Z,LLM386,"45.365852,40.466129",36025,441,39
1622068073,2021-05-26T22:27:53Z,LLM386,"45.462265,40.578537",35975,441,36
1622068134,2021-05-26T22:28:54Z,LLM386,"45.562088,40.682976",36000,441,36
1622068195,2021-05-26T22:29:55Z,LLM386,"45.662292,40.78862",36000,441,36
1622068256,2021-05-26T22:30:56Z,LLM386,"45.762451,40.894596",36000,439,36
1622068317,2021-05-26T22:31:57Z,LLM386,"45.862198,41.000374",36000,439,36
1622068378,2021-05-26T22:32:58Z,LLM386,"45.960838,41.106514",36000,440,36
1622068439,2021-05-26T22:33:59Z,LLM386,"46.060593,41.213604",36000,440,36
1622068501,2021-05-26T22:35:01Z,LLM386,"46.16227,41.323082",36000,442,36
1622068563,2021-05-26T22:36:03Z,LLM386,"46.263752,41.432945",36000,443,37
1622068625,2021-05-26T22:37:05Z,LLM386,"46.365143,41.543358",36000,444,37
1622068687,2021-05-26T22:38:07Z,LLM386,"46.466442,41.654182",36000,444,37
1622068749,2021-05-26T22:39:09Z,LLM386,"46.567749,41.765667",36000,443,37
1622068811,2021-05-26T22:40:11Z,LLM386,"46.667816,41.876064",36000,442,37
1622068872,2021-05-26T22:41:12Z,LLM386,"46.766796,41.985558",36000,443,37
1622068933,2021-05-26T22:42:13Z,LLM386,"46.866184,42.09597",36000,443,37
1622068995,2021-05-26T22:43:15Z,LLM386,"46.967102,42.208374",36000,443,37
1622069056,2021-05-26T22:44:16Z,LLM386,"47.066639,42.319687",36000,442,37
1622069118,2021-05-26T22:45:18Z,LLM386,"47.166779,42.43277",36000,442,37
1622069179,2021-05-26T22:46:19Z,LLM386,"47.264954,42.54385",36000,443,37
1622069240,2021-05-26T22:47:20Z,LLM386,"47.364075,42.656616",36000,444,37
1622069303,2021-05-26T22:48:23Z,LLM386,"47.466572,42.772945",36000,446,35
1622069364,2021-05-26T22:49:24Z,LLM386,"47.577644,42.862736",36025,448,27
1622069427,2021-05-26T22:50:27Z,LLM386,"47.694122,42.954208",36000,450,27
1622069489,2021-05-26T22:51:29Z,LLM386,"47.807194,43.042461",36000,450,27
1622069551,2021-05-26T22:52:31Z,LLM386,"47.922131,43.133381",36450,453,28
1622069612,2021-05-26T22:53:32Z,LLM386,"48.033764,43.221905",37000,450,28
1622069674,2021-05-26T22:54:34Z,LLM386,"48.148499,43.313599",37000,452,28
1622069735,2021-05-26T22:55:35Z,LLM386,"48.261078,43.403728",37000,455,28
1622069796,2021-05-26T22:56:36Z,LLM386,"48.373314,43.494152",37000,455,28
1622069857,2021-05-26T22:57:37Z,LLM386,"48.487137,43.586449",37025,455,28
1622069918,2021-05-26T22:58:38Z,LLM386,"48.599419,43.677811",37000,455,28
1622069980,2021-05-26T22:59:40Z,LLM386,"48.714432,43.771927",36975,456,28
1622070041,2021-05-26T23:00:41Z,LLM386,"48.828369,43.865803",37000,459,28
1622070103,2021-05-26T23:01:43Z,LLM386,"48.942417,43.960274",37025,460,28
1622070164,2021-05-26T23:02:44Z,LLM386,"49.057076,44.055466",37025,458,28
1622070226,2021-05-26T23:03:46Z,LLM386,"49.171825,44.151451",37050,453,28
1622070289,2021-05-26T23:04:49Z,LLM386,"49.285786,44.247002",37000,451,28
1622070350,2021-05-26T23:05:50Z,LLM386,"49.397045,44.340965",36975,451,28
1622070421,2021-05-26T23:07:01Z,LLM386,"49.5266,44.450981",37000,450,28
1622070481,2021-05-26T23:08:01Z,LLM386,"49.636276,44.544586",37025,446,29
1622070547,2021-05-26T23:09:07Z,LLM386,"49.753216,44.645393",37000,445,29
1622070608,2021-05-26T23:10:08Z,LLM386,"49.862942,44.740189",37000,445,29
1622070669,2021-05-26T23:11:09Z,LLM386,"49.971817,44.834339",37000,443,29
1622070730,2021-05-26T23:12:10Z,LLM386,"50.082458,44.930756",36975,446,29
1622070795,2021-05-26T23:13:15Z,LLM386,"50.197723,45.035126",37000,451,36
1622070801,2021-05-26T23:13:21Z,LLM386,"50.208481,45.0485",37000,451,39
1622070804,2021-05-26T23:13:24Z,LLM386,"50.21228,45.053631",37000,451,41
1622070805,2021-05-26T23:13:25Z,LLM386,"50.213898,45.055969",37000,451,41
1622070807,2021-05-26T23:13:27Z,LLM386,"50.217484,45.061092",37000,451,42
1622070808,2021-05-26T23:13:28Z,LLM386,"50.21814,45.061943",37000,451,42
1622070810,2021-05-26T23:13:30Z,LLM386,"50.222042,45.067627",37025,451,42
1622070811,2021-05-26T23:13:31Z,LLM386,"50.222927,45.068886",37025,451,42
1622070813,2021-05-26T23:13:33Z,LLM386,"50.2267,45.074306",37025,451,42
1622070873,2021-05-26T23:14:33Z,LLM386,"50.319572,45.205475",37025,451,41
1622070936,2021-05-26T23:15:36Z,LLM386,"50.416122,45.342022",37000,452,42
1622071001,2021-05-26T23:16:41Z,LLM386,"50.516674,45.48481",37000,453,42
1622071063,2021-05-26T23:17:43Z,LLM386,"50.613361,45.623623",37000,455,42
1622071124,2021-05-26T23:18:44Z,LLM386,"50.708004,45.758972",37025,455,42
1622071185,2021-05-26T23:19:45Z,LLM386,"50.802319,45.895844",37000,449,42
1622071247,2021-05-26T23:20:47Z,LLM386,"50.896637,46.032196",37000,443,42
1622071311,2021-05-26T23:21:51Z,LLM386,"50.992435,46.171799",37000,446,42
1622071373,2021-05-26T23:22:53Z,LLM386,"51.086609,46.310715",37000,449,42
1622071436,2021-05-26T23:23:56Z,LLM386,"51.183067,46.453018",37025,449,42
1622071498,2021-05-26T23:24:58Z,LLM386,"51.276169,46.591385",37000,449,42
1622071559,2021-05-26T23:25:59Z,LLM386,"51.369873,46.731609",37000,449,43
1622071623,2021-05-26T23:27:03Z,LLM386,"51.465965,46.875916",36975,449,43
1622071687,2021-05-26T23:28:07Z,LLM386,"51.562592,47.022003",37000,451,43
1622071748,2021-05-26T23:29:08Z,LLM386,"51.655109,47.162933",37000,451,43
1622071808,2021-05-26T23:30:08Z,LLM386,"51.745468,47.301563",37000,453,43
1622071871,2021-05-26T23:31:11Z,LLM386,"51.840294,47.448044",37025,452,43
1622071933,2021-05-26T23:32:13Z,LLM386,"51.935257,47.594604",36975,454,43
1622071994,2021-05-26T23:33:14Z,LLM386,"52.026672,47.73735",37000,461,44
1622072055,2021-05-26T23:34:15Z,LLM386,"52.120304,47.883675",37000,461,43
1622072116,2021-05-26T23:35:16Z,LLM386,"52.214081,48.031693",37000,462,44
1622072178,2021-05-26T23:36:18Z,LLM386,"52.308468,48.181797",37025,460,44
1622072238,2021-05-26T23:37:18Z,LLM386,"52.400597,48.32917",37000,459,44
1622072300,2021-05-26T23:38:20Z,LLM386,"52.492584,48.477173",37000,458,44
1622072360,2021-05-26T23:39:20Z,LLM386,"52.584229,48.625565",37000,457,44
1622072422,2021-05-26T23:40:22Z,LLM386,"52.675858,48.774902",37000,457,44
1622072483,2021-05-26T23:41:23Z,LLM386,"52.767193,48.924397",37000,457,44
1622072546,2021-05-26T23:42:26Z,LLM386,"52.862442,49.081341",37000,458,44
1622072607,2021-05-26T23:43:27Z,LLM386,"52.951866,49.229816",37025,456,45
1622072669,2021-05-26T23:44:29Z,LLM386,"53.044968,49.385529",37025,454,45
1622072730,2021-05-26T23:45:30Z,LLM386,"53.134277,49.535393",36975,451,45
1622072793,2021-05-26T23:46:33Z,LLM386,"53.226479,49.691566",37000,447,45
1622072855,2021-05-26T23:47:35Z,LLM386,"53.315208,49.842709",37000,439,45
1622072918,2021-05-26T23:48:38Z,LLM386,"53.403442,49.993286",37000,444,45
1622072980,2021-05-26T23:49:40Z,LLM386,"53.492756,50.148468",37000,451,47
1622073042,2021-05-26T23:50:42Z,LLM386,"53.569382,50.321342",37000,448,55
1622073105,2021-05-26T23:51:45Z,LLM386,"53.643448,50.502293",36975,445,55
1622073166,2021-05-26T23:52:46Z,LLM386,"53.713882,50.675732",37000,441,55
1622073228,2021-05-26T23:53:48Z,LLM386,"53.78508,50.852261",36975,442,55
1622073288,2021-05-26T23:54:48Z,LLM386,"53.853958,51.024063",37000,442,55
1622073351,2021-05-26T23:55:51Z,LLM386,"53.925522,51.203743",37000,443,56
1622073412,2021-05-26T23:56:52Z,LLM386,"53.995243,51.379826",37025,444,56
1622073474,2021-05-26T23:57:54Z,LLM386,"54.072876,51.551067",37025,441,51
1622073537,2021-05-26T23:58:57Z,LLM386,"54.152298,51.721672",36975,445,51
1622073599,2021-05-26T23:59:59Z,LLM386,"54.231171,51.893112",37025,445,51
1622073608,2021-05-27T00:00:08Z,LLM386,"54.243412,51.919689",37025,445,51
1622073736,2021-05-27T00:02:16Z,LLM386,"54.404984,52.274162",37025,448,52
1622073797,2021-05-27T00:03:17Z,LLM386,"54.483063,52.447731",37025,446,52
1622073859,2021-05-27T00:04:19Z,LLM386,"54.560257,52.620148",37000,444,52
1622073921,2021-05-27T00:05:21Z,LLM386,"54.636032,52.794632",37000,444,55
1622073983,2021-05-27T00:06:23Z,LLM386,"54.699554,52.986252",36975,447,60
1622074044,2021-05-27T00:07:24Z,LLM386,"54.7607,53.177658",36975,448,61
1622074105,2021-05-27T00:08:25Z,LLM386,"54.820816,53.368107",37000,449,61
1622074166,2021-05-27T00:09:26Z,LLM386,"54.881363,53.561512",37000,450,61
1622074227,2021-05-27T00:10:27Z,LLM386,"54.942032,53.755699",37025,450,61
1622074288,2021-05-27T00:11:28Z,LLM386,"55.002274,53.950787",37000,450,61
1622074350,2021-05-27T00:12:30Z,LLM386,"55.0625,54.146786",37000,449,62
1622074411,2021-05-27T00:13:31Z,LLM386,"55.121666,54.341457",37000,450,62
1622074472,2021-05-27T00:14:32Z,LLM386,"55.18074,54.537296",37000,451,62
1622074533,2021-05-27T00:15:33Z,LLM386,"55.239624,54.734531",37000,452,62
1622074594,2021-05-27T00:16:34Z,LLM386,"55.298054,54.932056",37000,452,62
1622074655,2021-05-27T00:17:35Z,LLM386,"55.356617,55.131226",37025,453,62
1622074716,2021-05-27T00:18:36Z,LLM386,"55.414398,55.32933",37000,451,62
1622074777,2021-05-27T00:19:37Z,LLM386,"55.472298,55.528679",37000,451,63
1622074838,2021-05-27T00:20:38Z,LLM386,"55.530022,55.729694",37000,452,63
1622074899,2021-05-27T00:21:39Z,LLM386,"55.587143,55.92942",36975,454,63
1622074960,2021-05-27T00:22:40Z,LLM386,"55.644028,56.132668",37025,454,63
1622075021,2021-05-27T00:23:41Z,LLM386,"55.700867,56.335644",37000,448,63
1622075083,2021-05-27T00:24:43Z,LLM386,"55.757126,56.538391",37000,452,64
1622075144,2021-05-27T00:25:44Z,LLM386,"55.812607,56.740971",37000,451,64
1622075205,2021-05-27T00:26:45Z,LLM386,"55.868038,56.944199",36975,453,64
1622075266,2021-05-27T00:27:46Z,LLM386,"55.923431,57.149132",37000,453,64
1622075328,2021-05-27T00:28:48Z,LLM386,"55.979343,57.357903",37000,454,64
1622075388,2021-05-27T00:29:48Z,LLM386,"56.033577,57.562439",37000,455,64
1622075450,2021-05-27T00:30:50Z,LLM386,"56.090141,57.769032",37000,450,57
1622075453,2021-05-27T00:30:53Z,LLM386,"56.093903,57.778431",37000,447,54
1622075454,2021-05-27T00:30:54Z,LLM386,"56.095818,57.783108",37000,446,53
1622075455,2021-05-27T00:30:55Z,LLM386,"56.097382,57.786839",37000,446,53
1622075457,2021-05-27T00:30:57Z,LLM386,"56.098564,57.789459",37000,445,52
1622075458,2021-05-27T00:30:58Z,LLM386,"56.099854,57.792248",37000,444,51
1622075459,2021-05-27T00:30:59Z,LLM386,"56.101089,57.794994",37000,446,53
1622075460,2021-05-27T00:31:00Z,LLM386,"56.103058,57.798988",37000,443,49
1622075461,2021-05-27T00:31:01Z,LLM386,"56.103733,57.800529",37000,443,49
1622075463,2021-05-27T00:31:03Z,LLM386,"56.107597,57.808342",37000,442,49
1622075468,2021-05-27T00:31:08Z,LLM386,"56.113266,57.819714",37000,441,48
1622075469,2021-05-27T00:31:09Z,LLM386,"56.115417,57.824039",37000,441,48
1622075470,2021-05-27T00:31:10Z,LLM386,"56.11615,57.825539",37000,441,48
1622075471,2021-05-27T00:31:11Z,LLM386,"56.11734,57.827869",37000,441,48
1622075473,2021-05-27T00:31:13Z,LLM386,"56.120819,57.834778",37000,442,48
1622075534,2021-05-27T00:32:14Z,LLM386,"56.202896,58.00132",37000,444,49
1622075595,2021-05-27T00:33:15Z,LLM386,"56.284916,58.172005",37025,443,49
1622075656,2021-05-27T00:34:16Z,LLM386,"56.366135,58.341732",37000,444,49
1622075718,2021-05-27T00:35:18Z,LLM386,"56.449478,58.516876",36975,447,49
1622075779,2021-05-27T00:36:19Z,LLM386,"56.53178,58.690853",37000,450,49
1622075841,2021-05-27T00:37:21Z,LLM386,"56.614223,58.866608",37025,452,49
1622075902,2021-05-27T00:38:22Z,LLM386,"56.697464,59.044044",37025,454,50
1622075964,2021-05-27T00:39:24Z,LLM386,"56.781021,59.225788",37025,452,50
1622076025,2021-05-27T00:40:25Z,LLM386,"56.862946,59.404022",37000,452,50
1622076087,2021-05-27T00:41:27Z,LLM386,"56.945164,59.584438",36975,453,50
1622076150,2021-05-27T00:42:30Z,LLM386,"57.029842,59.772625",36975,456,50
1622076212,2021-05-27T00:43:32Z,LLM386,"57.111961,59.955051",37025,457,50
1622076273,2021-05-27T00:44:33Z,LLM386,"57.194641,60.140793",37000,460,50
1622076337,2021-05-27T00:45:37Z,LLM386,"57.280899,60.336559",37000,461,50
1622076398,2021-05-27T00:46:38Z,LLM386,"57.362778,60.523254",37000,463,51
1622076461,2021-05-27T00:47:41Z,LLM386,"57.446018,60.715412",37000,464,51
1622076521,2021-05-27T00:48:41Z,LLM386,"57.527756,60.90477",37000,466,51
1622076582,2021-05-27T00:49:42Z,LLM386,"57.609371,61.096298",37025,466,51
1622076646,2021-05-27T00:50:46Z,LLM386,"57.694473,61.296242",37000,468,51
1622076708,2021-05-27T00:51:48Z,LLM386,"57.776913,61.492126",37025,466,51
1622076769,2021-05-27T00:52:49Z,LLM386,"57.858658,61.688324",37000,466,52
1622076831,2021-05-27T00:53:51Z,LLM386,"57.938961,61.882416",37000,463,52
1622076892,2021-05-27T00:54:52Z,LLM386,"58.019451,62.078247",36950,466,52
1622076953,2021-05-27T00:55:53Z,LLM386,"58.099472,62.27536",37025,466,52
1622077014,2021-05-27T00:56:54Z,LLM386,"58.179451,62.473663",37000,467,52
1622077076,2021-05-27T00:57:56Z,LLM386,"58.259354,62.673725",37000,468,52
1622077137,2021-05-27T00:58:57Z,LLM386,"58.338501,62.873428",37000,469,53
1622077201,2021-05-27T01:00:01Z,LLM386,"58.421474,63.084686",37000,470,53
1622077262,2021-05-27T01:01:02Z,LLM386,"58.501236,63.289047",37000,469,53
1622077324,2021-05-27T01:02:04Z,LLM386,"58.580685,63.493927",37000,469,53
1622077385,2021-05-27T01:03:05Z,LLM386,"58.659668,63.700237",37000,470,53
1622077447,2021-05-27T01:04:07Z,LLM386,"58.741894,63.899231",37025,465,46
1622077508,2021-05-27T01:05:08Z,LLM386,"58.833801,64.082542",37000,465,46
1622077568,2021-05-27T01:06:08Z,LLM386,"58.922516,64.261505",37000,466,46
1622077630,2021-05-27T01:07:10Z,LLM386,"59.01469,64.449684",37000,466,46
1622077680,2021-05-27T01:08:00Z,LLM386,"59.090618,64.595253",37000,462,36
1622077683,2021-05-27T01:08:03Z,LLM386,"59.0961,64.602905",37000,461,35
1622077685,2021-05-27T01:08:05Z,LLM386,"59.098763,64.60643",37000,461,34
1622077686,2021-05-27T01:08:06Z,LLM386,"59.101276,64.60965",37000,461,34
1622077687,2021-05-27T01:08:07Z,LLM386,"59.103241,64.612244",37025,461,33
1622077688,2021-05-27T01:08:08Z,LLM386,"59.104935,64.614349",37000,460,33
1622077689,2021-05-27T01:08:09Z,LLM386,"59.106586,64.61647",37000,460,33
1622077690,2021-05-27T01:08:10Z,LLM386,"59.108551,64.618927",37000,460,33
1622077693,2021-05-27T01:08:13Z,LLM386,"59.112823,64.624237",37025,460,33
1622077754,2021-05-27T01:09:14Z,LLM386,"59.221024,64.763489",37025,458,33
1622077814,2021-05-27T01:10:14Z,LLM386,"59.327244,64.901451",36975,458,33
1622077876,2021-05-27T01:11:16Z,LLM386,"59.435711,65.043419",36975,460,33
1622077938,2021-05-27T01:12:18Z,LLM386,"59.544388,65.187103",37000,460,33
1622077999,2021-05-27T01:13:19Z,LLM386,"59.652374,65.330841",37000,462,34
1622078059,2021-05-27T01:14:19Z,LLM386,"59.759171,65.474304",37025,462,34
1622078121,2021-05-27T01:15:21Z,LLM386,"59.868393,65.621338",37000,462,34
1622078186,2021-05-27T01:16:26Z,LLM386,"59.983063,65.777702",37000,463,34
1622078248,2021-05-27T01:17:28Z,LLM386,"60.092003,65.92778",37000,462,34
1622078310,2021-05-27T01:18:30Z,LLM386,"60.199539,66.076889",37000,462,34
1622078372,2021-05-27T01:19:32Z,LLM386,"60.308098,66.228333",37000,461,34
1622078433,2021-05-27T01:20:33Z,LLM386,"60.414047,66.378067",37000,454,35
1622078494,2021-05-27T01:21:34Z,LLM386,"60.518375,66.526337",37000,452,35
1622078555,2021-05-27T01:22:35Z,LLM386,"60.622604,66.675362",37000,451,35
1622078616,2021-05-27T01:23:36Z,LLM386,"60.726151,66.824532",37000,459,35
1622078677,2021-05-27T01:24:37Z,LLM386,"60.831997,66.978638",37000,465,35
1622078738,2021-05-27T01:25:38Z,LLM386,"60.938507,67.135292",37000,467,35
1622078799,2021-05-27T01:26:39Z,LLM386,"61.046322,67.295181",37000,467,35
1622078860,2021-05-27T01:27:40Z,LLM386,"61.15144,67.452187",37000,466,35
1622078921,2021-05-27T01:28:41Z,LLM386,"61.257626,67.611794",37000,466,35
1622078982,2021-05-27T01:29:42Z,LLM386,"61.365234,67.774559",37000,467,36
1622079044,2021-05-27T01:30:44Z,LLM386,"61.472744,67.939453",37000,467,36
1622079106,2021-05-27T01:31:46Z,LLM386,"61.579624,68.104652",37000,468,36
1622079168,2021-05-27T01:32:48Z,LLM386,"61.68721,68.27179",37000,470,36
1622079229,2021-05-27T01:33:49Z,LLM386,"61.792603,68.438416",37000,470,36
1622079290,2021-05-27T01:34:50Z,LLM386,"61.899582,68.608147",37000,470,36
1622079353,2021-05-27T01:35:53Z,LLM386,"62.009171,68.783142",37000,470,36
1622079415,2021-05-27T01:36:55Z,LLM386,"62.116379,68.956177",37000,471,37
1622079477,2021-05-27T01:37:57Z,LLM386,"62.222031,69.128418",37000,471,37
1622079538,2021-05-27T01:38:58Z,LLM386,"62.32851,69.303978",37000,471,37
1622079600,2021-05-27T01:40:00Z,LLM386,"62.434845,69.481201",37000,472,37
1622079661,2021-05-27T01:41:01Z,LLM386,"62.539162,69.65522",37000,470,37
1622079721,2021-05-27T01:42:01Z,LLM386,"62.642834,69.830154",37000,477,38
1622079783,2021-05-27T01:43:03Z,LLM386,"62.750648,70.014816",37000,480,38
1622079844,2021-05-27T01:44:04Z,LLM386,"62.855988,70.196129",37000,476,38
1622079907,2021-05-27T01:45:07Z,LLM386,"62.964294,70.384727",36975,476,38
1622079969,2021-05-27T01:46:09Z,LLM386,"63.069992,70.570679",36975,477,38
1622080031,2021-05-27T01:47:11Z,LLM386,"63.176414,70.759033",37000,478,38
1622080092,2021-05-27T01:48:12Z,LLM386,"63.281391,70.947067",37000,479,38
1622080153,2021-05-27T01:49:13Z,LLM386,"63.385666,71.135818",37000,480,39
1622080214,2021-05-27T01:50:14Z,LLM386,"63.490494,71.327042",37000,480,39
1622080276,2021-05-27T01:51:16Z,LLM386,"63.596035,71.520889",37000,477,39
1622080337,2021-05-27T01:52:17Z,LLM386,"63.698868,71.713043",37000,471,39
1622080398,2021-05-27T01:53:18Z,LLM386,"63.801144,71.905624",37000,473,39
1622080459,2021-05-27T01:54:19Z,LLM386,"63.903305,72.099258",37000,474,39
1622080522,2021-05-27T01:55:22Z,LLM386,"64.008957,72.301765",37000,474,40
1622080584,2021-05-27T01:56:24Z,LLM386,"64.111046,72.499435",37000,475,40
1622080647,2021-05-27T01:57:27Z,LLM386,"64.216156,72.70565",37000,475,40
1622080708,2021-05-27T01:58:28Z,LLM386,"64.317505,72.906189",37000,468,40
1622080769,2021-05-27T01:59:29Z,LLM386,"64.415909,73.102478",35850,465,40
1622080830,2021-05-27T02:00:30Z,LLM386,"64.515701,73.304184",33875,466,41
1622080894,2021-05-27T02:01:34Z,LLM386,"64.619209,73.514671",31750,470,41
1622080961,2021-05-27T02:02:41Z,LLM386,"64.726685,73.736389",29650,456,41
1622081022,2021-05-27T02:03:42Z,LLM386,"64.820869,73.932037",27675,441,41
1622081083,2021-05-27T02:04:43Z,LLM386,"64.911926,74.123383",25725,425,41
1622081144,2021-05-27T02:05:44Z,LLM386,"64.998375,74.306717",23800,404,42
1622081205,2021-05-27T02:06:45Z,LLM386,"65.079895,74.481262",22000,379,42
1622081265,2021-05-27T02:07:45Z,LLM386,"65.155952,74.645004",20250,358,42
1622081329,2021-05-27T02:08:49Z,LLM386,"65.231232,74.808884",18400,341,42
1622081390,2021-05-27T02:09:50Z,LLM386,"65.301224,74.962242",16650,336,42
1622081420,2021-05-27T02:10:20Z,LLM386,"65.335831,75.038651",15750,331,42
1622081451,2021-05-27T02:10:51Z,LLM386,"65.369911,75.11412",14850,324,42
1622081483,2021-05-27T02:11:23Z,LLM386,"65.404541,75.191116",13950,320,42
1622081514,2021-05-27T02:11:54Z,LLM386,"65.438019,75.265785",13050,313,42
1622081547,2021-05-27T02:12:27Z,LLM386,"65.472183,75.342087",12075,307,43
1622081579,2021-05-27T02:12:59Z,LLM386,"65.505424,75.416962",11150,299,43
1622081592,2021-05-27T02:13:12Z,LLM386,"65.518021,75.445404",10800,295,43
1622081604,2021-05-27T02:13:24Z,LLM386,"65.530373,75.473206",10450,292,42
1622081617,2021-05-27T02:13:37Z,LLM386,"65.542648,75.500679",10100,288,43
1622081630,2021-05-27T02:13:50Z,LLM386,"65.555099,75.528831",9825,282,43
1622081643,2021-05-27T02:14:03Z,LLM386,"65.567291,75.556442",9600,275,43
1622081655,2021-05-27T02:14:15Z,LLM386,"65.578926,75.58271",9425,273,43
1622081672,2021-05-27T02:14:32Z,LLM386,"65.594009,75.616951",9150,273,43
1622081684,2021-05-27T02:14:44Z,LLM386,"65.605507,75.643135",9025,271,43
1622081698,2021-05-27T02:14:58Z,LLM386,"65.617569,75.670601",9000,274,43
1622081707,2021-05-27T02:15:07Z,LLM386,"65.626503,75.690903",9000,273,43
1622081720,2021-05-27T02:15:20Z,LLM386,"65.637817,75.716858",9000,264,43
1622081733,2021-05-27T02:15:33Z,LLM386,"65.648987,75.742493",9000,262,43
1622081745,2021-05-27T02:15:45Z,LLM386,"65.660294,75.768242",9000,262,43
1622081758,2021-05-27T02:15:58Z,LLM386,"65.671478,75.793724",9000,261,43
1622081771,2021-05-27T02:16:11Z,LLM386,"65.682365,75.818802",8975,262,43
1622081783,2021-05-27T02:16:23Z,LLM386,"65.692886,75.842804",8775,262,43
1622081793,2021-05-27T02:16:33Z,LLM386,"65.702408,75.864143",8525,258,40
1622081800,2021-05-27T02:16:40Z,LLM386,"65.708588,75.873985",8375,256,29
1622081806,2021-05-27T02:16:46Z,LLM386,"65.716072,75.881256",8225,254,18
1622081809,2021-05-27T02:16:49Z,LLM386,"65.719193,75.883286",8175,253,15
1622081813,2021-05-27T02:16:53Z,LLM386,"65.723282,75.885773",8125,253,14
1622081816,2021-05-27T02:16:56Z,LLM386,"65.726685,75.887703",8075,253,13
1622081819,2021-05-27T02:16:59Z,LLM386,"65.730553,75.889854",8000,253,12
1622081822,2021-05-27T02:17:02Z,LLM386,"65.734184,75.891884",7950,254,12
1622081825,2021-05-27T02:17:05Z,LLM386,"65.737717,75.893791",7875,254,12
1622081829,2021-05-27T02:17:09Z,LLM386,"65.741913,75.896072",7800,254,12
1622081840,2021-05-27T02:17:20Z,LLM386,"65.75415,75.902634",7550,253,12
1622081852,2021-05-27T02:17:32Z,LLM386,"65.768417,75.910263",7250,254,12
1622081864,2021-05-27T02:17:44Z,LLM386,"65.782036,75.917793",7000,253,12
1622081878,2021-05-27T02:17:58Z,LLM386,"65.797493,75.926392",6675,252,12
1622081894,2021-05-27T02:18:14Z,LLM386,"65.815697,75.936661",6275,250,13
1622081906,2021-05-27T02:18:26Z,LLM386,"65.829475,75.944427",5975,247,13
1622081919,2021-05-27T02:18:39Z,LLM386,"65.843391,75.952309",5675,245,12
1622081930,2021-05-27T02:18:50Z,LLM386,"65.855118,75.9589",5425,243,12
1622081942,2021-05-27T02:19:02Z,LLM386,"65.868248,75.966278",5200,237,12
1622081954,2021-05-27T02:19:14Z,LLM386,"65.881119,75.973549",4975,226,12
1622081960,2021-05-27T02:19:20Z,LLM386,"65.887337,75.977028",4875,220,13
1622081967,2021-05-27T02:19:27Z,LLM386,"65.893951,75.980728",4775,214,13
1622081974,2021-05-27T02:19:34Z,LLM386,"65.899857,75.984192",4675,209,13
1622081980,2021-05-27T02:19:40Z,LLM386,"65.906204,75.987854",4550,204,13
1622081987,2021-05-27T02:19:47Z,LLM386,"65.912148,75.991356",4425,200,13
1622081993,2021-05-27T02:19:53Z,LLM386,"65.917366,75.994339",4325,197,13
1622081998,2021-05-27T02:19:58Z,LLM386,"65.922226,75.997124",4225,195,13
1622082005,2021-05-27T02:20:05Z,LLM386,"65.927841,76.000313",4100,192,13
1622082012,2021-05-27T02:20:12Z,LLM386,"65.933899,76.003761",3975,190,13
1622082019,2021-05-27T02:20:19Z,LLM386,"65.939575,76.006966",3850,189,13
1622082028,2021-05-27T02:20:28Z,LLM386,"65.947388,76.011421",3650,189,13
1622082033,2021-05-27T02:20:33Z,LLM386,"65.952347,76.01429",3550,190,13
1622082040,2021-05-27T02:20:40Z,LLM386,"65.958023,76.017609",3425,188,13
1622082047,2021-05-27T02:20:47Z,LLM386,"65.964012,76.020973",3300,187,13
1622082054,2021-05-27T02:20:54Z,LLM386,"65.969742,76.024361",3175,187,13
1622082060,2021-05-27T02:21:00Z,LLM386,"65.974823,76.027222",3075,187,12
1622082070,2021-05-27T02:21:10Z,LLM386,"65.983566,76.032257",2925,186,12
1622082077,2021-05-27T02:21:17Z,LLM386,"65.988876,76.035347",2825,185,13
1622082084,2021-05-27T02:21:24Z,LLM386,"65.994408,76.038528",2700,185,13
1622082089,2021-05-27T02:21:29Z,LLM386,"65.999199,76.041275",2625,187,12
1622082095,2021-05-27T02:21:35Z,LLM386,"66.004555,76.044258",2525,188,12
1622082103,2021-05-27T02:21:43Z,LLM386,"66.01107,76.047958",2425,186,12
1622082110,2021-05-27T02:21:50Z,LLM386,"66.016434,76.051025",2325,186,13
1622082115,2021-05-27T02:21:55Z,LLM386,"66.021126,76.05381",2250,188,13
1622082122,2021-05-27T02:22:02Z,LLM386,"66.026733,76.057091",2150,188,13
1622082128,2021-05-27T02:22:08Z,LLM386,"66.032318,76.060181",2050,188,12
1622082135,2021-05-27T02:22:15Z,LLM386,"66.037979,76.063126",1950,189,11
1622082140,2021-05-27T02:22:20Z,LLM386,"66.042572,76.065559",1850,188,11
1622082147,2021-05-27T02:22:27Z,LLM386,"66.04834,76.068649",1800,186,12
1622082154,2021-05-27T02:22:34Z,LLM386,"66.053719,76.071602",1775,183,12
1622082160,2021-05-27T02:22:40Z,LLM386,"66.059158,76.074471",1775,180,12
1622082167,2021-05-27T02:22:47Z,LLM386,"66.064514,76.077698",1750,181,13
1622082173,2021-05-27T02:22:53Z,LLM386,"66.06958,76.08078",1750,181,13
1622082180,2021-05-27T02:23:00Z,LLM386,"66.075317,76.084145",1750,180,13
1622082187,2021-05-27T02:23:07Z,LLM386,"66.080574,76.087128",1750,178,13
1622082193,2021-05-27T02:23:13Z,LLM386,"66.085648,76.090164",1700,178,13
1622082197,2021-05-27T02:23:17Z,LLM386,"66.088676,76.092621",1675,176,18
1622082198,2021-05-27T02:23:18Z,LLM386,"66.089081,76.09314",1675,174,21
1622082200,2021-05-27T02:23:20Z,LLM386,"66.090767,76.095131",1675,172,25
1622082201,2021-05-27T02:23:21Z,LLM386,"66.091187,76.095657",1675,171,27
1622082203,2021-05-27T02:23:23Z,LLM386,"66.092789,76.098061",1650,170,31
1622082205,2021-05-27T02:23:25Z,LLM386,"66.093796,76.099777",1650,168,35
1622082208,2021-05-27T02:23:28Z,LLM386,"66.095673,76.103554",1625,167,40
1622082211,2021-05-27T02:23:31Z,LLM386,"66.097412,76.107445",1600,167,41
1622082214,2021-05-27T02:23:34Z,LLM386,"66.099426,76.112137",1600,165,43
1622082218,2021-05-27T02:23:38Z,LLM386,"66.101288,76.116508",1575,165,43
1622082221,2021-05-27T02:23:41Z,LLM386,"66.10318,76.120949",1575,164,43
1622082225,2021-05-27T02:23:45Z,LLM386,"66.105156,76.12558",1575,164,44
1622082226,2021-05-27T02:23:46Z,LLM386,"66.105652,76.126785",1550,164,44
1622082228,2021-05-27T02:23:48Z,LLM386,"66.10675,76.129532",1550,164,44
1622082231,2021-05-27T02:23:51Z,LLM386,"66.108414,76.133461",1550,164,44
1622082236,2021-05-27T02:23:56Z,LLM386,"66.111328,76.140404",1550,164,44
1622082238,2021-05-27T02:23:58Z,LLM386,"66.112137,76.14254",1550,164,47
1622082241,2021-05-27T02:24:01Z,LLM386,"66.113846,76.147614",1550,165,51
1622082243,2021-05-27T02:24:03Z,LLM386,"66.114716,76.150818",1550,166,53
1622082245,2021-05-27T02:24:05Z,LLM386,"66.115257,76.153404",1550,167,60
1622082246,2021-05-27T02:24:06Z,LLM386,"66.115723,76.155968",1550,166,65
1622082248,2021-05-27T02:24:08Z,LLM386,"66.116135,76.158943",1550,167,68
1622082251,2021-05-27T02:24:11Z,LLM386,"66.116745,76.165344",1550,166,79
1622082252,2021-05-27T02:24:12Z,LLM386,"66.116776,76.166153",1550,166,82
1622082256,2021-05-27T02:24:16Z,LLM386,"66.116776,76.174736",1550,166,93
1622082258,2021-05-27T02:24:18Z,LLM386,"66.116592,76.177597",1550,167,99
1622082262,2021-05-27T02:24:22Z,LLM386,"66.115585,76.185837",1550,171,109
1622082264,2021-05-27T02:24:24Z,LLM386,"66.114975,76.189232",1550,173,113
1622082266,2021-05-27T02:24:26Z,LLM386,"66.114166,76.193161",1550,174,116
1622082267,2021-05-27T02:24:27Z,LLM386,"66.11377,76.194962",1550,174,117
1622082271,2021-05-27T02:24:31Z,LLM386,"66.112152,76.201973",1550,174,119
1622082273,2021-05-27T02:24:33Z,LLM386,"66.11174,76.203804",1550,174,119
1622082274,2021-05-27T02:24:34Z,LLM386,"66.111282,76.20575",1550,174,119
1622082275,2021-05-27T02:24:35Z,LLM386,"66.110832,76.207741",1550,174,119
1622082277,2021-05-27T02:24:37Z,LLM386,"66.109955,76.211815",1550,173,118
1622082278,2021-05-27T02:24:38Z,LLM386,"66.109772,76.212845",1550,173,118
1622082281,2021-05-27T02:24:41Z,LLM386,"66.108742,76.218246",1550,173,114
1622082283,2021-05-27T02:24:43Z,LLM386,"66.108124,76.221886",1550,174,112
1622082284,2021-05-27T02:24:44Z,LLM386,"66.107849,76.223602",1550,174,111
1622082285,2021-05-27T02:24:45Z,LLM386,"66.107437,76.226578",1550,174,110
1622082286,2021-05-27T02:24:46Z,LLM386,"66.107162,76.228523",1550,175,109
1622082288,2021-05-27T02:24:48Z,LLM386,"66.106659,76.232414",1550,173,108
1622082289,2021-05-27T02:24:49Z,LLM386,"66.106415,76.234131",1550,172,107
1622082291,2021-05-27T02:24:51Z,LLM386,"66.106178,76.236282",1550,171,107
1622082292,2021-05-27T02:24:52Z,LLM386,"66.105949,76.238075",1575,170,106
1622082293,2021-05-27T02:24:53Z,LLM386,"66.105713,76.240105",1575,168,106
1622082294,2021-05-27T02:24:54Z,LLM386,"66.105515,76.241913",1575,166,106
1622082295,2021-05-27T02:24:55Z,LLM386,"66.105194,76.244316",1575,163,106
1622082296,2021-05-27T02:24:56Z,LLM386,"66.10511,76.245239",1575,163,106
1622082299,2021-05-27T02:24:59Z,LLM386,"66.104408,76.251091",1575,156,106
1622082300,2021-05-27T02:25:00Z,LLM386,"66.104088,76.253716",1575,154,106
1622082302,2021-05-27T02:25:02Z,LLM386,"66.103806,76.255867",1600,152,106
1622082309,2021-05-27T02:25:09Z,LLM386,"66.102356,76.267319",1600,148,107
1622082316,2021-05-27T02:25:16Z,LLM386,"66.100876,76.279152",1550,151,107
1622082323,2021-05-27T02:25:23Z,LLM386,"66.099472,76.289864",1550,148,107
1622082329,2021-05-27T02:25:29Z,LLM386,"66.098175,76.300049",1550,138,108
1622082335,2021-05-27T02:25:35Z,LLM386,"66.097099,76.307693",1525,135,108
1622082343,2021-05-27T02:25:43Z,LLM386,"66.09552,76.31987",1450,132,108
1622082349,2021-05-27T02:25:49Z,LLM386,"66.094254,76.329117",1375,131,107
1622082356,2021-05-27T02:25:56Z,LLM386,"66.093102,76.33886",1325,130,106
1622082362,2021-05-27T02:26:02Z,LLM386,"66.092216,76.346619",1275,130,106
1622082369,2021-05-27T02:26:09Z,LLM386,"66.090958,76.356812",1225,130,106
1622082375,2021-05-27T02:26:15Z,LLM386,"66.089745,76.366089",1125,129,107
1622082382,2021-05-27T02:26:22Z,LLM386,"66.088577,76.375237",1075,126,107
1622082389,2021-05-27T02:26:29Z,LLM386,"66.087387,76.384277",1000,125,108
1622082396,2021-05-27T02:26:36Z,LLM386,"66.086212,76.393433",950,124,107
1622082403,2021-05-27T02:26:43Z,LLM386,"66.085045,76.40287",900,126,107
1622082409,2021-05-27T02:26:49Z,LLM386,"66.083908,76.411629",825,126,108
1622082415,2021-05-27T02:26:55Z,LLM386,"66.082764,76.419945",775,126,108
1622082422,2021-05-27T02:27:02Z,LLM386,"66.081505,76.429977",700,125,107
1622082429,2021-05-27T02:27:09Z,LLM386,"66.080338,76.43898",625,126,108
1622082434,2021-05-27T02:27:14Z,LLM386,"66.079414,76.446335",575,127,107
1622082443,2021-05-27T02:27:23Z,LLM386,"66.077957,76.458206",475,128,107
1622082449,2021-05-27T02:27:29Z,LLM386,"66.076813,76.467018",400,127,108
1622082457,2021-05-27T02:27:37Z,LLM386,"66.075394,76.477661",300,124,107
1622082462,2021-05-27T02:27:42Z,LLM386,"66.074432,76.485268",250,125,107
1622082469,2021-05-27T02:27:49Z,LLM386,"66.073288,76.494141",150,126,108
1622082475,2021-05-27T02:27:55Z,LLM386,"66.072189,76.502724",150,123,106
1622082481,2021-05-27T02:28:01Z,LLM386,"66.071373,76.509476",0,98,109
1622082488,2021-05-27T02:28:08Z,LLM386,"66.070633,76.514885",0,60,106
1622082494,2021-05-27T02:28:14Z,LLM386,"66.070267,76.517563",0,32,109
1622082500,2021-05-27T02:28:20Z,LLM386,"66.070076,76.518997",0,18,106
1622082502,2021-05-27T02:28:22Z,LLM386,"66.070045,76.519417",0,15,101
1622082505,2021-05-27T02:28:25Z,LLM386,"66.070053,76.519745",0,13,90
1622082507,2021-05-27T02:28:27Z,LLM386,"66.070084,76.520035",0,12,78
1622082509,2021-05-27T02:28:29Z,LLM386,"66.070145,76.520317",0,12,64
1622082512,2021-05-27T02:28:32Z,LLM386,"66.070267,76.520554",0,11,38
1622082517,2021-05-27T02:28:37Z,LLM386,"66.070518,76.520805",0,10,22
1622082523,2021-05-27T02:28:43Z,LLM386,"66.070763,76.520996",0,10,16
1622082530,2021-05-27T02:28:50Z,LLM386,"66.070984,76.521149",0,6,16
1622082538,2021-05-27T02:28:58Z,LLM386,"66.071205,76.521317",0,7,16
1622082545,2021-05-27T02:29:05Z,LLM386,"66.071426,76.521507",0,8,16
1622082552,2021-05-27T02:29:12Z,LLM386,"66.071671,76.521637",0,8,8
1622082558,2021-05-27T02:29:18Z,LLM386,"66.071907,76.521324",0,9,326
1622082560,2021-05-27T02:29:20Z,LLM386,"66.071953,76.521057",0,10,309
1622082563,2021-05-27T02:29:23Z,LLM386,"66.071976,76.520805",0,10,295
1622082565,2021-05-27T02:29:25Z,LLM386,"66.072014,76.520554",0,10,289
1622082568,2021-05-27T02:29:28Z,LLM386,"66.072044,76.520195",0,10,286
1622082571,2021-05-27T02:29:31Z,LLM386,"66.072083,76.519951",0,9,286
1622082573,2021-05-27T02:29:33Z,LLM386,"66.072113,76.519745",0,9,286
1622082576,2021-05-27T02:29:36Z,LLM386,"66.072151,76.519417",0,9,286
1622082580,2021-05-27T02:29:40Z,LLM386,"66.072197,76.519058",0,9,286
1622082586,2021-05-27T02:29:46Z,LLM386,"66.072266,76.518463",0,9,286
1622082593,2021-05-27T02:29:53Z,LLM386,"66.072357,76.517776",0,8,286
1622082598,2021-05-27T02:29:58Z,LLM386,"66.072426,76.517387",0,6,298
1622082607,2021-05-27T02:30:07Z,LLM386,"66.07267,76.517265",0,6,351
1622082618,2021-05-27T02:30:18Z,LLM386,"66.072891,76.517456",0,3,14
1622082644,2021-05-27T02:30:44Z,LLM386,"66.072403,76.517509",0,1,16
