Timestamp,UTC,Callsign,Position,Altitude,Speed,Direction
1621507411,2021-05-20T10:43:31Z,LLM46,"57.180218,65.347099",0,1,137
1621507726,2021-05-20T10:48:46Z,LLM46,"57.176319,65.35434",0,15,135
1621507873,2021-05-20T10:51:13Z,LLM46,"57.188232,65.326599",475,157,314
1621507890,2021-05-20T10:51:30Z,LLM46,"57.196793,65.311058",1275,155,316
1621507899,2021-05-20T10:51:39Z,LLM46,"57.202225,65.30468",1550,163,326
1621507913,2021-05-20T10:51:53Z,LLM46,"57.214371,65.303162",1900,193,7
1621507925,2021-05-20T10:52:05Z,LLM46,"57.225128,65.307167",2150,210,12
1621507931,2021-05-20T10:52:11Z,LLM46,"57.2314,65.30986",2250,223,12
1621507942,2021-05-20T10:52:22Z,LLM46,"57.242569,65.314835",2650,239,14
1621507948,2021-05-20T10:52:28Z,LLM46,"57.250031,65.318268",2850,248,14
1621507958,2021-05-20T10:52:38Z,LLM46,"57.261486,65.323822",3325,258,14
1621507965,2021-05-20T10:52:45Z,LLM46,"57.26889,65.327286",3725,263,14
1621507972,2021-05-20T10:52:52Z,LLM46,"57.277313,65.33123",4075,268,14
1621507981,2021-05-20T10:53:01Z,LLM46,"57.288906,65.336578",4700,270,14
1621507988,2021-05-20T10:53:08Z,LLM46,"57.296997,65.340332",5100,271,13
1621508002,2021-05-20T10:53:22Z,LLM46,"57.314323,65.348007",6075,270,13
1621508015,2021-05-20T10:53:35Z,LLM46,"57.328949,65.354401",7100,259,13
1621508026,2021-05-20T10:53:46Z,LLM46,"57.341885,65.35997",7875,258,12
1621508084,2021-05-20T10:54:44Z,LLM46,"57.413433,65.390625",10750,282,13
1621508142,2021-05-20T10:55:42Z,LLM46,"57.494434,65.425446",12650,330,13
1621508174,2021-05-20T10:56:14Z,LLM46,"57.543175,65.446617",13600,353,13
1621508206,2021-05-20T10:56:46Z,LLM46,"57.596245,65.469833",14900,362,13
1621508239,2021-05-20T10:57:19Z,LLM46,"57.649406,65.492157",16350,363,11
1621508271,2021-05-20T10:57:51Z,LLM46,"57.703781,65.51165",17425,374,10
1621508344,2021-05-20T10:59:04Z,LLM46,"57.827793,65.557159",20175,383,11
1621508406,2021-05-20T11:00:06Z,LLM46,"57.936821,65.598267",22075,393,11
1621508468,2021-05-20T11:01:08Z,LLM46,"58.049286,65.627365",23825,400,5
1621508530,2021-05-20T11:02:10Z,LLM46,"58.165283,65.648094",25175,413,5
1621508595,2021-05-20T11:03:15Z,LLM46,"58.289337,65.670509",26650,421,5
1621508641,2021-05-20T11:04:01Z,LLM46,"58.380325,65.687073",27725,424,5
1621508729,2021-05-20T11:05:29Z,LLM46,"58.554016,65.714546",29325,434,3
1621508791,2021-05-20T11:06:31Z,LLM46,"58.677658,65.728455",30800,429,3
1621508853,2021-05-20T11:07:33Z,LLM46,"58.800224,65.743378",32200,427,3
1621508915,2021-05-20T11:08:35Z,LLM46,"58.92215,65.758575",32975,425,3
1621508977,2021-05-20T11:09:37Z,LLM46,"59.043415,65.773628",33000,424,3
1621509039,2021-05-20T11:10:39Z,LLM46,"59.16568,65.788696",33000,427,3
1621509101,2021-05-20T11:11:41Z,LLM46,"59.287346,65.804222",33050,426,3
1621509164,2021-05-20T11:12:44Z,LLM46,"59.411041,65.819824",33025,423,3
1621509227,2021-05-20T11:13:47Z,LLM46,"59.532028,65.835297",33000,421,3
1621509287,2021-05-20T11:14:47Z,LLM46,"59.649261,65.850494",32975,420,3
1621509349,2021-05-20T11:15:49Z,LLM46,"59.768696,65.866066",32975,419,3
1621509409,2021-05-20T11:16:49Z,LLM46,"59.885311,65.881317",33000,419,3
1621509471,2021-05-20T11:17:51Z,LLM46,"60.003738,65.896782",33000,418,3
1621509534,2021-05-20T11:18:54Z,LLM46,"60.124172,65.912476",34500,409,3
1621509595,2021-05-20T11:19:55Z,LLM46,"60.240417,65.928291",35000,415,3
1621509657,2021-05-20T11:20:57Z,LLM46,"60.359772,65.94426",35000,414,3
1621509718,2021-05-20T11:21:58Z,LLM46,"60.474941,65.959953",35000,414,3
1621509780,2021-05-20T11:23:00Z,LLM46,"60.594536,65.976234",35025,415,3
1621509840,2021-05-20T11:24:00Z,LLM46,"60.709579,65.992126",35025,414,3
1621509901,2021-05-20T11:25:01Z,LLM46,"60.82534,66.008217",35000,412,3
1621509963,2021-05-20T11:26:03Z,LLM46,"60.941895,66.024521",34975,412,3
1621510024,2021-05-20T11:27:04Z,LLM46,"61.059357,66.040955",34975,413,3
1621510085,2021-05-20T11:28:05Z,LLM46,"61.174072,66.057259",35000,416,4
1621510145,2021-05-20T11:29:05Z,LLM46,"61.290802,66.073639",35025,415,3
1621510207,2021-05-20T11:30:07Z,LLM46,"61.407669,66.090614",35025,416,3
1621510269,2021-05-20T11:31:09Z,LLM46,"61.526733,66.107872",35000,415,3
1621510331,2021-05-20T11:32:11Z,LLM46,"61.645359,66.124977",34975,415,4
1621510392,2021-05-20T11:33:12Z,LLM46,"61.761749,66.142204",35000,416,4
1621510454,2021-05-20T11:34:14Z,LLM46,"61.880119,66.159569",35025,415,4
1621510515,2021-05-20T11:35:15Z,LLM46,"61.996456,66.177063",35000,413,4
1621510576,2021-05-20T11:36:16Z,LLM46,"62.112808,66.194588",34975,412,4
1621510640,2021-05-20T11:37:20Z,LLM46,"62.232567,66.212486",35000,413,4
1621510701,2021-05-20T11:38:21Z,LLM46,"62.349289,66.230469",35000,413,4
1621510763,2021-05-20T11:39:23Z,LLM46,"62.466843,66.24868",35025,414,4
1621510824,2021-05-20T11:40:24Z,LLM46,"62.583115,66.266785",35000,412,4
1621510887,2021-05-20T11:41:27Z,LLM46,"62.701767,66.2854",35025,411,4
1621510949,2021-05-20T11:42:29Z,LLM46,"62.819092,66.303711",34975,413,4
1621511010,2021-05-20T11:43:30Z,LLM46,"62.935555,66.322243",35000,414,4
1621511072,2021-05-20T11:44:32Z,LLM46,"63.054016,66.341454",35050,411,4
1621511134,2021-05-20T11:45:34Z,LLM46,"63.170471,66.360374",35000,412,4
1621511195,2021-05-20T11:46:35Z,LLM46,"63.285252,66.378952",35000,412,4
1621511257,2021-05-20T11:47:37Z,LLM46,"63.40361,66.398094",35000,411,4
1621511320,2021-05-20T11:48:40Z,LLM46,"63.521088,66.41774",35000,409,4
1621511382,2021-05-20T11:49:42Z,LLM46,"63.637932,66.43718",35000,408,4
1621511447,2021-05-20T11:50:47Z,LLM46,"63.759712,66.457726",34975,410,4
1621511509,2021-05-20T11:51:49Z,LLM46,"63.877029,66.477951",35025,406,4
1621511574,2021-05-20T11:52:54Z,LLM46,"63.997513,66.498344",34975,405,4
1621511637,2021-05-20T11:53:57Z,LLM46,"64.115753,66.518623",34975,407,4
1621511701,2021-05-20T11:55:01Z,LLM46,"64.234734,66.539467",35025,404,4
1621511763,2021-05-20T11:56:03Z,LLM46,"64.348648,66.55941",35025,401,4
1621511825,2021-05-20T11:57:05Z,LLM46,"64.462418,66.579018",34975,400,4
1621511887,2021-05-20T11:58:07Z,LLM46,"64.577354,66.599922",35000,400,4
1621511950,2021-05-20T11:59:10Z,LLM46,"64.692154,66.620865",35000,400,4
1621512015,2021-05-20T12:00:15Z,LLM46,"64.811096,66.642265",35000,399,4
1621512076,2021-05-20T12:01:16Z,LLM46,"64.923058,66.661377",34175,397,2
1621512138,2021-05-20T12:02:18Z,LLM46,"65.037552,66.658669",32525,400,359
1621512200,2021-05-20T12:03:20Z,LLM46,"65.153549,66.655594",30775,406,359
1621512264,2021-05-20T12:04:24Z,LLM46,"65.272202,66.652184",28700,405,359
1621512330,2021-05-20T12:05:30Z,LLM46,"65.39547,66.64856",26225,397,359
1621512844,2021-05-20T12:14:04Z,LLM46,"66.193001,66.679253",9125,247,24
1621512855,2021-05-20T12:14:15Z,LLM46,"66.204163,66.691704",8925,249,24
1621512870,2021-05-20T12:14:30Z,LLM46,"66.220047,66.709557",8625,251,24
1621512883,2021-05-20T12:14:43Z,LLM46,"66.234329,66.725578",8375,252,24
1621512893,2021-05-20T12:14:53Z,LLM46,"66.245277,66.737999",8175,252,24
1621512908,2021-05-20T12:15:08Z,LLM46,"66.261063,66.755791",7875,251,24
1621512923,2021-05-20T12:15:23Z,LLM46,"66.276093,66.772751",7625,248,24
1621512933,2021-05-20T12:15:33Z,LLM46,"66.287079,66.785049",7425,246,24
1621512954,2021-05-20T12:15:54Z,LLM46,"66.308266,66.809059",7025,240,24
1621512981,2021-05-20T12:16:21Z,LLM46,"66.335083,66.839333",6575,233,24
1621512996,2021-05-20T12:16:36Z,LLM46,"66.349884,66.855988",6325,228,24
1621513008,2021-05-20T12:16:48Z,LLM46,"66.361008,66.868645",6125,225,24
1621513019,2021-05-20T12:16:59Z,LLM46,"66.371017,66.87999",5925,221,24
1621513032,2021-05-20T12:17:12Z,LLM46,"66.383743,66.894554",5700,217,24
1621513046,2021-05-20T12:17:26Z,LLM46,"66.395966,66.908234",5500,216,24
1621513059,2021-05-20T12:17:39Z,LLM46,"66.408211,66.922096",5275,218,24
1621513070,2021-05-20T12:17:50Z,LLM46,"66.418167,66.933365",5100,220,24
1621513088,2021-05-20T12:18:08Z,LLM46,"66.434418,66.951759",4775,220,24
1621513113,2021-05-20T12:18:33Z,LLM46,"66.457672,66.978149",4350,221,24
1621513117,2021-05-20T12:18:37Z,LLM46,"66.461838,66.982895",4275,221,24
1621513127,2021-05-20T12:18:47Z,LLM46,"66.470497,66.99276",4125,221,24
1621513138,2021-05-20T12:18:58Z,LLM46,"66.4813,67.005119",3925,223,24
1621513149,2021-05-20T12:19:09Z,LLM46,"66.491074,67.016228",3750,223,24
1621513171,2021-05-20T12:19:31Z,LLM46,"66.51178,67.040009",3375,225,24
1621513183,2021-05-20T12:19:43Z,LLM46,"66.524002,67.053856",3150,229,24
1621513192,2021-05-20T12:19:52Z,LLM46,"66.532745,67.063774",3075,229,24
1621513206,2021-05-20T12:20:06Z,LLM46,"66.545517,67.078575",2925,220,24
1621513217,2021-05-20T12:20:17Z,LLM46,"66.554993,67.089684",2775,220,24
1621513224,2021-05-20T12:20:24Z,LLM46,"66.562019,67.097878",2625,217,25
1621513229,2021-05-20T12:20:29Z,LLM46,"66.56662,67.103294",2525,217,25
1621513245,2021-05-20T12:20:45Z,LLM46,"66.580498,67.118851",2325,211,19
1621513252,2021-05-20T12:20:52Z,LLM46,"66.587814,67.121925",2225,210,6
1621513319,2021-05-20T12:21:59Z,LLM46,"66.641373,67.057678",1775,174,331
1621513446,2021-05-20T12:24:06Z,LLM46,"66.647736,66.876404",1750,143,241
1621513453,2021-05-20T12:24:13Z,LLM46,"66.645401,66.865662",1750,144,241
1621513461,2021-05-20T12:24:21Z,LLM46,"66.642929,66.854057",1750,144,241
1621513467,2021-05-20T12:24:27Z,LLM46,"66.640869,66.844284",1750,143,241
1621513497,2021-05-20T12:24:57Z,LLM46,"66.631989,66.803368",1775,133,241
1621513508,2021-05-20T12:25:08Z,LLM46,"66.628784,66.78804",1625,133,241
1621513516,2021-05-20T12:25:16Z,LLM46,"66.626495,66.777275",1500,132,241
1621513523,2021-05-20T12:25:23Z,LLM46,"66.624397,66.767662",1425,128,241
1621513530,2021-05-20T12:25:30Z,LLM46,"66.622375,66.758186",1350,129,241
1621513537,2021-05-20T12:25:37Z,LLM46,"66.620316,66.748634",1275,129,241
1621513545,2021-05-20T12:25:45Z,LLM46,"66.618301,66.739075",1200,129,241
1621513562,2021-05-20T12:26:02Z,LLM46,"66.613266,66.71579",975,129,241
1621513574,2021-05-20T12:26:14Z,LLM46,"66.610062,66.700745",850,129,241
1621513581,2021-05-20T12:26:21Z,LLM46,"66.608063,66.691505",775,130,241
1621513588,2021-05-20T12:26:28Z,LLM46,"66.606033,66.682236",675,132,241
1621513596,2021-05-20T12:26:36Z,LLM46,"66.603683,66.671158",600,132,241
1621513613,2021-05-20T12:26:53Z,LLM46,"66.598419,66.647186",375,134,240
1621513645,2021-05-20T12:27:25Z,LLM46,"66.590355,66.609734",0,68,241
1621513653,2021-05-20T12:27:33Z,LLM46,"66.589554,66.605988",0,35,241
1621513659,2021-05-20T12:27:39Z,LLM46,"66.589218,66.604393",0,26,241
1621513665,2021-05-20T12:27:45Z,LLM46,"66.58889,66.602867",0,21,241
1621513671,2021-05-20T12:27:51Z,LLM46,"66.5886,66.601555",0,22,241
1621513677,2021-05-20T12:27:57Z,LLM46,"66.588318,66.600288",0,18,239
1621513683,2021-05-20T12:28:03Z,LLM46,"66.588112,66.599342",0,13,244
1621513689,2021-05-20T12:28:09Z,LLM46,"66.587967,66.598495",0,13,247
1621513691,2021-05-20T12:28:11Z,LLM46,"66.587929,66.598213",0,13,253
1621513694,2021-05-20T12:28:14Z,LLM46,"66.587921,66.597809",0,14,270
1621513697,2021-05-20T12:28:17Z,LLM46,"66.588013,66.59742",0,12,292
1621513702,2021-05-20T12:28:22Z,LLM46,"66.588226,66.597092",0,12,326
1621513706,2021-05-20T12:28:26Z,LLM46,"66.588425,66.596809",0,12,329
1621513710,2021-05-20T12:28:30Z,LLM46,"66.588638,66.596497",0,12,331
1621513714,2021-05-20T12:28:34Z,LLM46,"66.588837,66.596252",0,12,331
1621513719,2021-05-20T12:28:39Z,LLM46,"66.58905,66.595955",0,11,329
1621513728,2021-05-20T12:28:48Z,LLM46,"66.589417,66.595345",0,10,323
1621513732,2021-05-20T12:28:52Z,LLM46,"66.589531,66.595062",0,9,317
1621513737,2021-05-20T12:28:57Z,LLM46,"66.589668,66.594704",0,9,317
1621513741,2021-05-20T12:29:01Z,LLM46,"66.589813,66.594406",0,7,317
1621513745,2021-05-20T12:29:05Z,LLM46,"66.589882,66.594193",0,7,309
1621513748,2021-05-20T12:29:08Z,LLM46,"66.589897,66.593956",0,7,295
1621513757,2021-05-20T12:29:17Z,LLM46,"66.589798,66.593437",0,5,244
1621513762,2021-05-20T12:29:22Z,LLM46,"66.589714,66.593208",0,4,233
1621513770,2021-05-20T12:29:30Z,LLM46,"66.589638,66.593002",0,4,230
1621513778,2021-05-20T12:29:38Z,LLM46,"66.589577,66.592789",0,1,230
1621513879,2021-05-20T12:31:19Z,LLM46,"66.587982,66.598686",0,0,89
