Timestamp,UTC,Callsign,Position,Altitude,Speed,Direction
1622088438,2021-05-27T04:07:18Z,LLM540,"66.072975,76.517509",0,0,16
1622088639,2021-05-27T04:10:39Z,LLM540,"66.072769,76.517418",0,2,30
1622088656,2021-05-27T04:10:56Z,LLM540,"66.072601,76.517197",0,2,59
1622088669,2021-05-27T04:11:09Z,LLM540,"66.072487,76.516968",0,2,104
1622088678,2021-05-27T04:11:18Z,LLM540,"66.072487,76.516762",0,2,112
1622088711,2021-05-27T04:11:51Z,LLM540,"66.072464,76.516998",0,2,109
1622088719,2021-05-27T04:11:59Z,LLM540,"66.072426,76.517204",0,2,109
1622088727,2021-05-27T04:12:07Z,LLM540,"66.072403,76.517418",0,2,106
1622088736,2021-05-27T04:12:16Z,LLM540,"66.07238,76.517624",0,2,106
1622088841,2021-05-27T04:14:01Z,LLM540,"66.07235,76.517838",0,3,106
1622088847,2021-05-27T04:14:07Z,LLM540,"66.072311,76.518166",0,6,106
1622088853,2021-05-27T04:14:13Z,LLM540,"66.072227,76.518791",0,11,106
1622088859,2021-05-27T04:14:19Z,LLM540,"66.072128,76.519623",0,13,106
1622088865,2021-05-27T04:14:25Z,LLM540,"66.072021,76.520462",0,15,106
1622088870,2021-05-27T04:14:30Z,LLM540,"66.071892,76.521301",0,14,115
1622088872,2021-05-27T04:14:32Z,LLM540,"66.0718,76.521507",0,13,132
1622088877,2021-05-27T04:14:37Z,LLM540,"66.071548,76.521637",0,13,174
1622088881,2021-05-27T04:14:41Z,LLM540,"66.07132,76.521439",0,12,196
1622088886,2021-05-27T04:14:46Z,LLM540,"66.071053,76.52121",0,13,196
1622088889,2021-05-27T04:14:49Z,LLM540,"66.070831,76.521027",0,14,196
1622088893,2021-05-27T04:14:53Z,LLM540,"66.070602,76.520836",0,15,196
1622088900,2021-05-27T04:15:00Z,LLM540,"66.070168,76.520432",0,13,208
1622088902,2021-05-27T04:15:02Z,LLM540,"66.070076,76.520134",0,13,225
1622088904,2021-05-27T04:15:04Z,LLM540,"66.070023,76.519867",0,13,241
1622088907,2021-05-27T04:15:07Z,LLM540,"66.070007,76.519402",0,13,261
1622088909,2021-05-27T04:15:09Z,LLM540,"66.070023,76.51918",0,13,272
1622088911,2021-05-27T04:15:11Z,LLM540,"66.070068,76.518883",0,13,284
1622088913,2021-05-27T04:15:13Z,LLM540,"66.070099,76.518631",0,13,286
1622088915,2021-05-27T04:15:15Z,LLM540,"66.070145,76.518311",0,14,289
1622088917,2021-05-27T04:15:17Z,LLM540,"66.070198,76.517921",0,14,289
1622088919,2021-05-27T04:15:19Z,LLM540,"66.070244,76.517624",0,15,289
1622088923,2021-05-27T04:15:23Z,LLM540,"66.070313,76.51709",0,15,289
1622088925,2021-05-27T04:15:25Z,LLM540,"66.070358,76.516731",0,15,286
1622088931,2021-05-27T04:15:31Z,LLM540,"66.070518,76.515511",0,16,286
1622088938,2021-05-27T04:15:38Z,LLM540,"66.070663,76.514343",0,18,286
1622088944,2021-05-27T04:15:44Z,LLM540,"66.070839,76.513023",0,19,286
1622088949,2021-05-27T04:15:49Z,LLM540,"66.070984,76.511909",0,20,289
1622088956,2021-05-27T04:15:56Z,LLM540,"66.071182,76.510399",0,21,289
1622088962,2021-05-27T04:16:02Z,LLM540,"66.071381,76.508995",0,21,289
1622088968,2021-05-27T04:16:08Z,LLM540,"66.071579,76.507591",0,21,286
1622088974,2021-05-27T04:16:14Z,LLM540,"66.071754,76.506165",0,21,286
1622088980,2021-05-27T04:16:20Z,LLM540,"66.071945,76.504639",0,21,286
1622088988,2021-05-27T04:16:28Z,LLM540,"66.072159,76.502983",0,19,286
1622088995,2021-05-27T04:16:35Z,LLM540,"66.072357,76.501472",0,19,286
1622089001,2021-05-27T04:16:41Z,LLM540,"66.072525,76.500153",0,19,286
1622089007,2021-05-27T04:16:47Z,LLM540,"66.07267,76.49894",0,16,286
1622089013,2021-05-27T04:16:53Z,LLM540,"66.072815,76.497864",0,17,286
1622089018,2021-05-27T04:16:58Z,LLM540,"66.072952,76.496742",0,16,286
1622089025,2021-05-27T04:17:05Z,LLM540,"66.073082,76.495743",0,14,286
1622089029,2021-05-27T04:17:09Z,LLM540,"66.073174,76.495201",0,12,292
1622089031,2021-05-27T04:17:11Z,LLM540,"66.073212,76.494965",0,11,292
1622089034,2021-05-27T04:17:14Z,LLM540,"66.073273,76.494713",0,9,300
1622089037,2021-05-27T04:17:17Z,LLM540,"66.073357,76.494484",0,9,306
1622089041,2021-05-27T04:17:21Z,LLM540,"66.073502,76.494194",0,9,317
1622089045,2021-05-27T04:17:25Z,LLM540,"66.073631,76.49398",0,8,323
1622089049,2021-05-27T04:17:29Z,LLM540,"66.0737,76.493713",0,7,309
1622089052,2021-05-27T04:17:32Z,LLM540,"66.073723,76.493477",0,7,289
1622089055,2021-05-27T04:17:35Z,LLM540,"66.073662,76.493172",0,7,258
1622089064,2021-05-27T04:17:44Z,LLM540,"66.073441,76.493233",0,6,177
1622089069,2021-05-27T04:17:49Z,LLM540,"66.073364,76.493484",0,5,143
1622089073,2021-05-27T04:17:53Z,LLM540,"66.073357,76.493713",0,6,120
1622089077,2021-05-27T04:17:57Z,LLM540,"66.073318,76.493996",0,6,109
1622089081,2021-05-27T04:18:01Z,LLM540,"66.07328,76.494339",0,9,106
1622089083,2021-05-27T04:18:03Z,LLM540,"66.073257,76.494598",0,12,106
1622089085,2021-05-27T04:18:05Z,LLM540,"66.073212,76.494911",0,14,106
1622089086,2021-05-27T04:18:06Z,LLM540,"66.073189,76.495117",0,17,106
1622089087,2021-05-27T04:18:07Z,LLM540,"66.073151,76.495384",0,20,106
1622089088,2021-05-27T04:18:08Z,LLM540,"66.073082,76.495949",0,30,106
1622089090,2021-05-27T04:18:10Z,LLM540,"66.073013,76.496429",0,36,106
1622089091,2021-05-27T04:18:11Z,LLM540,"66.072952,76.496887",0,41,106
1622089097,2021-05-27T04:18:17Z,LLM540,"66.072357,76.501465",0,76,106
1622089105,2021-05-27T04:18:25Z,LLM540,"66.071274,76.509705",175,110,107
1622089114,2021-05-27T04:18:34Z,LLM540,"66.069489,76.523666",175,151,107
1622089121,2021-05-27T04:18:41Z,LLM540,"66.068008,76.534821",200,170,108
1622089128,2021-05-27T04:18:48Z,LLM540,"66.066238,76.548317",525,168,108
1622089134,2021-05-27T04:18:54Z,LLM540,"66.064819,76.5588",875,166,108
1622089141,2021-05-27T04:19:01Z,LLM540,"66.063171,76.570816",1225,167,108
1622089147,2021-05-27T04:19:07Z,LLM540,"66.061752,76.581802",1525,168,108
1622089153,2021-05-27T04:19:13Z,LLM540,"66.060326,76.592857",1650,173,107
1622089159,2021-05-27T04:19:19Z,LLM540,"66.05851,76.605995",1800,179,109
1622089162,2021-05-27T04:19:22Z,LLM540,"66.057587,76.611099",1850,184,114
1622089163,2021-05-27T04:19:23Z,LLM540,"66.057343,76.612206",1850,186,116
1622089165,2021-05-27T04:19:25Z,LLM540,"66.056183,76.616745",1875,191,122
1622089166,2021-05-27T04:19:26Z,LLM540,"66.055901,76.617699",1900,193,124
1622089169,2021-05-27T04:19:29Z,LLM540,"66.053696,76.624031",1950,201,133
1622089171,2021-05-27T04:19:31Z,LLM540,"66.052277,76.62735",1975,205,138
1622089172,2021-05-27T04:19:32Z,LLM540,"66.051865,76.628265",1975,205,138
1622089175,2021-05-27T04:19:35Z,LLM540,"66.04985,76.631699",2025,208,143
1622089178,2021-05-27T04:19:38Z,LLM540,"66.04715,76.635368",2100,214,152
1622089181,2021-05-27T04:19:41Z,LLM540,"66.043945,76.638565",2175,218,159
1622089182,2021-05-27T04:19:42Z,LLM540,"66.043533,76.638908",2175,221,160
1622089185,2021-05-27T04:19:45Z,LLM540,"66.040604,76.640854",2200,224,163
1622089188,2021-05-27T04:19:48Z,LLM540,"66.037186,76.642296",2225,231,170
1622089194,2021-05-27T04:19:54Z,LLM540,"66.030251,76.642174",2300,245,184
1622089198,2021-05-27T04:19:58Z,LLM540,"66.026276,76.640396",2375,252,192
1622089205,2021-05-27T04:20:05Z,LLM540,"66.018425,76.633339",2475,263,205
1622089206,2021-05-27T04:20:06Z,LLM540,"66.016342,76.630554",2500,266,209
1622089208,2021-05-27T04:20:08Z,LLM540,"66.014801,76.62809",2525,267,211
1622089210,2021-05-27T04:20:10Z,LLM540,"66.012657,76.624382",2600,269,215
1622089211,2021-05-27T04:20:11Z,LLM540,"66.011635,76.622353",2625,270,217
1622089213,2021-05-27T04:20:13Z,LLM540,"66.009865,76.61853",2725,271,221
1622089217,2021-05-27T04:20:17Z,LLM540,"66.005859,76.608742",2950,272,226
1622089219,2021-05-27T04:20:19Z,LLM540,"66.004509,76.605156",3025,271,226
1622089223,2021-05-27T04:20:23Z,LLM540,"66.001328,76.596451",3250,271,228
1622089224,2021-05-27T04:20:24Z,LLM540,"66.000648,76.594414",3300,271,228
1622089226,2021-05-27T04:20:26Z,LLM540,"65.99897,76.589752",3425,270,228
1622089227,2021-05-27T04:20:27Z,LLM540,"65.99826,76.587753",3475,270,228
1622089229,2021-05-27T04:20:29Z,LLM540,"65.996201,76.581917",3625,271,229
1622089230,2021-05-27T04:20:30Z,LLM540,"65.995422,76.579628",3675,271,229
1622089232,2021-05-27T04:20:32Z,LLM540,"65.99382,76.575165",3800,271,229
1622089233,2021-05-27T04:20:33Z,LLM540,"65.992722,76.572075",3850,270,229
1622089235,2021-05-27T04:20:35Z,LLM540,"65.991486,76.568527",3950,272,229
1622089237,2021-05-27T04:20:37Z,LLM540,"65.990028,76.564316",4050,272,229
1622089240,2021-05-27T04:20:40Z,LLM540,"65.987335,76.556679",4200,274,228
1622089241,2021-05-27T04:20:41Z,LLM540,"65.986038,76.553192",4250,275,228
1622089248,2021-05-27T04:20:48Z,LLM540,"65.980682,76.538086",4475,280,228
1622089254,2021-05-27T04:20:54Z,LLM540,"65.975044,76.522163",4625,288,228
1622089260,2021-05-27T04:21:00Z,LLM540,"65.970016,76.508194",4725,297,228
1622089266,2021-05-27T04:21:06Z,LLM540,"65.964249,76.491737",4850,305,229
1622089272,2021-05-27T04:21:12Z,LLM540,"65.958481,76.475258",4975,314,229
1622089279,2021-05-27T04:21:19Z,LLM540,"65.952072,76.456833",5125,322,229
1622089292,2021-05-27T04:21:32Z,LLM540,"65.939301,76.419411",5375,337,230
1622089305,2021-05-27T04:21:45Z,LLM540,"65.926392,76.381012",5775,346,230
1622089317,2021-05-27T04:21:57Z,LLM540,"65.914055,76.343994",6400,348,231
1622089328,2021-05-27T04:22:08Z,LLM540,"65.902588,76.309547",6950,349,230
1622089341,2021-05-27T04:22:21Z,LLM540,"65.889313,76.270294",7500,353,230
1622089352,2021-05-27T04:22:32Z,LLM540,"65.877701,76.23616",7975,356,230
1622089364,2021-05-27T04:22:44Z,LLM540,"65.86541,76.200333",8550,356,230
1622089375,2021-05-27T04:22:55Z,LLM540,"65.854111,76.167526",9075,357,229
1622089387,2021-05-27T04:23:07Z,LLM540,"65.840561,76.128731",9450,365,229
1622089400,2021-05-27T04:23:20Z,LLM540,"65.826073,76.087723",9950,368,229
1622089412,2021-05-27T04:23:32Z,LLM540,"65.813278,76.051483",10575,365,229
1622089424,2021-05-27T04:23:44Z,LLM540,"65.800148,76.014885",11100,366,228
1622089435,2021-05-27T04:23:55Z,LLM540,"65.787247,75.979179",11550,368,228
1622089447,2021-05-27T04:24:07Z,LLM540,"65.774002,75.941277",12000,370,230
1622089479,2021-05-27T04:24:39Z,LLM540,"65.743149,75.833588",13225,372,237
1622089511,2021-05-27T04:25:11Z,LLM540,"65.714218,75.718575",14425,376,238
1622089541,2021-05-27T04:25:41Z,LLM540,"65.686752,75.608253",15500,380,238
1622089573,2021-05-27T04:26:13Z,LLM540,"65.657417,75.492195",16500,384,238
1622089605,2021-05-27T04:26:45Z,LLM540,"65.627251,75.374687",17300,394,238
1622089636,2021-05-27T04:27:16Z,LLM540,"65.596756,75.256828",18350,395,237
1622089697,2021-05-27T04:28:17Z,LLM540,"65.53688,75.026894",20025,403,237
1622089759,2021-05-27T04:29:19Z,LLM540,"65.476776,74.798012",21525,410,237
1622089821,2021-05-27T04:30:21Z,LLM540,"65.411682,74.552994",22900,416,237
1622089884,2021-05-27T04:31:24Z,LLM540,"65.345421,74.306625",24100,422,237
1622089946,2021-05-27T04:32:26Z,LLM540,"65.278976,74.061806",25200,429,236
1622090006,2021-05-27T04:33:26Z,LLM540,"65.212799,73.822403",26275,432,236
1622090069,2021-05-27T04:34:29Z,LLM540,"65.145218,73.578514",27725,424,236
1622090132,2021-05-27T04:35:32Z,LLM540,"65.080681,73.347244",30400,388,236
1622090194,2021-05-27T04:36:34Z,LLM540,"65.01828,73.126099",31375,391,235
1622090255,2021-05-27T04:37:35Z,LLM540,"64.956207,72.909996",31925,401,235
1622090315,2021-05-27T04:38:35Z,LLM540,"64.890976,72.684227",32000,422,235
1622090377,2021-05-27T04:39:37Z,LLM540,"64.822319,72.448769",32000,444,235
1622090438,2021-05-27T04:40:38Z,LLM540,"64.751839,72.210388",32000,446,235
1622090499,2021-05-27T04:41:39Z,LLM540,"64.677887,71.964188",32000,448,234
1622090559,2021-05-27T04:42:39Z,LLM540,"64.606705,71.726662",32000,447,235
1622090620,2021-05-27T04:43:40Z,LLM540,"64.53434,71.488953",31975,448,234
1622090682,2021-05-27T04:44:42Z,LLM540,"64.460091,71.247711",32000,447,234
1622090743,2021-05-27T04:45:43Z,LLM540,"64.386124,71.011162",31975,450,234
1622090805,2021-05-27T04:46:45Z,LLM540,"64.310799,70.771408",32000,451,233
1622090867,2021-05-27T04:47:47Z,LLM540,"64.235046,70.532646",32025,450,233
1622090927,2021-05-27T04:48:47Z,LLM540,"64.160477,70.300247",32000,449,233
1622090990,2021-05-27T04:49:50Z,LLM540,"64.08316,70.061928",31975,451,233
1622091052,2021-05-27T04:50:52Z,LLM540,"64.005386,69.824875",32000,452,233
1622091114,2021-05-27T04:51:54Z,LLM540,"63.927429,69.590256",32025,451,232
1622091177,2021-05-27T04:52:57Z,LLM540,"63.848602,69.354897",32000,450,232
1622091239,2021-05-27T04:53:59Z,LLM540,"63.769867,69.122276",32000,450,232
1622091301,2021-05-27T04:55:01Z,LLM540,"63.691654,68.894058",31975,454,232
1622091363,2021-05-27T04:56:03Z,LLM540,"63.612656,68.665207",32025,454,231
1622091424,2021-05-27T04:57:04Z,LLM540,"63.532928,68.437218",32025,453,231
1622091487,2021-05-27T04:58:07Z,LLM540,"63.451771,68.206528",32000,452,231
1622091548,2021-05-27T04:59:08Z,LLM540,"63.372494,67.984276",32000,451,231
1622091609,2021-05-27T05:00:09Z,LLM540,"63.293587,67.764",32000,451,231
1622091671,2021-05-27T05:01:11Z,LLM540,"63.211746,67.53933",31975,451,231
1622091732,2021-05-27T05:02:12Z,LLM540,"63.132423,67.323265",32000,451,230
1622091793,2021-05-27T05:03:13Z,LLM540,"63.046207,67.113258",32000,456,222
1622091854,2021-05-27T05:04:14Z,LLM540,"62.949509,66.929321",32000,457,221
1622091916,2021-05-27T05:05:16Z,LLM540,"62.850735,66.741096",32000,458,220
1622091978,2021-05-27T05:06:18Z,LLM540,"62.751434,66.555275",32000,459,220
1622092040,2021-05-27T05:07:20Z,LLM540,"62.651817,66.370201",32000,459,220
1622092101,2021-05-27T05:08:21Z,LLM540,"62.553127,66.1884",32000,459,220
1622092163,2021-05-27T05:09:23Z,LLM540,"62.454803,66.003517",32025,455,224
1622092224,2021-05-27T05:10:24Z,LLM540,"62.365429,65.805252",32000,455,225
1622092287,2021-05-27T05:11:27Z,LLM540,"62.273067,65.601372",32000,456,225
1622092349,2021-05-27T05:12:29Z,LLM540,"62.180878,65.400391",32000,457,225
1622092409,2021-05-27T05:13:29Z,LLM540,"62.09156,65.206909",32000,458,225
1622092471,2021-05-27T05:14:31Z,LLM540,"62.000179,65.010582",32000,459,225
1622092532,2021-05-27T05:15:32Z,LLM540,"61.907181,64.816978",32000,462,222
1622092594,2021-05-27T05:16:34Z,LLM540,"61.809265,64.631294",32000,463,221
1622092655,2021-05-27T05:17:35Z,LLM540,"61.712578,64.447937",32000,463,222
1622092716,2021-05-27T05:18:36Z,LLM540,"61.614761,64.262466",32000,463,222
1622092780,2021-05-27T05:19:40Z,LLM540,"61.512775,64.070839",32000,464,221
1622092841,2021-05-27T05:20:41Z,LLM540,"61.415203,63.890179",31975,466,221
1622092901,2021-05-27T05:21:41Z,LLM540,"61.308647,63.730976",32025,475,210
1622092963,2021-05-27T05:22:43Z,LLM540,"61.182678,63.612019",32000,491,198
1622093027,2021-05-27T05:23:47Z,LLM540,"61.040497,63.535545",32000,498,193
1622093088,2021-05-27T05:24:48Z,LLM540,"60.905136,63.468964",31975,500,193
1622093135,2021-05-27T05:25:35Z,LLM540,"60.801228,63.410046",31975,491,204
1622093136,2021-05-27T05:25:36Z,LLM540,"60.799271,63.40818",31975,489,204
1622093137,2021-05-27T05:25:37Z,LLM540,"60.797104,63.405983",31975,489,205
1622093138,2021-05-27T05:25:38Z,LLM540,"60.794998,63.403805",31975,488,206
1622093139,2021-05-27T05:25:39Z,LLM540,"60.792801,63.40134",31975,487,207
1622093140,2021-05-27T05:25:40Z,LLM540,"60.79089,63.399353",31975,488,206
1622093142,2021-05-27T05:25:42Z,LLM540,"60.785957,63.393566",31975,487,207
1622093144,2021-05-27T05:25:44Z,LLM540,"60.783443,63.390427",31975,482,210
1622093148,2021-05-27T05:25:48Z,LLM540,"60.77623,63.380978",32000,479,213
1622093151,2021-05-27T05:25:51Z,LLM540,"60.770828,63.373306",32000,476,215
1622093154,2021-05-27T05:25:54Z,LLM540,"60.76561,63.365353",32000,474,216
1622093155,2021-05-27T05:25:55Z,LLM540,"60.762959,63.361",32000,472,218
1622093157,2021-05-27T05:25:57Z,LLM540,"60.7603,63.35664",32000,470,218
1622093159,2021-05-27T05:25:59Z,LLM540,"60.756683,63.350388",32000,469,219
1622093161,2021-05-27T05:26:01Z,LLM540,"60.753342,63.344231",32000,467,221
1622093163,2021-05-27T05:26:03Z,LLM540,"60.750824,63.339497",32000,466,222
1622093164,2021-05-27T05:26:04Z,LLM540,"60.748482,63.334908",32025,464,223
1622093166,2021-05-27T05:26:06Z,LLM540,"60.745411,63.328728",32025,461,224
1622093167,2021-05-27T05:26:07Z,LLM540,"60.744759,63.327354",32025,461,224
1622093168,2021-05-27T05:26:08Z,LLM540,"60.74263,63.322826",32025,461,225
1622093170,2021-05-27T05:26:10Z,LLM540,"60.739609,63.316292",32025,459,226
1622093172,2021-05-27T05:26:12Z,LLM540,"60.736588,63.309662",32025,458,226
1622093173,2021-05-27T05:26:13Z,LLM540,"60.735764,63.307865",32025,458,226
1622093174,2021-05-27T05:26:14Z,LLM540,"60.734344,63.304737",32025,457,226
1622093182,2021-05-27T05:26:22Z,LLM540,"60.722855,63.27964",32050,457,227
1622093243,2021-05-27T05:27:23Z,LLM540,"60.633778,63.091049",32000,459,226
1622093305,2021-05-27T05:28:25Z,LLM540,"60.540627,62.894863",32000,463,225
1622093367,2021-05-27T05:29:27Z,LLM540,"60.448654,62.702667",32000,466,225
1622093428,2021-05-27T05:30:28Z,LLM540,"60.357239,62.514576",32000,468,225
1622093493,2021-05-27T05:31:33Z,LLM540,"60.257729,62.312294",32000,467,225
1622093555,2021-05-27T05:32:35Z,LLM540,"60.164391,62.123665",32025,466,225
1622093619,2021-05-27T05:33:39Z,LLM540,"60.066696,61.928417",32000,466,224
1622093679,2021-05-27T05:34:39Z,LLM540,"59.974319,61.745247",32000,465,224
1622093742,2021-05-27T05:35:42Z,LLM540,"59.879074,61.557438",31975,465,224
1622093803,2021-05-27T05:36:43Z,LLM540,"59.785271,61.37484",32000,465,224
1622093863,2021-05-27T05:37:43Z,LLM540,"59.692841,61.196411",32000,460,224
1622093925,2021-05-27T05:38:45Z,LLM540,"59.599525,61.017307",32000,446,224
1622093986,2021-05-27T05:39:46Z,LLM540,"59.509598,60.845398",32000,446,224
1622094050,2021-05-27T05:40:50Z,LLM540,"59.414429,60.665863",32000,445,223
1622094111,2021-05-27T05:41:51Z,LLM540,"59.325211,60.49823",31975,444,223
1622094174,2021-05-27T05:42:54Z,LLM540,"59.231644,60.32428",32000,446,223
1622094235,2021-05-27T05:43:55Z,LLM540,"59.138798,60.152702",32000,458,223
1622094296,2021-05-27T05:44:56Z,LLM540,"59.044857,59.981186",32000,459,223
1622094357,2021-05-27T05:45:57Z,LLM540,"58.949703,59.808624",32000,457,223
1622094419,2021-05-27T05:46:59Z,LLM540,"58.855015,59.638241",32025,455,222
1622094480,2021-05-27T05:48:00Z,LLM540,"58.761795,59.471474",31975,453,222
1622094541,2021-05-27T05:49:01Z,LLM540,"58.667313,59.303932",31975,452,222
1622094602,2021-05-27T05:50:02Z,LLM540,"58.573654,59.138607",32000,452,222
1622094665,2021-05-27T05:51:05Z,LLM540,"58.477013,58.970215",32000,453,222
1622094725,2021-05-27T05:52:05Z,LLM540,"58.383408,58.808132",32000,453,222
1622094788,2021-05-27T05:53:08Z,LLM540,"58.286613,58.641632",32025,452,222
1622094849,2021-05-27T05:54:09Z,LLM540,"58.191788,58.480042",32000,451,221
1622094910,2021-05-27T05:55:10Z,LLM540,"58.097145,58.319916",32000,451,221
1622094937,2021-05-27T05:55:37Z,LLM540,"58.057438,58.244659",32000,439,231
1622094938,2021-05-27T05:55:38Z,LLM540,"58.05674,58.24292",32000,439,231
1622094941,2021-05-27T05:55:41Z,LLM540,"58.053726,58.235157",32000,437,233
1622094942,2021-05-27T05:55:42Z,LLM540,"58.051941,58.230461",32000,436,234
1622094944,2021-05-27T05:55:44Z,LLM540,"58.049942,58.224976",32000,436,235
1622094945,2021-05-27T05:55:45Z,LLM540,"58.048782,58.221779",32000,435,235
1622094946,2021-05-27T05:55:46Z,LLM540,"58.047195,58.217285",32000,435,235
1622094947,2021-05-27T05:55:47Z,LLM540,"58.046124,58.214355",32000,435,236
1622094948,2021-05-27T05:55:48Z,LLM540,"58.045658,58.212982",32000,435,236
1622094950,2021-05-27T05:55:50Z,LLM540,"58.043007,58.205475",32000,434,236
1622094951,2021-05-27T05:55:51Z,LLM540,"58.041779,58.20211",32000,435,236
1622094953,2021-05-27T05:55:53Z,LLM540,"58.03933,58.195129",32000,435,236
1622095015,2021-05-27T05:56:55Z,LLM540,"57.972565,58.00985",32025,391,235
1622095076,2021-05-27T05:57:56Z,LLM540,"57.908844,57.83593",32000,411,235
1622095138,2021-05-27T05:58:58Z,LLM540,"57.839218,57.648186",32000,435,235
1622095199,2021-05-27T05:59:59Z,LLM540,"57.769325,57.461426",32000,434,234
1622095260,2021-05-27T06:01:00Z,LLM540,"57.698776,57.274559",32000,432,234
1622095323,2021-05-27T06:02:03Z,LLM540,"57.626827,57.084785",31975,431,234
1622095385,2021-05-27T06:03:05Z,LLM540,"57.555359,56.897766",32000,433,234
1622095447,2021-05-27T06:04:07Z,LLM540,"57.4823,56.708336",32000,436,234
1622095508,2021-05-27T06:05:08Z,LLM540,"57.41106,56.525188",32000,437,234
1622095569,2021-05-27T06:06:09Z,LLM540,"57.337692,56.337803",32025,438,233
1622095631,2021-05-27T06:07:11Z,LLM540,"57.264496,56.152325",32025,437,233
1622095692,2021-05-27T06:08:12Z,LLM540,"57.19138,55.968342",32000,437,233
1622095756,2021-05-27T06:09:16Z,LLM540,"57.115406,55.77874",32000,436,233
1622095816,2021-05-27T06:10:16Z,LLM540,"57.043621,55.601097",32000,434,233
1622095878,2021-05-27T06:11:18Z,LLM540,"56.968861,55.417255",31975,435,233
1622095941,2021-05-27T06:12:21Z,LLM540,"56.893211,55.232967",32000,437,232
1622096003,2021-05-27T06:13:23Z,LLM540,"56.81749,55.049484",32025,439,232
1622096064,2021-05-27T06:14:24Z,LLM540,"56.742462,54.86924",32000,437,232
1622096125,2021-05-27T06:15:25Z,LLM540,"56.6679,54.691536",32000,437,232
1622096186,2021-05-27T06:16:26Z,LLM540,"56.592949,54.513988",31975,437,232
1622096248,2021-05-27T06:17:28Z,LLM540,"56.517349,54.334946",32000,437,234
1622096309,2021-05-27T06:18:29Z,LLM540,"56.459347,54.143543",32025,430,246
1622096370,2021-05-27T06:19:30Z,LLM540,"56.409393,53.942539",32000,431,245
1622096430,2021-05-27T06:20:30Z,LLM540,"56.359818,53.744286",32000,431,245
1622096492,2021-05-27T06:21:32Z,LLM540,"56.309307,53.544273",32000,431,245
1622096554,2021-05-27T06:22:34Z,LLM540,"56.256889,53.342316",32000,433,244
1622096615,2021-05-27T06:23:35Z,LLM540,"56.205139,53.1437",32000,435,244
1622096676,2021-05-27T06:24:36Z,LLM540,"56.153,52.945614",32000,436,244
1622096737,2021-05-27T06:25:37Z,LLM540,"56.100449,52.747276",32000,436,244
1622096798,2021-05-27T06:26:38Z,LLM540,"56.047119,52.548355",32000,437,244
1622096859,2021-05-27T06:27:39Z,LLM540,"55.993927,52.348522",32000,436,244
1622096921,2021-05-27T06:28:41Z,LLM540,"55.940414,52.149937",32000,436,244
1622096982,2021-05-27T06:29:42Z,LLM540,"55.886845,51.952888",32000,439,244
1622097043,2021-05-27T06:30:43Z,LLM540,"55.831867,51.752731",32000,440,243
1622097104,2021-05-27T06:31:44Z,LLM540,"55.77,51.56356",32025,443,233
1622097165,2021-05-27T06:32:45Z,LLM540,"55.685459,51.400826",32000,447,221
1622097226,2021-05-27T06:33:46Z,LLM540,"55.58194,51.273693",32000,452,208
1622097286,2021-05-27T06:34:46Z,LLM540,"55.466904,51.176979",32000,454,205
1622097347,2021-05-27T06:35:47Z,LLM540,"55.351028,51.081432",32000,454,204
1622097409,2021-05-27T06:36:49Z,LLM540,"55.233948,50.986336",32000,454,204
1622097470,2021-05-27T06:37:50Z,LLM540,"55.117172,50.891743",32000,455,204
1622097531,2021-05-27T06:38:51Z,LLM540,"55.001953,50.799084",32000,455,204
1622097591,2021-05-27T06:39:51Z,LLM540,"54.88623,50.706429",32000,456,204
1622097653,2021-05-27T06:40:53Z,LLM540,"54.768616,50.61285",32025,456,204
1622097713,2021-05-27T06:41:53Z,LLM540,"54.652607,50.521214",32000,456,204
1622097728,2021-05-27T06:42:08Z,LLM540,"54.625374,50.494747",32000,455,214
1622097729,2021-05-27T06:42:09Z,LLM540,"54.624435,50.493649",32000,455,214
1622097730,2021-05-27T06:42:10Z,LLM540,"54.621918,50.490498",32000,455,215
1622097731,2021-05-27T06:42:11Z,LLM540,"54.620956,50.489288",32000,455,215
1622097732,2021-05-27T06:42:12Z,LLM540,"54.61853,50.486053",32000,456,217
1622097733,2021-05-27T06:42:13Z,LLM540,"54.617798,50.485168",32000,456,217
1622097734,2021-05-27T06:42:14Z,LLM540,"54.615234,50.481533",32000,456,218
1622097736,2021-05-27T06:42:16Z,LLM540,"54.613037,50.478432",32000,456,219
1622097737,2021-05-27T06:42:17Z,LLM540,"54.611435,50.47612",32000,455,220
1622097739,2021-05-27T06:42:19Z,LLM540,"54.608276,50.471191",32000,455,220
1622097740,2021-05-27T06:42:20Z,LLM540,"54.605309,50.466366",32000,455,223
1622097741,2021-05-27T06:42:21Z,LLM540,"54.604752,50.465366",32000,455,223
1622097742,2021-05-27T06:42:22Z,LLM540,"54.602509,50.461578",32000,455,223
1622097744,2021-05-27T06:42:24Z,LLM540,"54.60054,50.458023",32000,455,225
1622097746,2021-05-27T06:42:26Z,LLM540,"54.597839,50.453094",32000,454,226
1622097747,2021-05-27T06:42:27Z,LLM540,"54.596233,50.45005",32000,454,227
1622097748,2021-05-27T06:42:28Z,LLM540,"54.594929,50.447556",32000,454,227
1622097749,2021-05-27T06:42:29Z,LLM540,"54.593487,50.444809",32025,454,227
1622097751,2021-05-27T06:42:31Z,LLM540,"54.590195,50.438393",32025,454,228
1622097752,2021-05-27T06:42:32Z,LLM540,"54.589436,50.436985",32025,454,228
1622097754,2021-05-27T06:42:34Z,LLM540,"54.586716,50.43177",32025,454,228
1622097757,2021-05-27T06:42:37Z,LLM540,"54.582546,50.423668",32025,454,228
1622097818,2021-05-27T06:43:38Z,LLM540,"54.496284,50.261452",32000,452,227
1622097878,2021-05-27T06:44:38Z,LLM540,"54.40979,50.101776",31975,452,226
1622097939,2021-05-27T06:45:39Z,LLM540,"54.322739,49.942764",31975,453,226
1622098001,2021-05-27T06:46:41Z,LLM540,"54.234055,49.781719",32000,454,226
1622098063,2021-05-27T06:47:43Z,LLM540,"54.145744,49.622498",32000,454,226
1622098124,2021-05-27T06:48:44Z,LLM540,"54.057762,49.464489",32000,455,226
1622098186,2021-05-27T06:49:46Z,LLM540,"53.967682,49.304218",32025,454,226
1622098248,2021-05-27T06:50:48Z,LLM540,"53.877502,49.144672",32000,454,226
1622098309,2021-05-27T06:51:49Z,LLM540,"53.789154,48.989529",32000,453,226
1622098370,2021-05-27T06:52:50Z,LLM540,"53.700256,48.834621",32000,455,225
1622098434,2021-05-27T06:53:54Z,LLM540,"53.606094,48.671162",32000,455,225
1622098495,2021-05-27T06:54:55Z,LLM540,"53.516033,48.515949",32025,455,225
1622098557,2021-05-27T06:55:57Z,LLM540,"53.42577,48.361736",32000,453,225
1622098618,2021-05-27T06:56:58Z,LLM540,"53.335922,48.20895",32000,453,225
1622098678,2021-05-27T06:57:58Z,LLM540,"53.247162,48.058907",32000,451,225
1622098740,2021-05-27T06:59:00Z,LLM540,"53.15744,47.908066",31975,451,225
1622098800,2021-05-27T07:00:00Z,LLM540,"53.067829,47.758667",32000,451,225
1622098863,2021-05-27T07:01:03Z,LLM540,"52.975708,47.603607",32025,450,228
1622098926,2021-05-27T07:02:06Z,LLM540,"52.901592,47.428135",32000,449,241
1622098989,2021-05-27T07:03:09Z,LLM540,"52.84396,47.235012",32000,449,238
1622099049,2021-05-27T07:04:09Z,LLM540,"52.76263,47.079556",32000,448,220
1622099111,2021-05-27T07:05:11Z,LLM540,"52.653748,46.965847",32000,449,207
1622099176,2021-05-27T07:06:16Z,LLM540,"52.535248,46.863098",32000,447,207
1622099238,2021-05-27T07:07:18Z,LLM540,"52.421822,46.765659",31975,449,207
1622099299,2021-05-27T07:08:19Z,LLM540,"52.309353,46.669609",32000,449,207
1622099364,2021-05-27T07:09:24Z,LLM540,"52.19046,46.568611",32025,448,207
1622099429,2021-05-27T07:10:29Z,LLM540,"52.070259,46.467304",32000,449,207
1622099494,2021-05-27T07:11:34Z,LLM540,"51.950958,46.367111",32000,449,207
1622099558,2021-05-27T07:12:38Z,LLM540,"51.832706,46.268463",32000,449,207
1622099619,2021-05-27T07:13:39Z,LLM540,"51.721073,46.175919",32000,450,207
1622099682,2021-05-27T07:14:42Z,LLM540,"51.604431,46.079853",32000,451,207
1622099743,2021-05-27T07:15:43Z,LLM540,"51.490406,45.988998",32000,452,205
1622099804,2021-05-27T07:16:44Z,LLM540,"51.375183,45.902588",32000,453,205
1622099865,2021-05-27T07:17:45Z,LLM540,"51.258682,45.814323",32000,454,205
1622099926,2021-05-27T07:18:46Z,LLM540,"51.142662,45.727234",32025,453,205
1622099992,2021-05-27T07:19:52Z,LLM540,"51.02153,45.627441",32000,453,212
1622100054,2021-05-27T07:20:54Z,LLM540,"50.917923,45.502476",32000,453,218
1622100116,2021-05-27T07:21:56Z,LLM540,"50.814743,45.377247",32000,452,216
1622100177,2021-05-27T07:22:57Z,LLM540,"50.712193,45.260315",32000,451,216
1622100238,2021-05-27T07:23:58Z,LLM540,"50.610214,45.142967",32000,451,216
1622100299,2021-05-27T07:24:59Z,LLM540,"50.505341,45.023056",32000,452,216
1622100362,2021-05-27T07:26:02Z,LLM540,"50.399185,44.902134",32025,451,215
1622100423,2021-05-27T07:27:03Z,LLM540,"50.297928,44.78743",32025,448,216
1622100486,2021-05-27T07:28:06Z,LLM540,"50.191879,44.667961",32000,448,215
1622100546,2021-05-27T07:29:06Z,LLM540,"50.089783,44.55368",31975,448,215
1622100607,2021-05-27T07:30:07Z,LLM540,"49.986557,44.438759",31975,450,215
1622100671,2021-05-27T07:31:11Z,LLM540,"49.88031,44.321014",32000,453,215
1622100737,2021-05-27T07:32:17Z,LLM540,"49.767288,44.19648",32175,454,215
1622100797,2021-05-27T07:33:17Z,LLM540,"49.66333,44.082787",33000,453,215
1622100860,2021-05-27T07:34:20Z,LLM540,"49.555836,43.965652",33000,455,215
1622100921,2021-05-27T07:35:21Z,LLM540,"49.448868,43.858795",33000,455,211
1622100982,2021-05-27T07:36:22Z,LLM540,"49.338993,43.754208",33000,455,213
1622101043,2021-05-27T07:37:23Z,LLM540,"49.24184,43.627865",33000,457,226
1622101105,2021-05-27T07:38:25Z,LLM540,"49.162048,43.471382",33000,459,234
1622101166,2021-05-27T07:39:26Z,LLM540,"49.086262,43.31049",33000,459,234
1622101226,2021-05-27T07:40:26Z,LLM540,"49.010925,43.150986",33000,459,234
1622101287,2021-05-27T07:41:27Z,LLM540,"48.935108,42.991669",33000,460,234
1622101350,2021-05-27T07:42:30Z,LLM540,"48.857254,42.829075",33000,461,233
1622101411,2021-05-27T07:43:31Z,LLM540,"48.780182,42.669163",33000,462,233
1622101472,2021-05-27T07:44:32Z,LLM540,"48.702251,42.511379",33000,462,232
1622101535,2021-05-27T07:45:35Z,LLM540,"48.620552,42.348682",33000,462,232
1622101599,2021-05-27T07:46:39Z,LLM540,"48.538483,42.185764",33000,463,232
1622101661,2021-05-27T07:47:41Z,LLM540,"48.457169,42.025803",33000,464,232
1622101725,2021-05-27T07:48:45Z,LLM540,"48.373688,41.86232",33000,464,232
1622101786,2021-05-27T07:49:46Z,LLM540,"48.292877,41.709736",33000,464,229
1622101849,2021-05-27T07:50:49Z,LLM540,"48.204609,41.555569",33000,463,229
1622101909,2021-05-27T07:51:49Z,LLM540,"48.120758,41.406921",33000,464,229
1622101971,2021-05-27T07:52:51Z,LLM540,"48.034836,41.255722",33000,464,229
1622102033,2021-05-27T07:53:53Z,LLM540,"47.949692,41.10672",33000,465,229
1622102094,2021-05-27T07:54:54Z,LLM540,"47.86441,40.95813",33000,465,229
1622102154,2021-05-27T07:55:54Z,LLM540,"47.779121,40.810616",33000,465,229
1622102216,2021-05-27T07:56:56Z,LLM540,"47.693558,40.663147",33025,465,229
1622102278,2021-05-27T07:57:58Z,LLM540,"47.6059,40.512932",33000,464,229
1622102340,2021-05-27T07:59:00Z,LLM540,"47.518341,40.363907",33000,462,229
1622102402,2021-05-27T08:00:02Z,LLM540,"47.431934,40.217216",33000,461,228
1622102463,2021-05-27T08:01:03Z,LLM540,"47.345947,40.072357",33000,460,228
1622102526,2021-05-27T08:02:06Z,LLM540,"47.2589,39.926571",33000,459,228
1622102587,2021-05-27T08:03:07Z,LLM540,"47.174686,39.781494",33000,459,232
1622102649,2021-05-27T08:04:09Z,LLM540,"47.094059,39.629868",33000,458,231
1622102711,2021-05-27T08:05:11Z,LLM540,"47.012787,39.478409",33000,457,231
1622102772,2021-05-27T08:06:12Z,LLM540,"46.93364,39.331478",32975,457,231
1622102833,2021-05-27T08:07:13Z,LLM540,"46.853851,39.184483",33000,456,231
1622102894,2021-05-27T08:08:14Z,LLM540,"46.773788,39.037975",33000,451,231
1622103018,2021-05-27T08:10:18Z,LLM540,"46.643547,38.800701",33000,450,231
1622103082,2021-05-27T08:11:22Z,LLM540,"46.559875,38.650352",32975,450,231
1622103142,2021-05-27T08:12:22Z,LLM540,"46.475105,38.513691",33023,457,228
1622103206,2021-05-27T08:13:26Z,LLM540,"46.384144,38.36861",33000,458,228
1622103270,2021-05-27T08:14:30Z,LLM540,"46.292858,38.220516",33000,458,228
1622103334,2021-05-27T08:15:34Z,LLM540,"46.202698,38.075272",33000,452,228
1622103398,2021-05-27T08:16:38Z,LLM540,"46.112404,37.931633",32999,458,228
1622103458,2021-05-27T08:17:38Z,LLM540,"46.026707,37.797031",33015,458,228
1622103518,2021-05-27T08:18:38Z,LLM540,"45.940147,37.660931",33025,458,228
1622103582,2021-05-27T08:19:42Z,LLM540,"45.848927,37.517754",33000,458,228
1622103646,2021-05-27T08:20:46Z,LLM540,"45.757187,37.375374",33000,458,228
1622103710,2021-05-27T08:21:50Z,LLM540,"45.670757,37.2257",33000,458,232
1622103774,2021-05-27T08:22:54Z,LLM540,"45.588482,37.073093",33049,458,232
1622103834,2021-05-27T08:23:54Z,LLM540,"45.510818,36.93224",33000,450,232
1622103898,2021-05-27T08:24:58Z,LLM540,"45.433643,36.779198",32974,450,239
1622103914,2021-05-27T08:25:14Z,LLM540,"45.419205,36.737022",33000,446,245
1622103922,2021-05-27T08:25:22Z,LLM540,"45.413307,36.715462",32999,443,248
1622103930,2021-05-27T08:25:30Z,LLM540,"45.407436,36.692181",33000,441,250
1622103938,2021-05-27T08:25:38Z,LLM540,"45.402843,36.670876",33000,440,252
1622104002,2021-05-27T08:26:42Z,LLM540,"45.367126,36.492428",32760,440,254
1622104062,2021-05-27T08:27:42Z,LLM540,"45.329914,36.32822",31212,440,252
1622104126,2021-05-27T08:28:46Z,LLM540,"45.287155,36.152725",29412,433,251
1622104190,2021-05-27T08:29:50Z,LLM540,"45.246841,35.987003",27625,412,251
1622104254,2021-05-27T08:30:54Z,LLM540,"45.207218,35.825279",25825,402,251
1622104316,2021-05-27T08:31:56Z,LLM540,"45.154785,35.61982",23475,384,251
1622104380,2021-05-27T08:33:00Z,LLM540,"45.119843,35.467464",21700,381,251
1622104442,2021-05-27T08:34:02Z,LLM540,"45.082947,35.321896",19850,375,249
1622104505,2021-05-27T08:35:05Z,LLM540,"45.0466,35.18084",17975,363,250
1622104537,2021-05-27T08:35:37Z,LLM540,"45.028244,35.10923",16975,359,250
1622104570,2021-05-27T08:36:10Z,LLM540,"45.009777,35.036739",15925,354,250
1622104601,2021-05-27T08:36:41Z,LLM540,"44.992676,34.969746",14975,350,250
1622104632,2021-05-27T08:37:12Z,LLM540,"44.975979,34.904568",14050,346,250
1622104663,2021-05-27T08:37:43Z,LLM540,"44.959034,34.838318",13175,341,250
1622104695,2021-05-27T08:38:15Z,LLM540,"44.941772,34.771206",12375,333,250
1622104726,2021-05-27T08:38:46Z,LLM540,"44.925797,34.709736",11750,321,249
1622104740,2021-05-27T08:39:00Z,LLM540,"44.918858,34.683033",11475,317,249
1622104751,2021-05-27T08:39:11Z,LLM540,"44.91346,34.662201",11250,314,249
1622104764,2021-05-27T08:39:24Z,LLM540,"44.906849,34.636612",11000,309,250
1622104776,2021-05-27T08:39:36Z,LLM540,"44.901169,34.614704",10775,305,249
1622104787,2021-05-27T08:39:47Z,LLM540,"44.895767,34.593987",10575,303,249
1622104797,2021-05-27T08:39:57Z,LLM540,"44.890743,34.574844",10375,305,249
1622104809,2021-05-27T08:40:09Z,LLM540,"44.885017,34.552872",10150,307,250
1622104820,2021-05-27T08:40:20Z,LLM540,"44.879654,34.532124",9975,306,250
1622104831,2021-05-27T08:40:31Z,LLM540,"44.874435,34.511784",9925,307,250
1622104844,2021-05-27T08:40:44Z,LLM540,"44.86779,34.486351",9925,310,249
1622104855,2021-05-27T08:40:55Z,LLM540,"44.862579,34.466465",9925,310,249
1622104867,2021-05-27T08:41:07Z,LLM540,"44.856491,34.443184",9925,311,249
1622104877,2021-05-27T08:41:17Z,LLM540,"44.851406,34.423851",9925,310,249
1622104889,2021-05-27T08:41:29Z,LLM540,"44.845596,34.401791",9925,311,249
1622104901,2021-05-27T08:41:41Z,LLM540,"44.839722,34.37957",9925,311,249
1622104911,2021-05-27T08:41:51Z,LLM540,"44.834473,34.359348",9925,309,249
1622104922,2021-05-27T08:42:02Z,LLM540,"44.82906,34.338707",9925,309,249
1622104935,2021-05-27T08:42:15Z,LLM540,"44.822914,34.31506",9900,308,250
1622104944,2021-05-27T08:42:24Z,LLM540,"44.820053,34.297749",9775,306,261
1622104946,2021-05-27T08:42:26Z,LLM540,"44.819748,34.293823",9725,306,262
1622104947,2021-05-27T08:42:27Z,LLM540,"44.819595,34.290882",9700,305,264
1622104948,2021-05-27T08:42:28Z,LLM540,"44.819469,34.288532",9675,303,265
1622104949,2021-05-27T08:42:29Z,LLM540,"44.819412,34.287479",9650,303,265
1622104950,2021-05-27T08:42:30Z,LLM540,"44.819275,34.284473",9625,302,266
1622104952,2021-05-27T08:42:32Z,LLM540,"44.819237,34.282501",9600,301,267
1622104954,2021-05-27T08:42:34Z,LLM540,"44.819092,34.277344",9525,300,268
1622104955,2021-05-27T08:42:35Z,LLM540,"44.819099,34.276405",9525,300,268
1622104956,2021-05-27T08:42:36Z,LLM540,"44.819092,34.274139",9475,299,269
1622104957,2021-05-27T08:42:37Z,LLM540,"44.819138,34.27113",9450,298,270
1622104958,2021-05-27T08:42:38Z,LLM540,"44.819138,34.27002",9425,298,270
1622104959,2021-05-27T08:42:39Z,LLM540,"44.819183,34.268059",9400,297,270
1622104960,2021-05-27T08:42:40Z,LLM540,"44.819191,34.266891",9375,296,271
1622104961,2021-05-27T08:42:41Z,LLM540,"44.819237,34.26495",9350,296,272
1622104962,2021-05-27T08:42:42Z,LLM540,"44.819366,34.262173",9300,295,272
1622104963,2021-05-27T08:42:43Z,LLM540,"44.819469,34.259724",9250,295,273
1622104974,2021-05-27T08:42:54Z,LLM540,"44.820728,34.238556",8850,292,274
1622104986,2021-05-27T08:43:06Z,LLM540,"44.821983,34.216717",8325,293,274
1622104996,2021-05-27T08:43:16Z,LLM540,"44.823009,34.196957",7925,293,274
1622105008,2021-05-27T08:43:28Z,LLM540,"44.824036,34.17585",7725,284,273
1622105019,2021-05-27T08:43:39Z,LLM540,"44.824951,34.155449",7575,272,273
1622105030,2021-05-27T08:43:50Z,LLM540,"44.825775,34.136745",7425,263,273
1622105040,2021-05-27T08:44:00Z,LLM540,"44.826599,34.119022",7225,256,273
1622105052,2021-05-27T08:44:12Z,LLM540,"44.827477,34.100422",7025,248,273
1622105064,2021-05-27T08:44:24Z,LLM540,"44.828476,34.081226",6825,243,274
1622105076,2021-05-27T08:44:36Z,LLM540,"44.829437,34.062588",6575,243,274
1622105088,2021-05-27T08:44:48Z,LLM540,"44.830364,34.043415",6350,242,274
1622105101,2021-05-27T08:45:01Z,LLM540,"44.831387,34.023052",6050,242,273
1622105112,2021-05-27T08:45:12Z,LLM540,"44.832317,34.005501",5775,239,274
1622105123,2021-05-27T08:45:23Z,LLM540,"44.833248,33.988148",5500,236,274
1622105135,2021-05-27T08:45:35Z,LLM540,"44.834198,33.970772",5275,231,274
1622105146,2021-05-27T08:45:46Z,LLM540,"44.835068,33.954357",5150,224,274
1622105157,2021-05-27T08:45:57Z,LLM540,"44.835857,33.938644",4950,221,274
1622105162,2021-05-27T08:46:02Z,LLM540,"44.836533,33.931667",4825,222,279
1622105163,2021-05-27T08:46:03Z,LLM540,"44.836853,33.929443",4800,222,282
1622105165,2021-05-27T08:46:05Z,LLM540,"44.837299,33.927589",4750,221,284
1622105168,2021-05-27T08:46:08Z,LLM540,"44.838509,33.923435",4675,220,294
1622105169,2021-05-27T08:46:09Z,LLM540,"44.839024,33.922031",4650,220,297
1622105170,2021-05-27T08:46:10Z,LLM540,"44.8396,33.920616",4625,220,300
1622105172,2021-05-27T08:46:12Z,LLM540,"44.84079,33.918194",4575,219,305
1622105175,2021-05-27T08:46:15Z,LLM540,"44.842987,33.914795",4475,220,308
1622105178,2021-05-27T08:46:18Z,LLM540,"44.845322,33.912113",4400,217,321
1622105181,2021-05-27T08:46:21Z,LLM540,"44.847961,33.909904",4350,218,330
1622105182,2021-05-27T08:46:22Z,LLM540,"44.848846,33.909237",4325,217,332
1622105183,2021-05-27T08:46:23Z,LLM540,"44.849396,33.908909",4325,217,334
1622105184,2021-05-27T08:46:24Z,LLM540,"44.8508,33.908161",4275,218,337
1622105185,2021-05-27T08:46:25Z,LLM540,"44.851826,33.907696",4250,218,340
1622105187,2021-05-27T08:46:27Z,LLM540,"44.853687,33.907089",4200,218,345
1622105188,2021-05-27T08:46:28Z,LLM540,"44.854706,33.906818",4175,218,348
1622105191,2021-05-27T08:46:31Z,LLM540,"44.857735,33.906555",4075,218,356
1622105193,2021-05-27T08:46:33Z,LLM540,"44.859787,33.906685",4025,217,2
1622105194,2021-05-27T08:46:34Z,LLM540,"44.860764,33.906822",4000,216,5
1622105197,2021-05-27T08:46:37Z,LLM540,"44.863743,33.907696",3925,216,13
1622105199,2021-05-27T08:46:39Z,LLM540,"44.865326,33.908257",3900,216,13
1622105200,2021-05-27T08:46:40Z,LLM540,"44.86615,33.908581",3875,217,15
1622105201,2021-05-27T08:46:41Z,LLM540,"44.866974,33.908974",3850,217,16
1622105203,2021-05-27T08:46:43Z,LLM540,"44.868908,33.909836",3800,217,18
1622105204,2021-05-27T08:46:44Z,LLM540,"44.870453,33.91061",3775,216,18
1622105205,2021-05-27T08:46:45Z,LLM540,"44.870865,33.910805",3750,216,18
1622105206,2021-05-27T08:46:46Z,LLM540,"44.871918,33.911263",3725,217,17
1622105207,2021-05-27T08:46:47Z,LLM540,"44.872913,33.911648",3700,217,17
1622105209,2021-05-27T08:46:49Z,LLM540,"44.874893,33.912506",3675,217,16
1622105210,2021-05-27T08:46:50Z,LLM540,"44.875763,33.912834",3650,217,16
1622105211,2021-05-27T08:46:51Z,LLM540,"44.876728,33.913189",3625,217,15
1622105213,2021-05-27T08:46:53Z,LLM540,"44.878647,33.913944",3600,216,15
1622105215,2021-05-27T08:46:55Z,LLM540,"44.880642,33.914661",3550,215,15
1622105216,2021-05-27T08:46:56Z,LLM540,"44.881756,33.915062",3525,215,14
1622105221,2021-05-27T08:47:01Z,LLM540,"44.886749,33.916954",3450,211,14
1622105227,2021-05-27T08:47:07Z,LLM540,"44.892464,33.919083",3350,207,14
1622105234,2021-05-27T08:47:14Z,LLM540,"44.898651,33.921333",3250,206,14
1622105240,2021-05-27T08:47:20Z,LLM540,"44.903915,33.923164",3125,209,13
1622105246,2021-05-27T08:47:26Z,LLM540,"44.910004,33.925323",3000,210,14
1622105252,2021-05-27T08:47:32Z,LLM540,"44.91518,33.92712",2875,210,13
1622105257,2021-05-27T08:47:37Z,LLM540,"44.92067,33.928986",2775,206,13
1622105262,2021-05-27T08:47:42Z,LLM540,"44.924911,33.930405",2700,205,13
1622105270,2021-05-27T08:47:50Z,LLM540,"44.932297,33.932911",2575,204,13
1622105276,2021-05-27T08:47:56Z,LLM540,"44.937851,33.934826",2425,206,14
1622105282,2021-05-27T08:48:02Z,LLM540,"44.943531,33.936768",2350,201,13
1622105289,2021-05-27T08:48:09Z,LLM540,"44.949097,33.938663",2225,198,13
1622105296,2021-05-27T08:48:16Z,LLM540,"44.955368,33.940758",2050,194,13
1622105304,2021-05-27T08:48:24Z,LLM540,"44.962524,33.943199",1925,183,13
1622105312,2021-05-27T08:48:32Z,LLM540,"44.968414,33.945202",1825,172,13
1622105317,2021-05-27T08:48:37Z,LLM540,"44.9729,33.946709",1800,166,13
1622105325,2021-05-27T08:48:45Z,LLM540,"44.978352,33.948559",1725,158,13
1622105331,2021-05-27T08:48:51Z,LLM540,"44.982731,33.950031",1650,153,13
1622105337,2021-05-27T08:48:57Z,LLM540,"44.986908,33.951546",1500,152,14
1622105347,2021-05-27T08:49:07Z,LLM540,"44.993252,33.953716",1350,149,13
1622105353,2021-05-27T08:49:13Z,LLM540,"44.997253,33.955055",1275,146,13
1622105361,2021-05-27T08:49:21Z,LLM540,"45.002335,33.956779",1175,142,13
1622105366,2021-05-27T08:49:26Z,LLM540,"45.0061,33.958004",1100,143,13
1622105373,2021-05-27T08:49:33Z,LLM540,"45.010288,33.959476",1025,142,14
1622105379,2021-05-27T08:49:39Z,LLM540,"45.014431,33.960953",950,144,13
1622105386,2021-05-27T08:49:46Z,LLM540,"45.018528,33.962292",850,146,13
1622105392,2021-05-27T08:49:52Z,LLM540,"45.022671,33.963699",800,148,13
1622105397,2021-05-27T08:49:57Z,LLM540,"45.026413,33.964954",750,153,13
1622105407,2021-05-27T08:50:07Z,LLM540,"45.032772,33.967113",600,154,13
1622105413,2021-05-27T08:50:13Z,LLM540,"45.037582,33.968746",625,152,13
1622105419,2021-05-27T08:50:19Z,LLM540,"45.041618,33.970127",825,159,13
1622105426,2021-05-27T08:50:26Z,LLM540,"45.046135,33.971603",1150,158,13
1622105432,2021-05-27T08:50:32Z,LLM540,"45.05051,33.973076",1475,158,13
1622105438,2021-05-27T08:50:38Z,LLM540,"45.054886,33.974632",1825,161,14
1622105449,2021-05-27T08:50:49Z,LLM540,"45.062893,33.977497",2325,163,14
1622105455,2021-05-27T08:50:55Z,LLM540,"45.067547,33.979172",2575,166,14
1622105462,2021-05-27T08:51:02Z,LLM540,"45.073105,33.981171",2850,170,14
1622105469,2021-05-27T08:51:09Z,LLM540,"45.078346,33.983059",2975,177,14
1622105475,2021-05-27T08:51:15Z,LLM540,"45.08345,33.984898",3100,187,14
1622105482,2021-05-27T08:51:22Z,LLM540,"45.089127,33.986927",3225,196,13
1622105490,2021-05-27T08:51:30Z,LLM540,"45.096725,33.98954",3350,214,13
1622105496,2021-05-27T08:51:36Z,LLM540,"45.102367,33.991432",3500,220,13
1622105502,2021-05-27T08:51:42Z,LLM540,"45.108627,33.993137",3650,224,7
1622105503,2021-05-27T08:51:43Z,LLM540,"45.109631,33.99324",3675,222,4
1622105505,2021-05-27T08:51:45Z,LLM540,"45.112003,33.993305",3725,223,1
1622105506,2021-05-27T08:51:46Z,LLM540,"45.113167,33.993172",3775,225,357
1622105508,2021-05-27T08:51:48Z,LLM540,"45.115265,33.992878",3800,230,354
1622105509,2021-05-27T08:51:49Z,LLM540,"45.116272,33.99268",3825,233,352
1622105512,2021-05-27T08:51:52Z,LLM540,"45.119568,33.991699",3875,240,346
1622105513,2021-05-27T08:51:53Z,LLM540,"45.120209,33.991436",3875,242,345
1622105514,2021-05-27T08:51:54Z,LLM540,"45.121628,33.990784",3875,245,343
1622105515,2021-05-27T08:51:55Z,LLM540,"45.122635,33.990326",3875,247,341
1622105516,2021-05-27T08:51:56Z,LLM540,"45.12355,33.989803",3875,250,339
1622105517,2021-05-27T08:51:57Z,LLM540,"45.125015,33.988953",3875,251,337
1622105518,2021-05-27T08:51:58Z,LLM540,"45.125565,33.98856",3875,251,337
1622105519,2021-05-27T08:51:59Z,LLM540,"45.126617,33.987843",3875,252,333
1622105520,2021-05-27T08:52:00Z,LLM540,"45.128113,33.986675",3900,253,331
1622105521,2021-05-27T08:52:01Z,LLM540,"45.128716,33.986137",3900,254,329
1622105522,2021-05-27T08:52:02Z,LLM540,"45.129822,33.985161",3900,254,329
1622105524,2021-05-27T08:52:04Z,LLM540,"45.131882,33.983067",3900,255,324
1622105525,2021-05-27T08:52:05Z,LLM540,"45.132751,33.982151",3900,255,322
1622105526,2021-05-27T08:52:06Z,LLM540,"45.133698,33.98098",3925,256,320
1622105527,2021-05-27T08:52:07Z,LLM540,"45.134537,33.979908",3925,257,318
1622105528,2021-05-27T08:52:08Z,LLM540,"45.135773,33.978161",3900,258,316
1622105529,2021-05-27T08:52:09Z,LLM540,"45.136597,33.976986",3900,259,314
1622105530,2021-05-27T08:52:10Z,LLM540,"45.137329,33.975807",3900,259,312
1622105532,2021-05-27T08:52:12Z,LLM540,"45.138725,33.973412",3925,259,308
1622105533,2021-05-27T08:52:13Z,LLM540,"45.139378,33.972073",3925,259,307
1622105534,2021-05-27T08:52:14Z,LLM540,"45.140076,33.970707",3925,259,304
1622105535,2021-05-27T08:52:15Z,LLM540,"45.140717,33.969269",3925,260,302
1622105536,2021-05-27T08:52:16Z,LLM540,"45.141357,33.967567",3925,261,300
1622105538,2021-05-27T08:52:18Z,LLM540,"45.142216,33.965305",3925,260,299
1622105539,2021-05-27T08:52:19Z,LLM540,"45.143009,33.962959",3925,261,295
1622105540,2021-05-27T08:52:20Z,LLM540,"45.143242,33.962158",3925,262,293
1622105541,2021-05-27T08:52:21Z,LLM540,"45.143845,33.959946",3925,261,291
1622105543,2021-05-27T08:52:23Z,LLM540,"45.144653,33.956059",3925,262,287
1622105544,2021-05-27T08:52:24Z,LLM540,"45.144962,33.954388",3925,262,285
1622105545,2021-05-27T08:52:25Z,LLM540,"45.145195,33.952911",3925,262,283
1622105546,2021-05-27T08:52:26Z,LLM540,"45.145294,33.952137",3925,262,281
1622105547,2021-05-27T08:52:27Z,LLM540,"45.145523,33.950569",3925,263,280
1622105548,2021-05-27T08:52:28Z,LLM540,"45.14566,33.948895",3925,262,278
1622105549,2021-05-27T08:52:29Z,LLM540,"45.145889,33.94566",3925,263,274
1622105550,2021-05-27T08:52:30Z,LLM540,"45.145935,33.944679",3950,263,274
1622105551,2021-05-27T08:52:31Z,LLM540,"45.145943,33.943733",3950,264,272
1622105552,2021-05-27T08:52:32Z,LLM540,"45.145935,33.94141",3950,264,270
1622105553,2021-05-27T08:52:33Z,LLM540,"45.145893,33.939716",3950,265,268
1622105555,2021-05-27T08:52:35Z,LLM540,"45.145756,33.936234",3925,265,266
1622105556,2021-05-27T08:52:36Z,LLM540,"45.145615,33.93449",3925,266,264
1622105558,2021-05-27T08:52:38Z,LLM540,"45.14529,33.931675",3925,265,261
1622105559,2021-05-27T08:52:39Z,LLM540,"45.144962,33.929199",3925,265,260
1622105561,2021-05-27T08:52:41Z,LLM540,"45.144405,33.925713",3925,264,257
1622105563,2021-05-27T08:52:43Z,LLM540,"45.143799,33.922565",3925,264,255
1622105564,2021-05-27T08:52:44Z,LLM540,"45.143463,33.920876",3925,265,254
1622105565,2021-05-27T08:52:45Z,LLM540,"45.143051,33.919109",3925,265,252
1622105566,2021-05-27T08:52:46Z,LLM540,"45.14259,33.917206",3925,265,251
1622105568,2021-05-27T08:52:48Z,LLM540,"45.141907,33.914532",3925,265,250
1622105569,2021-05-27T08:52:49Z,LLM540,"45.14138,33.91272",3925,264,249
1622105570,2021-05-27T08:52:50Z,LLM540,"45.140762,33.910412",3925,263,248
1622105571,2021-05-27T08:52:51Z,LLM540,"45.140541,33.909569",3925,263,248
1622105572,2021-05-27T08:52:52Z,LLM540,"45.14003,33.907829",3925,262,248
1622105574,2021-05-27T08:52:54Z,LLM540,"45.139252,33.905312",3925,262,247
1622105575,2021-05-27T08:52:55Z,LLM540,"45.138771,33.903675",3925,262,247
1622105576,2021-05-27T08:52:56Z,LLM540,"45.13829,33.902042",3925,262,247
1622105577,2021-05-27T08:52:57Z,LLM540,"45.137794,33.900326",3925,263,246
1622105578,2021-05-27T08:52:58Z,LLM540,"45.137283,33.898716",3925,263,246
1622105579,2021-05-27T08:52:59Z,LLM540,"45.136551,33.896221",3925,263,246
1622105580,2021-05-27T08:53:00Z,LLM540,"45.136074,33.89463",3925,263,246
1622105581,2021-05-27T08:53:01Z,LLM540,"45.135818,33.893867",3925,263,246
1622105582,2021-05-27T08:53:02Z,LLM540,"45.135269,33.892101",3925,263,246
1622105583,2021-05-27T08:53:03Z,LLM540,"45.134811,33.890533",3925,263,246
1622105590,2021-05-27T08:53:10Z,LLM540,"45.131462,33.879623",3925,262,246
1622105596,2021-05-27T08:53:16Z,LLM540,"45.12825,33.870316",3925,264,241
1622105597,2021-05-27T08:53:17Z,LLM540,"45.127304,33.868168",3900,264,239
1622105598,2021-05-27T08:53:18Z,LLM540,"45.126667,33.866764",3900,263,237
1622105599,2021-05-27T08:53:19Z,LLM540,"45.125839,33.865162",3900,262,233
1622105600,2021-05-27T08:53:20Z,LLM540,"45.125473,33.864506",3900,262,233
1622105601,2021-05-27T08:53:21Z,LLM540,"45.12434,33.862541",3900,261,229
1622105605,2021-05-27T08:53:25Z,LLM540,"45.121269,33.857986",3925,260,224
1622105607,2021-05-27T08:53:27Z,LLM540,"45.119453,33.855843",3925,258,220
1622105608,2021-05-27T08:53:28Z,LLM540,"45.118881,33.855221",3925,258,220
1622105610,2021-05-27T08:53:30Z,LLM540,"45.116409,33.852734",3925,258,216
1622105611,2021-05-27T08:53:31Z,LLM540,"45.116043,33.852345",3925,257,215
1622105612,2021-05-27T08:53:32Z,LLM540,"45.11499,33.85136",3925,258,214
1622105615,2021-05-27T08:53:35Z,LLM540,"45.111958,33.848675",3925,258,211
1622105616,2021-05-27T08:53:36Z,LLM540,"45.110275,33.847309",3950,259,211
1622105617,2021-05-27T08:53:37Z,LLM540,"45.109631,33.846733",3950,260,210
1622105618,2021-05-27T08:53:38Z,LLM540,"45.108654,33.845928",3950,260,210
1622105620,2021-05-27T08:53:40Z,LLM540,"45.10611,33.843971",3925,261,209
1622105621,2021-05-27T08:53:41Z,LLM540,"45.105515,33.843449",3925,262,208
1622105625,2021-05-27T08:53:45Z,LLM540,"45.101349,33.840508",3900,260,206
1622105626,2021-05-27T08:53:46Z,LLM540,"45.099701,33.839394",3900,260,205
1622105629,2021-05-27T08:53:49Z,LLM540,"45.096596,33.83749",3900,258,203
1622105630,2021-05-27T08:53:50Z,LLM540,"45.095993,33.83717",3900,256,202
1622105632,2021-05-27T08:53:52Z,LLM540,"45.092743,33.835407",3900,253,201
1622105633,2021-05-27T08:53:53Z,LLM540,"45.092148,33.835079",3900,253,201
1622105634,2021-05-27T08:53:54Z,LLM540,"45.09169,33.834881",3900,252,200
1622105636,2021-05-27T08:53:56Z,LLM540,"45.08952,33.833736",3900,250,200
1622105638,2021-05-27T08:53:58Z,LLM540,"45.086308,33.83213",3900,246,199
1622105642,2021-05-27T08:54:02Z,LLM540,"45.082077,33.830109",3925,241,198
1622105645,2021-05-27T08:54:05Z,LLM540,"45.079418,33.828846",3925,239,198
1622105646,2021-05-27T08:54:06Z,LLM540,"45.078396,33.828377",3925,238,198
1622105647,2021-05-27T08:54:07Z,LLM540,"45.077324,33.827843",3925,237,198
1622105648,2021-05-27T08:54:08Z,LLM540,"45.076721,33.827557",3925,236,198
1622105650,2021-05-27T08:54:10Z,LLM540,"45.073971,33.826233",3925,233,198
1622105652,2021-05-27T08:54:12Z,LLM540,"45.072575,33.825565",3925,231,198
1622105654,2021-05-27T08:54:14Z,LLM540,"45.069855,33.824287",3925,228,198
1622105655,2021-05-27T08:54:15Z,LLM540,"45.069317,33.824024",3925,227,198
1622105661,2021-05-27T08:54:21Z,LLM540,"45.063496,33.821278",3950,220,198
1622105668,2021-05-27T08:54:28Z,LLM540,"45.056488,33.817879",3950,217,199
1622105675,2021-05-27T08:54:35Z,LLM540,"45.050354,33.814808",3950,216,199
1622105683,2021-05-27T08:54:43Z,LLM540,"45.042938,33.811211",3925,216,198
1622105689,2021-05-27T08:54:49Z,LLM540,"45.036713,33.808266",3925,215,198
1622105694,2021-05-27T08:54:54Z,LLM540,"45.031677,33.805912",3925,215,198
1622105700,2021-05-27T08:55:00Z,LLM540,"45.026047,33.803364",3925,215,198
1622105706,2021-05-27T08:55:06Z,LLM540,"45.020325,33.800617",3925,216,198
1622105713,2021-05-27T08:55:13Z,LLM540,"45.013824,33.797543",3925,219,198
1622105719,2021-05-27T08:55:19Z,LLM540,"45.00824,33.794884",3900,220,198
1622105724,2021-05-27T08:55:24Z,LLM540,"45.003479,33.792572",3825,218,198
1622105732,2021-05-27T08:55:32Z,LLM540,"44.995651,33.788975",3700,218,197
1622105737,2021-05-27T08:55:37Z,LLM540,"44.990643,33.787178",3625,218,193
1622105738,2021-05-27T08:55:38Z,LLM540,"44.990223,33.787045",3625,217,193
1622105739,2021-05-27T08:55:39Z,LLM540,"44.988735,33.786575",3600,217,192
1622105740,2021-05-27T08:55:40Z,LLM540,"44.987759,33.786308",3575,215,192
1622105741,2021-05-27T08:55:41Z,LLM540,"44.986732,33.786041",3575,215,191
1622105743,2021-05-27T08:55:43Z,LLM540,"44.985291,33.785572",3550,215,191
1622105744,2021-05-27T08:55:44Z,LLM540,"44.98394,33.785236",3550,214,190
1622105746,2021-05-27T08:55:46Z,LLM540,"44.982422,33.784855",3525,214,190
1622105747,2021-05-27T08:55:47Z,LLM540,"44.980911,33.784462",3525,214,190
1622105748,2021-05-27T08:55:48Z,LLM540,"44.980499,33.784397",3525,213,189
1622105749,2021-05-27T08:55:49Z,LLM540,"44.979237,33.7841",3525,213,189
1622105750,2021-05-27T08:55:50Z,LLM540,"44.978165,33.78381",3525,211,189
1622105751,2021-05-27T08:55:51Z,LLM540,"44.976818,33.783493",3500,211,189
1622105752,2021-05-27T08:55:52Z,LLM540,"44.97583,33.783287",3475,211,189
1622105753,2021-05-27T08:55:53Z,LLM540,"44.974823,33.783089",3475,210,189
1622105755,2021-05-27T08:55:55Z,LLM540,"44.972908,33.782692",3450,209,188
1622105756,2021-05-27T08:55:56Z,LLM540,"44.972534,33.782558",3450,209,188
1622105763,2021-05-27T08:56:03Z,LLM540,"44.965759,33.781063",3350,208,189
1622105769,2021-05-27T08:56:09Z,LLM540,"44.959873,33.779743",3325,207,188
1622105775,2021-05-27T08:56:15Z,LLM540,"44.953995,33.778645",3300,203,187
1622105782,2021-05-27T08:56:22Z,LLM540,"44.948273,33.777531",3225,201,187
1622105788,2021-05-27T08:56:28Z,LLM540,"44.942833,33.776394",3125,199,188
1622105794,2021-05-27T08:56:34Z,LLM540,"44.936829,33.775055",3075,197,188
1622105800,2021-05-27T08:56:40Z,LLM540,"44.931522,33.773849",3025,194,189
1622105807,2021-05-27T08:56:47Z,LLM540,"44.925564,33.772507",2950,190,189
1622105812,2021-05-27T08:56:52Z,LLM540,"44.92086,33.771439",2950,183,189
1622105818,2021-05-27T08:56:58Z,LLM540,"44.916046,33.770271",2975,177,189
1622105825,2021-05-27T08:57:05Z,LLM540,"44.911057,33.768963",2950,176,190
1622105831,2021-05-27T08:57:11Z,LLM540,"44.905827,33.767551",2950,180,190
1622105836,2021-05-27T08:57:16Z,LLM540,"44.901402,33.766747",2925,179,187
1622105838,2021-05-27T08:57:18Z,LLM540,"44.900146,33.766682",2925,176,181
1622105839,2021-05-27T08:57:19Z,LLM540,"44.898933,33.766747",2925,174,176
1622105841,2021-05-27T08:57:21Z,LLM540,"44.897678,33.766949",2925,173,175
1622105843,2021-05-27T08:57:23Z,LLM540,"44.896133,33.767395",2925,170,168
1622105844,2021-05-27T08:57:24Z,LLM540,"44.895351,33.767685",2925,169,165
1622105845,2021-05-27T08:57:25Z,LLM540,"44.894978,33.767887",2925,168,162
1622105847,2021-05-27T08:57:27Z,LLM540,"44.893208,33.76889",2925,168,156
1622105849,2021-05-27T08:57:29Z,LLM540,"44.891811,33.769962",2950,168,152
1622105850,2021-05-27T08:57:30Z,LLM540,"44.89151,33.770336",2950,168,152
1622105851,2021-05-27T08:57:31Z,LLM540,"44.890869,33.770927",2925,168,146
1622105853,2021-05-27T08:57:33Z,LLM540,"44.889038,33.772953",2925,169,141
1622105855,2021-05-27T08:57:35Z,LLM540,"44.887947,33.774452",2925,169,137
1622105856,2021-05-27T08:57:36Z,LLM540,"44.887482,33.77512",2925,168,135
1622105858,2021-05-27T08:57:38Z,LLM540,"44.886368,33.776794",2925,168,134
1622105859,2021-05-27T08:57:39Z,LLM540,"44.886108,33.777203",2925,168,134
1622105860,2021-05-27T08:57:40Z,LLM540,"44.88562,33.778",2925,167,132
1622105862,2021-05-27T08:57:42Z,LLM540,"44.884735,33.779408",2925,166,130
1622105863,2021-05-27T08:57:43Z,LLM540,"44.884224,33.780281",2925,166,130
1622105865,2021-05-27T08:57:45Z,LLM540,"44.883247,33.781956",2925,166,129
1622105868,2021-05-27T08:57:48Z,LLM540,"44.881897,33.784397",2925,164,128
1622105871,2021-05-27T08:57:51Z,LLM540,"44.880478,33.787014",2925,164,127
1622105873,2021-05-27T08:57:53Z,LLM540,"44.879288,33.789173",2925,164,127
1622105877,2021-05-27T08:57:57Z,LLM540,"44.877659,33.792202",2925,166,126
1622105879,2021-05-27T08:57:59Z,LLM540,"44.876637,33.794212",2925,166,126
1622105880,2021-05-27T08:58:00Z,LLM540,"44.876175,33.795055",2925,167,126
1622105881,2021-05-27T08:58:01Z,LLM540,"44.875717,33.795906",2925,167,127
1622105882,2021-05-27T08:58:02Z,LLM540,"44.87524,33.796761",2925,168,126
1622105885,2021-05-27T08:58:05Z,LLM540,"44.873798,33.799438",2925,169,126
1622105886,2021-05-27T08:58:06Z,LLM540,"44.87352,33.800026",2925,169,126
1622105887,2021-05-27T08:58:07Z,LLM540,"44.872833,33.801399",2925,169,126
1622105889,2021-05-27T08:58:09Z,LLM540,"44.872101,33.802773",2925,169,126
1622105890,2021-05-27T08:58:10Z,LLM540,"44.871376,33.804195",2925,167,125
1622105892,2021-05-27T08:58:12Z,LLM540,"44.870678,33.805603",2925,166,125
1622105893,2021-05-27T08:58:13Z,LLM540,"44.870071,33.806942",2925,166,124
1622105895,2021-05-27T08:58:15Z,LLM540,"44.869446,33.808399",2925,164,120
1622105896,2021-05-27T08:58:16Z,LLM540,"44.868954,33.809956",2925,164,115
1622105898,2021-05-27T08:58:18Z,LLM540,"44.868584,33.811295",2925,164,112
1622105899,2021-05-27T08:58:19Z,LLM540,"44.868301,33.812649",2925,163,110
1622105901,2021-05-27T08:58:21Z,LLM540,"44.867886,33.814777",2925,162,103
1622105903,2021-05-27T08:58:23Z,LLM540,"44.867653,33.816254",2925,162,102
1622105904,2021-05-27T08:58:24Z,LLM540,"44.867477,33.817486",2925,163,101
1622105905,2021-05-27T08:58:25Z,LLM540,"44.867325,33.819134",2925,164,99
1622105909,2021-05-27T08:58:29Z,LLM540,"44.866974,33.822914",2925,166,96
1622105910,2021-05-27T08:58:30Z,LLM540,"44.866909,33.823891",2925,165,96
1622105912,2021-05-27T08:58:32Z,LLM540,"44.866722,33.826504",2925,167,95
1622105913,2021-05-27T08:58:33Z,LLM540,"44.866653,33.827492",2925,167,95
1622105915,2021-05-27T08:58:35Z,LLM540,"44.866562,33.829781",2925,169,94
1622105916,2021-05-27T08:58:36Z,LLM540,"44.866489,33.83099",2925,169,94
1622105918,2021-05-27T08:58:38Z,LLM540,"44.866348,33.832867",2925,171,94
1622105920,2021-05-27T08:58:40Z,LLM540,"44.866302,33.83461",2950,172,93
1622105922,2021-05-27T08:58:42Z,LLM540,"44.866161,33.83749",2925,173,93
1622105925,2021-05-27T08:58:45Z,LLM540,"44.866024,33.84037",2925,172,93
1622105928,2021-05-27T08:58:48Z,LLM540,"44.865829,33.844234",2925,171,93
1622105929,2021-05-27T08:58:49Z,LLM540,"44.865738,33.845345",2925,170,93
1622105931,2021-05-27T08:58:51Z,LLM540,"44.865646,33.846916",2900,168,94
1622105932,2021-05-27T08:58:52Z,LLM540,"44.865555,33.848549",2925,167,94
1622105938,2021-05-27T08:58:58Z,LLM540,"44.865234,33.854305",2925,165,93
1622105940,2021-05-27T08:59:00Z,LLM540,"44.865276,33.857185",2925,165,89
1622105942,2021-05-27T08:59:02Z,LLM540,"44.865463,33.859211",2925,164,83
1622105943,2021-05-27T08:59:03Z,LLM540,"44.865601,33.860321",2925,165,80
1622105946,2021-05-27T08:59:06Z,LLM540,"44.866302,33.86348",2925,164,70
1622105948,2021-05-27T08:59:08Z,LLM540,"44.866928,33.865551",2925,164,68
1622105951,2021-05-27T08:59:11Z,LLM540,"44.868023,33.868439",2925,165,61
1622105954,2021-05-27T08:59:14Z,LLM540,"44.869308,33.871307",2925,168,58
1622105955,2021-05-27T08:59:15Z,LLM540,"44.869675,33.872158",2925,168,57
1622105958,2021-05-27T08:59:18Z,LLM540,"44.870678,33.874199",2925,169,55
1622105959,2021-05-27T08:59:19Z,LLM540,"44.871189,33.875202",2925,168,55
1622105961,2021-05-27T08:59:21Z,LLM540,"44.872101,33.876995",2925,170,54
1622105962,2021-05-27T08:59:22Z,LLM540,"44.872604,33.878044",2925,170,54
1622105964,2021-05-27T08:59:24Z,LLM540,"44.873516,33.879761",2925,170,54
1622105965,2021-05-27T08:59:25Z,LLM540,"44.874031,33.880764",2925,171,53
1622105966,2021-05-27T08:59:26Z,LLM540,"44.874542,33.881767",2925,171,53
1622105968,2021-05-27T08:59:28Z,LLM540,"44.875286,33.883175",2925,172,53
1622105970,2021-05-27T08:59:30Z,LLM540,"44.87645,33.885235",2925,173,52
1622105971,2021-05-27T08:59:31Z,LLM540,"44.876961,33.886257",2925,173,52
1622105973,2021-05-27T08:59:33Z,LLM540,"44.878143,33.888439",2925,174,52
1622105974,2021-05-27T08:59:34Z,LLM540,"44.878601,33.889225",2900,174,52
1622105976,2021-05-27T08:59:36Z,LLM540,"44.879337,33.89061",2900,174,52
1622105978,2021-05-27T08:59:38Z,LLM540,"44.880173,33.892151",2925,173,52
1622105980,2021-05-27T08:59:40Z,LLM540,"44.881153,33.893963",2925,172,52
1622105986,2021-05-27T08:59:46Z,LLM540,"44.884094,33.899426",2925,170,52
1622105992,2021-05-27T08:59:52Z,LLM540,"44.886841,33.904594",2925,171,53
1622105998,2021-05-27T08:59:58Z,LLM540,"44.889633,33.909889",2925,168,53
1622106004,2021-05-27T09:00:04Z,LLM540,"44.892372,33.915062",2925,167,51
1622106006,2021-05-27T09:00:06Z,LLM540,"44.893524,33.916821",2925,167,47
1622106007,2021-05-27T09:00:07Z,LLM540,"44.894466,33.918011",2925,168,40
1622106008,2021-05-27T09:00:08Z,LLM540,"44.894791,33.918346",2925,168,40
1622106009,2021-05-27T09:00:09Z,LLM540,"44.895355,33.91898",2925,168,37
1622106010,2021-05-27T09:00:10Z,LLM540,"44.895905,33.919502",2925,170,33
1622106013,2021-05-27T09:00:13Z,LLM540,"44.898148,33.921139",2925,171,24
1622106015,2021-05-27T09:00:15Z,LLM540,"44.899658,33.921925",2925,171,21
1622106016,2021-05-27T09:00:16Z,LLM540,"44.900333,33.92223",2925,171,19
1622106017,2021-05-27T09:00:17Z,LLM540,"44.901398,33.922642",2925,171,16
1622106018,2021-05-27T09:00:18Z,LLM540,"44.90213,33.922905",2925,171,15
1622106019,2021-05-27T09:00:19Z,LLM540,"44.902893,33.923103",2925,170,13
1622106020,2021-05-27T09:00:20Z,LLM540,"44.903683,33.92337",2925,171,12
1622106021,2021-05-27T09:00:21Z,LLM540,"44.904739,33.923687",2925,170,12
1622106022,2021-05-27T09:00:22Z,LLM540,"44.905197,33.92382",2925,170,12
1622106025,2021-05-27T09:00:25Z,LLM540,"44.907173,33.924442",2925,170,12
1622106027,2021-05-27T09:00:27Z,LLM540,"44.909409,33.925045",2925,170,12
1622106028,2021-05-27T09:00:28Z,LLM540,"44.910152,33.925312",2925,170,12
1622106030,2021-05-27T09:00:30Z,LLM540,"44.91132,33.925648",2950,171,12
1622106031,2021-05-27T09:00:31Z,LLM540,"44.912201,33.925911",2925,172,12
1622106034,2021-05-27T09:00:34Z,LLM540,"44.914299,33.926651",2900,172,13
1622106036,2021-05-27T09:00:36Z,LLM540,"44.916348,33.927322",2875,172,13
1622106038,2021-05-27T09:00:38Z,LLM540,"44.917236,33.927677",2875,172,13
1622106039,2021-05-27T09:00:39Z,LLM540,"44.918114,33.927925",2850,172,14
1622106046,2021-05-27T09:00:46Z,LLM540,"44.923653,33.929867",2750,166,13
1622106055,2021-05-27T09:00:55Z,LLM540,"44.929893,33.932011",2650,159,13
1622106061,2021-05-27T09:01:01Z,LLM540,"44.934586,33.933628",2550,158,13
1622106067,2021-05-27T09:01:07Z,LLM540,"44.938786,33.935024",2450,157,13
1622106073,2021-05-27T09:01:13Z,LLM540,"44.943008,33.936573",2350,155,14
1622106080,2021-05-27T09:01:20Z,LLM540,"44.947861,33.938271",2225,152,13
1622106089,2021-05-27T09:01:29Z,LLM540,"44.953537,33.940235",2150,149,14
1622106094,2021-05-27T09:01:34Z,LLM540,"44.957062,33.941475",2075,153,13
1622106100,2021-05-27T09:01:40Z,LLM540,"44.961594,33.942997",2000,154,13
1622106106,2021-05-27T09:01:46Z,LLM540,"44.965622,33.944286",1925,157,13
1622106112,2021-05-27T09:01:52Z,LLM540,"44.969975,33.945744",1825,159,13
1622106119,2021-05-27T09:01:59Z,LLM540,"44.975094,33.947552",1725,154,13
1622106127,2021-05-27T09:02:07Z,LLM540,"44.980076,33.949226",1650,152,13
1622106135,2021-05-27T09:02:15Z,LLM540,"44.985718,33.951153",1525,154,13
1622106141,2021-05-27T09:02:21Z,LLM540,"44.989899,33.952511",1450,155,13
1622106147,2021-05-27T09:02:27Z,LLM540,"44.994415,33.954033",1350,152,13
1622106153,2021-05-27T09:02:33Z,LLM540,"44.998352,33.955406",1250,151,13
1622106159,2021-05-27T09:02:39Z,LLM540,"45.002609,33.956779",1175,151,13
1622106167,2021-05-27T09:02:47Z,LLM540,"45.008102,33.958675",1050,151,14
1622106173,2021-05-27T09:02:53Z,LLM540,"45.012196,33.960148",975,150,14
1622106180,2021-05-27T09:03:00Z,LLM540,"45.016571,33.961689",925,152,13
1622106186,2021-05-27T09:03:06Z,LLM540,"45.020622,33.963028",825,151,13
1622106192,2021-05-27T09:03:12Z,LLM540,"45.024628,33.964428",775,150,13
1622106199,2021-05-27T09:03:19Z,LLM540,"45.029663,33.966129",675,150,13
1622106205,2021-05-27T09:03:25Z,LLM540,"45.033691,33.967503",600,150,13
1622106211,2021-05-27T09:03:31Z,LLM540,"45.037613,33.968788",525,151,13
1622106217,2021-05-27T09:03:37Z,LLM540,"45.041897,33.970196",500,147,13
1622106223,2021-05-27T09:03:43Z,LLM540,"45.04567,33.971535",475,125,14
1622106230,2021-05-27T09:03:50Z,LLM540,"45.049004,33.972687",0,96,14
1622106235,2021-05-27T09:03:55Z,LLM540,"45.050972,33.973373",0,80,14
1622106242,2021-05-27T09:04:02Z,LLM540,"45.052906,33.974026",0,60,14
1622106248,2021-05-27T09:04:08Z,LLM540,"45.054398,33.974533",0,53,14
1622106254,2021-05-27T09:04:14Z,LLM540,"45.055687,33.974987",0,46,14
1622106260,2021-05-27T09:04:20Z,LLM540,"45.05682,33.975384",0,37,16
1622106263,2021-05-27T09:04:23Z,LLM540,"45.057247,33.97559",0,29,22
1622106265,2021-05-27T09:04:25Z,LLM540,"45.057461,33.975758",0,24,30
1622106268,2021-05-27T09:04:28Z,LLM540,"45.057701,33.976025",0,21,39
1622106270,2021-05-27T09:04:30Z,LLM540,"45.05785,33.976234",0,21,49
1622106273,2021-05-27T09:04:33Z,LLM540,"45.058056,33.976528",0,21,44
1622106276,2021-05-27T09:04:36Z,LLM540,"45.058296,33.976826",0,22,42
1622106278,2021-05-27T09:04:38Z,LLM540,"45.058445,33.977047",0,22,42
1622106281,2021-05-27T09:04:41Z,LLM540,"45.058662,33.977329",0,20,42
1622106284,2021-05-27T09:04:44Z,LLM540,"45.058842,33.977581",0,16,53
1622106287,2021-05-27T09:04:47Z,LLM540,"45.058971,33.977802",0,14,53
1622106290,2021-05-27T09:04:50Z,LLM540,"45.059052,33.978035",0,14,61
1622106293,2021-05-27T09:04:53Z,LLM540,"45.059086,33.978302",0,14,78
1622106296,2021-05-27T09:04:56Z,LLM540,"45.059052,33.978569",0,14,98
1622106299,2021-05-27T09:04:59Z,LLM540,"45.058949,33.978817",0,13,118
1622106303,2021-05-27T09:05:03Z,LLM540,"45.058807,33.979053",0,11,132
1622106310,2021-05-27T09:05:10Z,LLM540,"45.058571,33.979145",0,8,165
1622106315,2021-05-27T09:05:15Z,LLM540,"45.058365,33.979111",0,9,182
1622106320,2021-05-27T09:05:20Z,LLM540,"45.058144,33.979053",0,10,188
1622106325,2021-05-27T09:05:25Z,LLM540,"45.057922,33.978989",0,9,191
1622106331,2021-05-27T09:05:31Z,LLM540,"45.057678,33.978931",0,8,191
1622106338,2021-05-27T09:05:38Z,LLM540,"45.057446,33.97887",0,8,191
1622106344,2021-05-27T09:05:44Z,LLM540,"45.057213,33.978806",0,9,191
1622106349,2021-05-27T09:05:49Z,LLM540,"45.057003,33.978752",0,10,188
1622106355,2021-05-27T09:05:55Z,LLM540,"45.056702,33.978668",0,11,191
1622106362,2021-05-27T09:06:02Z,LLM540,"45.056385,33.978584",0,11,191
1622106367,2021-05-27T09:06:07Z,LLM540,"45.05611,33.978523",0,11,191
1622106374,2021-05-27T09:06:14Z,LLM540,"45.055782,33.978436",0,12,188
1622106380,2021-05-27T09:06:20Z,LLM540,"45.055424,33.978344",0,13,191
1622106386,2021-05-27T09:06:26Z,LLM540,"45.055058,33.978245",0,14,191
1622106393,2021-05-27T09:06:33Z,LLM540,"45.054699,33.978149",0,9,191
1622106399,2021-05-27T09:06:39Z,LLM540,"45.054478,33.978085",0,9,191
1622106405,2021-05-27T09:06:45Z,LLM540,"45.054222,33.978016",0,10,188
1622106411,2021-05-27T09:06:51Z,LLM540,"45.053925,33.977932",0,11,191
1622106417,2021-05-27T09:06:57Z,LLM540,"45.053593,33.977848",0,12,191
1622106423,2021-05-27T09:07:03Z,LLM540,"45.053226,33.977722",0,13,191
1622106427,2021-05-27T09:07:07Z,LLM540,"45.053013,33.97765",0,11,194
1622106433,2021-05-27T09:07:13Z,LLM540,"45.052753,33.977566",0,10,194
1622106439,2021-05-27T09:07:19Z,LLM540,"45.052452,33.977463",0,11,194
1622106446,2021-05-27T09:07:26Z,LLM540,"45.052128,33.977348",0,12,194
1622106452,2021-05-27T09:07:32Z,LLM540,"45.051823,33.977245",0,10,194
1622106458,2021-05-27T09:07:38Z,LLM540,"45.05151,33.977146",0,12,194
1622106464,2021-05-27T09:07:44Z,LLM540,"45.051201,33.977036",0,13,194
1622106470,2021-05-27T09:07:50Z,LLM540,"45.050812,33.976902",0,14,191
1622106476,2021-05-27T09:07:56Z,LLM540,"45.050392,33.976761",0,14,194
1622106482,2021-05-27T09:08:02Z,LLM540,"45.050102,33.976658",0,9,194
1622106488,2021-05-27T09:08:08Z,LLM540,"45.049885,33.976593",0,7,191
1622106495,2021-05-27T09:08:15Z,LLM540,"45.049644,33.976513",0,8,194
1622106502,2021-05-27T09:08:22Z,LLM540,"45.049393,33.976414",0,9,194
1622106507,2021-05-27T09:08:27Z,LLM540,"45.049126,33.976326",0,11,194
1622106514,2021-05-27T09:08:34Z,LLM540,"45.048809,33.976223",0,11,194
1622106520,2021-05-27T09:08:40Z,LLM540,"45.048508,33.976109",0,9,194
1622106526,2021-05-27T09:08:46Z,LLM540,"45.048248,33.976036",0,10,194
1622106532,2021-05-27T09:08:52Z,LLM540,"45.047974,33.975941",0,10,194
1622106538,2021-05-27T09:08:58Z,LLM540,"45.047691,33.975838",0,10,194
1622106543,2021-05-27T09:09:03Z,LLM540,"45.047459,33.975754",0,11,194
1622106550,2021-05-27T09:09:10Z,LLM540,"45.047138,33.975643",0,11,194
1622106556,2021-05-27T09:09:16Z,LLM540,"45.046852,33.975548",0,11,191
1622106562,2021-05-27T09:09:22Z,LLM540,"45.04652,33.975433",0,12,194
1622106568,2021-05-27T09:09:28Z,LLM540,"45.0462,33.975319",0,12,194
1622106574,2021-05-27T09:09:34Z,LLM540,"45.045853,33.975204",0,13,194
1622106580,2021-05-27T09:09:40Z,LLM540,"45.045506,33.975086",0,13,191
1622106586,2021-05-27T09:09:46Z,LLM540,"45.04517,33.974976",0,12,194
1622106593,2021-05-27T09:09:53Z,LLM540,"45.044907,33.974892",0,7,191
1622106599,2021-05-27T09:09:59Z,LLM540,"45.044689,33.974819",0,8,194
1622106605,2021-05-27T09:10:05Z,LLM540,"45.044472,33.974747",0,8,194
1622106611,2021-05-27T09:10:11Z,LLM540,"45.044247,33.974667",0,9,194
1622106618,2021-05-27T09:10:18Z,LLM540,"45.043957,33.974567",0,9,194
1622106626,2021-05-27T09:10:26Z,LLM540,"45.043636,33.974453",0,10,194
1622106631,2021-05-27T09:10:31Z,LLM540,"45.043373,33.974369",0,10,194
1622106638,2021-05-27T09:10:38Z,LLM540,"45.043049,33.974247",0,11,194
1622106644,2021-05-27T09:10:44Z,LLM540,"45.042736,33.974148",0,12,194
1622106650,2021-05-27T09:10:50Z,LLM540,"45.042377,33.974026",0,13,194
1622106656,2021-05-27T09:10:56Z,LLM540,"45.042034,33.973911",0,14,194
1622106662,2021-05-27T09:11:02Z,LLM540,"45.041634,33.973766",0,15,194
1622106668,2021-05-27T09:11:08Z,LLM540,"45.041199,33.973618",0,15,194
1622106673,2021-05-27T09:11:13Z,LLM540,"45.040848,33.973511",0,15,191
1622106679,2021-05-27T09:11:19Z,LLM540,"45.040432,33.973362",0,15,194
1622106685,2021-05-27T09:11:25Z,LLM540,"45.040012,33.973209",0,15,194
1622106692,2021-05-27T09:11:32Z,LLM540,"45.039585,33.973061",0,15,194
1622106698,2021-05-27T09:11:38Z,LLM540,"45.039173,33.972931",0,15,194
1622106703,2021-05-27T09:11:43Z,LLM540,"45.038784,33.972801",0,15,194
1622106709,2021-05-27T09:11:49Z,LLM540,"45.038383,33.972656",0,15,194
1622106716,2021-05-27T09:11:56Z,LLM540,"45.037941,33.972507",0,15,194
1622106722,2021-05-27T09:12:02Z,LLM540,"45.037514,33.972359",0,15,194
1622106729,2021-05-27T09:12:09Z,LLM540,"45.037045,33.972206",0,13,194
1622106735,2021-05-27T09:12:15Z,LLM540,"45.036716,33.972103",0,13,194
1622106741,2021-05-27T09:12:21Z,LLM540,"45.036335,33.97197",0,14,194
1622106747,2021-05-27T09:12:27Z,LLM540,"45.036018,33.971855",0,11,194
1622106753,2021-05-27T09:12:33Z,LLM540,"45.035706,33.971752",0,13,188
1622106757,2021-05-27T09:12:37Z,LLM540,"45.035496,33.97192",0,13,149
1622106760,2021-05-27T09:12:40Z,LLM540,"45.035431,33.97213",0,12,118
1622106764,2021-05-27T09:12:44Z,LLM540,"45.035385,33.972374",0,11,106
1622106768,2021-05-27T09:12:48Z,LLM540,"45.035343,33.972656",0,11,101
1622106772,2021-05-27T09:12:52Z,LLM540,"45.035305,33.972916",0,10,104
1622106776,2021-05-27T09:12:56Z,LLM540,"45.035259,33.97316",0,10,104
1622106782,2021-05-27T09:13:02Z,LLM540,"45.035194,33.97353",0,9,104
1622106787,2021-05-27T09:13:07Z,LLM540,"45.035133,33.973862",0,10,104
1622106794,2021-05-27T09:13:14Z,LLM540,"45.035053,33.974281",0,10,104
1622106800,2021-05-27T09:13:20Z,LLM540,"45.034985,33.974667",0,11,104
1622106806,2021-05-27T09:13:26Z,LLM540,"45.034916,33.97509",0,11,104
1622106812,2021-05-27T09:13:32Z,LLM540,"45.034836,33.975548",0,12,104
1622106818,2021-05-27T09:13:38Z,LLM540,"45.034752,33.976006",0,12,104
1622106824,2021-05-27T09:13:44Z,LLM540,"45.034676,33.976479",0,12,104
1622106829,2021-05-27T09:13:49Z,LLM540,"45.034595,33.976921",0,12,104
1622106842,2021-05-27T09:14:02Z,LLM540,"45.034412,33.977901",0,12,104
1622106849,2021-05-27T09:14:09Z,LLM540,"45.034332,33.978409",0,12,104
1622106857,2021-05-27T09:14:17Z,LLM540,"45.034214,33.979088",0,12,104
1622106864,2021-05-27T09:14:24Z,LLM540,"45.034122,33.979591",0,13,104
1622106870,2021-05-27T09:14:30Z,LLM540,"45.034035,33.980125",0,13,104
1622106875,2021-05-27T09:14:35Z,LLM540,"45.033966,33.980518",0,13,104
1622106883,2021-05-27T09:14:43Z,LLM540,"45.033844,33.981182",0,14,104
1622106888,2021-05-27T09:14:48Z,LLM540,"45.033772,33.981613",0,11,104
1622106894,2021-05-27T09:14:54Z,LLM540,"45.033691,33.982071",0,12,104
1622106904,2021-05-27T09:15:04Z,LLM540,"45.033588,33.982658",0,8,101
1622106909,2021-05-27T09:15:09Z,LLM540,"45.033646,33.982937",0,9,73
1622106918,2021-05-27T09:15:18Z,LLM540,"45.033958,33.983089",0,8,14
1622106929,2021-05-27T09:15:29Z,LLM540,"45.03418,33.983158",0,3,14
1622106967,2021-05-27T09:16:07Z,LLM540,"45.033588,33.982693",0,0,271
