Timestamp,UTC,Callsign,Position,Altitude,Speed,Direction
1622001478,2021-05-26T03:57:58Z,LLM685,"65.481781,72.692871",0,0,67
1622002079,2021-05-26T04:07:59Z,LLM685,"65.481827,72.69313",0,2,64
1622002088,2021-05-26T04:08:08Z,LLM685,"65.481842,72.693367",0,3,73
1622002093,2021-05-26T04:08:13Z,LLM685,"65.481834,72.693588",0,4,90
1622002098,2021-05-26T04:08:18Z,LLM685,"65.481766,72.693817",0,5,112
1622002105,2021-05-26T04:08:25Z,LLM685,"65.481621,72.694023",0,5,140
1622002115,2021-05-26T04:08:35Z,LLM685,"65.481392,72.694267",0,6,154
1622002121,2021-05-26T04:08:41Z,LLM685,"65.481201,72.694473",0,6,151
1622002126,2021-05-26T04:08:46Z,LLM685,"65.481125,72.694679",0,6,137
1622002129,2021-05-26T04:08:49Z,LLM685,"65.481102,72.694901",0,6,120
1622002135,2021-05-26T04:08:55Z,LLM685,"65.481125,72.695282",0,7,90
1622002138,2021-05-26T04:08:58Z,LLM685,"65.481155,72.695518",0,7,78
1622002141,2021-05-26T04:09:01Z,LLM685,"65.481201,72.695724",0,5,70
1622002146,2021-05-26T04:09:06Z,LLM685,"65.481239,72.695938",0,4,67
1622002381,2021-05-26T04:13:01Z,LLM685,"65.481277,72.696144",0,0,42
1622002389,2021-05-26T04:13:09Z,LLM685,"65.481323,72.696381",0,3,67
1622002395,2021-05-26T04:13:15Z,LLM685,"65.481369,72.696648",0,5,67
1622002401,2021-05-26T04:13:21Z,LLM685,"65.481422,72.697014",0,6,67
1622002408,2021-05-26T04:13:28Z,LLM685,"65.481491,72.697388",0,7,67
1622002414,2021-05-26T04:13:34Z,LLM685,"65.48159,72.697937",0,8,67
1622002417,2021-05-26T04:13:37Z,LLM685,"65.481659,72.698204",0,8,59
1622002421,2021-05-26T04:13:41Z,LLM685,"65.481773,72.698418",0,9,42
1622002427,2021-05-26T04:13:47Z,LLM685,"65.481979,72.698563",0,9,16
1622002432,2021-05-26T04:13:52Z,LLM685,"65.482208,72.698479",0,9,351
1622002437,2021-05-26T04:13:57Z,LLM685,"65.482414,72.698265",0,10,337
1622002443,2021-05-26T04:14:03Z,LLM685,"65.482697,72.697998",0,11,337
1622002449,2021-05-26T04:14:09Z,LLM685,"65.483017,72.697678",0,13,337
1622002453,2021-05-26T04:14:13Z,LLM685,"65.483215,72.697449",0,14,337
1622002457,2021-05-26T04:14:17Z,LLM685,"65.483482,72.697189",0,15,337
1622002463,2021-05-26T04:14:23Z,LLM685,"65.483902,72.69677",0,17,337
1622002470,2021-05-26T04:14:30Z,LLM685,"65.484512,72.696136",0,19,337
1622002475,2021-05-26T04:14:35Z,LLM685,"65.485016,72.695618",0,21,337
1622002481,2021-05-26T04:14:41Z,LLM685,"65.48558,72.695068",0,23,337
1622002488,2021-05-26T04:14:48Z,LLM685,"65.486191,72.694443",0,25,337
1622002495,2021-05-26T04:14:55Z,LLM685,"65.487091,72.69355",0,27,337
1622002501,2021-05-26T04:15:01Z,LLM685,"65.487831,72.69281",0,29,337
1622002507,2021-05-26T04:15:07Z,LLM685,"65.488487,72.692116",0,29,337
1622002513,2021-05-26T04:15:13Z,LLM685,"65.489273,72.69133",0,30,337
1622002520,2021-05-26T04:15:20Z,LLM685,"65.490303,72.690292",0,31,337
1622002525,2021-05-26T04:15:25Z,LLM685,"65.490967,72.689606",0,29,337
1622002531,2021-05-26T04:15:31Z,LLM685,"65.491646,72.68895",0,25,337
1622002537,2021-05-26T04:15:37Z,LLM685,"65.492157,72.688408",0,18,337
1622002541,2021-05-26T04:15:41Z,LLM685,"65.492378,72.688118",0,14,329
1622002544,2021-05-26T04:15:44Z,LLM685,"65.492508,72.687813",0,11,317
1622002548,2021-05-26T04:15:48Z,LLM685,"65.492599,72.687401",0,11,298
1622002553,2021-05-26T04:15:53Z,LLM685,"65.492676,72.686981",0,9,295
1622002556,2021-05-26T04:15:56Z,LLM685,"65.492775,72.686768",0,9,312
1622002562,2021-05-26T04:16:02Z,LLM685,"65.493004,72.686951",0,8,19
1622002565,2021-05-26T04:16:05Z,LLM685,"65.493057,72.68721",0,8,47
1622002570,2021-05-26T04:16:10Z,LLM685,"65.493042,72.687523",0,7,87
1622002577,2021-05-26T04:16:17Z,LLM685,"65.492844,72.687729",0,6,146
1622002618,2021-05-26T04:16:58Z,LLM685,"65.492638,72.68792",0,4,154
1622002624,2021-05-26T04:17:04Z,LLM685,"65.492271,72.688324",0,22,157
1622002630,2021-05-26T04:17:10Z,LLM685,"65.491135,72.689461",0,51,157
1622002638,2021-05-26T04:17:18Z,LLM685,"65.48877,72.691841",0,88,157
1622002643,2021-05-26T04:17:23Z,LLM685,"65.486053,72.694626",25,112,156
1622002649,2021-05-26T04:17:29Z,LLM685,"65.482727,72.697906",0,139,157
1622002659,2021-05-26T04:17:39Z,LLM685,"65.476364,72.704315",75,163,157
1622002665,2021-05-26T04:17:45Z,LLM685,"65.47197,72.708778",375,160,157
1622002672,2021-05-26T04:17:52Z,LLM685,"65.467667,72.713135",675,158,156
1622002679,2021-05-26T04:17:59Z,LLM685,"65.463959,72.716904",975,156,157
1622002681,2021-05-26T04:18:01Z,LLM685,"65.461388,72.718864",1150,156,163
1622002684,2021-05-26T04:18:04Z,LLM685,"65.459061,72.719765",1300,157,171
1622002687,2021-05-26T04:18:07Z,LLM685,"65.457008,72.719818",1400,162,180
1622002690,2021-05-26T04:18:10Z,LLM685,"65.454498,72.719223",1525,163,183
1622002697,2021-05-26T04:18:17Z,LLM685,"65.449371,72.716713",1725,169,192
1622002701,2021-05-26T04:18:21Z,LLM685,"65.446671,72.71492",1875,169,195
1622002704,2021-05-26T04:18:24Z,LLM685,"65.445557,72.714157",1925,170,195
1622002707,2021-05-26T04:18:27Z,LLM685,"65.442528,72.711937",2100,168,196
1622002708,2021-05-26T04:18:28Z,LLM685,"65.441345,72.711067",2175,169,196
1622002710,2021-05-26T04:18:30Z,LLM685,"65.439735,72.709908",2225,171,196
1622002713,2021-05-26T04:18:33Z,LLM685,"65.438065,72.708717",2300,174,196
1622002716,2021-05-26T04:18:36Z,LLM685,"65.435547,72.706924",2350,177,196
1622002718,2021-05-26T04:18:38Z,LLM685,"65.433243,72.705345",2425,181,196
1622002738,2021-05-26T04:18:58Z,LLM685,"65.416924,72.694267",2800,208,195
1622002753,2021-05-26T04:19:13Z,LLM685,"65.401749,72.684708",3175,233,194
1622002759,2021-05-26T04:19:19Z,LLM685,"65.394676,72.680412",3350,244,194
1622002765,2021-05-26T04:19:25Z,LLM685,"65.387695,72.676231",3575,251,193
1622002771,2021-05-26T04:19:31Z,LLM685,"65.380966,72.671814",3850,256,197
1622002775,2021-05-26T04:19:35Z,LLM685,"65.377304,72.668266",4025,258,202
1622002778,2021-05-26T04:19:38Z,LLM685,"65.374146,72.664261",4200,259,208
1622002781,2021-05-26T04:19:41Z,LLM685,"65.371117,72.659279",4400,259,214
1622002787,2021-05-26T04:19:47Z,LLM685,"65.365768,72.646751",4825,261,229
1622002790,2021-05-26T04:19:50Z,LLM685,"65.363571,72.639656",5025,260,235
1622002793,2021-05-26T04:19:53Z,LLM685,"65.361992,72.633598",5225,260,238
1622002799,2021-05-26T04:19:59Z,LLM685,"65.35804,72.616524",5700,260,241
1622002803,2021-05-26T04:20:03Z,LLM685,"65.356316,72.608765",5900,259,241
1622002805,2021-05-26T04:20:05Z,LLM685,"65.354317,72.599922",6075,260,241
1622002809,2021-05-26T04:20:09Z,LLM685,"65.352676,72.592506",6225,262,242
1622002824,2021-05-26T04:20:24Z,LLM685,"65.343658,72.551422",6825,276,242
1622002834,2021-05-26T04:20:34Z,LLM685,"65.337387,72.52327",7200,286,241
1622002849,2021-05-26T04:20:49Z,LLM685,"65.328003,72.481728",7725,299,241
1622002859,2021-05-26T04:20:59Z,LLM685,"65.321075,72.451492",8100,306,241
1622002874,2021-05-26T04:21:14Z,LLM685,"65.310928,72.407921",8650,316,240
1622002933,2021-05-26T04:22:13Z,LLM685,"65.266479,72.220276",10750,348,240
1622002945,2021-05-26T04:22:25Z,LLM685,"65.256508,72.178345",11200,355,240
1622002958,2021-05-26T04:22:38Z,LLM685,"65.246338,72.135681",11650,360,240
1622002988,2021-05-26T04:23:08Z,LLM685,"65.22094,72.029572",12725,371,240
1622003025,2021-05-26T04:23:45Z,LLM685,"65.188026,71.895447",14300,376,237
1622003041,2021-05-26T04:24:01Z,LLM685,"65.171494,71.843552",14875,380,230
1622003072,2021-05-26T04:24:32Z,LLM685,"65.135925,71.747864",16550,371,227
1622003103,2021-05-26T04:25:03Z,LLM685,"65.09903,71.652611",17500,382,227
1622003134,2021-05-26T04:25:34Z,LLM685,"65.062149,71.555443",18450,390,228
1622003196,2021-05-26T04:26:36Z,LLM685,"64.986595,71.355743",20275,405,228
1622003257,2021-05-26T04:27:37Z,LLM685,"64.90876,71.152611",22100,411,227
1622003319,2021-05-26T04:28:39Z,LLM685,"64.829674,70.947418",23800,414,227
1622003383,2021-05-26T04:29:43Z,LLM685,"64.74765,70.737122",25450,414,227
1622003446,2021-05-26T04:30:46Z,LLM685,"64.668549,70.535301",27625,401,227
1622003506,2021-05-26T04:31:46Z,LLM685,"64.593414,70.345345",28975,386,227
1622003570,2021-05-26T04:32:50Z,LLM685,"64.519539,70.161896",30500,358,226
1622003632,2021-05-26T04:33:52Z,LLM685,"64.450653,69.989944",31675,351,226
1622003694,2021-05-26T04:34:54Z,LLM685,"64.377228,69.826134",32000,362,223
1622003754,2021-05-26T04:35:54Z,LLM685,"64.303757,69.666611",32000,363,223
1622003816,2021-05-26T04:36:56Z,LLM685,"64.228912,69.505447",33200,355,223
1622003878,2021-05-26T04:37:58Z,LLM685,"64.154335,69.345924",34000,365,222
1622003940,2021-05-26T04:39:00Z,LLM685,"64.074875,69.177391",34000,380,222
1622004006,2021-05-26T04:40:06Z,LLM685,"63.991241,69.002274",34000,371,222
1622004066,2021-05-26T04:41:06Z,LLM685,"63.91571,68.844505",34000,368,222
1622004129,2021-05-26T04:42:09Z,LLM685,"63.839596,68.687294",33975,368,222
1622004192,2021-05-26T04:43:12Z,LLM685,"63.758194,68.519722",34000,374,222
1622004252,2021-05-26T04:44:12Z,LLM685,"63.681274,68.362755",34000,371,221
1622004315,2021-05-26T04:45:15Z,LLM685,"63.601902,68.203232",34000,364,221
1622004379,2021-05-26T04:46:19Z,LLM685,"63.522308,68.04319",34000,366,221
1622004440,2021-05-26T04:47:20Z,LLM685,"63.444717,67.888321",34000,373,221
1622004500,2021-05-26T04:48:20Z,LLM685,"63.367371,67.735985",34000,375,221
1622004562,2021-05-26T04:49:22Z,LLM685,"63.28624,67.576691",34025,375,221
1622004623,2021-05-26T04:50:23Z,LLM685,"63.207649,67.423973",34000,375,221
1622004686,2021-05-26T04:51:26Z,LLM685,"63.124882,67.264427",33975,377,221
1622004747,2021-05-26T04:52:27Z,LLM685,"63.043716,67.108765",34000,384,221
1622004809,2021-05-26T04:53:29Z,LLM685,"62.962273,66.952797",34000,377,220
1622004871,2021-05-26T04:54:31Z,LLM685,"62.880062,66.797401",34000,378,220
1622004932,2021-05-26T04:55:32Z,LLM685,"62.798676,66.643578",34000,388,220
1622004994,2021-05-26T04:56:34Z,LLM685,"62.714493,66.48661",34000,387,220
1622005057,2021-05-26T04:57:37Z,LLM685,"62.628204,66.325989",34000,389,220
1622005118,2021-05-26T04:58:38Z,LLM685,"62.544388,66.171974",34000,387,220
1622005180,2021-05-26T04:59:40Z,LLM685,"62.461166,66.017357",34000,389,223
1622005243,2021-05-26T05:00:43Z,LLM685,"62.381836,65.840858",34000,388,225
1622005305,2021-05-26T05:01:45Z,LLM685,"62.304108,65.668846",34000,393,225
1622005365,2021-05-26T05:02:45Z,LLM685,"62.228073,65.502113",34000,391,225
1622005426,2021-05-26T05:03:46Z,LLM685,"62.150299,65.333458",34000,389,225
1622005489,2021-05-26T05:04:49Z,LLM685,"62.07103,65.162964",34000,388,225
1622005550,2021-05-26T05:05:50Z,LLM685,"61.993835,64.997375",34000,391,225
1622005615,2021-05-26T05:06:55Z,LLM685,"61.909496,64.821167",34000,394,222
1622005678,2021-05-26T05:07:58Z,LLM685,"61.824875,64.661507",34000,391,221
1622005740,2021-05-26T05:09:00Z,LLM685,"61.741489,64.502258",34000,394,222
1622005803,2021-05-26T05:10:03Z,LLM685,"61.656391,64.340416",34000,395,221
1622005866,2021-05-26T05:11:06Z,LLM685,"61.570038,64.178207",34000,397,222
1622005927,2021-05-26T05:12:07Z,LLM685,"61.487091,64.023216",34000,396,221
1622005991,2021-05-26T05:13:11Z,LLM685,"61.3997,63.860981",34000,394,221
1622006054,2021-05-26T05:14:14Z,LLM685,"61.309528,63.714397",34000,394,211
1622006115,2021-05-26T05:15:15Z,LLM685,"61.208511,63.620808",34000,397,197
1622006178,2021-05-26T05:16:18Z,LLM685,"61.095749,63.562969",34000,400,193
1622006241,2021-05-26T05:17:21Z,LLM685,"60.983616,63.507744",34000,395,193
1622006282,2021-05-26T05:18:02Z,LLM685,"60.911415,63.467724",34000,393,203
1622006285,2021-05-26T05:18:05Z,LLM685,"60.906372,63.462807",34000,393,205
1622006288,2021-05-26T05:18:08Z,LLM685,"60.901405,63.457325",34000,392,208
1622006289,2021-05-26T05:18:09Z,LLM685,"60.89978,63.455421",34000,392,208
1622006291,2021-05-26T05:18:11Z,LLM685,"60.896427,63.451244",34000,392,211
1622006292,2021-05-26T05:18:12Z,LLM685,"60.894936,63.449284",34000,392,211
1622006295,2021-05-26T05:18:15Z,LLM685,"60.890579,63.443108",34000,391,214
1622006296,2021-05-26T05:18:16Z,LLM685,"60.88916,63.441025",34000,391,215
1622006298,2021-05-26T05:18:18Z,LLM685,"60.886185,63.436333",34000,391,215
1622006299,2021-05-26T05:18:19Z,LLM685,"60.884647,63.433784",34000,392,217
1622006300,2021-05-26T05:18:20Z,LLM685,"60.883942,63.43269",34000,392,217
1622006304,2021-05-26T05:18:24Z,LLM685,"60.877434,63.420834",34000,391,221
1622006305,2021-05-26T05:18:25Z,LLM685,"60.876083,63.418186",34000,391,222
1622006308,2021-05-26T05:18:28Z,LLM685,"60.873337,63.412498",34000,391,224
1622006309,2021-05-26T05:18:29Z,LLM685,"60.872219,63.410145",34000,391,225
1622006311,2021-05-26T05:18:31Z,LLM685,"60.869568,63.404182",34000,391,226
1622006314,2021-05-26T05:18:34Z,LLM685,"60.866215,63.396214",34000,393,229
1622006316,2021-05-26T05:18:36Z,LLM685,"60.863792,63.390034",34000,393,229
1622006320,2021-05-26T05:18:40Z,LLM685,"60.859497,63.378422",34000,394,232
1622006324,2021-05-26T05:18:44Z,LLM685,"60.8549,63.366001",34000,395,232
1622006328,2021-05-26T05:18:48Z,LLM685,"60.850616,63.354527",34000,396,232
1622006331,2021-05-26T05:18:51Z,LLM685,"60.847366,63.34584",34000,396,232
1622006333,2021-05-26T05:18:53Z,LLM685,"60.844986,63.339497",34000,397,232
1622006393,2021-05-26T05:19:53Z,LLM685,"60.775391,63.161087",34000,397,231
1622006461,2021-05-26T05:21:01Z,LLM685,"60.697357,62.963879",34000,396,230
1622006524,2021-05-26T05:22:04Z,LLM685,"60.62558,62.7827",34000,401,230
1622006604,2021-05-26T05:23:24Z,LLM685,"60.531601,62.548195",34000,400,230
1622006668,2021-05-26T05:24:28Z,LLM685,"60.457123,62.365406",34000,399,230
1622006704,2021-05-26T05:25:04Z,LLM685,"60.413631,62.259228",34000,401,230
1622006794,2021-05-26T05:26:34Z,LLM685,"60.307251,62.001625",34000,403,230
1622006856,2021-05-26T05:27:36Z,LLM685,"60.233505,61.824615",34000,408,229
1622006883,2021-05-26T05:28:03Z,LLM685,"60.200592,61.746101",34000,408,229
1622006923,2021-05-26T05:28:43Z,LLM685,"60.152054,61.63036",34000,412,229
1622007011,2021-05-26T05:30:11Z,LLM685,"60.043854,61.375404",34000,407,229
1622007072,2021-05-26T05:31:12Z,LLM685,"59.969711,61.202087",34000,411,229
1622007133,2021-05-26T05:32:13Z,LLM685,"59.893982,61.026764",34000,410,229
1622007151,2021-05-26T05:32:31Z,LLM685,"59.871624,60.975163",34000,413,229
1622007236,2021-05-26T05:33:56Z,LLM685,"59.766266,60.733704",34000,408,228
1622007297,2021-05-26T05:34:57Z,LLM685,"59.690826,60.562683",34000,411,228
1622007359,2021-05-26T05:35:59Z,LLM685,"59.613445,60.38768",34000,416,228
1622007420,2021-05-26T05:37:00Z,LLM685,"59.535599,60.213684",34000,418,228
1622007482,2021-05-26T05:38:02Z,LLM685,"59.455811,60.036713",34000,419,228
1622007544,2021-05-26T05:39:04Z,LLM685,"59.375427,59.859375",34000,426,228
1622007605,2021-05-26T05:40:05Z,LLM685,"59.295639,59.685791",34000,424,227
1622007666,2021-05-26T05:41:06Z,LLM685,"59.215565,59.511803",34000,426,227
1622007727,2021-05-26T05:42:07Z,LLM685,"59.135262,59.338768",34000,424,227
1622007787,2021-05-26T05:43:07Z,LLM685,"59.055771,59.168793",34000,430,227
1622007849,2021-05-26T05:44:09Z,LLM685,"58.972229,58.992004",34000,427,227
1622007910,2021-05-26T05:45:10Z,LLM685,"58.890747,58.820618",34000,428,227
1622007972,2021-05-26T05:46:12Z,LLM685,"58.80867,58.649185",34000,425,227
1622008033,2021-05-26T05:47:13Z,LLM685,"58.726913,58.479694",34000,426,226
1622008093,2021-05-26T05:48:13Z,LLM685,"58.645298,58.311493",34000,433,226
1622008155,2021-05-26T05:49:15Z,LLM685,"58.560745,58.139294",34000,432,226
1622008217,2021-05-26T05:50:17Z,LLM685,"58.476967,57.969543",34000,432,226
1622008278,2021-05-26T05:51:18Z,LLM685,"58.393524,57.801376",34000,431,226
1622008339,2021-05-26T05:52:19Z,LLM685,"58.30938,57.633087",34000,431,226
1622008400,2021-05-26T05:53:20Z,LLM685,"58.225113,57.465851",34000,432,226
1622008462,2021-05-26T05:54:22Z,LLM685,"58.139835,57.297455",34000,434,226
1622008523,2021-05-26T05:55:23Z,LLM685,"58.054962,57.13192",34000,435,225
1622008584,2021-05-26T05:56:24Z,LLM685,"57.969547,56.9664",34000,434,225
1622008645,2021-05-26T05:57:25Z,LLM685,"57.883072,56.799938",34000,435,225
1622008706,2021-05-26T05:58:26Z,LLM685,"57.801586,56.632782",34000,424,228
1622008767,2021-05-26T05:59:27Z,LLM685,"57.722351,56.469299",34000,424,227
1622008830,2021-05-26T06:00:30Z,LLM685,"57.637676,56.297756",34000,426,227
1622008891,2021-05-26T06:01:31Z,LLM685,"57.557232,56.135883",34000,421,227
1622008952,2021-05-26T06:02:32Z,LLM685,"57.477631,55.97723",34000,419,226
1622009015,2021-05-26T06:03:35Z,LLM685,"57.393723,55.810631",34000,420,227
1622009075,2021-05-26T06:04:35Z,LLM685,"57.31274,55.650978",34000,426,226
1622009137,2021-05-26T06:05:37Z,LLM685,"57.22934,55.48774",34000,431,226
1622009197,2021-05-26T06:06:37Z,LLM685,"57.14859,55.330067",34000,420,226
1622009260,2021-05-26T06:07:40Z,LLM685,"57.062759,55.164497",34000,423,226
1622009322,2021-05-26T06:08:42Z,LLM685,"56.979427,55.004826",34000,426,226
1622009383,2021-05-26T06:09:43Z,LLM685,"56.896843,54.847649",34000,421,226
1622009445,2021-05-26T06:10:45Z,LLM685,"56.813599,54.690285",34000,418,225
1622009506,2021-05-26T06:11:46Z,LLM685,"56.732281,54.537815",34000,415,225
1622009566,2021-05-26T06:12:46Z,LLM685,"56.651276,54.386703",34000,412,225
1622009628,2021-05-26T06:13:48Z,LLM685,"56.570206,54.236008",34000,410,225
1622009690,2021-05-26T06:14:50Z,LLM685,"56.487091,54.083462",34000,411,225
1622009751,2021-05-26T06:15:51Z,LLM685,"56.406097,53.935047",34000,414,225
1622009812,2021-05-26T06:16:52Z,LLM685,"56.324066,53.786232",34075,412,225
1622009873,2021-05-26T06:17:53Z,LLM685,"56.241943,53.637753",34825,417,225
1622009934,2021-05-26T06:18:54Z,LLM685,"56.157028,53.485775",35600,425,224
1622009995,2021-05-26T06:19:55Z,LLM685,"56.071239,53.33287",36000,429,224
1622010057,2021-05-26T06:20:57Z,LLM685,"55.985229,53.180569",36000,429,224
1622010117,2021-05-26T06:21:57Z,LLM685,"55.899902,53.030758",36000,429,224
1622010180,2021-05-26T06:23:00Z,LLM685,"55.812744,52.878613",36025,424,224
1622010241,2021-05-26T06:24:01Z,LLM685,"55.726986,52.729397",36000,426,224
1622010302,2021-05-26T06:25:02Z,LLM685,"55.6404,52.580139",36000,425,224
1622010363,2021-05-26T06:26:03Z,LLM685,"55.555393,52.434311",36000,424,224
1622010424,2021-05-26T06:27:04Z,LLM685,"55.469193,52.28735",36000,425,224
1622010484,2021-05-26T06:28:04Z,LLM685,"55.38382,52.143051",36000,425,223
1622010546,2021-05-26T06:29:06Z,LLM685,"55.297943,51.998695",36000,418,223
1622010607,2021-05-26T06:30:07Z,LLM685,"55.211514,51.854469",36000,424,223
1622010669,2021-05-26T06:31:09Z,LLM685,"55.123947,51.709568",36000,422,223
1622010731,2021-05-26T06:32:11Z,LLM685,"55.036514,51.564976",36000,423,223
1622010792,2021-05-26T06:33:12Z,LLM685,"54.949703,51.422592",36000,420,223
1622010853,2021-05-26T06:34:13Z,LLM685,"54.863022,51.281681",36000,421,223
1622010914,2021-05-26T06:35:14Z,LLM685,"54.77639,51.141605",36000,421,222
1622010975,2021-05-26T06:36:15Z,LLM685,"54.689621,51.00201",36000,418,223
1622011036,2021-05-26T06:37:16Z,LLM685,"54.604286,50.865616",36000,415,222
1622011097,2021-05-26T06:38:17Z,LLM685,"54.518326,50.72953",36000,414,222
1622011158,2021-05-26T06:39:18Z,LLM685,"54.431213,50.591476",36000,421,222
1622011219,2021-05-26T06:40:19Z,LLM685,"54.345596,50.452297",36000,416,228
1622011279,2021-05-26T06:41:19Z,LLM685,"54.267792,50.304436",36000,417,227
1622011342,2021-05-26T06:42:22Z,LLM685,"54.186722,50.153999",36000,418,227
1622011403,2021-05-26T06:43:23Z,LLM685,"54.107346,50.006706",36000,418,227
1622011464,2021-05-26T06:44:24Z,LLM685,"54.027054,49.85894",36000,419,227
1622011525,2021-05-26T06:45:25Z,LLM685,"53.947037,49.712429",36000,418,227
1622011587,2021-05-26T06:46:27Z,LLM685,"53.86578,49.564255",36000,418,227
1622011650,2021-05-26T06:47:30Z,LLM685,"53.782654,49.414307",36025,417,226
1622011711,2021-05-26T06:48:31Z,LLM685,"53.70052,49.266975",36000,420,226
1622011772,2021-05-26T06:49:32Z,LLM685,"53.620171,49.123589",36000,423,226
1622011833,2021-05-26T06:50:33Z,LLM685,"53.537704,48.977207",36000,424,226
1622011894,2021-05-26T06:51:34Z,LLM685,"53.455189,48.831642",36000,424,226
1622011957,2021-05-26T06:52:37Z,LLM685,"53.370232,48.682682",36000,424,226
1622012018,2021-05-26T06:53:38Z,LLM685,"53.288113,48.539295",36000,425,226
1622012079,2021-05-26T06:54:39Z,LLM685,"53.204956,48.395561",36000,425,226
1622012142,2021-05-26T06:55:42Z,LLM685,"53.117935,48.245518",36000,427,225
1622012204,2021-05-26T06:56:44Z,LLM685,"53.03302,48.099976",36000,427,225
1622012265,2021-05-26T06:57:45Z,LLM685,"52.949261,47.957832",36000,429,225
1622012327,2021-05-26T06:58:47Z,LLM685,"52.862953,47.811951",36000,427,225
1622012388,2021-05-26T06:59:48Z,LLM685,"52.77916,47.671013",36000,427,225
1622012450,2021-05-26T07:00:50Z,LLM685,"52.693317,47.527248",36000,427,225
1622012513,2021-05-26T07:01:53Z,LLM685,"52.605972,47.382202",36000,429,225
1622012574,2021-05-26T07:02:54Z,LLM685,"52.520931,47.241917",36000,430,225
1622012638,2021-05-26T07:03:58Z,LLM685,"52.430157,47.092739",36000,430,225
1622012699,2021-05-26T07:04:59Z,LLM685,"52.345013,46.953918",36000,429,225
1622012761,2021-05-26T07:06:01Z,LLM685,"52.256844,46.811096",36000,431,224
1622012823,2021-05-26T07:07:03Z,LLM685,"52.16951,46.670235",36000,434,224
1622012884,2021-05-26T07:08:04Z,LLM685,"52.082153,46.530304",36000,434,224
1622012946,2021-05-26T07:09:06Z,LLM685,"51.98822,46.403275",36000,436,213
1622013009,2021-05-26T07:10:09Z,LLM685,"51.875153,46.304108",36000,440,207
1622013069,2021-05-26T07:11:09Z,LLM685,"51.765621,46.212845",36000,443,207
1622013132,2021-05-26T07:12:12Z,LLM685,"51.650219,46.117401",36000,447,207
1622013193,2021-05-26T07:13:13Z,LLM685,"51.538074,46.025314",36000,446,206
1622013256,2021-05-26T07:14:16Z,LLM685,"51.421833,45.937576",36000,445,205
1622013318,2021-05-26T07:15:18Z,LLM685,"51.305874,45.850067",36000,447,205
1622013384,2021-05-26T07:16:24Z,LLM685,"51.181999,45.756683",36000,447,205
1622013446,2021-05-26T07:17:26Z,LLM685,"51.067944,45.670395",36000,445,207
1622013506,2021-05-26T07:18:26Z,LLM685,"50.964226,45.559998",36000,446,218
1622013568,2021-05-26T07:19:28Z,LLM685,"50.863907,45.435638",36000,446,217
1622013629,2021-05-26T07:20:29Z,LLM685,"50.763634,45.318832",36000,446,215
1622013690,2021-05-26T07:21:30Z,LLM685,"50.661079,45.201317",36000,450,216
1622013752,2021-05-26T07:22:32Z,LLM685,"50.556568,45.081284",36000,450,216
1622013813,2021-05-26T07:23:33Z,LLM685,"50.45462,44.964802",36000,451,216
1622013874,2021-05-26T07:24:34Z,LLM685,"50.350845,44.846985",36000,451,215
1622013934,2021-05-26T07:25:34Z,LLM685,"50.249836,44.732914",36000,448,215
1622013996,2021-05-26T07:26:36Z,LLM685,"50.146317,44.616634",36000,450,215
1622014059,2021-05-26T07:27:39Z,LLM685,"50.039001,44.496929",36000,451,215
1622014120,2021-05-26T07:28:40Z,LLM685,"49.93626,44.382763",36000,453,215
1622014181,2021-05-26T07:29:41Z,LLM685,"49.831936,44.267406",36000,453,215
1622014242,2021-05-26T07:30:42Z,LLM685,"49.727798,44.153015",36000,455,215
1622014303,2021-05-26T07:31:43Z,LLM685,"49.623055,44.038624",36000,456,215
1622014364,2021-05-26T07:32:44Z,LLM685,"49.518723,43.925148",36000,458,214
1622014425,2021-05-26T07:33:45Z,LLM685,"49.408859,43.820801",36000,459,211
1622014486,2021-05-26T07:34:46Z,LLM685,"49.297577,43.715866",36000,463,211
1622014547,2021-05-26T07:35:47Z,LLM685,"49.192123,43.598232",36000,463,218
1622014611,2021-05-26T07:36:51Z,LLM685,"49.085587,43.469872",36000,461,218
1622014672,2021-05-26T07:37:52Z,LLM685,"48.981987,43.345978",36000,464,218
1622014733,2021-05-26T07:38:53Z,LLM685,"48.87878,43.223034",36000,466,218
1622014795,2021-05-26T07:39:55Z,LLM685,"48.774536,43.099434",35875,468,217
1622014856,2021-05-26T07:40:56Z,LLM685,"48.671906,42.978374",35250,459,217
1622014916,2021-05-26T07:41:56Z,LLM685,"48.570374,42.859428",35000,459,217
1622014978,2021-05-26T07:42:58Z,LLM685,"48.466644,42.738998",35000,461,217
1622015040,2021-05-26T07:44:00Z,LLM685,"48.361492,42.617847",35000,467,217
1622015103,2021-05-26T07:45:03Z,LLM685,"48.25256,42.49295",35000,469,217
1622015163,2021-05-26T07:46:03Z,LLM685,"48.147766,42.373512",35000,469,217
1622015226,2021-05-26T07:47:06Z,LLM685,"48.039211,42.250813",35000,472,217
1622015286,2021-05-26T07:48:06Z,LLM685,"47.934814,42.133392",35000,469,217
1622015349,2021-05-26T07:49:09Z,LLM685,"47.826,42.01165",35000,470,216
1622015410,2021-05-26T07:50:10Z,LLM685,"47.719582,41.893333",35000,469,216
1622015472,2021-05-26T07:51:12Z,LLM685,"47.613071,41.775513",35000,469,216
1622015533,2021-05-26T07:52:13Z,LLM685,"47.506165,41.657822",35000,468,216
1622015594,2021-05-26T07:53:14Z,LLM685,"47.399723,41.540997",35000,471,216
1622015655,2021-05-26T07:54:15Z,LLM685,"47.292931,41.424656",35000,471,216
1622015717,2021-05-26T07:55:17Z,LLM685,"47.184322,41.306763",35000,476,216
1622015778,2021-05-26T07:56:18Z,LLM685,"47.076603,41.189575",35000,477,216
1622015840,2021-05-26T07:57:20Z,LLM685,"46.965343,41.070415",35000,479,216
1622015900,2021-05-26T07:58:20Z,LLM685,"46.859249,40.956688",35000,479,216
1622015962,2021-05-26T07:59:22Z,LLM685,"46.747513,40.836987",35000,481,216
1622016022,2021-05-26T08:00:22Z,LLM685,"46.642456,40.721443",35000,479,217
1622016084,2021-05-26T08:01:24Z,LLM685,"46.532406,40.602516",35000,480,216
1622016145,2021-05-26T08:02:25Z,LLM685,"46.421238,40.484756",35000,482,216
1622016207,2021-05-26T08:03:27Z,LLM685,"46.310898,40.36779",35000,484,216
1622016268,2021-05-26T08:04:28Z,LLM685,"46.19989,40.250759",35000,486,216
1622016329,2021-05-26T08:05:29Z,LLM685,"46.088562,40.133995",35000,484,216
1622016390,2021-05-26T08:06:30Z,LLM685,"45.978928,40.019775",35000,487,215
1622016452,2021-05-26T08:07:32Z,LLM685,"45.866383,39.902893",35000,485,215
1622016510,2021-05-26T08:08:30Z,LLM685,"45.757545,39.797012",35000,492,205
1622016511,2021-05-26T08:08:31Z,LLM685,"45.756271,39.79623",35000,492,204
1622016513,2021-05-26T08:08:33Z,LLM685,"45.750687,39.792816",35000,492,202
1622016514,2021-05-26T08:08:34Z,LLM685,"45.748421,39.791588",35000,492,202
1622016516,2021-05-26T08:08:36Z,LLM685,"45.745514,39.790001",35000,492,200
1622016517,2021-05-26T08:08:37Z,LLM685,"45.743179,39.788795",35000,493,200
1622016520,2021-05-26T08:08:40Z,LLM685,"45.736549,39.785545",35000,493,198
1622016521,2021-05-26T08:08:41Z,LLM685,"45.734455,39.784584",35000,493,198
1622016522,2021-05-26T08:08:42Z,LLM685,"45.73233,39.783569",35000,493,198
1622016523,2021-05-26T08:08:43Z,LLM685,"45.730087,39.782497",35000,493,198
1622016524,2021-05-26T08:08:44Z,LLM685,"45.727985,39.781494",35000,492,198
1622016525,2021-05-26T08:08:45Z,LLM685,"45.72575,39.780464",35000,492,198
1622016526,2021-05-26T08:08:46Z,LLM685,"45.72356,39.779434",35000,492,198
1622016527,2021-05-26T08:08:47Z,LLM685,"45.721573,39.778481",35000,492,198
1622016588,2021-05-26T08:09:48Z,LLM685,"45.589211,39.714821",35000,492,199
1622016650,2021-05-26T08:10:50Z,LLM685,"45.456539,39.65033",35000,494,198
1622016712,2021-05-26T08:11:52Z,LLM685,"45.321674,39.584812",35000,496,198
1622016772,2021-05-26T08:12:52Z,LLM685,"45.190491,39.521572",35000,498,198
1622016836,2021-05-26T08:13:56Z,LLM685,"45.052597,39.455566",35000,497,198
1622016896,2021-05-26T08:14:56Z,LLM685,"44.920582,39.392685",34750,496,198
1622016957,2021-05-26T08:15:57Z,LLM685,"44.788605,39.329914",32500,487,198
1622017023,2021-05-26T08:17:03Z,LLM685,"44.649742,39.264465",29825,477,198
1622017086,2021-05-26T08:18:06Z,LLM685,"44.520309,39.203732",27100,468,198
1622017149,2021-05-26T08:19:09Z,LLM685,"44.391266,39.143436",24325,458,198
1622017211,2021-05-26T08:20:11Z,LLM685,"44.269043,39.086544",21625,445,198
1622017261,2021-05-26T08:21:01Z,LLM685,"44.173557,39.045475",20100,420,188
1622017262,2021-05-26T08:21:02Z,LLM685,"44.171696,39.045216",20075,420,187
1622017263,2021-05-26T08:21:03Z,LLM685,"44.169834,39.044888",20025,419,186
1622017264,2021-05-26T08:21:04Z,LLM685,"44.167694,39.044643",20000,420,185
1622017265,2021-05-26T08:21:05Z,LLM685,"44.164852,39.0443",19950,419,184
1622017266,2021-05-26T08:21:06Z,LLM685,"44.164108,39.0443",19925,418,183
1622017268,2021-05-26T08:21:08Z,LLM685,"44.159134,39.044067",19825,418,181
1622017269,2021-05-26T08:21:09Z,LLM685,"44.158104,39.044102",19800,418,181
1622017270,2021-05-26T08:21:10Z,LLM685,"44.15559,39.044102",19750,418,181
1622017271,2021-05-26T08:21:11Z,LLM685,"44.153687,39.044197",19725,416,178
1622017275,2021-05-26T08:21:15Z,LLM685,"44.146866,39.044899",19600,415,175
1622017276,2021-05-26T08:21:16Z,LLM685,"44.143673,39.045345",19550,413,174
1622017277,2021-05-26T08:21:17Z,LLM685,"44.141811,39.045738",19500,413,173
1622017278,2021-05-26T08:21:18Z,LLM685,"44.140778,39.045921",19500,413,173
1622017279,2021-05-26T08:21:19Z,LLM685,"44.138306,39.046497",19450,411,172
1622017281,2021-05-26T08:21:21Z,LLM685,"44.134735,39.047325",19375,410,170
1622017283,2021-05-26T08:21:23Z,LLM685,"44.130844,39.048283",19325,409,170
1622017284,2021-05-26T08:21:24Z,LLM685,"44.129745,39.048603",19300,409,170
1622017285,2021-05-26T08:21:25Z,LLM685,"44.127285,39.049202",19275,409,169
1622017287,2021-05-26T08:21:27Z,LLM685,"44.123657,39.050072",19200,408,169
1622017289,2021-05-26T08:21:29Z,LLM685,"44.12114,39.050713",19175,407,169
1622017290,2021-05-26T08:21:30Z,LLM685,"44.118206,39.051491",19125,406,169
1622017293,2021-05-26T08:21:33Z,LLM685,"44.112576,39.052864",19025,406,169
1622017294,2021-05-26T08:21:34Z,LLM685,"44.110806,39.053322",19000,405,169
1622017354,2021-05-26T08:22:34Z,LLM685,"44.001873,39.079021",17075,385,170
1622017386,2021-05-26T08:23:06Z,LLM685,"43.947083,39.091774",16100,375,170
1622017417,2021-05-26T08:23:37Z,LLM685,"43.894756,39.104332",15250,362,170
1622017448,2021-05-26T08:24:08Z,LLM685,"43.843967,39.116428",14350,353,170
1622017481,2021-05-26T08:24:41Z,LLM685,"43.791271,39.128658",13450,345,170
1622017515,2021-05-26T08:25:15Z,LLM685,"43.739552,39.140953",12575,336,170
1622017546,2021-05-26T08:25:46Z,LLM685,"43.69286,39.152069",11750,328,170
1622017558,2021-05-26T08:25:58Z,LLM685,"43.674637,39.156361",11375,326,170
1622017570,2021-05-26T08:26:10Z,LLM685,"43.656643,39.160637",11075,321,170
1622017582,2021-05-26T08:26:22Z,LLM685,"43.639755,39.1646",10850,315,170
1622017594,2021-05-26T08:26:34Z,LLM685,"43.622406,39.168625",10625,308,170
1622017604,2021-05-26T08:26:44Z,LLM685,"43.608032,39.17271",10425,300,164
1622017607,2021-05-26T08:26:47Z,LLM685,"43.604412,39.174435",10375,296,159
1622017609,2021-05-26T08:26:49Z,LLM685,"43.601757,39.176003",10325,294,156
1622017610,2021-05-26T08:26:50Z,LLM685,"43.601028,39.176479",10325,294,156
1622017612,2021-05-26T08:26:52Z,LLM685,"43.598145,39.178589",10275,292,151
1622017613,2021-05-26T08:26:53Z,LLM685,"43.597,39.179482",10275,290,150
1622017616,2021-05-26T08:26:56Z,LLM685,"43.59375,39.182484",10225,287,145
1622017617,2021-05-26T08:26:57Z,LLM685,"43.593292,39.182995",10200,287,145
1622017622,2021-05-26T08:27:02Z,LLM685,"43.58757,39.189575",10100,282,138
1622017625,2021-05-26T08:27:05Z,LLM685,"43.585052,39.192833",10075,280,137
1622017626,2021-05-26T08:27:06Z,LLM685,"43.584137,39.194046",10050,280,136
1622017627,2021-05-26T08:27:07Z,LLM685,"43.582626,39.196026",10025,280,136
1622017629,2021-05-26T08:27:09Z,LLM685,"43.581322,39.197716",10000,278,136
1622017630,2021-05-26T08:27:10Z,LLM685,"43.57988,39.1996",9975,277,136
1622017631,2021-05-26T08:27:11Z,LLM685,"43.579319,39.200329",9975,277,136
1622017632,2021-05-26T08:27:12Z,LLM685,"43.578342,39.201637",9950,276,136
1622017634,2021-05-26T08:27:14Z,LLM685,"43.57695,39.203499",9925,276,136
1622017635,2021-05-26T08:27:15Z,LLM685,"43.575439,39.205414",9900,275,136
1622017637,2021-05-26T08:27:17Z,LLM685,"43.573593,39.207851",9875,274,136
1622017638,2021-05-26T08:27:18Z,LLM685,"43.572693,39.209057",9850,274,136
1622017640,2021-05-26T08:27:20Z,LLM685,"43.570816,39.211483",9800,273,136
1622017653,2021-05-26T08:27:33Z,LLM685,"43.559628,39.225964",9575,269,136
1622017666,2021-05-26T08:27:46Z,LLM685,"43.54715,39.241791",9350,267,137
1622017679,2021-05-26T08:27:59Z,LLM685,"43.535294,39.256897",9100,269,137
1622017689,2021-05-26T08:28:09Z,LLM685,"43.526276,39.268265",8925,268,137
1622017701,2021-05-26T08:28:21Z,LLM685,"43.515636,39.281681",8625,269,137
1622017713,2021-05-26T08:28:33Z,LLM685,"43.505447,39.296692",8275,269,128
1622017716,2021-05-26T08:28:36Z,LLM685,"43.503067,39.301365",8200,268,124
1622017719,2021-05-26T08:28:39Z,LLM685,"43.501297,39.305027",8150,268,122
1622017721,2021-05-26T08:28:41Z,LLM685,"43.499344,39.309345",8100,266,122
1622017728,2021-05-26T08:28:48Z,LLM685,"43.495293,39.318367",7975,265,121
1622017731,2021-05-26T08:28:51Z,LLM685,"43.4935,39.322433",7925,263,121
1622017734,2021-05-26T08:28:54Z,LLM685,"43.49157,39.32674",7875,263,121
1622017737,2021-05-26T08:28:57Z,LLM685,"43.489426,39.331566",7825,261,121
1622017740,2021-05-26T08:29:00Z,LLM685,"43.487564,39.335697",7775,260,121
1622017752,2021-05-26T08:29:12Z,LLM685,"43.480068,39.35257",7550,257,121
1622017762,2021-05-26T08:29:22Z,LLM685,"43.473679,39.366886",7350,255,121
1622017774,2021-05-26T08:29:34Z,LLM685,"43.466675,39.382603",7100,255,121
1622017785,2021-05-26T08:29:45Z,LLM685,"43.4594,39.398804",6850,253,121
1622017797,2021-05-26T08:29:57Z,LLM685,"43.452652,39.413975",6625,253,121
1622017810,2021-05-26T08:30:10Z,LLM685,"43.444317,39.432873",6325,256,121
1622017821,2021-05-26T08:30:21Z,LLM685,"43.437469,39.448456",6075,257,121
1622017834,2021-05-26T08:30:34Z,LLM685,"43.429096,39.467075",5775,260,121
1622017847,2021-05-26T08:30:47Z,LLM685,"43.421368,39.484013",5525,258,122
1622017859,2021-05-26T08:30:59Z,LLM685,"43.413803,39.500641",5250,256,121
1622017868,2021-05-26T08:31:08Z,LLM685,"43.408054,39.513508",5075,257,121
1622017881,2021-05-26T08:31:21Z,LLM685,"43.399952,39.531948",4800,256,120
1622017889,2021-05-26T08:31:29Z,LLM685,"43.394852,39.543564",4625,254,121
1622017896,2021-05-26T08:31:36Z,LLM685,"43.391144,39.551929",4500,253,121
1622017901,2021-05-26T08:31:41Z,LLM685,"43.387711,39.559742",4400,253,121
1622017908,2021-05-26T08:31:48Z,LLM685,"43.383472,39.569221",4275,250,121
1622017914,2021-05-26T08:31:54Z,LLM685,"43.379791,39.57748",4150,250,121
1622017920,2021-05-26T08:32:00Z,LLM685,"43.376358,39.585018",4050,248,121
1622017926,2021-05-26T08:32:06Z,LLM685,"43.372421,39.593834",3900,247,121
1622017933,2021-05-26T08:32:13Z,LLM685,"43.368759,39.601944",3800,246,121
1622017939,2021-05-26T08:32:19Z,LLM685,"43.365131,39.610096",3675,246,121
1622017945,2021-05-26T08:32:25Z,LLM685,"43.36113,39.618923",3525,244,121
1622017951,2021-05-26T08:32:31Z,LLM685,"43.357868,39.626247",3425,244,121
1622017957,2021-05-26T08:32:37Z,LLM685,"43.354156,39.634392",3300,243,121
1622017964,2021-05-26T08:32:44Z,LLM685,"43.350235,39.643185",3175,242,121
1622017970,2021-05-26T08:32:50Z,LLM685,"43.346695,39.651062",3050,240,121
1622017975,2021-05-26T08:32:55Z,LLM685,"43.343445,39.658279",2950,239,121
1622017981,2021-05-26T08:33:01Z,LLM685,"43.340088,39.665745",2825,239,121
1622017990,2021-05-26T08:33:10Z,LLM685,"43.334827,39.677582",2650,237,121
1622017997,2021-05-26T08:33:17Z,LLM685,"43.331268,39.685619",2525,236,121
1622018003,2021-05-26T08:33:23Z,LLM685,"43.327843,39.693275",2400,234,121
1622018009,2021-05-26T08:33:29Z,LLM685,"43.324539,39.70063",2300,232,121
1622018016,2021-05-26T08:33:36Z,LLM685,"43.320557,39.709572",2175,229,121
1622018022,2021-05-26T08:33:42Z,LLM685,"43.316849,39.717812",2050,226,121
1622018032,2021-05-26T08:33:52Z,LLM685,"43.311951,39.728798",1925,222,121
1622018037,2021-05-26T08:33:57Z,LLM685,"43.308804,39.735718",1900,217,121
1622018043,2021-05-26T08:34:03Z,LLM685,"43.305637,39.742714",1875,212,121
1622018054,2021-05-26T08:34:14Z,LLM685,"43.30014,39.75486",1850,202,121
1622018060,2021-05-26T08:34:20Z,LLM685,"43.297211,39.761353",1875,197,121
1622018067,2021-05-26T08:34:27Z,LLM685,"43.294281,39.767826",1875,196,121
1622018072,2021-05-26T08:34:32Z,LLM685,"43.291534,39.773956",1875,191,121
1622018082,2021-05-26T08:34:42Z,LLM685,"43.287277,39.783348",1875,188,121
1622018091,2021-05-26T08:34:51Z,LLM685,"43.283066,39.792545",1875,185,121
1622018096,2021-05-26T08:34:56Z,LLM685,"43.280823,39.797592",1875,186,121
1622018102,2021-05-26T08:35:02Z,LLM685,"43.278442,39.804234",1875,186,114
1622018103,2021-05-26T08:35:03Z,LLM685,"43.278313,39.80471",1875,186,110
1622018106,2021-05-26T08:35:06Z,LLM685,"43.277527,39.80896",1875,186,102
1622018108,2021-05-26T08:35:08Z,LLM685,"43.277298,39.811451",1875,186,99
1622018112,2021-05-26T08:35:12Z,LLM685,"43.277336,39.816021",1875,187,89
1622018115,2021-05-26T08:35:15Z,LLM685,"43.277756,39.819565",1875,187,89
1622018121,2021-05-26T08:35:21Z,LLM685,"43.279335,39.825375",1875,187,78
1622018123,2021-05-26T08:35:23Z,LLM685,"43.280499,39.827923",1875,187,56
1622018152,2021-05-26T08:35:52Z,LLM685,"43.302334,39.845451",1875,189,28
1622018248,2021-05-26T08:37:28Z,LLM685,"43.366623,39.893776",1425,140,28
1622018302,2021-05-26T08:38:22Z,LLM685,"43.396835,39.916405",750,138,28
1622018313,2021-05-26T08:38:33Z,LLM685,"43.403091,39.921188",650,138,28
1622018338,2021-05-26T08:38:58Z,LLM685,"43.416992,39.932426",1625,139,38
1622018341,2021-05-26T08:39:01Z,LLM685,"43.418343,39.934387",1700,140,44
1622018344,2021-05-26T08:39:04Z,LLM685,"43.419552,39.936611",1775,143,54
1622018347,2021-05-26T08:39:07Z,LLM685,"43.42067,39.939327",1850,145,62
1622018350,2021-05-26T08:39:10Z,LLM685,"43.421402,39.942074",1900,151,71
1622018358,2021-05-26T08:39:18Z,LLM685,"43.421677,39.950378",2025,166,93
1622018368,2021-05-26T08:39:28Z,LLM685,"43.418247,39.959827",2150,188,131
1622018371,2021-05-26T08:39:31Z,LLM685,"43.416107,39.962311",2225,192,139
1622018375,2021-05-26T08:39:35Z,LLM685,"43.413116,39.964558",2300,192,139
1622018380,2021-05-26T08:39:40Z,LLM685,"43.408127,39.966217",2400,210,172
1622018384,2021-05-26T08:39:44Z,LLM685,"43.404465,39.966217",2525,215,181
1622018387,2021-05-26T08:39:47Z,LLM685,"43.401123,39.965641",2650,220,188
1622018418,2021-05-26T08:40:18Z,LLM685,"43.366901,39.961983",4000,261,176
1622018424,2021-05-26T08:40:24Z,LLM685,"43.359329,39.963406",4250,272,168
1622018427,2021-05-26T08:40:27Z,LLM685,"43.355759,39.964748",4450,273,163
1622018433,2021-05-26T08:40:33Z,LLM685,"43.349304,39.968388",4725,272,155
1622018436,2021-05-26T08:40:36Z,LLM685,"43.346046,39.971008",4900,268,149
1622018439,2021-05-26T08:40:39Z,LLM685,"43.342739,39.974213",5075,265,144
1622018446,2021-05-26T08:40:46Z,LLM685,"43.337013,39.981995",5350,262,131
1622018451,2021-05-26T08:40:51Z,LLM685,"43.333431,39.988926",5525,256,122
1622018458,2021-05-26T08:40:58Z,LLM685,"43.328522,39.9986",5725,254,128
1622018460,2021-05-26T08:41:00Z,LLM685,"43.327332,40.000389",5750,254,131
1622018463,2021-05-26T08:41:03Z,LLM685,"43.324265,40.004223",5825,255,137
1622018471,2021-05-26T08:41:11Z,LLM685,"43.315796,40.010548",5900,255,154
1622018479,2021-05-26T08:41:19Z,LLM685,"43.306801,40.013252",5900,254,171
1622018483,2021-05-26T08:41:23Z,LLM685,"43.302704,40.013294",5925,254,171
1622018498,2021-05-26T08:41:38Z,LLM685,"43.285202,40.006256",5950,253,204
1622018500,2021-05-26T08:41:40Z,LLM685,"43.283615,40.00499",5950,253,208
1622018503,2021-05-26T08:41:43Z,LLM685,"43.280548,40.002331",5950,253,212
1622018506,2021-05-26T08:41:46Z,LLM685,"43.277752,39.999519",5950,253,216
1622018509,2021-05-26T08:41:49Z,LLM685,"43.275146,39.996773",5925,254,217
1622018510,2021-05-26T08:41:50Z,LLM685,"43.27417,39.995792",5925,254,217
1622018512,2021-05-26T08:41:52Z,LLM685,"43.272308,39.993896",5900,254,217
1622018527,2021-05-26T08:42:07Z,LLM685,"43.257175,39.9799",5775,254,212
1622018591,2021-05-26T08:43:11Z,LLM685,"43.196568,39.925755",5875,235,214
1622018607,2021-05-26T08:43:27Z,LLM685,"43.182632,39.912243",5875,232,215
1622018618,2021-05-26T08:43:38Z,LLM685,"43.172516,39.902279",5875,234,215
1622018631,2021-05-26T08:43:51Z,LLM685,"43.160812,39.89077",5875,234,215
1622018644,2021-05-26T08:44:04Z,LLM685,"43.150131,39.880306",5875,235,215
1622018659,2021-05-26T08:44:19Z,LLM685,"43.136444,39.866959",5875,236,215
1622018677,2021-05-26T08:44:37Z,LLM685,"43.120453,39.850029",5850,237,225
1622018680,2021-05-26T08:44:40Z,LLM685,"43.118916,39.847542",5850,237,228
1622018689,2021-05-26T08:44:49Z,LLM685,"43.113842,39.834858",5775,235,249
1622018693,2021-05-26T08:44:53Z,LLM685,"43.112911,39.830212",5750,233,255
1622018695,2021-05-26T08:44:55Z,LLM685,"43.112446,39.826485",5725,231,261
1622018704,2021-05-26T08:45:04Z,LLM685,"43.112869,39.813816",5600,224,280
1622018707,2021-05-26T08:45:07Z,LLM685,"43.113655,39.809811",5575,222,286
1622018711,2021-05-26T08:45:11Z,LLM685,"43.115055,39.80497",5500,220,293
1622018714,2021-05-26T08:45:14Z,LLM685,"43.116714,39.801041",5450,219,299
1622018720,2021-05-26T08:45:20Z,LLM685,"43.120468,39.794716",5350,215,312
1622018723,2021-05-26T08:45:23Z,LLM685,"43.122665,39.79216",5300,214,321
1622018726,2021-05-26T08:45:26Z,LLM685,"43.125156,39.789864",5225,214,328
1622018729,2021-05-26T08:45:29Z,LLM685,"43.127701,39.788074",5175,213,332
1622018735,2021-05-26T08:45:35Z,LLM685,"43.133488,39.785679",5075,209,347
1622018741,2021-05-26T08:45:41Z,LLM685,"43.139542,39.784893",5000,206,356
1622018744,2021-05-26T08:45:44Z,LLM685,"43.142349,39.784817",4950,204,358
1622018747,2021-05-26T08:45:47Z,LLM685,"43.145187,39.784878",4925,202,358
1622018753,2021-05-26T08:45:53Z,LLM685,"43.150223,39.785007",4800,196,1
1622018756,2021-05-26T08:45:56Z,LLM685,"43.153553,39.785156",4675,195,1
1622018760,2021-05-26T08:46:00Z,LLM685,"43.156403,39.785263",4550,195,1
1622018763,2021-05-26T08:46:03Z,LLM685,"43.159195,39.785328",4400,196,1
1622018766,2021-05-26T08:46:06Z,LLM685,"43.16185,39.785454",4300,197,1
1622018769,2021-05-26T08:46:09Z,LLM685,"43.164818,39.785549",4175,198,1
1622018775,2021-05-26T08:46:15Z,LLM685,"43.17041,39.785519",3950,197,358
1622018778,2021-05-26T08:46:18Z,LLM685,"43.173248,39.785328",3825,197,356
1622018781,2021-05-26T08:46:21Z,LLM685,"43.175804,39.785027",3725,197,355
1622018787,2021-05-26T08:46:27Z,LLM685,"43.181213,39.784176",3450,198,352
1622018793,2021-05-26T08:46:33Z,LLM685,"43.186977,39.783062",3175,200,351
1622018796,2021-05-26T08:46:36Z,LLM685,"43.189816,39.782475",3050,200,351
1622018799,2021-05-26T08:46:39Z,LLM685,"43.192657,39.782005",2925,200,353
1622018805,2021-05-26T08:46:45Z,LLM685,"43.198334,39.78162",2700,200,358
1622018808,2021-05-26T08:46:48Z,LLM685,"43.20108,39.781689",2600,200,1
1622018811,2021-05-26T08:46:51Z,LLM685,"43.203735,39.781876",2550,198,3
1622018820,2021-05-26T08:47:00Z,LLM685,"43.211697,39.78352",2400,191,10
1622018823,2021-05-26T08:47:03Z,LLM685,"43.214256,39.784306",2350,188,13
1622018826,2021-05-26T08:47:06Z,LLM685,"43.216827,39.785263",2300,186,15
1622018829,2021-05-26T08:47:09Z,LLM685,"43.219391,39.78635",2250,183,16
1622018832,2021-05-26T08:47:12Z,LLM685,"43.221222,39.787178",2200,182,17
1622018835,2021-05-26T08:47:15Z,LLM685,"43.223923,39.788521",2150,178,19
1622018838,2021-05-26T08:47:18Z,LLM685,"43.226315,39.789799",2125,176,21
1622018841,2021-05-26T08:47:21Z,LLM685,"43.228409,39.791042",2125,172,23
1622018844,2021-05-26T08:47:24Z,LLM685,"43.230469,39.79229",2125,166,24
1622018847,2021-05-26T08:47:27Z,LLM685,"43.232208,39.793373",2100,162,24
1622018850,2021-05-26T08:47:30Z,LLM685,"43.234314,39.794716",2050,161,24
1622018853,2021-05-26T08:47:33Z,LLM685,"43.23637,39.796078",2000,159,26
1622018857,2021-05-26T08:47:37Z,LLM685,"43.238834,39.797779",1950,157,26
1622018860,2021-05-26T08:47:40Z,LLM685,"43.240768,39.799122",1925,156,27
1622018941,2021-05-26T08:49:01Z,LLM685,"43.290894,39.837383",1875,149,28
1622018948,2021-05-26T08:49:08Z,LLM685,"43.295013,39.840385",1875,149,28
1622018956,2021-05-26T08:49:16Z,LLM685,"43.299725,39.843815",1875,150,28
1622019064,2021-05-26T08:51:04Z,LLM685,"43.365784,39.893211",1425,144,28
1622019120,2021-05-26T08:52:00Z,LLM685,"43.397369,39.916843",750,139,28
1622019140,2021-05-26T08:52:20Z,LLM685,"43.40831,39.925018",500,138,28
1622019169,2021-05-26T08:52:49Z,LLM685,"43.424561,39.937218",150,137,28
1622019176,2021-05-26T08:52:56Z,LLM685,"43.428909,39.940468",50,138,28
1622019186,2021-05-26T08:53:06Z,LLM685,"43.433983,39.944328",0,137,29
1622019201,2021-05-26T08:53:21Z,LLM685,"43.442047,39.950378",0,105,29
1622019212,2021-05-26T08:53:32Z,LLM685,"43.44561,39.953056",0,64,28
1622019246,2021-05-26T08:54:06Z,LLM685,"43.449783,39.955647",0,12,340
1622019264,2021-05-26T08:54:24Z,LLM685,"43.450428,39.955231",0,8,331
1622019272,2021-05-26T08:54:32Z,LLM685,"43.450592,39.954872",0,8,295
1622019277,2021-05-26T08:54:37Z,LLM685,"43.450592,39.954628",0,9,272
1622019282,2021-05-26T08:54:42Z,LLM685,"43.450516,39.954338",0,10,250
1622019286,2021-05-26T08:54:46Z,LLM685,"43.450417,39.954071",0,12,244
1622019290,2021-05-26T08:54:50Z,LLM685,"43.450321,39.953793",0,13,244
1622019293,2021-05-26T08:54:53Z,LLM685,"43.45023,39.953533",0,14,244
1622019296,2021-05-26T08:54:56Z,LLM685,"43.450138,39.953266",0,15,244
1622019299,2021-05-26T08:54:59Z,LLM685,"43.450047,39.953011",0,15,244
1622019302,2021-05-26T08:55:02Z,LLM685,"43.449974,39.952763",0,16,244
1622019324,2021-05-26T08:55:24Z,LLM685,"43.449051,39.950203",0,23,244
1622019330,2021-05-26T08:55:30Z,LLM685,"43.448753,39.949322",0,24,244
1622019336,2021-05-26T08:55:36Z,LLM685,"43.448471,39.948513",0,23,244
1622019343,2021-05-26T08:55:43Z,LLM685,"43.448124,39.947483",0,24,244
1622019349,2021-05-26T08:55:49Z,LLM685,"43.447849,39.94669",0,23,244
1622019365,2021-05-26T08:56:05Z,LLM685,"43.447151,39.944675",0,21,244
1622019372,2021-05-26T08:56:12Z,LLM685,"43.446888,39.943886",0,19,244
1622019379,2021-05-26T08:56:19Z,LLM685,"43.446602,39.943062",0,20,244
1622019386,2021-05-26T08:56:26Z,LLM685,"43.446327,39.942265",0,19,244
1622019396,2021-05-26T08:56:36Z,LLM685,"43.445972,39.941227",0,18,244
1622019407,2021-05-26T08:56:47Z,LLM685,"43.445576,39.94006",0,17,244
1622019422,2021-05-26T08:57:02Z,LLM685,"43.445091,39.938641",0,16,244
1622019431,2021-05-26T08:57:11Z,LLM685,"43.444805,39.93782",0,15,244
1622019437,2021-05-26T08:57:17Z,LLM685,"43.444622,39.937298",0,14,244
1622019445,2021-05-26T08:57:25Z,LLM685,"43.444427,39.936726",0,13,244
1622019454,2021-05-26T08:57:34Z,LLM685,"43.444164,39.935955",0,16,244
1622019460,2021-05-26T08:57:40Z,LLM685,"43.443993,39.935429",0,15,244
1622019467,2021-05-26T08:57:47Z,LLM685,"43.443783,39.93483",0,12,244
1622019479,2021-05-26T08:57:59Z,LLM685,"43.443584,39.934208",0,7,250
1622019489,2021-05-26T08:58:09Z,LLM685,"43.443741,39.933865",0,5,317
1622019503,2021-05-26T08:58:23Z,LLM685,"43.444004,39.933929",0,3,5
1622019522,2021-05-26T08:58:42Z,LLM685,"43.443897,39.935154",0,1,5
