Timestamp,UTC,Callsign,Position,Altitude,Speed,Direction
1622976841,2021-06-06T10:54:01Z,PBD537,"59.798195,30.266624",0,0,106
1622977996,2021-06-06T11:13:16Z,PBD537,"59.79821,30.266411",0,3,106
1622978004,2021-06-06T11:13:24Z,PBD537,"59.798248,30.266197",0,3,104
1622978012,2021-06-06T11:13:32Z,PBD537,"59.798283,30.265961",0,4,101
1622978018,2021-06-06T11:13:38Z,PBD537,"59.798309,30.265755",0,4,92
1622978024,2021-06-06T11:13:44Z,PBD537,"59.798321,30.265549",0,4,87
1622978030,2021-06-06T11:13:50Z,PBD537,"59.798317,30.265345",0,4,84
1622978037,2021-06-06T11:13:57Z,PBD537,"59.798306,30.265133",0,3,81
1622978044,2021-06-06T11:14:04Z,PBD537,"59.798298,30.264931",0,3,78
1622978051,2021-06-06T11:14:11Z,PBD537,"59.798283,30.264706",0,3,70
1622978059,2021-06-06T11:14:19Z,PBD537,"59.798264,30.264496",0,3,56
1622978068,2021-06-06T11:14:28Z,PBD537,"59.798206,30.26429",0,3,39
1622978103,2021-06-06T11:15:03Z,PBD537,"59.798264,30.266075",0,0,210
1622978358,2021-06-06T11:19:18Z,PBD537,"59.798107,30.264114",0,0,14
1622978388,2021-06-06T11:19:48Z,PBD537,"59.798332,30.264244",0,4,16
1622978400,2021-06-06T11:20:00Z,PBD537,"59.798664,30.26445",0,6,16
1622978408,2021-06-06T11:20:08Z,PBD537,"59.798904,30.264587",0,7,16
1622978419,2021-06-06T11:20:19Z,PBD537,"59.799259,30.264816",0,8,16
1622978425,2021-06-06T11:20:25Z,PBD537,"59.799488,30.264954",0,9,16
1622978431,2021-06-06T11:20:31Z,PBD537,"59.799736,30.265085",0,9,16
1622978438,2021-06-06T11:20:38Z,PBD537,"59.800083,30.265297",0,10,14
1622978446,2021-06-06T11:20:46Z,PBD537,"59.800411,30.265488",0,10,14
1622978456,2021-06-06T11:20:56Z,PBD537,"59.800831,30.265724",0,8,16
1622978465,2021-06-06T11:21:05Z,PBD537,"59.801109,30.26589",0,7,14
1622978472,2021-06-06T11:21:12Z,PBD537,"59.801319,30.266029",0,7,16
1622978481,2021-06-06T11:21:21Z,PBD537,"59.80164,30.266212",0,8,16
1622978487,2021-06-06T11:21:27Z,PBD537,"59.80188,30.266373",0,9,16
1622978500,2021-06-06T11:21:40Z,PBD537,"59.802441,30.26667",0,10,14
1622978505,2021-06-06T11:21:45Z,PBD537,"59.802681,30.266813",0,10,14
1622978514,2021-06-06T11:21:54Z,PBD537,"59.803112,30.267073",0,11,14
1622978522,2021-06-06T11:22:02Z,PBD537,"59.803505,30.267288",0,11,14
1622978530,2021-06-06T11:22:10Z,PBD537,"59.803856,30.267475",0,10,16
1622978534,2021-06-06T11:22:14Z,PBD537,"59.803997,30.267714",0,10,42
1622978537,2021-06-06T11:22:17Z,PBD537,"59.804031,30.267973",0,10,67
1622978540,2021-06-06T11:22:20Z,PBD537,"59.804031,30.268227",0,9,87
1622978547,2021-06-06T11:22:27Z,PBD537,"59.803959,30.268684",0,9,104
1622978550,2021-06-06T11:22:30Z,PBD537,"59.803925,30.268969",0,9,106
1622978553,2021-06-06T11:22:33Z,PBD537,"59.803883,30.269302",0,10,106
1622978556,2021-06-06T11:22:36Z,PBD537,"59.803837,30.269531",0,11,106
1622978560,2021-06-06T11:22:40Z,PBD537,"59.803776,30.269962",0,11,106
1622978565,2021-06-06T11:22:45Z,PBD537,"59.803703,30.27046",0,12,106
1622978570,2021-06-06T11:22:50Z,PBD537,"59.803619,30.271019",0,12,106
1622978579,2021-06-06T11:22:59Z,PBD537,"59.803482,30.271935",0,12,106
1622978587,2021-06-06T11:23:07Z,PBD537,"59.803356,30.272779",0,13,106
1622978606,2021-06-06T11:23:26Z,PBD537,"59.803013,30.27507",0,14,106
1622978617,2021-06-06T11:23:37Z,PBD537,"59.802822,30.276331",0,14,104
1622978627,2021-06-06T11:23:47Z,PBD537,"59.802647,30.277565",0,13,106
1622978632,2021-06-06T11:23:52Z,PBD537,"59.802563,30.278084",0,10,106
1622978641,2021-06-06T11:24:01Z,PBD537,"59.802448,30.278866",0,11,106
1622978647,2021-06-06T11:24:07Z,PBD537,"59.802349,30.27951",0,11,104
1622978655,2021-06-06T11:24:15Z,PBD537,"59.802246,30.280243",0,10,104
1622978663,2021-06-06T11:24:23Z,PBD537,"59.802155,30.280861",0,8,106
1622978669,2021-06-06T11:24:29Z,PBD537,"59.802086,30.281281",0,8,106
1622978676,2021-06-06T11:24:36Z,PBD537,"59.802017,30.281754",0,8,106
1622978682,2021-06-06T11:24:42Z,PBD537,"59.80196,30.282143",0,7,106
1622978690,2021-06-06T11:24:50Z,PBD537,"59.80188,30.282692",0,8,106
1622978699,2021-06-06T11:24:59Z,PBD537,"59.801788,30.28331",0,8,106
1622978705,2021-06-06T11:25:05Z,PBD537,"59.801731,30.283699",0,8,106
1622978711,2021-06-06T11:25:11Z,PBD537,"59.801655,30.284193",0,8,104
1622978716,2021-06-06T11:25:16Z,PBD537,"59.801605,30.284523",0,9,106
1622978722,2021-06-06T11:25:22Z,PBD537,"59.801529,30.285046",0,9,106
1622978728,2021-06-06T11:25:28Z,PBD537,"59.80146,30.285519",0,10,106
1622978735,2021-06-06T11:25:35Z,PBD537,"59.801365,30.286148",0,10,106
1622978741,2021-06-06T11:25:41Z,PBD537,"59.801285,30.28672",0,10,104
1622978748,2021-06-06T11:25:48Z,PBD537,"59.801201,30.287294",0,11,104
1622978757,2021-06-06T11:25:57Z,PBD537,"59.801075,30.288195",0,11,106
1622978762,2021-06-06T11:26:02Z,PBD537,"59.800968,30.288761",0,11,106
1622978768,2021-06-06T11:26:08Z,PBD537,"59.800877,30.289377",0,12,106
1622978775,2021-06-06T11:26:15Z,PBD537,"59.800793,30.290039",0,12,106
1622978782,2021-06-06T11:26:22Z,PBD537,"59.800678,30.290775",0,12,106
1622978787,2021-06-06T11:26:27Z,PBD537,"59.800587,30.291367",0,12,106
1622978793,2021-06-06T11:26:33Z,PBD537,"59.800491,30.291983",0,11,106
1622978800,2021-06-06T11:26:40Z,PBD537,"59.800404,30.29258",0,10,106
1622978805,2021-06-06T11:26:45Z,PBD537,"59.800323,30.293106",0,10,106
1622978812,2021-06-06T11:26:52Z,PBD537,"59.800247,30.293615",0,9,106
1622978818,2021-06-06T11:26:58Z,PBD537,"59.800179,30.294065",0,8,106
1622978825,2021-06-06T11:27:05Z,PBD537,"59.800121,30.294493",0,7,106
1622978831,2021-06-06T11:27:11Z,PBD537,"59.800087,30.294704",0,4,106
1622978892,2021-06-06T11:28:12Z,PBD537,"59.800049,30.294989",0,4,106
1622978901,2021-06-06T11:28:21Z,PBD537,"59.799946,30.295601",0,10,106
1622978917,2021-06-06T11:28:37Z,PBD537,"59.799694,30.297363",0,12,106
1622978923,2021-06-06T11:28:43Z,PBD537,"59.799603,30.297935",0,11,106
1622978933,2021-06-06T11:28:53Z,PBD537,"59.799465,30.29892",0,10,106
1622978940,2021-06-06T11:29:00Z,PBD537,"59.799389,30.299511",0,10,101
1622978944,2021-06-06T11:29:04Z,PBD537,"59.799389,30.299891",0,10,90
1622978947,2021-06-06T11:29:07Z,PBD537,"59.799408,30.300156",0,10,78
1622978950,2021-06-06T11:29:10Z,PBD537,"59.799477,30.300385",0,9,64
1622978954,2021-06-06T11:29:14Z,PBD537,"59.799583,30.300648",0,9,50
1622978959,2021-06-06T11:29:19Z,PBD537,"59.799694,30.300911",0,8,47
1622978964,2021-06-06T11:29:24Z,PBD537,"59.799805,30.301121",0,5,47
1622979073,2021-06-06T11:31:13Z,PBD537,"59.799419,30.299263",0,0,89
1622979111,2021-06-06T11:31:51Z,PBD537,"59.799957,30.301483",0,5,47
1622979117,2021-06-06T11:31:57Z,PBD537,"59.800087,30.301737",0,8,47
1622979124,2021-06-06T11:32:04Z,PBD537,"59.800289,30.302216",0,10,47
1622979129,2021-06-06T11:32:09Z,PBD537,"59.800484,30.302628",0,12,42
1622979134,2021-06-06T11:32:14Z,PBD537,"59.800713,30.302921",0,12,28
1622979138,2021-06-06T11:32:18Z,PBD537,"59.800934,30.303017",0,11,8
1622979144,2021-06-06T11:32:24Z,PBD537,"59.801167,30.302732",0,10,317
1622979149,2021-06-06T11:32:29Z,PBD537,"59.801239,30.302401",0,7,292
1622979294,2021-06-06T11:34:54Z,PBD537,"59.801319,30.301855",0,12,286
1622979300,2021-06-06T11:35:00Z,PBD537,"59.80164,30.299744",0,44,286
1622979307,2021-06-06T11:35:07Z,PBD537,"59.8022,30.29599",0,70,286
1622979316,2021-06-06T11:35:16Z,PBD537,"59.803436,30.287842",0,109,286
1622979322,2021-06-06T11:35:22Z,PBD537,"59.804489,30.280518",0,135,285
1622979331,2021-06-06T11:35:31Z,PBD537,"59.806358,30.268091",0,162,285
1622979346,2021-06-06T11:35:46Z,PBD537,"59.809711,30.245457",625,171,286
1622979352,2021-06-06T11:35:52Z,PBD537,"59.811153,30.236364",875,173,287
1622979359,2021-06-06T11:35:59Z,PBD537,"59.812874,30.226324",1175,174,288
1622979372,2021-06-06T11:36:12Z,PBD537,"59.816227,30.20492",1575,189,286
1622979379,2021-06-06T11:36:19Z,PBD537,"59.818039,30.192719",1700,205,286
1622979392,2021-06-06T11:36:32Z,PBD537,"59.821518,30.169098",2000,226,285
1622979400,2021-06-06T11:36:40Z,PBD537,"59.824142,30.151125",2450,232,285
1622979406,2021-06-06T11:36:46Z,PBD537,"59.825909,30.138718",2775,234,285
1622979419,2021-06-06T11:36:59Z,PBD537,"59.829773,30.111063",3550,238,285
1622979427,2021-06-06T11:37:07Z,PBD537,"59.831863,30.095581",4025,237,284
1622979452,2021-06-06T11:37:32Z,PBD537,"59.840759,30.042871",5625,236,299
1622979464,2021-06-06T11:37:44Z,PBD537,"59.849533,30.025726",6175,243,317
1622979465,2021-06-06T11:37:45Z,PBD537,"59.850815,30.02417",6225,247,325
1622979466,2021-06-06T11:37:46Z,PBD537,"59.851933,30.022888",6275,249,327
1622979467,2021-06-06T11:37:47Z,PBD537,"59.853241,30.021423",6325,250,329
1622979472,2021-06-06T11:37:52Z,PBD537,"59.858551,30.01712",6425,259,338
1622979474,2021-06-06T11:37:54Z,PBD537,"59.860916,30.015785",6475,264,342
1622979476,2021-06-06T11:37:56Z,PBD537,"59.863678,30.014648",6500,266,344
1622979479,2021-06-06T11:37:59Z,PBD537,"59.866837,30.013916",6550,275,351
1622979480,2021-06-06T11:38:00Z,PBD537,"59.868256,30.013733",6600,279,353
1622979484,2021-06-06T11:38:04Z,PBD537,"59.87352,30.014099",6750,285,2
1622979485,2021-06-06T11:38:05Z,PBD537,"59.874649,30.014364",6775,284,3
1622979487,2021-06-06T11:38:07Z,PBD537,"59.87735,30.015312",6875,287,7
1622979495,2021-06-06T11:38:15Z,PBD537,"59.887024,30.021515",7100,291,20
1622979498,2021-06-06T11:38:18Z,PBD537,"59.890572,30.025066",7150,292,25
1622979499,2021-06-06T11:38:19Z,PBD537,"59.892155,30.027056",7175,292,29
1622979500,2021-06-06T11:38:20Z,PBD537,"59.893295,30.028473",7200,292,30
1622979501,2021-06-06T11:38:21Z,PBD537,"59.894714,30.030464",7200,292,32
1622979505,2021-06-06T11:38:25Z,PBD537,"59.8983,30.036337",7250,291,37
1622979506,2021-06-06T11:38:26Z,PBD537,"59.899155,30.037994",7275,291,39
1622979507,2021-06-06T11:38:27Z,PBD537,"59.900673,30.040977",7300,290,43
1622979508,2021-06-06T11:38:28Z,PBD537,"59.901489,30.042755",7300,290,43
1622979511,2021-06-06T11:38:31Z,PBD537,"59.903976,30.048933",7350,291,50
1622979513,2021-06-06T11:38:33Z,PBD537,"59.905376,30.053005",7375,291,50
1622979514,2021-06-06T11:38:34Z,PBD537,"59.905746,30.054108",7375,289,54
1622979516,2021-06-06T11:38:36Z,PBD537,"59.907074,30.05896",7400,288,55
1622979519,2021-06-06T11:38:39Z,PBD537,"59.908813,30.066559",7450,287,63
1622979520,2021-06-06T11:38:40Z,PBD537,"59.9091,30.067781",7450,286,64
1622979521,2021-06-06T11:38:41Z,PBD537,"59.909775,30.071777",7475,285,66
1622979522,2021-06-06T11:38:42Z,PBD537,"59.910187,30.074249",7500,285,68
1622979523,2021-06-06T11:38:43Z,PBD537,"59.910404,30.075453",7500,284,70
1622979524,2021-06-06T11:38:44Z,PBD537,"59.91082,30.079334",7525,284,72
1622979525,2021-06-06T11:38:45Z,PBD537,"59.911102,30.082123",7550,283,75
1622979526,2021-06-06T11:38:46Z,PBD537,"59.911335,30.084639",7550,283,75
1622979532,2021-06-06T11:38:52Z,PBD537,"59.911972,30.100708",7650,282,86
1622979533,2021-06-06T11:38:53Z,PBD537,"59.911972,30.10199",7650,282,87
1622979534,2021-06-06T11:38:54Z,PBD537,"59.911972,30.105652",7675,282,88
1622979536,2021-06-06T11:38:56Z,PBD537,"59.91188,30.110321",7700,282,89
1622979537,2021-06-06T11:38:57Z,PBD537,"59.911846,30.112957",7725,283,91
1622979538,2021-06-06T11:38:58Z,PBD537,"59.911751,30.115515",7750,283,92
1622979540,2021-06-06T11:39:00Z,PBD537,"59.911472,30.121008",7775,284,94
1622979541,2021-06-06T11:39:01Z,PBD537,"59.911423,30.122314",7800,284,94
1622979542,2021-06-06T11:39:02Z,PBD537,"59.91124,30.12442",7825,284,96
1622979545,2021-06-06T11:39:05Z,PBD537,"59.910587,30.132183",7875,286,98
1622979551,2021-06-06T11:39:11Z,PBD537,"59.90868,30.148378",8025,292,104
1622979556,2021-06-06T11:39:16Z,PBD537,"59.90657,30.160858",8150,297,108
1622979562,2021-06-06T11:39:22Z,PBD537,"59.903137,30.177795",8450,301,112
1622979564,2021-06-06T11:39:24Z,PBD537,"59.901932,30.1838",8550,303,111
1622979565,2021-06-06T11:39:25Z,PBD537,"59.901604,30.1856",8575,303,111
1622979566,2021-06-06T11:39:26Z,PBD537,"59.901123,30.187958",8625,305,111
1622979568,2021-06-06T11:39:28Z,PBD537,"59.899975,30.193745",8725,306,111
1622979571,2021-06-06T11:39:31Z,PBD537,"59.898697,30.200592",8850,307,110
1622979572,2021-06-06T11:39:32Z,PBD537,"59.898205,30.203026",8900,307,110
1622979593,2021-06-06T11:39:53Z,PBD537,"59.887802,30.259552",9975,316,109
1622979615,2021-06-06T11:40:15Z,PBD537,"59.87693,30.320276",11225,320,109
1622979632,2021-06-06T11:40:32Z,PBD537,"59.868271,30.368769",12250,321,109
1622979663,2021-06-06T11:41:03Z,PBD537,"59.852539,30.45467",14000,323,110
1622979694,2021-06-06T11:41:34Z,PBD537,"59.836441,30.541534",15450,334,110
1622979727,2021-06-06T11:42:07Z,PBD537,"59.818134,30.639071",16900,346,110
1622979757,2021-06-06T11:42:37Z,PBD537,"59.801189,30.728949",18175,354,110
1622979819,2021-06-06T11:43:39Z,PBD537,"59.764435,30.923492",20750,369,110
1622979883,2021-06-06T11:44:43Z,PBD537,"59.725777,31.125973",23150,382,110
1622979940,2021-06-06T11:45:40Z,PBD537,"59.684624,31.312456",25050,391,122
1622979943,2021-06-06T11:45:43Z,PBD537,"59.681396,31.32193",25150,392,123
1622979944,2021-06-06T11:45:44Z,PBD537,"59.680389,31.324863",25200,392,124
1622979948,2021-06-06T11:45:48Z,PBD537,"59.676197,31.336227",25325,391,125
1622979949,2021-06-06T11:45:49Z,PBD537,"59.675034,31.339354",25350,392,126
1622979952,2021-06-06T11:45:52Z,PBD537,"59.671921,31.34729",25450,391,127
1622979954,2021-06-06T11:45:54Z,PBD537,"59.669075,31.354223",25550,392,128
1622979959,2021-06-06T11:45:59Z,PBD537,"59.663315,31.367615",25700,392,130
1622979960,2021-06-06T11:46:00Z,PBD537,"59.662857,31.368713",25725,392,130
1622979961,2021-06-06T11:46:01Z,PBD537,"59.660976,31.37307",25775,392,130
1622979964,2021-06-06T11:46:04Z,PBD537,"59.657455,31.381256",25875,393,130
1622980025,2021-06-06T11:47:05Z,PBD537,"59.585979,31.549231",27725,401,129
1622980085,2021-06-06T11:48:05Z,PBD537,"59.512894,31.720087",29275,412,130
1622980148,2021-06-06T11:49:08Z,PBD537,"59.43478,31.901266",30775,421,130
1622980209,2021-06-06T11:50:09Z,PBD537,"59.357548,32.079037",32075,429,130
1622980271,2021-06-06T11:51:11Z,PBD537,"59.277191,32.262085",33575,430,130
1622980332,2021-06-06T11:52:12Z,PBD537,"59.198387,32.43988",35000,426,130
1622980394,2021-06-06T11:53:14Z,PBD537,"59.118408,32.61945",36150,426,130
1622980455,2021-06-06T11:54:15Z,PBD537,"59.039063,32.796204",37000,427,131
1622980516,2021-06-06T11:55:16Z,PBD537,"58.960556,32.969421",37000,428,131
1622980578,2021-06-06T11:56:18Z,PBD537,"58.878479,33.148594",37000,430,131
1622980639,2021-06-06T11:57:19Z,PBD537,"58.798084,33.324188",37000,430,131
1622980700,2021-06-06T11:58:20Z,PBD537,"58.718216,33.497227",37000,429,131
1622980762,2021-06-06T11:59:22Z,PBD537,"58.635895,33.673553",37000,429,131
1622980825,2021-06-06T12:00:25Z,PBD537,"58.553421,33.848965",37000,426,132
1622980885,2021-06-06T12:01:25Z,PBD537,"58.473057,34.018524",37000,425,132
1622980947,2021-06-06T12:02:27Z,PBD537,"58.392197,34.187416",37000,424,132
1622981008,2021-06-06T12:03:28Z,PBD537,"58.312405,34.354156",37000,420,132
1622981070,2021-06-06T12:04:30Z,PBD537,"58.230984,34.521973",37000,416,132
1622981091,2021-06-06T12:04:51Z,PBD537,"58.199886,34.572601",37000,417,144
1622981093,2021-06-06T12:04:53Z,PBD537,"58.196583,34.576904",37000,417,145
1622981097,2021-06-06T12:04:57Z,PBD537,"58.189728,34.585136",37000,418,147
1622981098,2021-06-06T12:04:58Z,PBD537,"58.1889,34.58606",37000,417,148
1622981099,2021-06-06T12:04:59Z,PBD537,"58.187595,34.587524",37000,417,148
1622981102,2021-06-06T12:05:02Z,PBD537,"58.18158,34.593998",37000,418,150
1622981106,2021-06-06T12:05:06Z,PBD537,"58.174889,34.600616",37000,418,152
1622981108,2021-06-06T12:05:08Z,PBD537,"58.172466,34.602905",37000,419,153
1622981110,2021-06-06T12:05:10Z,PBD537,"58.168789,34.60611",37000,418,154
1622981115,2021-06-06T12:05:15Z,PBD537,"58.158875,34.614288",37000,419,156
1622981116,2021-06-06T12:05:16Z,PBD537,"58.157272,34.615528",37000,419,156
1622981118,2021-06-06T12:05:18Z,PBD537,"58.153748,34.618362",37000,419,157
1622981119,2021-06-06T12:05:19Z,PBD537,"58.15287,34.61911",37000,419,157
1622981180,2021-06-06T12:06:20Z,PBD537,"58.04425,34.707317",37000,414,156
1622981241,2021-06-06T12:07:21Z,PBD537,"57.93782,34.793789",37000,415,157
1622981304,2021-06-06T12:08:24Z,PBD537,"57.826401,34.882214",37000,416,157
1622981365,2021-06-06T12:09:25Z,PBD537,"57.719234,34.967709",37000,413,155
1622981425,2021-06-06T12:10:25Z,PBD537,"57.619427,35.073322",37000,413,149
1622981487,2021-06-06T12:11:27Z,PBD537,"57.517685,35.183372",37000,414,149
1622981548,2021-06-06T12:12:28Z,PBD537,"57.416458,35.291805",37000,415,150
1622981609,2021-06-06T12:13:29Z,PBD537,"57.315674,35.399456",37000,416,150
1622981670,2021-06-06T12:14:30Z,PBD537,"57.212841,35.508522",37000,420,150
1622981732,2021-06-06T12:15:32Z,PBD537,"57.10762,35.618877",37000,430,150
1622981793,2021-06-06T12:16:33Z,PBD537,"57.002705,35.728336",37000,432,150
1622981854,2021-06-06T12:17:34Z,PBD537,"56.896519,35.838642",37000,431,150
1622981914,2021-06-06T12:18:34Z,PBD537,"56.793274,35.945633",37000,430,150
1622981977,2021-06-06T12:19:37Z,PBD537,"56.683182,36.058159",37000,428,150
1622982038,2021-06-06T12:20:38Z,PBD537,"56.578705,36.164417",37000,428,150
1622982101,2021-06-06T12:21:41Z,PBD537,"56.469223,36.27544",37000,429,151
1622982161,2021-06-06T12:22:41Z,PBD537,"56.367546,36.385174",37000,425,140
1622982162,2021-06-06T12:22:42Z,PBD537,"56.366821,36.386387",37000,425,140
1622982164,2021-06-06T12:22:44Z,PBD537,"56.362984,36.392384",37000,424,139
1622982165,2021-06-06T12:22:45Z,PBD537,"56.362289,36.393627",37000,424,138
1622982169,2021-06-06T12:22:49Z,PBD537,"56.35643,36.40353",37000,423,136
1622982171,2021-06-06T12:22:51Z,PBD537,"56.353672,36.40852",37000,423,135
1622982172,2021-06-06T12:22:52Z,PBD537,"56.352322,36.411011",37000,422,134
1622982174,2021-06-06T12:22:54Z,PBD537,"56.349808,36.415817",37000,422,134
1622982178,2021-06-06T12:22:58Z,PBD537,"56.344574,36.426254",37000,421,132
1622982180,2021-06-06T12:23:00Z,PBD537,"56.341846,36.432121",37000,421,131
1622982181,2021-06-06T12:23:01Z,PBD537,"56.341187,36.433495",37000,421,131
1622982183,2021-06-06T12:23:03Z,PBD537,"56.338165,36.440319",37000,421,129
1622982184,2021-06-06T12:23:04Z,PBD537,"56.337101,36.442764",37000,420,129
1622982187,2021-06-06T12:23:07Z,PBD537,"56.333702,36.450836",37000,420,127
1622982190,2021-06-06T12:23:10Z,PBD537,"56.330673,36.458046",37000,420,126
1622982192,2021-06-06T12:23:12Z,PBD537,"56.327316,36.466202",37000,420,126
1622982195,2021-06-06T12:23:15Z,PBD537,"56.323833,36.474525",37000,420,126
1622982196,2021-06-06T12:23:16Z,PBD537,"56.323368,36.475639",37000,420,126
1622982197,2021-06-06T12:23:17Z,PBD537,"56.322201,36.47847",37000,420,126
1622982199,2021-06-06T12:23:19Z,PBD537,"56.319122,36.48568",37000,419,126
1622982260,2021-06-06T12:24:20Z,PBD537,"56.248077,36.653721",37000,420,127
1622982320,2021-06-06T12:25:20Z,PBD537,"56.17696,36.822395",37000,419,126
1622982383,2021-06-06T12:26:23Z,PBD537,"56.105484,36.996792",37000,420,125
1622982444,2021-06-06T12:27:24Z,PBD537,"56.034348,37.165501",37000,422,129
1622982512,2021-06-06T12:28:32Z,PBD537,"55.950989,37.350185",37000,423,128
1622982575,2021-06-06T12:29:35Z,PBD537,"55.874222,37.524052",37000,425,128
1622982637,2021-06-06T12:30:37Z,PBD537,"55.799187,37.693062",37000,429,128
1622982698,2021-06-06T12:31:38Z,PBD537,"55.723122,37.862663",37000,431,128
1622982762,2021-06-06T12:32:42Z,PBD537,"55.643372,38.038162",37000,435,128
1622982824,2021-06-06T12:33:44Z,PBD537,"55.565414,38.209118",37000,435,128
1622982885,2021-06-06T12:34:45Z,PBD537,"55.488125,38.378677",37000,435,129
1622982918,2021-06-06T12:35:18Z,PBD537,"55.444321,38.466827",37025,437,139
1622982921,2021-06-06T12:35:21Z,PBD537,"55.439438,38.472992",37025,438,143
1622982922,2021-06-06T12:35:22Z,PBD537,"55.438595,38.473953",37000,438,142
1622982923,2021-06-06T12:35:23Z,PBD537,"55.437057,38.475739",37000,438,145
1622982924,2021-06-06T12:35:24Z,PBD537,"55.435337,38.477615",37000,439,146
1622982925,2021-06-06T12:35:25Z,PBD537,"55.431892,38.481277",37000,439,148
1622982927,2021-06-06T12:35:27Z,PBD537,"55.430328,38.482925",37000,440,148
1622982928,2021-06-06T12:35:28Z,PBD537,"55.427261,38.485752",37000,440,148
1622982929,2021-06-06T12:35:29Z,PBD537,"55.426163,38.486725",37000,442,151
1622982932,2021-06-06T12:35:32Z,PBD537,"55.421417,38.490685",37000,441,150
1622982935,2021-06-06T12:35:35Z,PBD537,"55.414806,38.495346",37000,442,157
1622982938,2021-06-06T12:35:38Z,PBD537,"55.408722,38.499245",37000,442,159
1622982944,2021-06-06T12:35:44Z,PBD537,"55.397781,38.505142",37000,443,163
1622982947,2021-06-06T12:35:47Z,PBD537,"55.391693,38.507889",37000,442,165
1622982949,2021-06-06T12:35:49Z,PBD537,"55.388691,38.509159",37000,443,166
1622982950,2021-06-06T12:35:50Z,PBD537,"55.385696,38.510231",37000,443,167
1622982953,2021-06-06T12:35:53Z,PBD537,"55.379059,38.512493",37000,444,169
1622982954,2021-06-06T12:35:54Z,PBD537,"55.377842,38.512821",37000,444,169
1622982959,2021-06-06T12:35:59Z,PBD537,"55.367294,38.51532",37000,445,172
1622982962,2021-06-06T12:36:02Z,PBD537,"55.361389,38.516289",37000,445,174
1622982968,2021-06-06T12:36:08Z,PBD537,"55.348251,38.517338",37000,446,177
1622982971,2021-06-06T12:36:11Z,PBD537,"55.34251,38.517235",37000,447,180
1622982972,2021-06-06T12:36:12Z,PBD537,"55.341476,38.517258",37000,447,180
1622982974,2021-06-06T12:36:14Z,PBD537,"55.336971,38.516903",37000,448,181
1622982975,2021-06-06T12:36:15Z,PBD537,"55.335114,38.516773",37000,448,181
1622982977,2021-06-06T12:36:17Z,PBD537,"55.331406,38.516369",37000,448,182
1622982979,2021-06-06T12:36:19Z,PBD537,"55.32729,38.515736",37000,448,184
1622982981,2021-06-06T12:36:21Z,PBD537,"55.321518,38.514591",37000,449,186
1622982983,2021-06-06T12:36:23Z,PBD537,"55.31868,38.513866",37000,449,186
1622982987,2021-06-06T12:36:27Z,PBD537,"55.310303,38.511604",37000,449,188
1622982988,2021-06-06T12:36:28Z,PBD537,"55.309067,38.51128",37000,448,189
1622982989,2021-06-06T12:36:29Z,PBD537,"55.305828,38.510242",37000,448,189
1622982990,2021-06-06T12:36:30Z,PBD537,"55.304989,38.509995",37000,448,189
1622982991,2021-06-06T12:36:31Z,PBD537,"55.302151,38.509159",37000,448,189
1622982995,2021-06-06T12:36:35Z,PBD537,"55.294006,38.506756",37000,448,189
1622983056,2021-06-06T12:37:36Z,PBD537,"55.169941,38.471706",37000,446,189
1622983119,2021-06-06T12:38:39Z,PBD537,"55.042202,38.435001",37000,444,189
1622983180,2021-06-06T12:39:40Z,PBD537,"54.919865,38.399796",37000,440,189
1622983241,2021-06-06T12:40:41Z,PBD537,"54.798176,38.365089",37000,437,189
1622983302,2021-06-06T12:41:42Z,PBD537,"54.674625,38.330467",37000,438,189
1622983364,2021-06-06T12:42:44Z,PBD537,"54.552658,38.296177",37000,437,189
1622983426,2021-06-06T12:43:46Z,PBD537,"54.427853,38.261551",37000,439,189
1622983465,2021-06-06T12:44:25Z,PBD537,"54.348991,38.246902",37000,438,179
1622983466,2021-06-06T12:44:26Z,PBD537,"54.348202,38.246902",37000,438,179
1622983469,2021-06-06T12:44:29Z,PBD537,"54.341732,38.24757",37000,438,177
1622983471,2021-06-06T12:44:31Z,PBD537,"54.336842,38.248154",37000,438,175
1622983472,2021-06-06T12:44:32Z,PBD537,"54.335445,38.248402",37000,438,175
1622983474,2021-06-06T12:44:34Z,PBD537,"54.330414,38.249226",37000,438,174
1622983475,2021-06-06T12:44:35Z,PBD537,"54.329395,38.249485",37000,438,174
1622983477,2021-06-06T12:44:37Z,PBD537,"54.324368,38.250565",37000,438,172
1622983478,2021-06-06T12:44:38Z,PBD537,"54.323364,38.250839",37000,438,172
1622983481,2021-06-06T12:44:41Z,PBD537,"54.318176,38.252232",37000,438,171
1622983482,2021-06-06T12:44:42Z,PBD537,"54.315197,38.253231",37000,437,170
1622983483,2021-06-06T12:44:43Z,PBD537,"54.312195,38.25415",37000,438,169
1622983484,2021-06-06T12:44:44Z,PBD537,"54.311417,38.254475",37000,437,169
1622983485,2021-06-06T12:44:45Z,PBD537,"54.309052,38.25531",37000,437,169
1622983487,2021-06-06T12:44:47Z,PBD537,"54.306061,38.256413",37000,437,168
1622983489,2021-06-06T12:44:49Z,PBD537,"54.301163,38.258434",37000,437,168
1622983490,2021-06-06T12:44:50Z,PBD537,"54.299416,38.25922",37000,437,166
1622983492,2021-06-06T12:44:52Z,PBD537,"54.295486,38.260937",37000,438,165
1622983495,2021-06-06T12:44:55Z,PBD537,"54.288803,38.263847",37000,438,165
1622983496,2021-06-06T12:44:56Z,PBD537,"54.28743,38.264412",37000,438,165
1622983559,2021-06-06T12:45:59Z,PBD537,"54.163605,38.317253",37000,440,165
1622983621,2021-06-06T12:47:01Z,PBD537,"54.042801,38.380894",37000,439,160
1622983682,2021-06-06T12:48:02Z,PBD537,"53.926579,38.449482",37000,439,160
1622983743,2021-06-06T12:49:03Z,PBD537,"53.810059,38.517422",37000,439,160
1622983804,2021-06-06T12:50:04Z,PBD537,"53.692375,38.585438",37000,437,161
1622983867,2021-06-06T12:51:07Z,PBD537,"53.574783,38.657013",37000,434,155
1622983874,2021-06-06T12:51:14Z,PBD537,"53.561886,38.668884",37000,435,150
1622983875,2021-06-06T12:51:15Z,PBD537,"53.559265,38.671406",37000,435,150
1622983877,2021-06-06T12:51:17Z,PBD537,"53.556839,38.673679",37000,435,150
1622983878,2021-06-06T12:51:18Z,PBD537,"53.554916,38.675564",37000,435,150
1622983879,2021-06-06T12:51:19Z,PBD537,"53.553368,38.677044",37000,435,150
1622983882,2021-06-06T12:51:22Z,PBD537,"53.548279,38.681919",37000,435,150
1622983944,2021-06-06T12:52:24Z,PBD537,"53.438461,38.781109",37000,434,158
1622983950,2021-06-06T12:52:30Z,PBD537,"53.427353,38.787796",37000,434,160
1622983951,2021-06-06T12:52:31Z,PBD537,"53.425278,38.789036",37000,434,160
1622983953,2021-06-06T12:52:33Z,PBD537,"53.421066,38.791271",37000,434,161
1622983954,2021-06-06T12:52:34Z,PBD537,"53.419373,38.792255",37000,433,161
1622983956,2021-06-06T12:52:36Z,PBD537,"53.415573,38.794216",37000,433,162
1622983957,2021-06-06T12:52:37Z,PBD537,"53.414597,38.794743",37000,433,162
1622983959,2021-06-06T12:52:39Z,PBD537,"53.409058,38.797653",37000,433,162
1622984020,2021-06-06T12:53:40Z,PBD537,"53.293259,38.861389",37000,432,161
1622984084,2021-06-06T12:54:44Z,PBD537,"53.172199,38.928925",37000,435,161
1622984145,2021-06-06T12:55:45Z,PBD537,"53.056282,38.992283",37000,437,161
1622984207,2021-06-06T12:56:47Z,PBD537,"52.93697,39.057339",37000,435,161
1622984268,2021-06-06T12:57:48Z,PBD537,"52.820618,39.120407",37000,436,162
1622984328,2021-06-06T12:58:48Z,PBD537,"52.705032,39.182205",37000,437,161
1622984390,2021-06-06T12:59:50Z,PBD537,"52.587364,39.245049",37000,437,161
1622984451,2021-06-06T13:00:51Z,PBD537,"52.469727,39.307983",37000,438,162
1622984512,2021-06-06T13:01:52Z,PBD537,"52.351593,39.370041",37000,437,162
1622984574,2021-06-06T13:02:54Z,PBD537,"52.233753,39.432129",37000,436,162
1622984635,2021-06-06T13:03:55Z,PBD537,"52.117699,39.493023",37000,433,162
1622984696,2021-06-06T13:04:56Z,PBD537,"52.001038,39.553371",37000,433,162
1622984760,2021-06-06T13:06:00Z,PBD537,"51.879135,39.616848",37000,433,162
1622984822,2021-06-06T13:07:02Z,PBD537,"51.760967,39.677658",37000,434,162
1622984884,2021-06-06T13:08:04Z,PBD537,"51.642632,39.737549",37000,435,162
1622984947,2021-06-06T13:09:07Z,PBD537,"51.521736,39.799423",37000,435,162
1622985008,2021-06-06T13:10:08Z,PBD537,"51.4048,39.858768",37000,435,162
1622985070,2021-06-06T13:11:10Z,PBD537,"51.286602,39.917984",37000,434,162
1622985131,2021-06-06T13:12:11Z,PBD537,"51.170078,39.976196",37000,433,162
1622985193,2021-06-06T13:13:13Z,PBD537,"51.050999,40.035553",37000,432,162
1622985255,2021-06-06T13:14:15Z,PBD537,"50.933128,40.094147",37000,432,162
1622985317,2021-06-06T13:15:17Z,PBD537,"50.815769,40.151596",37000,434,162
1622985377,2021-06-06T13:16:17Z,PBD537,"50.698105,40.209145",37000,435,162
1622985439,2021-06-06T13:17:19Z,PBD537,"50.5798,40.267044",37000,433,162
1622985500,2021-06-06T13:18:20Z,PBD537,"50.463776,40.323727",37000,433,162
1622985560,2021-06-06T13:19:20Z,PBD537,"50.349037,40.378689",37000,433,163
1622985628,2021-06-06T13:20:28Z,PBD537,"50.219467,40.440456",37000,433,162
1622985688,2021-06-06T13:21:28Z,PBD537,"50.103893,40.495533",37000,433,162
1622985750,2021-06-06T13:22:30Z,PBD537,"49.986443,40.551353",37000,433,162
1622985811,2021-06-06T13:23:31Z,PBD537,"49.867996,40.607132",37000,432,163
1622985875,2021-06-06T13:24:35Z,PBD537,"49.747211,40.664261",37000,431,163
1622985935,2021-06-06T13:25:35Z,PBD537,"49.631561,40.709549",37000,424,173
1622985997,2021-06-06T13:26:37Z,PBD537,"49.511143,40.709023",37000,422,180
1622986058,2021-06-06T13:27:38Z,PBD537,"49.392761,40.705864",37000,420,181
1622986120,2021-06-06T13:28:40Z,PBD537,"49.272766,40.702232",37000,419,180
1622986181,2021-06-06T13:29:41Z,PBD537,"49.153564,40.699276",37000,417,180
1622986244,2021-06-06T13:30:44Z,PBD537,"49.034317,40.696457",37000,416,180
1622986305,2021-06-06T13:31:45Z,PBD537,"48.916904,40.691479",37000,413,184
1622986366,2021-06-06T13:32:46Z,PBD537,"48.802368,40.659695",37000,412,190
1622986427,2021-06-06T13:33:47Z,PBD537,"48.688381,40.626503",37000,411,190
1622986488,2021-06-06T13:34:48Z,PBD537,"48.573486,40.593075",37000,413,190
1622986552,2021-06-06T13:35:52Z,PBD537,"48.455109,40.558994",37000,414,190
1622986613,2021-06-06T13:36:53Z,PBD537,"48.340076,40.526108",37000,414,190
1622986673,2021-06-06T13:37:53Z,PBD537,"48.22607,40.493797",37000,414,190
1622986734,2021-06-06T13:38:54Z,PBD537,"48.111649,40.461891",37000,415,190
1622986752,2021-06-06T13:39:12Z,PBD537,"48.076546,40.456306",37000,421,180
1622986753,2021-06-06T13:39:13Z,PBD537,"48.074635,40.456379",37000,421,179
1622986755,2021-06-06T13:39:15Z,PBD537,"48.072281,40.456467",37000,421,178
1622986756,2021-06-06T13:39:16Z,PBD537,"48.070358,40.456604",37000,421,178
1622986757,2021-06-06T13:39:17Z,PBD537,"48.06863,40.45673",37000,421,177
1622986758,2021-06-06T13:39:18Z,PBD537,"48.065964,40.457016",37000,421,176
1622986759,2021-06-06T13:39:19Z,PBD537,"48.064041,40.457291",37000,421,176
1622986761,2021-06-06T13:39:21Z,PBD537,"48.060158,40.457859",37000,422,174
1622986762,2021-06-06T13:39:22Z,PBD537,"48.05825,40.458138",37000,423,174
1622986765,2021-06-06T13:39:25Z,PBD537,"48.052872,40.459213",37000,421,172
1622986768,2021-06-06T13:39:28Z,PBD537,"48.046555,40.46093",37000,421,170
1622986772,2021-06-06T13:39:32Z,PBD537,"48.039722,40.46307",37000,423,168
1622986774,2021-06-06T13:39:34Z,PBD537,"48.035751,40.464569",37000,423,166
1622986775,2021-06-06T13:39:35Z,PBD537,"48.034042,40.465252",37000,423,166
1622986776,2021-06-06T13:39:36Z,PBD537,"48.032135,40.466011",37000,423,165
1622986777,2021-06-06T13:39:37Z,PBD537,"48.030457,40.466732",37000,423,165
1622986778,2021-06-06T13:39:38Z,PBD537,"48.028427,40.467659",37000,422,164
1622986780,2021-06-06T13:39:40Z,PBD537,"48.02449,40.469513",37000,423,163
1622986781,2021-06-06T13:39:41Z,PBD537,"48.022659,40.470474",37000,423,162
1622986783,2021-06-06T13:39:43Z,PBD537,"48.018585,40.472649",37000,424,161
1622986784,2021-06-06T13:39:44Z,PBD537,"48.016937,40.473564",37000,425,160
1622986785,2021-06-06T13:39:45Z,PBD537,"48.015106,40.474594",37000,425,160
1622986786,2021-06-06T13:39:46Z,PBD537,"48.014374,40.474937",37000,425,160
1622986788,2021-06-06T13:39:48Z,PBD537,"48.009384,40.477753",37000,424,159
1622986789,2021-06-06T13:39:49Z,PBD537,"48.008286,40.478302",37000,424,159
1622986791,2021-06-06T13:39:51Z,PBD537,"48.003506,40.480957",37000,424,159
1622986855,2021-06-06T13:40:55Z,PBD537,"47.884781,40.542435",36725,423,161
1622986915,2021-06-06T13:41:55Z,PBD537,"47.774605,40.600185",35750,425,160
1622986977,2021-06-06T13:42:57Z,PBD537,"47.661026,40.658821",34775,420,160
1622987039,2021-06-06T13:43:59Z,PBD537,"47.547501,40.717255",33775,413,160
1622987100,2021-06-06T13:45:00Z,PBD537,"47.438126,40.773434",32975,419,160
1622987161,2021-06-06T13:46:01Z,PBD537,"47.326309,40.830963",33000,419,160
1622987222,2021-06-06T13:47:02Z,PBD537,"47.214817,40.88752",33000,417,160
1622987283,2021-06-06T13:48:03Z,PBD537,"47.102997,40.944496",33000,417,160
1622987343,2021-06-06T13:49:03Z,PBD537,"46.993927,40.999569",32675,410,161
1622987405,2021-06-06T13:50:05Z,PBD537,"46.886993,41.053368",31550,393,160
1622987461,2021-06-06T13:51:01Z,PBD537,"46.791595,41.106018",30600,390,151
1622987462,2021-06-06T13:51:02Z,PBD537,"46.790955,41.106552",30600,390,151
1622987523,2021-06-06T13:52:03Z,PBD537,"46.695663,41.1828",29550,383,151
1622987584,2021-06-06T13:53:04Z,PBD537,"46.600979,41.258881",28500,376,150
1622987645,2021-06-06T13:54:05Z,PBD537,"46.509155,41.333649",26975,373,150
1622987706,2021-06-06T13:55:06Z,PBD537,"46.421082,41.407738",25950,361,149
1622987767,2021-06-06T13:56:07Z,PBD537,"46.334698,41.480186",24875,340,149
1622987827,2021-06-06T13:57:07Z,PBD537,"46.254166,41.54734",23375,326,150
1622987889,2021-06-06T13:58:09Z,PBD537,"46.174747,41.613327",21750,318,150
1622987950,2021-06-06T13:59:10Z,PBD537,"46.098312,41.676567",20150,313,149
1622988011,2021-06-06T14:00:11Z,PBD537,"46.022053,41.739876",18600,306,150
1622988073,2021-06-06T14:01:13Z,PBD537,"45.946129,41.802086",17050,299,150
1622988103,2021-06-06T14:01:43Z,PBD537,"45.910217,41.831585",16325,296,150
1622988136,2021-06-06T14:02:16Z,PBD537,"45.871738,41.863129",15550,292,150
1622988167,2021-06-06T14:02:47Z,PBD537,"45.835922,41.892746",14800,291,150
1622988200,2021-06-06T14:03:20Z,PBD537,"45.79715,41.924164",14025,289,150
1622988233,2021-06-06T14:03:53Z,PBD537,"45.759129,41.955139",13250,287,150
1622988263,2021-06-06T14:04:23Z,PBD537,"45.723701,41.984184",12525,285,150
1622988294,2021-06-06T14:04:54Z,PBD537,"45.688248,42.012993",11800,283,150
1622988307,2021-06-06T14:05:07Z,PBD537,"45.674515,42.024246",11500,282,150
1622988318,2021-06-06T14:05:18Z,PBD537,"45.661694,42.034584",11250,281,150
1622988330,2021-06-06T14:05:30Z,PBD537,"45.648193,42.045433",10975,281,150
1622988343,2021-06-06T14:05:43Z,PBD537,"45.633064,42.057655",10650,279,150
1622988354,2021-06-06T14:05:54Z,PBD537,"45.621239,42.0672",10425,280,150
1622988365,2021-06-06T14:06:05Z,PBD537,"45.608017,42.077774",10150,279,150
1622988379,2021-06-06T14:06:19Z,PBD537,"45.592392,42.090298",9850,278,150
1622988392,2021-06-06T14:06:32Z,PBD537,"45.578659,42.101551",9550,278,150
1622988402,2021-06-06T14:06:42Z,PBD537,"45.566528,42.111534",9325,278,150
1622988414,2021-06-06T14:06:54Z,PBD537,"45.553272,42.122337",9050,276,150
1622988425,2021-06-06T14:07:05Z,PBD537,"45.541626,42.131847",8825,275,149
1622988440,2021-06-06T14:07:20Z,PBD537,"45.524918,42.145451",8475,275,150
1622988450,2021-06-06T14:07:30Z,PBD537,"45.513191,42.154942",8225,274,150
1622988461,2021-06-06T14:07:41Z,PBD537,"45.501183,42.164658",8000,273,150
1622988473,2021-06-06T14:07:53Z,PBD537,"45.487976,42.17527",7725,273,150
1622988485,2021-06-06T14:08:05Z,PBD537,"45.475021,42.185604",7475,272,150
1622988504,2021-06-06T14:08:24Z,PBD537,"45.454834,42.20182",7050,270,150
1622988517,2021-06-06T14:08:37Z,PBD537,"45.44043,42.213425",6775,268,150
1622988534,2021-06-06T14:08:54Z,PBD537,"45.421967,42.228371",6400,266,150
1622988546,2021-06-06T14:09:06Z,PBD537,"45.408966,42.23877",6125,265,150
1622988558,2021-06-06T14:09:18Z,PBD537,"45.396347,42.248863",5875,265,150
1622988570,2021-06-06T14:09:30Z,PBD537,"45.38324,42.259304",5625,263,150
1622988583,2021-06-06T14:09:43Z,PBD537,"45.370277,42.269764",5350,263,150
1622988595,2021-06-06T14:09:55Z,PBD537,"45.357662,42.279881",5075,262,150
1622988606,2021-06-06T14:10:06Z,PBD537,"45.344952,42.289993",4825,262,150
1622988613,2021-06-06T14:10:13Z,PBD537,"45.338154,42.295353",4675,262,150
1622988622,2021-06-06T14:10:22Z,PBD537,"45.328659,42.30299",4500,261,150
1622988628,2021-06-06T14:10:28Z,PBD537,"45.322449,42.307957",4375,261,150
1622988634,2021-06-06T14:10:34Z,PBD537,"45.316086,42.313057",4250,261,150
1622988640,2021-06-06T14:10:40Z,PBD537,"45.309757,42.31813",4100,261,150
1622988646,2021-06-06T14:10:46Z,PBD537,"45.303055,42.32349",3975,261,150
1622988655,2021-06-06T14:10:55Z,PBD537,"45.293793,42.330925",3800,261,150
1622988661,2021-06-06T14:11:01Z,PBD537,"45.287136,42.336285",3725,257,150
1622988671,2021-06-06T14:11:11Z,PBD537,"45.277824,42.343853",3625,254,150
1622988677,2021-06-06T14:11:17Z,PBD537,"45.27182,42.348896",3550,251,149
1622988682,2021-06-06T14:11:22Z,PBD537,"45.266094,42.353569",3500,248,150
1622988691,2021-06-06T14:11:31Z,PBD537,"45.256622,42.359749",3475,242,157
1622988694,2021-06-06T14:11:34Z,PBD537,"45.253555,42.36132",3475,239,159
1622988698,2021-06-06T14:11:38Z,PBD537,"45.250122,42.362888",3475,237,161
1622988701,2021-06-06T14:11:41Z,PBD537,"45.246872,42.364262",3500,233,163
1622988703,2021-06-06T14:11:43Z,PBD537,"45.244125,42.365307",3475,230,164
1622988706,2021-06-06T14:11:46Z,PBD537,"45.241142,42.366364",3475,227,165
1622988709,2021-06-06T14:11:49Z,PBD537,"45.238129,42.367466",3475,225,165
1622988712,2021-06-06T14:11:52Z,PBD537,"45.234951,42.368641",3475,220,165
1622988716,2021-06-06T14:11:56Z,PBD537,"45.231735,42.369846",3475,217,165
1622988718,2021-06-06T14:11:58Z,PBD537,"45.22913,42.370785",3475,215,164
1622988722,2021-06-06T14:12:02Z,PBD537,"45.226009,42.371922",3475,212,165
1622988725,2021-06-06T14:12:05Z,PBD537,"45.22316,42.372959",3450,210,166
1622988731,2021-06-06T14:12:11Z,PBD537,"45.217537,42.375004",3475,205,165
1622988737,2021-06-06T14:12:17Z,PBD537,"45.212128,42.376949",3500,199,165
1622988746,2021-06-06T14:12:26Z,PBD537,"45.204208,42.379826",3475,191,165
1622988752,2021-06-06T14:12:32Z,PBD537,"45.199059,42.381569",3475,187,166
1622988758,2021-06-06T14:12:38Z,PBD537,"45.194168,42.383179",3475,182,167
1622988764,2021-06-06T14:12:44Z,PBD537,"45.189281,42.384853",3475,180,166
1622988770,2021-06-06T14:12:50Z,PBD537,"45.184479,42.386169",3475,178,169
1622988774,2021-06-06T14:12:54Z,PBD537,"45.181599,42.386395",3450,175,177
1622988777,2021-06-06T14:12:57Z,PBD537,"45.179085,42.386124",3450,175,183
1622988779,2021-06-06T14:12:59Z,PBD537,"45.176971,42.385582",3450,174,189
1622988782,2021-06-06T14:13:02Z,PBD537,"45.174545,42.384731",3450,174,192
1622988785,2021-06-06T14:13:05Z,PBD537,"45.172302,42.383686",3475,174,197
1622988792,2021-06-06T14:13:12Z,PBD537,"45.1674,42.380699",3475,177,205
1622988795,2021-06-06T14:13:15Z,PBD537,"45.165306,42.378956",3475,177,209
1622988798,2021-06-06T14:13:18Z,PBD537,"45.163212,42.376881",3475,178,214
1622988801,2021-06-06T14:13:21Z,PBD537,"45.161259,42.374603",3475,176,219
1622988803,2021-06-06T14:13:23Z,PBD537,"45.159668,42.372372",3475,176,223
1622988807,2021-06-06T14:13:27Z,PBD537,"45.157928,42.36956",3475,174,228
1622988810,2021-06-06T14:13:30Z,PBD537,"45.156509,42.36668",3475,173,233
1622988813,2021-06-06T14:13:33Z,PBD537,"45.155273,42.363869",3475,172,238
1622988816,2021-06-06T14:13:36Z,PBD537,"45.154228,42.360802",3475,173,242
1622988822,2021-06-06T14:13:42Z,PBD537,"45.152527,42.354454",3475,176,251
1622988825,2021-06-06T14:13:45Z,PBD537,"45.151901,42.351154",3475,177,254
1622988828,2021-06-06T14:13:48Z,PBD537,"45.151249,42.347202",3475,178,256
1622988831,2021-06-06T14:13:51Z,PBD537,"45.150696,42.344055",3475,177,256
1622988838,2021-06-06T14:13:58Z,PBD537,"45.149433,42.336487",3475,177,256
1622988839,2021-06-06T14:13:59Z,PBD537,"45.149139,42.3349",3475,177,256
1622988839,2021-06-06T14:13:59Z,PBD537,"45.149231,42.335423",3475,177,256
1622988841,2021-06-06T14:14:01Z,PBD537,"45.148773,42.332611",3475,177,256
1622988841,2021-06-06T14:14:01Z,PBD537,"45.148689,42.332066",3475,178,256
1622988842,2021-06-06T14:14:02Z,PBD537,"45.148594,42.331463",3475,178,256
1622988843,2021-06-06T14:14:03Z,PBD537,"45.148407,42.330322",3475,178,256
1622988844,2021-06-06T14:14:04Z,PBD537,"45.14827,42.329651",3475,178,256
1622988844,2021-06-06T14:14:04Z,PBD537,"45.148178,42.329079",3475,178,256
1622988846,2021-06-06T14:14:06Z,PBD537,"45.147804,42.326839",3475,178,256
1622988852,2021-06-06T14:14:12Z,PBD537,"45.146687,42.320206",3500,176,256
1622988866,2021-06-06T14:14:26Z,PBD537,"45.143845,42.304798",3500,172,255
1622988876,2021-06-06T14:14:36Z,PBD537,"45.141846,42.293476",3425,170,256
1622988882,2021-06-06T14:14:42Z,PBD537,"45.140717,42.287228",3375,166,255
1622988891,2021-06-06T14:14:51Z,PBD537,"45.139069,42.278202",3275,159,255
1622988898,2021-06-06T14:14:58Z,PBD537,"45.137878,42.271664",3200,154,255
1622988907,2021-06-06T14:15:07Z,PBD537,"45.136353,42.263065",3075,154,255
1622988913,2021-06-06T14:15:13Z,PBD537,"45.135235,42.256901",3025,156,255
1622988919,2021-06-06T14:15:19Z,PBD537,"45.134117,42.250805",2950,158,255
1622988925,2021-06-06T14:15:25Z,PBD537,"45.133045,42.244709",2850,159,255
1622988934,2021-06-06T14:15:34Z,PBD537,"45.131462,42.235733",2750,156,255
1622988940,2021-06-06T14:15:40Z,PBD537,"45.130394,42.229973",2675,156,255
1622988952,2021-06-06T14:15:52Z,PBD537,"45.128128,42.217319",2525,157,255
1622988958,2021-06-06T14:15:58Z,PBD537,"45.127075,42.211632",2450,159,255
1622988964,2021-06-06T14:16:04Z,PBD537,"45.125977,42.205616",2375,159,255
1622988970,2021-06-06T14:16:10Z,PBD537,"45.124878,42.199467",2300,161,256
1622988976,2021-06-06T14:16:16Z,PBD537,"45.123737,42.192993",2225,160,255
1622988982,2021-06-06T14:16:22Z,PBD537,"45.12262,42.186966",2150,157,255
1622988989,2021-06-06T14:16:29Z,PBD537,"45.121502,42.180733",2075,156,255
1622988994,2021-06-06T14:16:34Z,PBD537,"45.120476,42.174839",2000,159,256
1622989001,2021-06-06T14:16:41Z,PBD537,"45.119358,42.16861",1925,160,255
1622989007,2021-06-06T14:16:47Z,PBD537,"45.11824,42.162453",1850,159,255
1622989012,2021-06-06T14:16:52Z,PBD537,"45.117218,42.156818",1775,157,256
1622989022,2021-06-06T14:17:02Z,PBD537,"45.115543,42.147373",1650,158,256
1622989028,2021-06-06T14:17:08Z,PBD537,"45.114395,42.141071",1575,160,255
1622989034,2021-06-06T14:17:14Z,PBD537,"45.113262,42.134846",1500,162,255
1622989040,2021-06-06T14:17:20Z,PBD537,"45.112152,42.128841",1400,161,255
1622989046,2021-06-06T14:17:26Z,PBD537,"45.111027,42.122452",1375,156,255
1622989052,2021-06-06T14:17:32Z,PBD537,"45.11005,42.117027",1350,135,255
1622989061,2021-06-06T14:17:41Z,PBD537,"45.108994,42.111317",1375,95,254
1622989066,2021-06-06T14:17:46Z,PBD537,"45.108593,42.10902",0,63,255
1622989072,2021-06-06T14:17:52Z,PBD537,"45.108269,42.107231",0,43,255
1622989079,2021-06-06T14:17:59Z,PBD537,"45.108032,42.105839",0,32,255
1622989085,2021-06-06T14:18:05Z,PBD537,"45.107803,42.104633",0,30,253
1622989091,2021-06-06T14:18:11Z,PBD537,"45.107597,42.10355",0,29,255
1622989097,2021-06-06T14:18:17Z,PBD537,"45.107395,42.102425",0,28,255
1622989103,2021-06-06T14:18:23Z,PBD537,"45.107197,42.101353",0,28,255
1622989110,2021-06-06T14:18:30Z,PBD537,"45.106976,42.100163",0,24,255
1622989116,2021-06-06T14:18:36Z,PBD537,"45.106819,42.099331",0,20,255
1622989122,2021-06-06T14:18:42Z,PBD537,"45.106709,42.098721",0,15,255
1622989126,2021-06-06T14:18:46Z,PBD537,"45.106647,42.098286",0,15,261
1622989128,2021-06-06T14:18:48Z,PBD537,"45.106625,42.098072",0,15,261
1622989131,2021-06-06T14:18:51Z,PBD537,"45.106617,42.097782",0,14,267
1622989134,2021-06-06T14:18:54Z,PBD537,"45.106613,42.097565",0,11,270
1622989139,2021-06-06T14:18:59Z,PBD537,"45.106613,42.097336",0,6,264
1622989260,2021-06-06T14:21:00Z,PBD537,"45.108639,42.107929",0,11,22
1622989265,2021-06-06T14:21:05Z,PBD537,"45.10891,42.107899",0,12,351
1622989269,2021-06-06T14:21:09Z,PBD537,"45.109119,42.107834",0,12,345
1622989273,2021-06-06T14:21:13Z,PBD537,"45.109352,42.107765",0,12,345
1622989277,2021-06-06T14:21:17Z,PBD537,"45.109585,42.107681",0,13,345
1622989281,2021-06-06T14:21:21Z,PBD537,"45.109818,42.107597",0,13,345
1622989287,2021-06-06T14:21:27Z,PBD537,"45.110176,42.107479",0,13,343
1622989293,2021-06-06T14:21:33Z,PBD537,"45.110527,42.10733",0,11,340
1622989299,2021-06-06T14:21:39Z,PBD537,"45.110691,42.107113",0,8,309
1622989304,2021-06-06T14:21:44Z,PBD537,"45.110722,42.106819",0,8,272
1622989308,2021-06-06T14:21:48Z,PBD537,"45.110676,42.10659",0,9,255
1622989312,2021-06-06T14:21:52Z,PBD537,"45.110607,42.106342",0,10,250
1622989317,2021-06-06T14:21:57Z,PBD537,"45.110561,42.106083",0,9,255
1622989321,2021-06-06T14:22:01Z,PBD537,"45.110584,42.105839",0,8,281
1622989328,2021-06-06T14:22:08Z,PBD537,"45.110794,42.105621",0,9,331
1622989334,2021-06-06T14:22:14Z,PBD537,"45.111076,42.105511",0,10,343
1622989339,2021-06-06T14:22:19Z,PBD537,"45.111294,42.105431",0,10,343
1622989344,2021-06-06T14:22:24Z,PBD537,"45.111557,42.105316",0,12,343
1622989349,2021-06-06T14:22:29Z,PBD537,"45.111763,42.105297",0,9,5
1622989354,2021-06-06T14:22:34Z,PBD537,"45.111912,42.105545",0,9,56
1622989358,2021-06-06T14:22:38Z,PBD537,"45.111958,42.105789",0,9,73
1622989363,2021-06-06T14:22:43Z,PBD537,"45.111992,42.106003",0,6,75
1622989424,2021-06-06T14:23:44Z,PBD537,"45.110573,42.105869",0,0,89
