Timestamp,UTC,Callsign,Position,Altitude,Speed,Direction
1611746300,2021-01-27T11:18:20Z,PBD537,"59.798573,30.267334",0,0,98
1611746388,2021-01-27T11:19:48Z,PBD537,"59.798595,30.267082",0,3,95
1611746395,2021-01-27T11:19:55Z,PBD537,"59.798607,30.266876",0,3,98
1611746403,2021-01-27T11:20:03Z,PBD537,"59.798618,30.266647",0,3,98
1611746411,2021-01-27T11:20:11Z,PBD537,"59.79863,30.266418",0,3,98
1611746421,2021-01-27T11:20:21Z,PBD537,"59.798653,30.266127",0,3,98
1611746429,2021-01-27T11:20:29Z,PBD537,"59.798676,30.265915",0,3,98
1611746436,2021-01-27T11:20:36Z,PBD537,"59.798687,30.265709",0,3,98
1611746446,2021-01-27T11:20:46Z,PBD537,"59.798714,30.265463",0,3,98
1611746453,2021-01-27T11:20:53Z,PBD537,"59.798725,30.265251",0,3,95
1611746462,2021-01-27T11:21:02Z,PBD537,"59.798733,30.264999",0,3,87
1611746472,2021-01-27T11:21:12Z,PBD537,"59.798744,30.264748",0,3,64
1611746481,2021-01-27T11:21:21Z,PBD537,"59.798725,30.26454",0,2,33
1611746561,2021-01-27T11:22:41Z,PBD537,"59.798721,30.265228",0,0,89
1611746601,2021-01-27T11:23:21Z,PBD537,"59.79863,30.264421",0,0,271
1611746617,2021-01-27T11:23:37Z,PBD537,"59.798916,30.264587",0,8,16
1611746624,2021-01-27T11:23:44Z,PBD537,"59.799236,30.264793",0,11,16
1611746637,2021-01-27T11:23:57Z,PBD537,"59.799934,30.265205",0,13,16
1611746644,2021-01-27T11:24:04Z,PBD537,"59.800331,30.26544",0,13,16
1611746652,2021-01-27T11:24:12Z,PBD537,"59.80085,30.265755",0,14,16
1611746658,2021-01-27T11:24:18Z,PBD537,"59.801228,30.265961",0,14,16
1611746667,2021-01-27T11:24:27Z,PBD537,"59.801765,30.266281",0,15,16
1611746673,2021-01-27T11:24:33Z,PBD537,"59.802204,30.266529",0,15,16
1611746681,2021-01-27T11:24:41Z,PBD537,"59.802727,30.266836",0,14,16
1611746688,2021-01-27T11:24:48Z,PBD537,"59.803104,30.267059",0,12,16
1611746696,2021-01-27T11:24:56Z,PBD537,"59.803482,30.267288",0,12,16
1611746703,2021-01-27T11:25:03Z,PBD537,"59.803802,30.267471",0,9,16
1611746709,2021-01-27T11:25:09Z,PBD537,"59.804008,30.267517",0,6,351
1611746715,2021-01-27T11:25:15Z,PBD537,"59.804134,30.267311",0,7,320
1611746719,2021-01-27T11:25:19Z,PBD537,"59.804207,30.26705",0,8,300
1611746721,2021-01-27T11:25:21Z,PBD537,"59.804241,30.266836",0,9,292
1611746725,2021-01-27T11:25:25Z,PBD537,"59.804298,30.266529",0,10,286
1611746727,2021-01-27T11:25:27Z,PBD537,"59.80434,30.266258",0,11,286
1611746729,2021-01-27T11:25:29Z,PBD537,"59.804367,30.266031",0,12,286
1611746731,2021-01-27T11:25:31Z,PBD537,"59.804409,30.265823",0,13,286
1611746733,2021-01-27T11:25:33Z,PBD537,"59.80444,30.265558",0,14,286
1611746735,2021-01-27T11:25:35Z,PBD537,"59.804485,30.265297",0,14,284
1611746738,2021-01-27T11:25:38Z,PBD537,"59.80452,30.265013",0,15,284
1611746743,2021-01-27T11:25:43Z,PBD537,"59.804649,30.264198",0,15,286
1611746751,2021-01-27T11:25:51Z,PBD537,"59.804821,30.263054",0,15,284
1611746760,2021-01-27T11:26:00Z,PBD537,"59.805008,30.261793",0,17,284
1611746767,2021-01-27T11:26:07Z,PBD537,"59.805176,30.260628",0,19,286
1611746773,2021-01-27T11:26:13Z,PBD537,"59.805336,30.259575",0,21,284
1611746781,2021-01-27T11:26:21Z,PBD537,"59.805569,30.257982",0,24,284
1611746788,2021-01-27T11:26:28Z,PBD537,"59.805824,30.256325",0,26,286
1611746794,2021-01-27T11:26:34Z,PBD537,"59.806057,30.254745",0,27,284
1611746800,2021-01-27T11:26:40Z,PBD537,"59.80629,30.253199",0,28,286
1611746806,2021-01-27T11:26:46Z,PBD537,"59.806499,30.251707",0,28,284
1611746812,2021-01-27T11:26:52Z,PBD537,"59.806721,30.250238",0,28,284
1611746818,2021-01-27T11:26:58Z,PBD537,"59.806927,30.24889",0,28,286
1611746824,2021-01-27T11:27:04Z,PBD537,"59.807144,30.247353",0,25,286
1611746830,2021-01-27T11:27:10Z,PBD537,"59.807358,30.246428",0,15,306
1611746834,2021-01-27T11:27:14Z,PBD537,"59.807579,30.246143",0,15,334
1611746838,2021-01-27T11:27:18Z,PBD537,"59.807873,30.246",0,15,345
1611746841,2021-01-27T11:27:21Z,PBD537,"59.808117,30.245888",0,16,345
1611746844,2021-01-27T11:27:24Z,PBD537,"59.808369,30.245773",0,18,345
1611746847,2021-01-27T11:27:27Z,PBD537,"59.808575,30.245682",0,18,345
1611746852,2021-01-27T11:27:32Z,PBD537,"59.808975,30.245544",0,15,351
1611746858,2021-01-27T11:27:38Z,PBD537,"59.809284,30.245659",0,12,16
1611746863,2021-01-27T11:27:43Z,PBD537,"59.809479,30.245907",0,11,39
1611746867,2021-01-27T11:27:47Z,PBD537,"59.80957,30.246237",0,10,64
1611746870,2021-01-27T11:27:50Z,PBD537,"59.809582,30.246552",0,10,84
1611746873,2021-01-27T11:27:53Z,PBD537,"59.809559,30.24683",0,10,98
1611746876,2021-01-27T11:27:56Z,PBD537,"59.809513,30.247137",0,12,104
1611746883,2021-01-27T11:28:03Z,PBD537,"59.809292,30.248606",0,27,106
1611746890,2021-01-27T11:28:10Z,PBD537,"59.808792,30.251944",0,61,106
1611746891,2021-01-27T11:28:11Z,PBD537,"59.808586,30.253258",0,70,106
1611746934,2021-01-27T11:28:54Z,PBD537,"59.800049,30.309723",1525,174,107
1611746943,2021-01-27T11:29:03Z,PBD537,"59.79776,30.323639",1900,181,108
1611746949,2021-01-27T11:29:09Z,PBD537,"59.796341,30.33252",2125,186,107
1611746955,2021-01-27T11:29:15Z,PBD537,"59.794464,30.34433",2300,199,107
1611746967,2021-01-27T11:29:27Z,PBD537,"59.790901,30.367821",2625,225,106
1611746973,2021-01-27T11:29:33Z,PBD537,"59.789108,30.379852",2875,232,106
1611746982,2021-01-27T11:29:42Z,PBD537,"59.786362,30.398895",3375,239,105
1611746991,2021-01-27T11:29:51Z,PBD537,"59.783661,30.418488",3875,245,105
1611747007,2021-01-27T11:30:07Z,PBD537,"59.778854,30.451721",4800,252,106
1611747018,2021-01-27T11:30:18Z,PBD537,"59.77478,30.478546",5500,259,106
1611747031,2021-01-27T11:30:31Z,PBD537,"59.770466,30.507235",6175,266,106
1611747043,2021-01-27T11:30:43Z,PBD537,"59.766323,30.534794",7000,268,106
1611747055,2021-01-27T11:30:55Z,PBD537,"59.761993,30.563017",7800,270,107
1611747082,2021-01-27T11:31:22Z,PBD537,"59.752029,30.629517",9275,284,106
1611747106,2021-01-27T11:31:46Z,PBD537,"59.743465,30.692297",10800,289,104
1611747122,2021-01-27T11:32:02Z,PBD537,"59.737972,30.731979",11600,297,105
1611747134,2021-01-27T11:32:14Z,PBD537,"59.733364,30.764086",12100,307,106
1611747165,2021-01-27T11:32:45Z,PBD537,"59.720398,30.852448",13525,327,106
1611747197,2021-01-27T11:33:17Z,PBD537,"59.707249,30.944508",15100,338,105
1611747236,2021-01-27T11:33:56Z,PBD537,"59.689453,31.066498",17050,355,106
1611747269,2021-01-27T11:34:29Z,PBD537,"59.67421,31.169952",18525,366,106
1611747326,2021-01-27T11:35:26Z,PBD537,"59.64389,31.353655",21250,379,116
1611747327,2021-01-27T11:35:27Z,PBD537,"59.64296,31.357063",21300,380,116
1611747330,2021-01-27T11:35:30Z,PBD537,"59.640259,31.366819",21425,381,118
1611747331,2021-01-27T11:35:31Z,PBD537,"59.639889,31.36805",21425,382,118
1611747335,2021-01-27T11:35:35Z,PBD537,"59.636024,31.380648",21575,383,121
1611747338,2021-01-27T11:35:38Z,PBD537,"59.63295,31.389738",21700,385,122
1611747341,2021-01-27T11:35:41Z,PBD537,"59.629852,31.398376",21825,386,124
1611747345,2021-01-27T11:35:45Z,PBD537,"59.625183,31.410461",22025,387,126
1611747347,2021-01-27T11:35:47Z,PBD537,"59.622849,31.416229",22100,388,127
1611747348,2021-01-27T11:35:48Z,PBD537,"59.62178,31.41872",22125,388,128
1611747350,2021-01-27T11:35:50Z,PBD537,"59.619919,31.423096",22200,389,129
1611747356,2021-01-27T11:35:56Z,PBD537,"59.612839,31.439745",22425,392,130
1611747429,2021-01-27T11:37:09Z,PBD537,"59.525894,31.646393",25050,411,129
1611747491,2021-01-27T11:38:11Z,PBD537,"59.448715,31.827942",26950,427,129
1611747555,2021-01-27T11:39:15Z,PBD537,"59.367142,32.018463",28700,441,130
1611747616,2021-01-27T11:40:16Z,PBD537,"59.285206,32.208408",30150,455,130
1611747676,2021-01-27T11:41:16Z,PBD537,"59.202065,32.399723",31775,459,130
1611747740,2021-01-27T11:42:20Z,PBD537,"59.115429,32.596813",33575,455,130
1611747803,2021-01-27T11:43:23Z,PBD537,"59.028378,32.793526",34875,460,130
1611747864,2021-01-27T11:44:24Z,PBD537,"58.944675,32.981239",36225,459,130
1611747924,2021-01-27T11:45:24Z,PBD537,"58.861443,33.166397",37000,447,131
1611747985,2021-01-27T11:46:25Z,PBD537,"58.778778,33.348289",37000,446,131
1611748047,2021-01-27T11:47:27Z,PBD537,"58.686127,33.508831",37000,439,145
1611748107,2021-01-27T11:48:27Z,PBD537,"58.586597,33.641418",37000,438,145
1611748171,2021-01-27T11:49:31Z,PBD537,"58.480366,33.782318",37000,436,145
1611748233,2021-01-27T11:50:33Z,PBD537,"58.377579,33.917358",37000,437,145
1611748294,2021-01-27T11:51:34Z,PBD537,"58.27565,34.050262",37000,436,145
1611748356,2021-01-27T11:52:36Z,PBD537,"58.17326,34.182953",37000,436,145
1611748417,2021-01-27T11:53:37Z,PBD537,"58.070755,34.314732",37000,433,145
1611748478,2021-01-27T11:54:38Z,PBD537,"57.9715,34.442322",37000,433,143
1611748541,2021-01-27T11:55:41Z,PBD537,"57.872673,34.591553",37000,436,141
1611748606,2021-01-27T11:56:46Z,PBD537,"57.769455,34.746834",37000,438,141
1611748667,2021-01-27T11:57:47Z,PBD537,"57.674332,34.888374",37000,439,141
1611748728,2021-01-27T11:58:48Z,PBD537,"57.576599,35.032742",37000,438,141
1611748789,2021-01-27T11:59:49Z,PBD537,"57.480377,35.174057",37000,439,141
1611748850,2021-01-27T12:00:50Z,PBD537,"57.382896,35.316261",37000,439,141
1611748912,2021-01-27T12:01:52Z,PBD537,"57.284134,35.458889",37000,441,142
1611748975,2021-01-27T12:02:55Z,PBD537,"57.182163,35.605095",37000,444,142
1611749037,2021-01-27T12:03:57Z,PBD537,"57.081848,35.748482",37000,444,142
1611749100,2021-01-27T12:05:00Z,PBD537,"56.979286,35.894108",37000,441,142
1611749161,2021-01-27T12:06:01Z,PBD537,"56.882553,36.02993",37000,436,142
1611749222,2021-01-27T12:07:02Z,PBD537,"56.783535,36.16832",37000,435,142
1611749284,2021-01-27T12:08:04Z,PBD537,"56.686474,36.302814",37000,435,142
1611749345,2021-01-27T12:09:05Z,PBD537,"56.588341,36.438301",37000,436,142
1611749406,2021-01-27T12:10:06Z,PBD537,"56.491375,36.57151",37000,432,142
1611749467,2021-01-27T12:11:07Z,PBD537,"56.394127,36.703346",37000,430,143
1611749529,2021-01-27T12:12:09Z,PBD537,"56.295017,36.837761",37000,430,143
1611749592,2021-01-27T12:13:12Z,PBD537,"56.194794,36.972157",37000,432,143
1611749654,2021-01-27T12:14:14Z,PBD537,"56.096516,37.103317",37000,432,143
1611749717,2021-01-27T12:15:17Z,PBD537,"55.995117,37.237492",37000,424,143
1611749780,2021-01-27T12:16:20Z,PBD537,"55.897522,37.365749",37000,421,143
1611749847,2021-01-27T12:17:27Z,PBD537,"55.793602,37.501915",37000,415,143
1611749908,2021-01-27T12:18:28Z,PBD537,"55.70031,37.622765",37000,406,143
1611749970,2021-01-27T12:19:30Z,PBD537,"55.604691,37.730545",37000,390,151
1611750036,2021-01-27T12:20:36Z,PBD537,"55.498226,37.824383",37000,376,160
1611750040,2021-01-27T12:20:40Z,PBD537,"55.493271,37.827175",37000,375,161
1611750043,2021-01-27T12:20:43Z,PBD537,"55.486862,37.830673",37000,375,162
1611750045,2021-01-27T12:20:45Z,PBD537,"55.484215,37.832191",37000,375,162
1611750046,2021-01-27T12:20:46Z,PBD537,"55.48254,37.833054",37000,375,162
1611750047,2021-01-27T12:20:47Z,PBD537,"55.481735,37.8335",37000,375,162
1611750049,2021-01-27T12:20:49Z,PBD537,"55.476608,37.83633",37000,375,162
1611750112,2021-01-27T12:21:52Z,PBD537,"55.373283,37.894676",37000,376,162
1611750174,2021-01-27T12:22:54Z,PBD537,"55.27124,37.952518",37000,376,162
1611750235,2021-01-27T12:23:55Z,PBD537,"55.169849,38.009281",37000,377,162
1611750299,2021-01-27T12:24:59Z,PBD537,"55.064034,38.068295",37000,384,162
1611750359,2021-01-27T12:25:59Z,PBD537,"54.961945,38.124973",37000,387,162
1611750422,2021-01-27T12:27:02Z,PBD537,"54.853729,38.184196",37000,391,162
1611750483,2021-01-27T12:28:03Z,PBD537,"54.749249,38.241577",37000,393,162
1611750544,2021-01-27T12:29:04Z,PBD537,"54.643387,38.299309",37000,394,162
1611750605,2021-01-27T12:30:05Z,PBD537,"54.535992,38.357517",37000,395,162
1611750668,2021-01-27T12:31:08Z,PBD537,"54.427761,38.415775",37000,397,162
1611750730,2021-01-27T12:32:10Z,PBD537,"54.318501,38.474621",37000,398,162
1611750791,2021-01-27T12:33:11Z,PBD537,"54.210453,38.532124",37000,397,162
1611750853,2021-01-27T12:34:13Z,PBD537,"54.102356,38.589558",37000,398,162
1611750914,2021-01-27T12:35:14Z,PBD537,"53.995335,38.645863",37000,398,162
1611750976,2021-01-27T12:36:16Z,PBD537,"53.886589,38.703056",37000,398,162
1611751038,2021-01-27T12:37:18Z,PBD537,"53.777206,38.760078",37000,397,162
1611751099,2021-01-27T12:38:19Z,PBD537,"53.672058,38.814304",37000,392,162
1611751162,2021-01-27T12:39:22Z,PBD537,"53.563202,38.870571",37000,390,162
1611751222,2021-01-27T12:40:22Z,PBD537,"53.459984,38.923592",37000,389,163
1611751286,2021-01-27T12:41:26Z,PBD537,"53.349426,38.980122",37000,389,163
1611751348,2021-01-27T12:42:28Z,PBD537,"53.242996,39.034187",37000,388,163
1611751409,2021-01-27T12:43:29Z,PBD537,"53.138168,39.087158",37000,387,163
1611751471,2021-01-27T12:44:31Z,PBD537,"53.032963,39.140049",37000,387,163
1611751532,2021-01-27T12:45:32Z,PBD537,"52.929058,39.191998",37000,386,163
1611751594,2021-01-27T12:46:34Z,PBD537,"52.82357,39.244576",37000,385,163
1611751657,2021-01-27T12:47:37Z,PBD537,"52.71579,39.298019",37000,385,163
1611751719,2021-01-27T12:48:39Z,PBD537,"52.610001,39.350052",37000,386,163
1611751782,2021-01-27T12:49:42Z,PBD537,"52.500774,39.403484",37000,389,163
1611751843,2021-01-27T12:50:43Z,PBD537,"52.39566,39.454807",37000,391,163
1611751906,2021-01-27T12:51:46Z,PBD537,"52.286407,39.507828",37000,393,163
1611751967,2021-01-27T12:52:47Z,PBD537,"52.180435,39.559021",37000,395,163
1611752029,2021-01-27T12:53:49Z,PBD537,"52.071625,39.611206",37000,397,163
1611752092,2021-01-27T12:54:52Z,PBD537,"51.961624,39.663849",37000,399,163
1611752154,2021-01-27T12:55:54Z,PBD537,"51.851418,39.716187",37000,398,163
1611752214,2021-01-27T12:56:54Z,PBD537,"51.744415,39.766796",37000,398,163
1611752278,2021-01-27T12:57:58Z,PBD537,"51.632858,39.819351",37000,397,163
1611752339,2021-01-27T12:58:59Z,PBD537,"51.525833,39.869461",37000,394,163
1611752400,2021-01-27T13:00:00Z,PBD537,"51.419083,39.919121",37000,393,163
1611752461,2021-01-27T13:01:01Z,PBD537,"51.311874,39.968857",37000,392,163
1611752528,2021-01-27T13:02:08Z,PBD537,"51.197159,40.021709",37000,392,163
1611752591,2021-01-27T13:03:11Z,PBD537,"51.086704,40.072479",37000,393,163
1611752654,2021-01-27T13:04:14Z,PBD537,"50.977493,40.122452",37000,395,163
1611752716,2021-01-27T13:05:16Z,PBD537,"50.867477,40.172401",37000,397,163
1611752777,2021-01-27T13:06:17Z,PBD537,"50.758884,40.221481",37000,398,163
1611752838,2021-01-27T13:07:18Z,PBD537,"50.652374,40.269447",37000,399,164
1611752901,2021-01-27T13:08:21Z,PBD537,"50.539249,40.320122",37000,400,164
1611752961,2021-01-27T13:09:21Z,PBD537,"50.43219,40.367817",37000,401,164
1611753025,2021-01-27T13:10:25Z,PBD537,"50.320175,40.417545",37000,400,164
1611753086,2021-01-27T13:11:26Z,PBD537,"50.211338,40.465466",37000,400,164
1611753146,2021-01-27T13:12:26Z,PBD537,"50.103104,40.513168",37000,398,164
1611753207,2021-01-27T13:13:27Z,PBD537,"49.995892,40.56004",37000,397,164
1611753269,2021-01-27T13:14:29Z,PBD537,"49.886589,40.607548",37000,397,164
1611753330,2021-01-27T13:15:30Z,PBD537,"49.778542,40.654461",37000,397,164
1611753391,2021-01-27T13:16:31Z,PBD537,"49.670792,40.700588",37000,399,165
1611753420,2021-01-27T13:17:00Z,PBD537,"49.618332,40.711502",37000,393,177
1611753428,2021-01-27T13:17:08Z,PBD537,"49.604187,40.711647",37000,392,180
1611753489,2021-01-27T13:18:09Z,PBD537,"49.492477,40.708725",37000,394,181
1611753552,2021-01-27T13:19:12Z,PBD537,"49.378796,40.705502",37000,394,181
1611753613,2021-01-27T13:20:13Z,PBD537,"49.267815,40.702393",37000,394,181
1611753674,2021-01-27T13:21:14Z,PBD537,"49.156742,40.699505",37000,394,181
1611753736,2021-01-27T13:22:16Z,PBD537,"49.044224,40.696541",37000,394,181
1611753796,2021-01-27T13:23:16Z,PBD537,"48.933895,40.693504",37000,392,181
1611753823,2021-01-27T13:23:43Z,PBD537,"48.887604,40.684204",37000,388,191
1611753883,2021-01-27T13:24:43Z,PBD537,"48.779663,40.652935",37000,387,190
1611753947,2021-01-27T13:25:47Z,PBD537,"48.667648,40.620399",37000,386,190
1611754011,2021-01-27T13:26:51Z,PBD537,"48.556549,40.588142",37000,385,190
1611754072,2021-01-27T13:27:52Z,PBD537,"48.44989,40.557369",37000,384,190
1611754134,2021-01-27T13:28:54Z,PBD537,"48.34227,40.526875",37000,384,190
1611754194,2021-01-27T13:29:54Z,PBD537,"48.236252,40.496803",37000,385,190
1611754257,2021-01-27T13:30:57Z,PBD537,"48.125332,40.465462",37000,386,190
1611754319,2021-01-27T13:31:59Z,PBD537,"48.018585,40.43652",37000,388,187
1611754328,2021-01-27T13:32:08Z,PBD537,"48.001648,40.436005",37000,392,179
1611754329,2021-01-27T13:32:09Z,PBD537,"47.999817,40.436142",37000,393,178
1611754330,2021-01-27T13:32:10Z,PBD537,"47.997849,40.436279",37000,393,177
1611754331,2021-01-27T13:32:11Z,PBD537,"47.996017,40.436485",37000,394,176
1611754332,2021-01-27T13:32:12Z,PBD537,"47.992584,40.436966",37000,395,175
1611754333,2021-01-27T13:32:13Z,PBD537,"47.991852,40.437172",37000,395,175
1611754334,2021-01-27T13:32:14Z,PBD537,"47.990799,40.437309",37000,395,174
1611754336,2021-01-27T13:32:16Z,PBD537,"47.987,40.437996",37000,396,173
1611754337,2021-01-27T13:32:17Z,PBD537,"47.985168,40.438408",37000,396,172
1611754338,2021-01-27T13:32:18Z,PBD537,"47.983383,40.438889",37000,396,172
1611754339,2021-01-27T13:32:19Z,PBD537,"47.981766,40.439266",37000,397,171
1611754340,2021-01-27T13:32:20Z,PBD537,"47.980682,40.439575",37000,397,171
1611754342,2021-01-27T13:32:22Z,PBD537,"47.976334,40.44088",37000,398,169
1611754343,2021-01-27T13:32:23Z,PBD537,"47.974548,40.441448",37000,398,168
1611754346,2021-01-27T13:32:26Z,PBD537,"47.969147,40.44342",37000,400,166
1611754347,2021-01-27T13:32:27Z,PBD537,"47.965797,40.444828",37000,401,165
1611754348,2021-01-27T13:32:28Z,PBD537,"47.964725,40.44532",37000,401,165
1611754350,2021-01-27T13:32:30Z,PBD537,"47.96207,40.446518",37000,401,163
1611754352,2021-01-27T13:32:32Z,PBD537,"47.95871,40.448158",37000,403,162
1611754354,2021-01-27T13:32:34Z,PBD537,"47.953629,40.450836",37000,404,161
1611754358,2021-01-27T13:32:38Z,PBD537,"47.947689,40.454197",37000,404,159
1611754359,2021-01-27T13:32:39Z,PBD537,"47.945919,40.455181",37000,404,159
1611754360,2021-01-27T13:32:40Z,PBD537,"47.944336,40.456123",37000,404,159
1611754361,2021-01-27T13:32:41Z,PBD537,"47.942459,40.457153",37000,404,159
1611754362,2021-01-27T13:32:42Z,PBD537,"47.940674,40.458183",37000,404,159
1611754364,2021-01-27T13:32:44Z,PBD537,"47.937012,40.460175",37000,404,159
1611754365,2021-01-27T13:32:45Z,PBD537,"47.936142,40.460674",37000,404,159
1611754366,2021-01-27T13:32:46Z,PBD537,"47.934219,40.461754",37000,404,159
1611754427,2021-01-27T13:33:47Z,PBD537,"47.827209,40.519833",37000,401,159
1611754488,2021-01-27T13:34:48Z,PBD537,"47.721268,40.577385",37000,400,159
1611754550,2021-01-27T13:35:50Z,PBD537,"47.613441,40.635891",37000,400,159
1611754612,2021-01-27T13:36:52Z,PBD537,"47.50621,40.69384",37000,399,159
1611754674,2021-01-27T13:37:54Z,PBD537,"47.397583,40.752068",37000,400,159
1611754735,2021-01-27T13:38:55Z,PBD537,"47.292187,40.808434",37000,399,160
1611754796,2021-01-27T13:39:56Z,PBD537,"47.186646,40.864609",37000,399,160
1611754857,2021-01-27T13:40:57Z,PBD537,"47.079895,40.921188",37000,399,160
1611754918,2021-01-27T13:41:58Z,PBD537,"46.975662,40.976257",37000,400,160
1611754979,2021-01-27T13:42:59Z,PBD537,"46.868465,41.032528",37000,400,160
1611755040,2021-01-27T13:44:00Z,PBD537,"46.762794,41.087769",36875,400,160
1611755101,2021-01-27T13:45:01Z,PBD537,"46.657166,41.142906",35775,390,160
1611755163,2021-01-27T13:46:03Z,PBD537,"46.552608,41.197014",33625,382,160
1611755224,2021-01-27T13:47:04Z,PBD537,"46.4534,41.248302",31575,372,160
1611755285,2021-01-27T13:48:05Z,PBD537,"46.356022,41.2985",29675,361,160
1611755345,2021-01-27T13:49:05Z,PBD537,"46.261845,41.346909",27825,350,160
1611755407,2021-01-27T13:50:07Z,PBD537,"46.168648,41.394493",25950,341,160
1611755469,2021-01-27T13:51:09Z,PBD537,"46.077347,41.441032",24075,334,160
1611755531,2021-01-27T13:52:11Z,PBD537,"45.989639,41.485447",22275,326,160
1611755593,2021-01-27T13:53:13Z,PBD537,"45.901855,41.529968",20425,320,160
1611755655,2021-01-27T13:54:15Z,PBD537,"45.816433,41.57309",18575,315,160
1611755716,2021-01-27T13:55:16Z,PBD537,"45.732651,41.615208",16825,307,160
1611755748,2021-01-27T13:55:48Z,PBD537,"45.690491,41.63604",15925,302,160
1611755779,2021-01-27T13:56:19Z,PBD537,"45.650482,41.656269",15075,299,160
1611755811,2021-01-27T13:56:51Z,PBD537,"45.607506,41.677666",14125,297,160
1611755843,2021-01-27T13:57:23Z,PBD537,"45.565933,41.69854",13225,296,160
1611755875,2021-01-27T13:57:55Z,PBD537,"45.525528,41.716965",12350,293,167
1611755906,2021-01-27T13:58:26Z,PBD537,"45.483772,41.727951",11525,288,169
1611755918,2021-01-27T13:58:38Z,PBD537,"45.467663,41.73217",11225,286,169
1611755939,2021-01-27T13:58:59Z,PBD537,"45.440849,41.738937",10725,283,169
1611755952,2021-01-27T13:59:12Z,PBD537,"45.42485,41.743076",10425,280,169
1611755964,2021-01-27T13:59:24Z,PBD537,"45.408966,41.747261",10125,278,169
1611755974,2021-01-27T13:59:34Z,PBD537,"45.396065,41.750591",9900,277,169
1611755986,2021-01-27T13:59:46Z,PBD537,"45.381821,41.754211",9625,276,169
1611755998,2021-01-27T13:59:58Z,PBD537,"45.366505,41.758163",9325,275,169
1611756009,2021-01-27T14:00:09Z,PBD537,"45.352867,41.761711",9075,274,169
1611756020,2021-01-27T14:00:20Z,PBD537,"45.338882,41.765377",8800,273,169
1611756033,2021-01-27T14:00:33Z,PBD537,"45.322746,41.769684",8500,272,169
1611756045,2021-01-27T14:00:45Z,PBD537,"45.3078,41.773552",8225,271,169
1611756057,2021-01-27T14:00:57Z,PBD537,"45.293045,41.777454",7975,269,169
1611756072,2021-01-27T14:01:12Z,PBD537,"45.274982,41.782146",7675,267,169
1611756085,2021-01-27T14:01:25Z,PBD537,"45.259251,41.786232",7425,265,169
1611756101,2021-01-27T14:01:41Z,PBD537,"45.240257,41.791054",7125,264,169
1611756113,2021-01-27T14:01:53Z,PBD537,"45.225639,41.794807",6875,262,169
1611756128,2021-01-27T14:02:08Z,PBD537,"45.207249,41.799561",6550,261,169
1611756141,2021-01-27T14:02:21Z,PBD537,"45.192818,41.803314",6300,259,169
1611756156,2021-01-27T14:02:36Z,PBD537,"45.174664,41.808071",6025,257,169
1611756172,2021-01-27T14:02:52Z,PBD537,"45.156509,41.812962",5725,254,168
1611756184,2021-01-27T14:03:04Z,PBD537,"45.143055,41.817715",5525,251,165
1611756196,2021-01-27T14:03:16Z,PBD537,"45.128906,41.822792",5325,246,165
1611756208,2021-01-27T14:03:28Z,PBD537,"45.115543,41.827629",5150,242,165
1611756227,2021-01-27T14:03:47Z,PBD537,"45.095898,41.834866",4900,236,165
1611756236,2021-01-27T14:03:56Z,PBD537,"45.086029,41.838753",4825,231,164
1611756245,2021-01-27T14:04:05Z,PBD537,"45.077744,41.844444",4750,221,150
1611756247,2021-01-27T14:04:07Z,PBD537,"45.076263,41.846073",4725,226,160
1611756248,2021-01-27T14:04:08Z,PBD537,"45.075211,41.847382",4700,218,141
1611756260,2021-01-27T14:04:20Z,PBD537,"45.068481,41.861572",4575,214,114
1611756267,2021-01-27T14:04:27Z,PBD537,"45.067017,41.869877",4525,210,100
1611756270,2021-01-27T14:04:30Z,PBD537,"45.066833,41.874126",4475,209,94
1611756276,2021-01-27T14:04:36Z,PBD537,"45.06752,41.882759",4375,207,82
1611756279,2021-01-27T14:04:39Z,PBD537,"45.068161,41.886555",4325,206,77
1611756282,2021-01-27T14:04:42Z,PBD537,"45.068893,41.890869",4275,204,76
1611756285,2021-01-27T14:04:45Z,PBD537,"45.06955,41.894485",4225,204,75
1611756288,2021-01-27T14:04:48Z,PBD537,"45.070248,41.898304",4175,203,75
1611756296,2021-01-27T14:04:56Z,PBD537,"45.072018,41.908218",4100,199,76
1611756298,2021-01-27T14:04:58Z,PBD537,"45.072372,41.910095",4075,197,75
1611756303,2021-01-27T14:05:03Z,PBD537,"45.073738,41.917397",4000,194,75
1611756310,2021-01-27T14:05:10Z,PBD537,"45.07523,41.925369",3925,191,75
1611756319,2021-01-27T14:05:19Z,PBD537,"45.077091,41.935684",3800,189,75
1611756325,2021-01-27T14:05:25Z,PBD537,"45.078506,41.943249",3725,183,75
1611756334,2021-01-27T14:05:34Z,PBD537,"45.080349,41.953304",3650,176,75
1611756343,2021-01-27T14:05:43Z,PBD537,"45.082165,41.963219",3550,165,75
1611756349,2021-01-27T14:05:49Z,PBD537,"45.083221,41.969017",3500,160,75
1611756356,2021-01-27T14:05:56Z,PBD537,"45.084366,41.975292",3475,153,75
1611756362,2021-01-27T14:06:02Z,PBD537,"45.085464,41.981377",3425,148,75
1611756368,2021-01-27T14:06:08Z,PBD537,"45.086426,41.98687",3350,148,75
1611756374,2021-01-27T14:06:14Z,PBD537,"45.087425,41.992561",3275,145,75
1611756381,2021-01-27T14:06:21Z,PBD537,"45.088531,41.998573",3175,142,75
1611756387,2021-01-27T14:06:27Z,PBD537,"45.089539,42.003807",3100,139,75
1611756393,2021-01-27T14:06:33Z,PBD537,"45.090454,42.009102",3025,139,75
1611756405,2021-01-27T14:06:45Z,PBD537,"45.092312,42.019356",2875,132,76
1611756414,2021-01-27T14:06:54Z,PBD537,"45.093758,42.027328",2775,136,75
1611756420,2021-01-27T14:07:00Z,PBD537,"45.094757,42.03297",2675,137,75
1611756426,2021-01-27T14:07:06Z,PBD537,"45.095757,42.038315",2600,139,75
1611756433,2021-01-27T14:07:13Z,PBD537,"45.096687,42.043472",2525,137,75
1611756438,2021-01-27T14:07:18Z,PBD537,"45.097622,42.04863",2450,136,75
1611756445,2021-01-27T14:07:25Z,PBD537,"45.098648,42.054161",2350,134,75
1611756451,2021-01-27T14:07:31Z,PBD537,"45.099609,42.059261",2275,135,75
1611756460,2021-01-27T14:07:40Z,PBD537,"45.101028,42.067173",2150,138,75
1611756466,2021-01-27T14:07:46Z,PBD537,"45.102036,42.072796",2075,138,75
1611756472,2021-01-27T14:07:52Z,PBD537,"45.102974,42.077839",2000,138,75
1611756478,2021-01-27T14:07:58Z,PBD537,"45.104004,42.083393",1900,139,75
1611756488,2021-01-27T14:08:08Z,PBD537,"45.105469,42.091633",1775,142,75
1611756494,2021-01-27T14:08:14Z,PBD537,"45.10651,42.097263",1700,142,75
1611756503,2021-01-27T14:08:23Z,PBD537,"45.107815,42.104767",1625,139,76
1611756509,2021-01-27T14:08:29Z,PBD537,"45.1087,42.109859",1600,113,75
1611756517,2021-01-27T14:08:37Z,PBD537,"45.109428,42.11375",0,63,75
1611756523,2021-01-27T14:08:43Z,PBD537,"45.109806,42.11586",0,51,75
1611756529,2021-01-27T14:08:49Z,PBD537,"45.110062,42.11721",0,39,75
1611756535,2021-01-27T14:08:55Z,PBD537,"45.110199,42.118134",0,20,81
1611756538,2021-01-27T14:08:58Z,PBD537,"45.110226,42.118416",0,15,84
1611756542,2021-01-27T14:09:02Z,PBD537,"45.110241,42.118671",0,10,84
1611756663,2021-01-27T14:11:03Z,PBD537,"45.108673,42.109467",0,16,255
1611756670,2021-01-27T14:11:10Z,PBD537,"45.108582,42.108955",0,12,255
1611756675,2021-01-27T14:11:15Z,PBD537,"45.108536,42.108654",0,10,261
1611756679,2021-01-27T14:11:19Z,PBD537,"45.108547,42.108387",0,9,275
1611756683,2021-01-27T14:11:23Z,PBD537,"45.108631,42.108166",0,9,295
1611756689,2021-01-27T14:11:29Z,PBD537,"45.108841,42.107948",0,10,331
1611756694,2021-01-27T14:11:34Z,PBD537,"45.109058,42.107864",0,10,343
1611756698,2021-01-27T14:11:38Z,PBD537,"45.109268,42.107784",0,11,345
1611756702,2021-01-27T14:11:42Z,PBD537,"45.109489,42.107716",0,12,345
1611756706,2021-01-27T14:11:46Z,PBD537,"45.109703,42.107635",0,12,345
1611756713,2021-01-27T14:11:53Z,PBD537,"45.110058,42.107506",0,13,345
1611756719,2021-01-27T14:11:59Z,PBD537,"45.11039,42.107391",0,12,345
1611756723,2021-01-27T14:12:03Z,PBD537,"45.110607,42.107212",0,10,323
1611756728,2021-01-27T14:12:08Z,PBD537,"45.11071,42.106983",0,10,295
1611756732,2021-01-27T14:12:12Z,PBD537,"45.110691,42.106693",0,10,267
1611756737,2021-01-27T14:12:17Z,PBD537,"45.110641,42.106461",0,8,255
1611756741,2021-01-27T14:12:21Z,PBD537,"45.110596,42.106243",0,8,253
1611756746,2021-01-27T14:12:26Z,PBD537,"45.110561,42.106018",0,7,255
1611756751,2021-01-27T14:12:31Z,PBD537,"45.110596,42.105789",0,7,286
1611756759,2021-01-27T14:12:39Z,PBD537,"45.110813,42.105595",0,7,331
1611756765,2021-01-27T14:12:45Z,PBD537,"45.111019,42.105526",0,9,343
1611756769,2021-01-27T14:12:49Z,PBD537,"45.111237,42.105453",0,11,345
1611756774,2021-01-27T14:12:54Z,PBD537,"45.111458,42.10537",0,10,345
1611756782,2021-01-27T14:13:02Z,PBD537,"45.111691,42.105286",0,6,345
1611756795,2021-01-27T14:13:15Z,PBD537,"45.1119,42.10548",0,5,50
1611756802,2021-01-27T14:13:22Z,PBD537,"45.111946,42.10569",0,4,73
1611756813,2021-01-27T14:13:33Z,PBD537,"45.111992,42.105957",0,4,75
1611756848,2021-01-27T14:14:08Z,PBD537,"45.110584,42.105839",0,0,165
