Timestamp,UTC,Callsign,Position,Altitude,Speed,Direction
1614770729,2021-03-03T11:25:29Z,PBD537,"59.797028,30.26667",0,0,180
1614770850,2021-03-03T11:27:30Z,PBD537,"59.797085,30.266464",0,1,95
1614770864,2021-03-03T11:27:44Z,PBD537,"59.797092,30.266222",0,0,271
1614770873,2021-03-03T11:27:53Z,PBD537,"59.797108,30.266006",0,2,98
1614770883,2021-03-03T11:28:03Z,PBD537,"59.797131,30.265747",0,3,95
1614770894,2021-03-03T11:28:14Z,PBD537,"59.797131,30.265526",0,3,104
1614770902,2021-03-03T11:28:22Z,PBD537,"59.797153,30.265322",0,2,115
1614770912,2021-03-03T11:28:32Z,PBD537,"59.797188,30.265108",0,2,137
1614770932,2021-03-03T11:28:52Z,PBD537,"59.797325,30.264908",0,2,182
1614771011,2021-03-03T11:30:11Z,PBD537,"59.797131,30.265663",0,0,89
1614771055,2021-03-03T11:30:55Z,PBD537,"59.797417,30.264885",0,0,271
1614771128,2021-03-03T11:32:08Z,PBD537,"59.797211,30.264776",0,5,196
1614771134,2021-03-03T11:32:14Z,PBD537,"59.797005,30.264656",0,7,196
1614771142,2021-03-03T11:32:22Z,PBD537,"59.796787,30.264519",0,7,196
1614771149,2021-03-03T11:32:29Z,PBD537,"59.796524,30.264381",0,8,196
1614771154,2021-03-03T11:32:34Z,PBD537,"59.796314,30.264256",0,10,196
1614771162,2021-03-03T11:32:42Z,PBD537,"59.79594,30.264042",0,12,196
1614771168,2021-03-03T11:32:48Z,PBD537,"59.795609,30.263832",0,12,196
1614771173,2021-03-03T11:32:53Z,PBD537,"59.795334,30.263672",0,10,196
1614771179,2021-03-03T11:32:59Z,PBD537,"59.795128,30.263594",0,7,185
1614771188,2021-03-03T11:33:08Z,PBD537,"59.794956,30.263832",0,7,140
1614771192,2021-03-03T11:33:12Z,PBD537,"59.794895,30.264162",0,8,112
1614771195,2021-03-03T11:33:15Z,PBD537,"59.794853,30.264404",0,9,106
1614771198,2021-03-03T11:33:18Z,PBD537,"59.794819,30.264679",0,11,106
1614771200,2021-03-03T11:33:20Z,PBD537,"59.794788,30.264894",0,11,106
1614771204,2021-03-03T11:33:24Z,PBD537,"59.794739,30.265251",0,13,106
1614771206,2021-03-03T11:33:26Z,PBD537,"59.794697,30.265463",0,13,104
1614771207,2021-03-03T11:33:27Z,PBD537,"59.794659,30.265732",0,14,104
1614771211,2021-03-03T11:33:31Z,PBD537,"59.79459,30.266281",0,16,106
1614771218,2021-03-03T11:33:38Z,PBD537,"59.79443,30.267288",0,18,106
1614771220,2021-03-03T11:33:40Z,PBD537,"59.794334,30.267925",0,20,104
1614771228,2021-03-03T11:33:48Z,PBD537,"59.794132,30.269302",0,22,106
1614771233,2021-03-03T11:33:53Z,PBD537,"59.793941,30.270601",0,25,104
1614771245,2021-03-03T11:34:05Z,PBD537,"59.793514,30.273514",0,29,104
1614771252,2021-03-03T11:34:12Z,PBD537,"59.79324,30.275322",0,30,104
1614771258,2021-03-03T11:34:18Z,PBD537,"59.793022,30.276764",0,30,106
1614771264,2021-03-03T11:34:24Z,PBD537,"59.792805,30.278275",0,26,106
1614771271,2021-03-03T11:34:31Z,PBD537,"59.79258,30.279716",0,25,106
1614771277,2021-03-03T11:34:37Z,PBD537,"59.792381,30.28109",0,19,106
1614771284,2021-03-03T11:34:44Z,PBD537,"59.792229,30.281801",0,12,120
1614771288,2021-03-03T11:34:48Z,PBD537,"59.792091,30.282061",0,12,137
1614771293,2021-03-03T11:34:53Z,PBD537,"59.791786,30.282299",0,13,163
1614771299,2021-03-03T11:34:59Z,PBD537,"59.791363,30.282509",0,16,168
1614771302,2021-03-03T11:35:02Z,PBD537,"59.791122,30.282555",0,15,174
1614771306,2021-03-03T11:35:06Z,PBD537,"59.790867,30.282536",0,15,188
1614771313,2021-03-03T11:35:13Z,PBD537,"59.790539,30.28212",0,11,227
1614771318,2021-03-03T11:35:18Z,PBD537,"59.790485,30.281683",0,12,264
1614771321,2021-03-03T11:35:21Z,PBD537,"59.790562,30.281227",0,14,289
1614771326,2021-03-03T11:35:26Z,PBD537,"59.790653,30.280701",0,15,286
1614771329,2021-03-03T11:35:29Z,PBD537,"59.790779,30.279854",0,26,286
1614771330,2021-03-03T11:35:30Z,PBD537,"59.790821,30.279575",0,30,286
1614771332,2021-03-03T11:35:32Z,PBD537,"59.790916,30.27887",0,38,286
1614771337,2021-03-03T11:35:37Z,PBD537,"59.791206,30.276924",0,55,286
1614771338,2021-03-03T11:35:38Z,PBD537,"59.791306,30.276306",0,59,286
1614771340,2021-03-03T11:35:40Z,PBD537,"59.791489,30.27507",0,67,286
1614771343,2021-03-03T11:35:43Z,PBD537,"59.791775,30.273134",0,78,286
1614771350,2021-03-03T11:35:50Z,PBD537,"59.792812,30.266102",175,107,287
1614771366,2021-03-03T11:36:06Z,PBD537,"59.795517,30.248108",150,152,286
1614771372,2021-03-03T11:36:12Z,PBD537,"59.796707,30.239685",300,158,285
1614771378,2021-03-03T11:36:18Z,PBD537,"59.797932,30.231249",575,157,285
1614771396,2021-03-03T11:36:36Z,PBD537,"59.801743,30.207184",1350,157,286
1614771411,2021-03-03T11:36:51Z,PBD537,"59.804684,30.187304",2125,152,285
1614771430,2021-03-03T11:37:10Z,PBD537,"59.808174,30.162584",3175,144,286
1614771446,2021-03-03T11:37:26Z,PBD537,"59.811218,30.141724",3725,155,286
1614771452,2021-03-03T11:37:32Z,PBD537,"59.812595,30.132847",3800,168,286
1614771472,2021-03-03T11:37:52Z,PBD537,"59.817764,30.099129",4275,199,286
1614771504,2021-03-03T11:38:24Z,PBD537,"59.825726,30.044104",6100,199,285
1614771518,2021-03-03T11:38:38Z,PBD537,"59.827957,30.017868",6825,208,272
1614771522,2021-03-03T11:38:42Z,PBD537,"59.827587,30.010008",7050,210,265
1614771534,2021-03-03T11:38:54Z,PBD537,"59.823723,29.98671",7675,225,247
1614771539,2021-03-03T11:38:59Z,PBD537,"59.820969,29.977936",7925,232,238
1614771540,2021-03-03T11:39:00Z,PBD537,"59.820232,29.976007",7975,233,236
1614771546,2021-03-03T11:39:06Z,PBD537,"59.815796,29.966492",8300,239,226
1614771568,2021-03-03T11:39:28Z,PBD537,"59.793045,29.945435",9425,263,195
1614771574,2021-03-03T11:39:34Z,PBD537,"59.785873,29.941532",9725,264,195
1614771589,2021-03-03T11:39:49Z,PBD537,"59.767227,29.935364",10375,278,182
1614771591,2021-03-03T11:39:51Z,PBD537,"59.764648,29.935566",10450,282,178
1614771593,2021-03-03T11:39:53Z,PBD537,"59.76083,29.936419",10575,286,174
1614771600,2021-03-03T11:40:00Z,PBD537,"59.752682,29.940111",10800,291,165
1614771606,2021-03-03T11:40:06Z,PBD537,"59.744934,29.946533",11050,298,156
1614771615,2021-03-03T11:40:15Z,PBD537,"59.73436,29.960815",11425,306,142
1614771622,2021-03-03T11:40:22Z,PBD537,"59.727451,29.974871",11600,315,132
1614771630,2021-03-03T11:40:30Z,PBD537,"59.721039,29.995056",11725,326,118
1614771631,2021-03-03T11:40:31Z,PBD537,"59.720398,29.997986",11725,327,117
1614771634,2021-03-03T11:40:34Z,PBD537,"59.718792,30.006409",11800,330,112
1614771645,2021-03-03T11:40:45Z,PBD537,"59.71431,30.039001",11975,339,104
1614771646,2021-03-03T11:40:46Z,PBD537,"59.713898,30.042297",11975,340,104
1614771648,2021-03-03T11:40:48Z,PBD537,"59.713028,30.048431",12000,343,104
1614771652,2021-03-03T11:40:52Z,PBD537,"59.711346,30.060392",12075,349,105
1614771658,2021-03-03T11:40:58Z,PBD537,"59.708504,30.079903",12150,359,106
1614771660,2021-03-03T11:41:00Z,PBD537,"59.707573,30.086248",12200,361,106
1614771661,2021-03-03T11:41:01Z,PBD537,"59.707294,30.088142",12200,361,106
1614771691,2021-03-03T11:41:31Z,PBD537,"59.696594,30.189148",13000,385,96
1614771731,2021-03-03T11:42:11Z,PBD537,"59.692612,30.33316",14625,401,95
1614771773,2021-03-03T11:42:53Z,PBD537,"59.677551,30.486053",16500,414,101
1614771804,2021-03-03T11:43:24Z,PBD537,"59.665146,30.602692",17800,423,101
1614771816,2021-03-03T11:43:36Z,PBD537,"59.660339,30.647736",18325,425,101
1614771912,2021-03-03T11:45:12Z,PBD537,"59.628616,31.019714",21850,446,99
1614771974,2021-03-03T11:46:14Z,PBD537,"59.606735,31.276337",23750,463,99
1614772036,2021-03-03T11:47:16Z,PBD537,"59.583794,31.538338",25600,473,99
1614772097,2021-03-03T11:48:17Z,PBD537,"59.560284,31.801632",27100,487,100
1614772163,2021-03-03T11:49:23Z,PBD537,"59.52602,32.090591",28525,510,114
1614772164,2021-03-03T11:49:24Z,PBD537,"59.525181,32.093906",28550,510,115
1614772172,2021-03-03T11:49:32Z,PBD537,"59.515266,32.128098",28725,514,121
1614772178,2021-03-03T11:49:38Z,PBD537,"59.506989,32.151764",28850,517,125
1614772181,2021-03-03T11:49:41Z,PBD537,"59.502884,32.162193",28925,517,126
1614772182,2021-03-03T11:49:42Z,PBD537,"59.501495,32.165497",28925,518,127
1614772185,2021-03-03T11:49:45Z,PBD537,"59.498417,32.172798",28975,518,128
1614772187,2021-03-03T11:49:47Z,PBD537,"59.493622,32.183441",29050,519,130
1614772190,2021-03-03T11:49:50Z,PBD537,"59.489502,32.192047",29100,519,132
1614772191,2021-03-03T11:49:51Z,PBD537,"59.488495,32.194061",29100,519,132
1614772193,2021-03-03T11:49:53Z,PBD537,"59.483379,32.204052",29175,521,135
1614772194,2021-03-03T11:49:54Z,PBD537,"59.481812,32.207062",29200,521,135
1614772200,2021-03-03T11:50:00Z,PBD537,"59.472298,32.225365",29300,523,135
1614772206,2021-03-03T11:50:06Z,PBD537,"59.462173,32.245056",29425,525,135
1614772207,2021-03-03T11:50:07Z,PBD537,"59.460434,32.248444",29450,525,135
1614772282,2021-03-03T11:51:22Z,PBD537,"59.329708,32.504757",31075,533,135
1614772346,2021-03-03T11:52:26Z,PBD537,"59.218369,32.719208",32650,528,135
1614772408,2021-03-03T11:53:28Z,PBD537,"59.110611,32.924194",33925,529,135
1614772470,2021-03-03T11:54:30Z,PBD537,"59.001286,33.131073",34900,526,135
1614772531,2021-03-03T11:55:31Z,PBD537,"58.894821,33.329498",35000,524,136
1614772595,2021-03-03T11:56:35Z,PBD537,"58.78363,33.534969",35000,521,136
1614772656,2021-03-03T11:57:36Z,PBD537,"58.678253,33.728294",35000,520,136
1614772719,2021-03-03T11:58:39Z,PBD537,"58.568626,33.927704",35000,519,136
1614772780,2021-03-03T11:59:40Z,PBD537,"58.46286,34.118225",35000,519,136
1614772841,2021-03-03T12:00:41Z,PBD537,"58.355419,34.310211",35000,520,136
1614772903,2021-03-03T12:01:43Z,PBD537,"58.247086,34.502388",35000,521,137
1614772935,2021-03-03T12:02:15Z,PBD537,"58.18428,34.588417",35000,523,148
1614772944,2021-03-03T12:02:24Z,PBD537,"58.166275,34.606934",35000,522,152
1614772947,2021-03-03T12:02:27Z,PBD537,"58.159573,34.613159",35000,522,153
1614772950,2021-03-03T12:02:30Z,PBD537,"58.153931,34.618275",35000,522,154
1614772953,2021-03-03T12:02:33Z,PBD537,"58.146027,34.624969",35000,522,155
1614772956,2021-03-03T12:02:36Z,PBD537,"58.140289,34.629704",35000,521,156
1614772958,2021-03-03T12:02:38Z,PBD537,"58.134979,34.633957",35000,521,156
1614773019,2021-03-03T12:03:39Z,PBD537,"58.000031,34.743465",35000,524,156
1614773082,2021-03-03T12:04:42Z,PBD537,"57.858475,34.856781",35000,525,157
1614773144,2021-03-03T12:05:44Z,PBD537,"57.719604,34.967937",35000,524,154
1614773207,2021-03-03T12:06:47Z,PBD537,"57.588608,35.107166",35000,523,149
1614773268,2021-03-03T12:07:48Z,PBD537,"57.460499,35.244938",35000,521,149
1614773332,2021-03-03T12:08:52Z,PBD537,"57.328308,35.386192",35000,519,149
1614773393,2021-03-03T12:09:53Z,PBD537,"57.201828,35.520172",35000,519,150
1614773455,2021-03-03T12:10:55Z,PBD537,"57.073105,35.65527",35000,517,150
1614773517,2021-03-03T12:11:57Z,PBD537,"56.944141,35.789471",35000,518,150
1614773579,2021-03-03T12:12:59Z,PBD537,"56.816345,35.921257",35000,516,150
1614773640,2021-03-03T12:14:00Z,PBD537,"56.689178,36.05172",35000,515,150
1614773705,2021-03-03T12:15:05Z,PBD537,"56.553101,36.190422",35000,514,150
1614773766,2021-03-03T12:16:06Z,PBD537,"56.427689,36.316681",35000,514,150
1614773797,2021-03-03T12:16:37Z,PBD537,"56.368057,36.389294",35000,510,140
1614773799,2021-03-03T12:16:39Z,PBD537,"56.362793,36.397705",35000,509,139
1614773800,2021-03-03T12:16:40Z,PBD537,"56.361557,36.399704",35000,509,138
1614773802,2021-03-03T12:16:42Z,PBD537,"56.359352,36.403458",35000,509,138
1614773805,2021-03-03T12:16:45Z,PBD537,"56.353912,36.412769",35000,508,136
1614773806,2021-03-03T12:16:46Z,PBD537,"56.352413,36.415386",35000,508,136
1614773808,2021-03-03T12:16:48Z,PBD537,"56.349792,36.420177",35000,507,135
1614773809,2021-03-03T12:16:49Z,PBD537,"56.347504,36.424423",35000,506,135
1614773812,2021-03-03T12:16:52Z,PBD537,"56.34256,36.43391",35000,506,133
1614773814,2021-03-03T12:16:54Z,PBD537,"56.339146,36.440792",35000,505,132
1614773817,2021-03-03T12:16:57Z,PBD537,"56.334595,36.450306",35000,503,131
1614773818,2021-03-03T12:16:58Z,PBD537,"56.332352,36.455124",35000,503,130
1614773820,2021-03-03T12:17:00Z,PBD537,"56.330292,36.459629",35000,502,129
1614773824,2021-03-03T12:17:04Z,PBD537,"56.324753,36.472363",35000,501,128
1614773826,2021-03-03T12:17:06Z,PBD537,"56.321548,36.480019",35000,501,128
1614773830,2021-03-03T12:17:10Z,PBD537,"56.316338,36.492634",35000,500,126
1614773836,2021-03-03T12:17:16Z,PBD537,"56.308285,36.51186",35000,500,126
1614773897,2021-03-03T12:18:17Z,PBD537,"56.222443,36.715145",35000,500,127
1614773964,2021-03-03T12:19:24Z,PBD537,"56.129662,36.933632",35000,500,127
1614774030,2021-03-03T12:20:30Z,PBD537,"56.037186,37.150352",35000,500,127
1614774088,2021-03-03T12:21:28Z,PBD537,"55.948425,37.330627",35000,505,139
1614774091,2021-03-03T12:21:31Z,PBD537,"55.942795,37.338699",35000,506,140
1614774094,2021-03-03T12:21:34Z,PBD537,"55.937622,37.34586",35000,507,141
1614774158,2021-03-03T12:22:38Z,PBD537,"55.813152,37.496338",35000,508,146
1614774226,2021-03-03T12:23:46Z,PBD537,"55.679455,37.653408",35000,509,146
1614774293,2021-03-03T12:24:53Z,PBD537,"55.542221,37.790138",35000,509,151
1614774353,2021-03-03T12:25:53Z,PBD537,"55.415451,37.906792",35000,508,155
1614774375,2021-03-03T12:26:15Z,PBD537,"55.369232,37.935707",35000,506,163
1614774377,2021-03-03T12:26:17Z,PBD537,"55.365829,37.937408",35000,506,163
1614774390,2021-03-03T12:26:30Z,PBD537,"55.335159,37.949768",35000,506,168
1614774397,2021-03-03T12:26:37Z,PBD537,"55.320724,37.954185",35000,505,170
1614774459,2021-03-03T12:27:39Z,PBD537,"55.178089,37.997047",35000,507,170
1614774519,2021-03-03T12:28:39Z,PBD537,"55.037918,38.038914",35000,510,170
1614774584,2021-03-03T12:29:44Z,PBD537,"54.886158,38.083107",35000,510,170
1614774645,2021-03-03T12:30:45Z,PBD537,"54.745712,38.12339",35000,510,170
1614774706,2021-03-03T12:31:46Z,PBD537,"54.605118,38.163513",35000,508,170
1614774768,2021-03-03T12:32:48Z,PBD537,"54.461105,38.205116",35000,505,170
1614774830,2021-03-03T12:33:50Z,PBD537,"54.320923,38.249401",35000,504,165
1614774894,2021-03-03T12:34:54Z,PBD537,"54.17363,38.313122",35000,503,165
1614774957,2021-03-03T12:35:57Z,PBD537,"54.032253,38.373871",35000,503,165
1614775018,2021-03-03T12:36:58Z,PBD537,"53.894737,38.432598",35000,502,165
1614775082,2021-03-03T12:38:02Z,PBD537,"53.753632,38.492405",35000,502,165
1614775146,2021-03-03T12:39:06Z,PBD537,"53.605728,38.541924",35000,502,168
1614775212,2021-03-03T12:40:12Z,PBD537,"53.455078,38.591438",35000,502,168
1614775273,2021-03-03T12:41:13Z,PBD537,"53.317291,38.636406",35000,502,169
1614775337,2021-03-03T12:42:17Z,PBD537,"53.171448,38.683491",35000,502,168
1614775400,2021-03-03T12:43:20Z,PBD537,"53.028027,38.72971",35000,502,169
1614775461,2021-03-03T12:44:21Z,PBD537,"52.889206,38.773968",35000,503,169
1614775522,2021-03-03T12:45:22Z,PBD537,"52.750298,38.817757",35000,504,169
1614775585,2021-03-03T12:46:25Z,PBD537,"52.605835,38.86322",35000,504,169
1614775646,2021-03-03T12:47:26Z,PBD537,"52.466309,38.90686",35000,503,169
1614775677,2021-03-03T12:47:57Z,PBD537,"52.39687,38.937038",35000,503,159
1614775680,2021-03-03T12:48:00Z,PBD537,"52.390823,38.940964",35000,502,158
1614775681,2021-03-03T12:48:01Z,PBD537,"52.388718,38.942413",35000,503,158
1614775683,2021-03-03T12:48:03Z,PBD537,"52.384644,38.945236",35000,503,157
1614775686,2021-03-03T12:48:06Z,PBD537,"52.37915,38.949356",35000,503,156
1614775689,2021-03-03T12:48:09Z,PBD537,"52.372478,38.954536",35000,502,155
1614775692,2021-03-03T12:48:12Z,PBD537,"52.366055,38.959873",35000,502,153
1614775693,2021-03-03T12:48:13Z,PBD537,"52.363819,38.961758",35000,502,153
1614775695,2021-03-03T12:48:15Z,PBD537,"52.359116,38.965916",35000,502,152
1614775696,2021-03-03T12:48:16Z,PBD537,"52.357906,38.967014",35000,502,152
1614775698,2021-03-03T12:48:18Z,PBD537,"52.354275,38.97039",35000,501,150
1614775699,2021-03-03T12:48:19Z,PBD537,"52.352097,38.972473",35000,502,151
1614775701,2021-03-03T12:48:21Z,PBD537,"52.347931,38.976517",35000,501,149
1614775702,2021-03-03T12:48:22Z,PBD537,"52.345757,38.978706",35000,500,149
1614775704,2021-03-03T12:48:24Z,PBD537,"52.343987,38.980511",35000,501,148
1614775708,2021-03-03T12:48:28Z,PBD537,"52.333748,38.991421",35000,500,147
1614775710,2021-03-03T12:48:30Z,PBD537,"52.329742,38.995815",35000,499,146
1614775713,2021-03-03T12:48:33Z,PBD537,"52.324158,39.001858",35000,499,146
1614775714,2021-03-03T12:48:34Z,PBD537,"52.321083,39.005154",35000,499,146
1614775716,2021-03-03T12:48:36Z,PBD537,"52.317825,39.008686",35000,499,146
1614775776,2021-03-03T12:49:36Z,PBD537,"52.20163,39.132359",35000,499,146
1614775840,2021-03-03T12:50:40Z,PBD537,"52.078175,39.263252",35000,497,146
1614775901,2021-03-03T12:51:41Z,PBD537,"51.961094,39.387165",35000,497,146
1614775966,2021-03-03T12:52:46Z,PBD537,"51.837982,39.516411",35000,499,147
1614776030,2021-03-03T12:53:50Z,PBD537,"51.70903,39.637337",35000,502,156
1614776093,2021-03-03T12:54:53Z,PBD537,"51.570568,39.714355",35000,504,161
1614776155,2021-03-03T12:55:55Z,PBD537,"51.434418,39.788101",35000,508,161
1614776216,2021-03-03T12:56:56Z,PBD537,"51.296906,39.861591",35000,509,161
1614776277,2021-03-03T12:57:57Z,PBD537,"51.160538,39.934265",35000,509,161
1614776338,2021-03-03T12:58:58Z,PBD537,"51.024857,40.006344",35000,505,161
1614776399,2021-03-03T12:59:59Z,PBD537,"50.889679,40.077309",35000,504,161
1614776460,2021-03-03T13:01:00Z,PBD537,"50.756416,40.147247",35000,504,161
1614776522,2021-03-03T13:02:02Z,PBD537,"50.618958,40.218056",35000,501,161
1614776582,2021-03-03T13:03:02Z,PBD537,"50.487671,40.285854",35000,499,161
1614776646,2021-03-03T13:04:06Z,PBD537,"50.348007,40.357914",35000,495,161
1614776707,2021-03-03T13:05:07Z,PBD537,"50.216225,40.425457",35000,494,161
1614776769,2021-03-03T13:06:09Z,PBD537,"50.081772,40.49358",35000,493,162
1614776830,2021-03-03T13:07:10Z,PBD537,"49.948288,40.56073",35000,492,162
1614776891,2021-03-03T13:08:11Z,PBD537,"49.817181,40.625881",35000,493,161
1614776952,2021-03-03T13:09:12Z,PBD537,"49.682831,40.692467",35000,495,163
1614776971,2021-03-03T13:09:31Z,PBD537,"49.640762,40.705574",35000,495,171
1614776982,2021-03-03T13:09:42Z,PBD537,"49.616028,40.70969",35000,494,175
1614776983,2021-03-03T13:09:43Z,PBD537,"49.613281,40.709988",35000,494,175
1614776988,2021-03-03T13:09:48Z,PBD537,"49.602806,40.710804",35000,494,177
1614776997,2021-03-03T13:09:57Z,PBD537,"49.582088,40.710953",35000,494,180
1614777000,2021-03-03T13:10:00Z,PBD537,"49.575294,40.710732",35000,493,181
1614777062,2021-03-03T13:11:02Z,PBD537,"49.433773,40.707092",35000,494,180
1614777123,2021-03-03T13:12:03Z,PBD537,"49.29364,40.702866",35000,494,181
1614777183,2021-03-03T13:13:03Z,PBD537,"49.157181,40.699837",35000,493,180
1614777246,2021-03-03T13:14:06Z,PBD537,"49.01564,40.696106",35000,491,181
1614777308,2021-03-03T13:15:08Z,PBD537,"48.876617,40.680683",35000,486,191
1614777370,2021-03-03T13:16:10Z,PBD537,"48.740204,40.641033",35000,484,190
1614777432,2021-03-03T13:17:12Z,PBD537,"48.603703,40.601711",35000,483,190
1614777493,2021-03-03T13:18:13Z,PBD537,"48.469677,40.563259",35000,484,190
1614777555,2021-03-03T13:19:15Z,PBD537,"48.333252,40.524197",35000,484,190
1614777616,2021-03-03T13:20:16Z,PBD537,"48.19949,40.4865",35000,484,190
1614777676,2021-03-03T13:21:16Z,PBD537,"48.065697,40.449196",35000,485,190
1614777738,2021-03-03T13:22:18Z,PBD537,"47.929813,40.410885",35000,486,190
1614777801,2021-03-03T13:23:21Z,PBD537,"47.788834,40.380867",35000,493,181
1614777861,2021-03-03T13:24:21Z,PBD537,"47.651707,40.392643",35000,498,176
1614777922,2021-03-03T13:25:22Z,PBD537,"47.511429,40.407303",35000,498,175
1614777984,2021-03-03T13:26:24Z,PBD537,"47.37072,40.422295",35000,495,175
1614778047,2021-03-03T13:27:27Z,PBD537,"47.22702,40.437584",35000,495,175
1614778108,2021-03-03T13:28:28Z,PBD537,"47.089264,40.462646",35000,496,165
1614778170,2021-03-03T13:29:30Z,PBD537,"46.952728,40.516453",35000,495,165
1614778231,2021-03-03T13:30:31Z,PBD537,"46.817074,40.569008",34900,491,165
1614778292,2021-03-03T13:31:32Z,PBD537,"46.683884,40.620876",33100,476,164
1614778352,2021-03-03T13:32:32Z,PBD537,"46.562759,40.684708",31300,466,150
1614778355,2021-03-03T13:32:35Z,PBD537,"46.557358,40.689308",31175,466,149
1614778358,2021-03-03T13:32:38Z,PBD537,"46.552231,40.693962",31075,467,148
1614778359,2021-03-03T13:32:39Z,PBD537,"46.549538,40.696518",31025,466,147
1614778361,2021-03-03T13:32:41Z,PBD537,"46.54628,40.699657",30975,466,146
1614778366,2021-03-03T13:32:46Z,PBD537,"46.537994,40.707962",30825,465,144
1614778426,2021-03-03T13:33:46Z,PBD537,"46.431808,40.815102",28975,454,145
1614778488,2021-03-03T13:34:48Z,PBD537,"46.327297,40.921394",27150,446,144
1614778549,2021-03-03T13:35:49Z,PBD537,"46.226852,41.022747",25375,436,145
1614778612,2021-03-03T13:36:52Z,PBD537,"46.121658,41.127991",23375,429,145
1614778674,2021-03-03T13:37:54Z,PBD537,"46.020145,41.229286",20500,431,144
1614778739,2021-03-03T13:38:59Z,PBD537,"45.915916,41.33297",17725,409,145
1614778772,2021-03-03T13:39:32Z,PBD537,"45.865768,41.382217",16225,398,145
1614778804,2021-03-03T13:40:04Z,PBD537,"45.816422,41.431049",14700,390,145
1614778835,2021-03-03T13:40:35Z,PBD537,"45.771835,41.475861",13325,381,144
1614778866,2021-03-03T13:41:06Z,PBD537,"45.727238,41.521111",11925,371,144
1614778877,2021-03-03T13:41:17Z,PBD537,"45.712856,41.535667",11475,369,144
1614778889,2021-03-03T13:41:29Z,PBD537,"45.696095,41.552559",11275,358,144
1614778901,2021-03-03T13:41:41Z,PBD537,"45.679871,41.568916",11075,346,144
1614778912,2021-03-03T13:41:52Z,PBD537,"45.665817,41.582985",10875,337,144
1614778925,2021-03-03T13:42:05Z,PBD537,"45.650055,41.598839",10650,327,144
1614778938,2021-03-03T13:42:18Z,PBD537,"45.635376,41.613598",10450,317,144
1614778949,2021-03-03T13:42:29Z,PBD537,"45.620407,41.628536",10175,311,145
1614778961,2021-03-03T13:42:41Z,PBD537,"45.60746,41.641273",10100,299,145
1614778973,2021-03-03T13:42:53Z,PBD537,"45.593582,41.65493",10050,288,145
1614778988,2021-03-03T13:43:08Z,PBD537,"45.57724,41.671276",9775,282,144
1614779004,2021-03-03T13:43:24Z,PBD537,"45.561047,41.687347",9475,282,145
1614779022,2021-03-03T13:43:42Z,PBD537,"45.541946,41.707176",9150,280,140
1614779040,2021-03-03T13:44:00Z,PBD537,"45.526089,41.732639",8925,282,126
1614779052,2021-03-03T13:44:12Z,PBD537,"45.517708,41.752266",8825,288,120
1614779065,2021-03-03T13:44:25Z,PBD537,"45.50919,41.772499",8700,291,121
1614779077,2021-03-03T13:44:37Z,PBD537,"45.500519,41.79258",8575,292,121
1614779092,2021-03-03T13:44:52Z,PBD537,"45.489899,41.817104",8425,292,121
1614779104,2021-03-03T13:45:04Z,PBD537,"45.480972,41.837769",8325,293,121
1614779119,2021-03-03T13:45:19Z,PBD537,"45.470364,41.862667",8175,292,121
1614779132,2021-03-03T13:45:32Z,PBD537,"45.461929,41.882435",8075,293,121
1614779174,2021-03-03T13:46:14Z,PBD537,"45.432144,41.952633",7675,290,120
1614779192,2021-03-03T13:46:32Z,PBD537,"45.419437,41.982712",7525,290,121
1614779205,2021-03-03T13:46:45Z,PBD537,"45.411198,42.00214",7400,289,121
1614779220,2021-03-03T13:47:00Z,PBD537,"45.400627,42.026993",7275,291,120
1614779244,2021-03-03T13:47:24Z,PBD537,"45.383404,42.067387",7050,292,121
1614779262,2021-03-03T13:47:42Z,PBD537,"45.370647,42.09713",6875,293,121
1614779278,2021-03-03T13:47:58Z,PBD537,"45.35957,42.122856",6750,292,121
1614779290,2021-03-03T13:48:10Z,PBD537,"45.351288,42.142052",6625,290,121
1614779302,2021-03-03T13:48:22Z,PBD537,"45.342682,42.16206",6525,288,121
1614779317,2021-03-03T13:48:37Z,PBD537,"45.332245,42.186497",6375,286,121
1614779336,2021-03-03T13:48:56Z,PBD537,"45.319721,42.215702",6225,288,121
1614779348,2021-03-03T13:49:08Z,PBD537,"45.31097,42.235935",6100,286,121
1614779363,2021-03-03T13:49:23Z,PBD537,"45.300476,42.260349",5975,283,121
1614779378,2021-03-03T13:49:38Z,PBD537,"45.290298,42.283966",5775,283,121
1614779394,2021-03-03T13:49:54Z,PBD537,"45.279648,42.308613",5600,282,121
1614779406,2021-03-03T13:50:06Z,PBD537,"45.271259,42.327976",5475,281,121
1614779418,2021-03-03T13:50:18Z,PBD537,"45.262756,42.346802",5325,276,125
1614779424,2021-03-03T13:50:24Z,PBD537,"45.257675,42.354389",5275,273,136
1614779428,2021-03-03T13:50:28Z,PBD537,"45.254196,42.358181",5250,272,142
1614779431,2021-03-03T13:50:31Z,PBD537,"45.251083,42.360798",5200,269,148
1614779434,2021-03-03T13:50:34Z,PBD537,"45.247517,42.363148",5175,267,153
1614779443,2021-03-03T13:50:43Z,PBD537,"45.237137,42.367569",5100,258,165
1614779446,2021-03-03T13:50:46Z,PBD537,"45.233917,42.36858",5075,256,167
1614779449,2021-03-03T13:50:49Z,PBD537,"45.229935,42.369884",5075,252,166
1614779452,2021-03-03T13:50:52Z,PBD537,"45.226639,42.371063",5075,251,165
1614779464,2021-03-03T13:51:04Z,PBD537,"45.213116,42.376278",4975,242,164
1614779470,2021-03-03T13:51:10Z,PBD537,"45.207111,42.378487",4925,238,165
1614779480,2021-03-03T13:51:20Z,PBD537,"45.197296,42.38205",4875,231,165
1614779485,2021-03-03T13:51:25Z,PBD537,"45.191051,42.384315",4800,227,165
1614779492,2021-03-03T13:51:32Z,PBD537,"45.184628,42.386395",4725,224,167
1614779498,2021-03-03T13:51:38Z,PBD537,"45.178715,42.386997",4675,217,176
1614779501,2021-03-03T13:51:41Z,PBD537,"45.175549,42.386528",4675,209,186
1614779510,2021-03-03T13:51:50Z,PBD537,"45.167683,42.382641",4600,195,204
1614779516,2021-03-03T13:51:56Z,PBD537,"45.163166,42.378689",4525,188,213
1614779526,2021-03-03T13:52:06Z,PBD537,"45.157562,42.370869",4375,179,228
1614779529,2021-03-03T13:52:09Z,PBD537,"45.156235,42.367859",4325,175,234
1614779532,2021-03-03T13:52:12Z,PBD537,"45.15509,42.364784",4300,172,240
1614779538,2021-03-03T13:52:18Z,PBD537,"45.153488,42.358768",4225,166,249
1614779547,2021-03-03T13:52:27Z,PBD537,"45.151714,42.349079",4150,160,256
1614779553,2021-03-03T13:52:33Z,PBD537,"45.15065,42.34314",4125,158,255
1614779562,2021-03-03T13:52:42Z,PBD537,"45.149014,42.334209",4050,157,255
1614779568,2021-03-03T13:52:48Z,PBD537,"45.147942,42.32811",3975,156,256
1614779575,2021-03-03T13:52:55Z,PBD537,"45.146851,42.321819",3900,157,256
1614779580,2021-03-03T13:53:00Z,PBD537,"45.145844,42.316002",3825,157,256
1614779587,2021-03-03T13:53:07Z,PBD537,"45.14473,42.309757",3750,156,256
1614779596,2021-03-03T13:53:16Z,PBD537,"45.143143,42.300896",3625,151,255
1614779605,2021-03-03T13:53:25Z,PBD537,"45.141586,42.292263",3525,145,255
1614779611,2021-03-03T13:53:31Z,PBD537,"45.140587,42.286713",3450,143,255
1614779617,2021-03-03T13:53:37Z,PBD537,"45.13961,42.281284",3350,141,256
1614779624,2021-03-03T13:53:44Z,PBD537,"45.138611,42.275654",3275,140,255
1614779630,2021-03-03T13:53:50Z,PBD537,"45.137695,42.270683",3225,140,255
1614779635,2021-03-03T13:53:55Z,PBD537,"45.136734,42.265125",3150,141,256
1614779642,2021-03-03T13:54:02Z,PBD537,"45.135746,42.259716",3075,141,256
1614779648,2021-03-03T13:54:08Z,PBD537,"45.134766,42.25407",3000,140,255
1614779657,2021-03-03T13:54:17Z,PBD537,"45.133278,42.245914",2900,139,255
1614779668,2021-03-03T13:54:28Z,PBD537,"45.131653,42.236938",2750,138,255
1614779676,2021-03-03T13:54:36Z,PBD537,"45.130394,42.229839",2650,138,255
1614779682,2021-03-03T13:54:42Z,PBD537,"45.129364,42.224251",2600,137,255
1614779688,2021-03-03T13:54:48Z,PBD537,"45.128403,42.219021",2525,138,255
1614779694,2021-03-03T13:54:54Z,PBD537,"45.127415,42.213425",2450,139,255
1614779700,2021-03-03T13:55:00Z,PBD537,"45.126434,42.207932",2375,139,255
1614779706,2021-03-03T13:55:06Z,PBD537,"45.125458,42.202507",2300,138,255
1614779713,2021-03-03T13:55:13Z,PBD537,"45.124481,42.197079",2225,138,255
1614779722,2021-03-03T13:55:22Z,PBD537,"45.123039,42.188908",2125,138,255
1614779732,2021-03-03T13:55:32Z,PBD537,"45.121407,42.179661",2000,140,255
1614779740,2021-03-03T13:55:40Z,PBD537,"45.120163,42.173046",1900,139,255
1614779749,2021-03-03T13:55:49Z,PBD537,"45.118561,42.164417",1800,139,255
1614779755,2021-03-03T13:55:55Z,PBD537,"45.117645,42.159313",1725,139,255
1614779762,2021-03-03T13:56:02Z,PBD537,"45.116684,42.153755",1650,139,256
1614779768,2021-03-03T13:56:08Z,PBD537,"45.115635,42.147976",1575,140,255
1614779774,2021-03-03T13:56:14Z,PBD537,"45.11467,42.142574",1500,140,255
1614779784,2021-03-03T13:56:24Z,PBD537,"45.113068,42.134335",1375,139,254
1614779790,2021-03-03T13:56:30Z,PBD537,"45.112106,42.129036",1325,139,255
1614779802,2021-03-03T13:56:42Z,PBD537,"45.110283,42.118366",1250,116,255
1614779808,2021-03-03T13:56:48Z,PBD537,"45.109631,42.114883",1250,81,255
1614779815,2021-03-03T13:56:55Z,PBD537,"45.109257,42.112823",0,49,255
1614779822,2021-03-03T13:57:02Z,PBD537,"45.108913,42.110859",0,37,255
1614779829,2021-03-03T13:57:09Z,PBD537,"45.108654,42.109406",0,29,255
1614779835,2021-03-03T13:57:15Z,PBD537,"45.108513,42.108685",0,14,255
1614779839,2021-03-03T13:57:19Z,PBD537,"45.108524,42.108421",0,11,270
1614779843,2021-03-03T13:57:23Z,PBD537,"45.108593,42.108166",0,10,289
1614779850,2021-03-03T13:57:30Z,PBD537,"45.108841,42.107933",0,10,334
1614779856,2021-03-03T13:57:36Z,PBD537,"45.109085,42.107834",0,10,345
1614779862,2021-03-03T13:57:42Z,PBD537,"45.109383,42.107735",0,10,345
1614779868,2021-03-03T13:57:48Z,PBD537,"45.10968,42.107635",0,11,345
1614779874,2021-03-03T13:57:54Z,PBD537,"45.109982,42.107533",0,10,345
1614779879,2021-03-03T13:57:59Z,PBD537,"45.110195,42.107456",0,9,345
1614779886,2021-03-03T13:58:06Z,PBD537,"45.11042,42.107365",0,8,343
1614779895,2021-03-03T13:58:15Z,PBD537,"45.11063,42.107212",0,5,331
1614779910,2021-03-03T13:58:30Z,PBD537,"45.11084,42.107044",0,5,331
1614779919,2021-03-03T13:58:39Z,PBD537,"45.111053,42.106899",0,7,337
1614779925,2021-03-03T13:58:45Z,PBD537,"45.111259,42.106827",0,7,343
1614779931,2021-03-03T13:58:51Z,PBD537,"45.111481,42.106762",0,8,345
1614779937,2021-03-03T13:58:57Z,PBD537,"45.111702,42.106678",0,7,345
1614779946,2021-03-03T13:59:06Z,PBD537,"45.111923,42.10656",0,5,334
1614779954,2021-03-03T13:59:14Z,PBD537,"45.112015,42.106358",0,5,300
1614779960,2021-03-03T13:59:20Z,PBD537,"45.112015,42.106148",0,5,270
1614779969,2021-03-03T13:59:29Z,PBD537,"45.111969,42.105923",0,4,258
1614780023,2021-03-03T14:00:23Z,PBD537,"45.110397,42.10738",0,0,255
