Timestamp,UTC,Callsign,Position,Altitude,Speed,Direction
1618830773,2021-04-19T11:12:53Z,PBD537,"59.796341,30.265938",0,1,95
1618830782,2021-04-19T11:13:02Z,PBD537,"59.796349,30.265724",0,2,95
1618830792,2021-04-19T11:13:12Z,PBD537,"59.79636,30.265463",0,3,95
1618830800,2021-04-19T11:13:20Z,PBD537,"59.796371,30.265226",0,3,98
1618830808,2021-04-19T11:13:28Z,PBD537,"59.796387,30.264977",0,3,101
1618830815,2021-04-19T11:13:35Z,PBD537,"59.79641,30.264771",0,3,104
1618830822,2021-04-19T11:13:42Z,PBD537,"59.796432,30.264565",0,3,106
1618830830,2021-04-19T11:13:50Z,PBD537,"59.796467,30.264336",0,3,109
1618830838,2021-04-19T11:13:58Z,PBD537,"59.796501,30.264114",0,3,109
1618830846,2021-04-19T11:14:06Z,PBD537,"59.796535,30.263901",0,3,118
1618830856,2021-04-19T11:14:16Z,PBD537,"59.796593,30.263664",0,3,137
1618830871,2021-04-19T11:14:31Z,PBD537,"59.796707,30.263443",0,2,171
1618830887,2021-04-19T11:14:47Z,PBD537,"59.796375,30.265205",0,1,196
1618831035,2021-04-19T11:17:15Z,PBD537,"59.796803,30.263332",0,4,196
1618831043,2021-04-19T11:17:23Z,PBD537,"59.79657,30.263191",0,7,196
1618831050,2021-04-19T11:17:30Z,PBD537,"59.796329,30.263054",0,8,196
1618831056,2021-04-19T11:17:36Z,PBD537,"59.796093,30.26293",0,9,196
1618831062,2021-04-19T11:17:42Z,PBD537,"59.79586,30.262789",0,9,196
1618831069,2021-04-19T11:17:49Z,PBD537,"59.795582,30.262623",0,10,196
1618831075,2021-04-19T11:17:55Z,PBD537,"59.795311,30.262367",0,9,213
1618831080,2021-04-19T11:18:00Z,PBD537,"59.795242,30.261978",0,10,258
1618831083,2021-04-19T11:18:03Z,PBD537,"59.795269,30.261723",0,10,278
1618831086,2021-04-19T11:18:06Z,PBD537,"59.795311,30.261429",0,10,284
1618831091,2021-04-19T11:18:11Z,PBD537,"59.795372,30.260988",0,11,286
1618831096,2021-04-19T11:18:16Z,PBD537,"59.795448,30.26049",0,11,286
1618831099,2021-04-19T11:18:19Z,PBD537,"59.795494,30.260193",0,11,286
1618831105,2021-04-19T11:18:25Z,PBD537,"59.795597,30.259529",0,12,286
1618831107,2021-04-19T11:18:27Z,PBD537,"59.795631,30.2593",0,13,286
1618831109,2021-04-19T11:18:29Z,PBD537,"59.795662,30.259094",0,13,286
1618831111,2021-04-19T11:18:31Z,PBD537,"59.795696,30.258833",0,14,286
1618831120,2021-04-19T11:18:40Z,PBD537,"59.795883,30.257607",0,16,286
1618831127,2021-04-19T11:18:47Z,PBD537,"59.796024,30.256632",0,17,286
1618831133,2021-04-19T11:18:53Z,PBD537,"59.796181,30.255615",0,18,286
1618831139,2021-04-19T11:18:59Z,PBD537,"59.796326,30.254642",0,19,286
1618831150,2021-04-19T11:19:10Z,PBD537,"59.796627,30.252548",0,21,286
1618831157,2021-04-19T11:19:17Z,PBD537,"59.796833,30.251175",0,23,286
1618831163,2021-04-19T11:19:23Z,PBD537,"59.797035,30.249836",0,24,286
1618831170,2021-04-19T11:19:30Z,PBD537,"59.797268,30.248249",0,25,286
1618831176,2021-04-19T11:19:36Z,PBD537,"59.797466,30.246923",0,26,286
1618831182,2021-04-19T11:19:42Z,PBD537,"59.797691,30.24543",0,26,286
1618831189,2021-04-19T11:19:49Z,PBD537,"59.797932,30.243782",0,27,286
1618831196,2021-04-19T11:19:56Z,PBD537,"59.798195,30.24202",0,27,286
1618831203,2021-04-19T11:20:03Z,PBD537,"59.79842,30.240507",0,27,286
1618831211,2021-04-19T11:20:11Z,PBD537,"59.798714,30.23859",0,27,286
1618831219,2021-04-19T11:20:19Z,PBD537,"59.799019,30.236481",0,28,286
1618831227,2021-04-19T11:20:27Z,PBD537,"59.799316,30.234446",0,27,286
1618831238,2021-04-19T11:20:38Z,PBD537,"59.799656,30.232197",0,21,286
1618831244,2021-04-19T11:20:44Z,PBD537,"59.799786,30.231262",0,15,286
1618831247,2021-04-19T11:20:47Z,PBD537,"59.799809,30.230919",0,12,272
1618831250,2021-04-19T11:20:50Z,PBD537,"59.799751,30.230576",0,11,250
1618831254,2021-04-19T11:20:54Z,PBD537,"59.799656,30.23035",0,11,227
1618831258,2021-04-19T11:20:58Z,PBD537,"59.799442,30.230186",0,12,196
1618831263,2021-04-19T11:21:03Z,PBD537,"59.799191,30.230324",0,11,154
1618831268,2021-04-19T11:21:08Z,PBD537,"59.798996,30.23069",0,10,135
1618831277,2021-04-19T11:21:17Z,PBD537,"59.798702,30.231274",0,11,132
1618831280,2021-04-19T11:21:20Z,PBD537,"59.798584,30.23151",0,12,132
1618831286,2021-04-19T11:21:26Z,PBD537,"59.798306,30.232054",0,13,135
1618831289,2021-04-19T11:21:29Z,PBD537,"59.798183,30.232269",0,14,137
1618831294,2021-04-19T11:21:34Z,PBD537,"59.797943,30.232635",0,11,146
1618831304,2021-04-19T11:21:44Z,PBD537,"59.797733,30.233143",0,6,112
1618831327,2021-04-19T11:22:07Z,PBD537,"59.797501,30.234682",0,23,104
1618831332,2021-04-19T11:22:12Z,PBD537,"59.797176,30.236956",0,50,106
1618831339,2021-04-19T11:22:19Z,PBD537,"59.796581,30.240967",0,78,106
1618831356,2021-04-19T11:22:36Z,PBD537,"59.794022,30.258146",0,137,106
1618831371,2021-04-19T11:22:51Z,PBD537,"59.79081,30.279362",0,166,107
1618831378,2021-04-19T11:22:58Z,PBD537,"59.789154,30.289673",125,167,107
1618831385,2021-04-19T11:23:05Z,PBD537,"59.787506,30.299744",375,167,107
1618831391,2021-04-19T11:23:11Z,PBD537,"59.786133,30.308899",600,171,106
1618831397,2021-04-19T11:23:17Z,PBD537,"59.78476,30.317871",850,174,106
1618831404,2021-04-19T11:23:24Z,PBD537,"59.783249,30.328583",1275,172,105
1618831410,2021-04-19T11:23:30Z,PBD537,"59.781963,30.337797",1625,169,105
1618831417,2021-04-19T11:23:37Z,PBD537,"59.780613,30.34708",1975,169,106
1618831422,2021-04-19T11:23:42Z,PBD537,"59.779266,30.355591",2300,167,107
1618831429,2021-04-19T11:23:49Z,PBD537,"59.777847,30.364746",2575,169,107
1618831435,2021-04-19T11:23:55Z,PBD537,"59.776474,30.373627",2875,170,107
1618831443,2021-04-19T11:24:03Z,PBD537,"59.774654,30.385721",3175,177,106
1618831449,2021-04-19T11:24:09Z,PBD537,"59.773121,30.39595",3375,185,106
1618831455,2021-04-19T11:24:15Z,PBD537,"59.771622,30.406403",3525,197,105
1618831465,2021-04-19T11:24:25Z,PBD537,"59.769012,30.424438",3800,212,105
1618831476,2021-04-19T11:24:36Z,PBD537,"59.765858,30.446619",4225,227,106
1618831493,2021-04-19T11:24:53Z,PBD537,"59.76004,30.479187",5125,233,107
1618831508,2021-04-19T11:25:08Z,PBD537,"59.755325,30.51178",5800,249,105
1618831520,2021-04-19T11:25:20Z,PBD537,"59.751614,30.538677",6350,259,105
1618831531,2021-04-19T11:25:31Z,PBD537,"59.748001,30.564972",7100,259,105
1618831547,2021-04-19T11:25:47Z,PBD537,"59.743011,30.601868",8075,261,104
1618831561,2021-04-19T11:26:01Z,PBD537,"59.7388,30.63446",8850,267,104
1618831574,2021-04-19T11:26:14Z,PBD537,"59.734993,30.66464",9650,266,104
1618831584,2021-04-19T11:26:24Z,PBD537,"59.731659,30.689667",10225,270,105
1618831602,2021-04-19T11:26:42Z,PBD537,"59.725708,30.73288",11000,283,105
1618831625,2021-04-19T11:27:05Z,PBD537,"59.717697,30.791748",11975,299,104
1618831637,2021-04-19T11:27:17Z,PBD537,"59.713253,30.824606",12525,305,104
1618831669,2021-04-19T11:27:49Z,PBD537,"59.701149,30.913065",13900,325,105
1618831700,2021-04-19T11:28:20Z,PBD537,"59.688629,31.005028",15150,343,105
1618831731,2021-04-19T11:28:51Z,PBD537,"59.674988,31.104126",16550,356,105
1618831763,2021-04-19T11:29:23Z,PBD537,"59.661301,31.203461",17925,365,105
1618831796,2021-04-19T11:29:56Z,PBD537,"59.64645,31.310371",19475,370,105
1618831856,2021-04-19T11:30:56Z,PBD537,"59.617172,31.506775",21875,384,111
1618831859,2021-04-19T11:30:59Z,PBD537,"59.614838,31.516296",22000,386,115
1618831861,2021-04-19T11:31:01Z,PBD537,"59.612282,31.526217",22125,386,117
1618831863,2021-04-19T11:31:03Z,PBD537,"59.611084,31.530304",22175,388,118
1618831864,2021-04-19T11:31:04Z,PBD537,"59.610672,31.53186",22200,388,118
1618831866,2021-04-19T11:31:06Z,PBD537,"59.608978,31.53772",22250,389,119
1618831869,2021-04-19T11:31:09Z,PBD537,"59.605637,31.548248",22400,390,121
1618831872,2021-04-19T11:31:12Z,PBD537,"59.603165,31.555664",22500,391,123
1618831874,2021-04-19T11:31:14Z,PBD537,"59.601013,31.561798",22575,391,124
1618831875,2021-04-19T11:31:15Z,PBD537,"59.599548,31.565826",22625,392,125
1618831877,2021-04-19T11:31:17Z,PBD537,"59.597759,31.570539",22700,392,126
1618831878,2021-04-19T11:31:18Z,PBD537,"59.596252,31.574432",22750,393,127
1618831880,2021-04-19T11:31:20Z,PBD537,"59.593781,31.580566",22825,393,127
1618831881,2021-04-19T11:31:21Z,PBD537,"59.593323,31.581665",22825,393,127
1618831882,2021-04-19T11:31:22Z,PBD537,"59.591675,31.58551",22875,394,128
1618831884,2021-04-19T11:31:24Z,PBD537,"59.589752,31.59005",22925,395,129
1618831886,2021-04-19T11:31:26Z,PBD537,"59.58728,31.595581",23000,395,130
1618831887,2021-04-19T11:31:27Z,PBD537,"59.585423,31.599806",23075,395,131
1618831888,2021-04-19T11:31:28Z,PBD537,"59.584167,31.602631",23100,395,131
1618831890,2021-04-19T11:31:30Z,PBD537,"59.581837,31.60795",23175,395,130
1618831891,2021-04-19T11:31:31Z,PBD537,"59.580673,31.610697",23225,395,130
1618831952,2021-04-19T11:32:32Z,PBD537,"59.507263,31.779602",25450,403,130
1618832014,2021-04-19T11:33:34Z,PBD537,"59.431915,31.950806",27550,406,130
1618832076,2021-04-19T11:34:36Z,PBD537,"59.355148,32.124023",29175,416,131
1618832136,2021-04-19T11:35:36Z,PBD537,"59.278931,32.294952",31025,414,131
1618832198,2021-04-19T11:36:38Z,PBD537,"59.202118,32.465973",33025,405,131
1618832258,2021-04-19T11:37:38Z,PBD537,"59.127674,32.630341",34325,407,131
1618832320,2021-04-19T11:38:40Z,PBD537,"59.050873,32.798676",34950,410,131
1618832381,2021-04-19T11:39:41Z,PBD537,"58.972275,32.969238",35000,413,131
1618832441,2021-04-19T11:40:41Z,PBD537,"58.896122,33.134197",35000,413,131
1618832503,2021-04-19T11:41:43Z,PBD537,"58.817505,33.302929",35000,413,131
1618832564,2021-04-19T11:42:44Z,PBD537,"58.739754,33.46875",35000,412,132
1618832624,2021-04-19T11:43:44Z,PBD537,"58.655121,33.616516",35000,414,142
1618832687,2021-04-19T11:44:47Z,PBD537,"58.559269,33.758514",35000,415,142
1618832751,2021-04-19T11:45:51Z,PBD537,"58.462738,33.901062",35000,415,142
1618832812,2021-04-19T11:46:52Z,PBD537,"58.370594,34.036194",35000,416,142
1618832873,2021-04-19T11:47:53Z,PBD537,"58.277443,34.170868",35000,417,142
1618832934,2021-04-19T11:48:54Z,PBD537,"58.183407,34.307098",35000,418,142
1618832996,2021-04-19T11:49:56Z,PBD537,"58.08847,34.443111",35000,419,142
1618833057,2021-04-19T11:50:57Z,PBD537,"57.99287,34.578918",35000,422,142
1618833118,2021-04-19T11:51:58Z,PBD537,"57.898693,34.712128",35000,423,143
1618833183,2021-04-19T11:53:03Z,PBD537,"57.797256,34.854401",35000,424,143
1618833244,2021-04-19T11:54:04Z,PBD537,"57.70052,34.985432",35000,429,148
1618833304,2021-04-19T11:55:04Z,PBD537,"57.596649,35.098488",35000,430,149
1618833367,2021-04-19T11:56:07Z,PBD537,"57.489212,35.2141",35000,430,150
1618833428,2021-04-19T11:57:08Z,PBD537,"57.384945,35.325565",35000,428,149
1618833489,2021-04-19T11:58:09Z,PBD537,"57.280621,35.436577",35000,425,150
1618833551,2021-04-19T11:59:11Z,PBD537,"57.175457,35.547504",35000,424,150
1618833612,2021-04-19T12:00:12Z,PBD537,"57.070854,35.657547",35000,425,150
1618833676,2021-04-19T12:01:16Z,PBD537,"56.962143,35.770538",35000,425,150
1618833737,2021-04-19T12:02:17Z,PBD537,"56.857647,35.878956",35000,425,150
1618833800,2021-04-19T12:03:20Z,PBD537,"56.750244,35.989494",35000,425,150
1618833860,2021-04-19T12:04:20Z,PBD537,"56.64695,36.094872",35000,426,150
1618833924,2021-04-19T12:05:24Z,PBD537,"56.536972,36.206608",35000,426,150
1618833985,2021-04-19T12:06:25Z,PBD537,"56.432205,36.312477",35000,425,150
1618834025,2021-04-19T12:07:05Z,PBD537,"56.367233,36.386135",35000,421,140
1618834026,2021-04-19T12:07:06Z,PBD537,"56.365036,36.389633",35000,420,139
1618834028,2021-04-19T12:07:08Z,PBD537,"56.36174,36.394958",35000,420,138
1618834029,2021-04-19T12:07:09Z,PBD537,"56.360237,36.397533",35000,420,137
1618834031,2021-04-19T12:07:11Z,PBD537,"56.357346,36.402451",35000,419,136
1618834032,2021-04-19T12:07:12Z,PBD537,"56.356606,36.403801",35000,420,137
1618834033,2021-04-19T12:07:13Z,PBD537,"56.355907,36.404999",35000,420,136
1618834035,2021-04-19T12:07:15Z,PBD537,"56.352413,36.411438",35000,418,134
1618834036,2021-04-19T12:07:16Z,PBD537,"56.351715,36.412727",35000,418,134
1618834039,2021-04-19T12:07:19Z,PBD537,"56.347759,36.420364",35000,418,133
1618834042,2021-04-19T12:07:22Z,PBD537,"56.343197,36.429806",35000,417,131
1618834045,2021-04-19T12:07:25Z,PBD537,"56.340031,36.43676",35000,417,130
1618834046,2021-04-19T12:07:26Z,PBD537,"56.338448,36.440277",35000,417,129
1618834050,2021-04-19T12:07:30Z,PBD537,"56.333862,36.451138",35000,416,127
1618834051,2021-04-19T12:07:31Z,PBD537,"56.333267,36.452469",35000,416,127
1618834053,2021-04-19T12:07:33Z,PBD537,"56.330906,36.45813",35000,416,126
1618834054,2021-04-19T12:07:34Z,PBD537,"56.329185,36.462334",35000,417,126
1618834056,2021-04-19T12:07:36Z,PBD537,"56.326763,36.46817",35000,417,127
1618834057,2021-04-19T12:07:37Z,PBD537,"56.325695,36.470661",35000,417,127
1618834060,2021-04-19T12:07:40Z,PBD537,"56.32225,36.478901",35000,416,127
1618834122,2021-04-19T12:08:42Z,PBD537,"56.249863,36.649559",35000,416,127
1618834184,2021-04-19T12:09:44Z,PBD537,"56.17804,36.819931",35000,416,127
1618834245,2021-04-19T12:10:45Z,PBD537,"56.107178,36.986588",35000,418,127
1618834315,2021-04-19T12:11:55Z,PBD537,"56.025246,37.179878",35000,419,126
1618834366,2021-04-19T12:12:46Z,PBD537,"55.960968,37.315395",35000,425,137
1618834367,2021-04-19T12:12:47Z,PBD537,"55.96019,37.316479",35000,425,138
1618834371,2021-04-19T12:12:51Z,PBD537,"55.953182,37.326908",35000,426,140
1618834373,2021-04-19T12:12:53Z,PBD537,"55.951401,37.329464",35000,426,139
1618834378,2021-04-19T12:12:58Z,PBD537,"55.943172,37.340553",35000,427,140
1618834380,2021-04-19T12:13:00Z,PBD537,"55.939171,37.345703",35000,427,143
1618834383,2021-04-19T12:13:03Z,PBD537,"55.934097,37.351883",35000,429,145
1618834445,2021-04-19T12:14:05Z,PBD537,"55.832382,37.47345",35000,432,146
1618834506,2021-04-19T12:15:06Z,PBD537,"55.731686,37.592125",35000,435,146
1618834566,2021-04-19T12:16:06Z,PBD537,"55.629318,37.707325",35000,435,151
1618834628,2021-04-19T12:17:08Z,PBD537,"55.51918,37.810696",35000,434,154
1618834646,2021-04-19T12:17:26Z,PBD537,"55.485287,37.834251",35000,435,161
1618834649,2021-04-19T12:17:29Z,PBD537,"55.47963,37.837414",35000,435,161
1618834710,2021-04-19T12:18:30Z,PBD537,"55.362946,37.903",35000,436,162
1618834774,2021-04-19T12:19:34Z,PBD537,"55.240768,37.972141",35000,438,162
1618834837,2021-04-19T12:20:37Z,PBD537,"55.119003,38.040001",35000,438,162
1618834899,2021-04-19T12:21:39Z,PBD537,"54.99942,38.106163",35000,439,162
1618834961,2021-04-19T12:22:41Z,PBD537,"54.87941,38.172329",35000,437,162
1618835022,2021-04-19T12:23:42Z,PBD537,"54.761444,38.237415",35675,441,162
1618835084,2021-04-19T12:24:44Z,PBD537,"54.640877,38.30275",36625,446,162
1618835146,2021-04-19T12:25:46Z,PBD537,"54.518738,38.368942",37000,450,162
1618835206,2021-04-19T12:26:46Z,PBD537,"54.399967,38.43317",37000,450,162
1618835267,2021-04-19T12:27:47Z,PBD537,"54.279072,38.497677",37000,449,162
1618835331,2021-04-19T12:28:51Z,PBD537,"54.151886,38.564995",37000,448,162
1618835393,2021-04-19T12:29:53Z,PBD537,"54.029922,38.629463",37000,446,162
1618835453,2021-04-19T12:30:53Z,PBD537,"53.911789,38.691414",37000,446,163
1618835515,2021-04-19T12:31:55Z,PBD537,"53.789795,38.754822",37000,446,162
1618835576,2021-04-19T12:32:56Z,PBD537,"53.671509,38.816582",37000,445,162
1618835635,2021-04-19T12:33:55Z,PBD537,"53.55537,38.876335",37000,443,162
1618835697,2021-04-19T12:34:57Z,PBD537,"53.433609,38.938843",37000,441,162
1618835761,2021-04-19T12:36:01Z,PBD537,"53.310181,39.001869",37000,441,163
1618835822,2021-04-19T12:37:02Z,PBD537,"53.189438,39.062752",37000,445,163
1618835882,2021-04-19T12:38:02Z,PBD537,"53.070648,39.12262",37025,447,162
1618835945,2021-04-19T12:39:05Z,PBD537,"52.947098,39.184341",37000,445,163
1618836006,2021-04-19T12:40:06Z,PBD537,"52.82692,39.244026",37000,442,163
1618836067,2021-04-19T12:41:07Z,PBD537,"52.707321,39.303284",37000,440,163
1618836128,2021-04-19T12:42:08Z,PBD537,"52.589458,39.361504",37000,438,163
1618836190,2021-04-19T12:43:10Z,PBD537,"52.470612,39.419415",37000,436,163
1618836250,2021-04-19T12:44:10Z,PBD537,"52.352787,39.476704",37025,439,163
1618836312,2021-04-19T12:45:12Z,PBD537,"52.233006,39.534538",37000,437,163
1618836373,2021-04-19T12:46:13Z,PBD537,"52.115555,39.591194",37000,437,163
1618836434,2021-04-19T12:47:14Z,PBD537,"51.996429,39.648167",37000,440,163
1618836497,2021-04-19T12:48:17Z,PBD537,"51.873997,39.706192",37000,443,163
1618836557,2021-04-19T12:49:17Z,PBD537,"51.754402,39.763031",37000,445,163
1618836635,2021-04-19T12:50:35Z,PBD537,"51.600632,39.835609",37000,447,163
1618836696,2021-04-19T12:51:36Z,PBD537,"51.478722,39.892426",37000,448,163
1618836738,2021-04-19T12:52:18Z,PBD537,"51.396606,39.930477",37000,446,163
1618836826,2021-04-19T12:53:46Z,PBD537,"51.223011,40.010757",37000,444,163
1618836890,2021-04-19T12:54:50Z,PBD537,"51.095783,40.069199",37000,444,163
1618837012,2021-04-19T12:56:52Z,PBD537,"50.901165,40.158768",36999,444,163
1618837072,2021-04-19T12:57:52Z,PBD537,"50.783901,40.21101",37000,446,163
1618837136,2021-04-19T12:58:56Z,PBD537,"50.657223,40.267944",37000,448,163
1618837200,2021-04-19T13:00:00Z,PBD537,"50.530354,40.32552",37000,448,163
1618837260,2021-04-19T13:01:00Z,PBD537,"50.411606,40.377831",37000,448,163
1618837324,2021-04-19T13:02:04Z,PBD537,"50.283337,40.434029",37000,446,163
1618837388,2021-04-19T13:03:08Z,PBD537,"50.156685,40.489788",36999,444,163
1618837448,2021-04-19T13:04:08Z,PBD537,"50.03923,40.541359",37000,444,163
1618837512,2021-04-19T13:05:12Z,PBD537,"49.913582,40.596416",37000,444,163
1618837577,2021-04-19T13:06:17Z,PBD537,"49.785988,40.651218",37000,444,164
1618837640,2021-04-19T13:07:20Z,PBD537,"49.65831,40.705906",37000,442,164
1618837676,2021-04-19T13:07:56Z,PBD537,"49.587429,40.722672",37000,432,174
1618837684,2021-04-19T13:08:04Z,PBD537,"49.571949,40.723305",37000,432,177
1618837688,2021-04-19T13:08:08Z,PBD537,"49.564476,40.723209",36999,432,177
1618837692,2021-04-19T13:08:12Z,PBD537,"49.555569,40.72327",37000,432,180
1618837700,2021-04-19T13:08:20Z,PBD537,"49.540424,40.722332",37000,432,182
1618837704,2021-04-19T13:08:24Z,PBD537,"49.533127,40.721684",37000,432,182
1618837768,2021-04-19T13:09:28Z,PBD537,"49.404068,40.709621",37000,432,183
1618837833,2021-04-19T13:10:33Z,PBD537,"49.277264,40.70314",37000,430,182
1618837896,2021-04-19T13:11:36Z,PBD537,"49.15097,40.699337",37000,430,181
1618837956,2021-04-19T13:12:36Z,PBD537,"49.028759,40.696659",37000,434,181
1618838020,2021-04-19T13:13:40Z,PBD537,"48.901497,40.69294",37000,434,181
1618838084,2021-04-19T13:14:44Z,PBD537,"48.774174,40.677704",37000,430,186
1618838144,2021-04-19T13:15:44Z,PBD537,"48.655762,40.657734",37000,422,186
1618838208,2021-04-19T13:16:48Z,PBD537,"48.531578,40.638737",37000,425,186
1618838269,2021-04-19T13:17:49Z,PBD537,"48.4156,40.622967",37000,422,186
1618838332,2021-04-19T13:18:52Z,PBD537,"48.291267,40.603642",37000,420,185
1618838393,2021-04-19T13:19:53Z,PBD537,"48.174564,40.588169",37000,456,185
1618838456,2021-04-19T13:20:56Z,PBD537,"48.050835,40.571796",37000,456,184
1618838516,2021-04-19T13:21:56Z,PBD537,"47.93528,40.556377",36999,456,185
1618838580,2021-04-19T13:23:00Z,PBD537,"47.811241,40.540211",36999,456,185
1618838644,2021-04-19T13:24:04Z,PBD537,"47.687775,40.522961",36999,456,185
1618838708,2021-04-19T13:25:08Z,PBD537,"47.565315,40.505871",37000,456,185
1618838772,2021-04-19T13:26:12Z,PBD537,"47.442661,40.489761",37000,456,185
1618838832,2021-04-19T13:27:12Z,PBD537,"47.326546,40.474514",36999,456,185
1618838896,2021-04-19T13:28:16Z,PBD537,"47.204433,40.457382",37000,456,185
1618838956,2021-04-19T13:29:16Z,PBD537,"47.08585,40.452122",37000,456,175
1618838964,2021-04-19T13:29:24Z,PBD537,"47.072369,40.455643",36999,456,170
1618838968,2021-04-19T13:29:28Z,PBD537,"47.063599,40.457943",36999,456,170
1618838973,2021-04-19T13:29:33Z,PBD537,"47.055367,40.46051",37000,456,168
1618838976,2021-04-19T13:29:36Z,PBD537,"47.046539,40.463467",37000,456,168
1618838980,2021-04-19T13:29:40Z,PBD537,"47.039524,40.466274",37000,456,166
1618838984,2021-04-19T13:29:44Z,PBD537,"47.030979,40.469601",37000,456,166
1618838988,2021-04-19T13:29:48Z,PBD537,"47.024059,40.472881",36999,456,163
1618839052,2021-04-19T13:30:52Z,PBD537,"46.893345,40.534092",37000,456,161
1618839116,2021-04-19T13:31:56Z,PBD537,"46.76379,40.589085",36710,456,163
1618839176,2021-04-19T13:32:56Z,PBD537,"46.643581,40.636002",35049,456,164
1618839228,2021-04-19T13:33:48Z,PBD537,"46.546436,40.684666",33396,456,154
1618839248,2021-04-19T13:34:08Z,PBD537,"46.509933,40.71582",32650,456,147
1618839268,2021-04-19T13:34:28Z,PBD537,"46.475212,40.752052",31900,456,142
1618839272,2021-04-19T13:34:32Z,PBD537,"46.469467,40.759178",31752,456,142
1618839336,2021-04-19T13:35:36Z,PBD537,"46.369419,40.873318",29684,456,141
1618839404,2021-04-19T13:36:44Z,PBD537,"46.250587,40.998775",27375,424,143
1618839465,2021-04-19T13:37:45Z,PBD537,"46.162483,41.087242",25625,414,144
1618839525,2021-04-19T13:38:45Z,PBD537,"46.063786,41.185875",23500,414,144
1618839589,2021-04-19T13:39:49Z,PBD537,"45.96233,41.286053",21575,403,144
1618839654,2021-04-19T13:40:54Z,PBD537,"45.828781,41.419327",18825,390,145
1618839718,2021-04-19T13:41:58Z,PBD537,"45.733521,41.515121",16350,384,144
1618839750,2021-04-19T13:42:30Z,PBD537,"45.688507,41.560043",15075,381,145
1618839781,2021-04-19T13:43:01Z,PBD537,"45.643616,41.604889",13800,376,144
1618839814,2021-04-19T13:43:34Z,PBD537,"45.59642,41.651783",12550,371,145
1618839845,2021-04-19T13:44:05Z,PBD537,"45.553757,41.694454",11525,364,144
1618839856,2021-04-19T13:44:16Z,PBD537,"45.53952,41.712147",11225,365,135
1618839859,2021-04-19T13:44:19Z,PBD537,"45.535816,41.717567",11150,365,134
1618839860,2021-04-19T13:44:20Z,PBD537,"45.535309,41.718357",11150,365,134
1618839862,2021-04-19T13:44:22Z,PBD537,"45.532608,41.722675",11075,365,132
1618839864,2021-04-19T13:44:24Z,PBD537,"45.530464,41.726276",11050,366,131
1618839865,2021-04-19T13:44:25Z,PBD537,"45.528835,41.729023",11000,366,130
1618839866,2021-04-19T13:44:26Z,PBD537,"45.527901,41.730762",10975,366,130
1618839867,2021-04-19T13:44:27Z,PBD537,"45.52739,41.731701",10975,366,129
1618839868,2021-04-19T13:44:28Z,PBD537,"45.526199,41.733921",10925,366,128
1618839869,2021-04-19T13:44:29Z,PBD537,"45.52483,41.736526",10900,366,127
1618839870,2021-04-19T13:44:30Z,PBD537,"45.524277,41.737583",10875,366,127
1618839871,2021-04-19T13:44:31Z,PBD537,"45.522827,41.74041",10850,367,125
1618839872,2021-04-19T13:44:32Z,PBD537,"45.521851,41.742554",10825,367,125
1618839873,2021-04-19T13:44:33Z,PBD537,"45.520889,41.744514",10800,366,124
1618839874,2021-04-19T13:44:34Z,PBD537,"45.519943,41.746639",10775,367,123
1618839876,2021-04-19T13:44:36Z,PBD537,"45.518593,41.749722",10725,367,122
1618839877,2021-04-19T13:44:37Z,PBD537,"45.517181,41.752888",10700,367,121
1618839879,2021-04-19T13:44:39Z,PBD537,"45.515518,41.756958",10650,366,121
1618839880,2021-04-19T13:44:40Z,PBD537,"45.514709,41.758904",10625,365,120
1618839882,2021-04-19T13:44:42Z,PBD537,"45.512913,41.763119",10600,365,120
1618839883,2021-04-19T13:44:43Z,PBD537,"45.512009,41.765312",10575,364,120
1618839885,2021-04-19T13:44:45Z,PBD537,"45.510307,41.769283",10525,362,120
1618839896,2021-04-19T13:44:56Z,PBD537,"45.501507,41.789917",10325,357,121
1618839909,2021-04-19T13:45:09Z,PBD537,"45.489964,41.816914",10000,351,121
1618839921,2021-04-19T13:45:21Z,PBD537,"45.479691,41.840778",9725,346,121
1618839933,2021-04-19T13:45:33Z,PBD537,"45.470177,41.862869",9450,342,121
1618839944,2021-04-19T13:45:44Z,PBD537,"45.461243,41.884003",9175,339,120
1618839957,2021-04-19T13:45:57Z,PBD537,"45.451046,41.908154",8825,338,120
1618839969,2021-04-19T13:46:09Z,PBD537,"45.441284,41.930958",8500,335,121
1618839981,2021-04-19T13:46:21Z,PBD537,"45.431305,41.954498",8150,334,121
1618839993,2021-04-19T13:46:33Z,PBD537,"45.421532,41.977287",7825,333,121
1618840006,2021-04-19T13:46:46Z,PBD537,"45.411663,42.000599",7500,330,121
1618840018,2021-04-19T13:46:58Z,PBD537,"45.402256,42.022572",7200,329,121
1618840030,2021-04-19T13:47:10Z,PBD537,"45.392532,42.045593",6875,326,120
1618840042,2021-04-19T13:47:22Z,PBD537,"45.383266,42.067455",6600,324,121
1618840054,2021-04-19T13:47:34Z,PBD537,"45.37381,42.089867",6375,321,120
1618840067,2021-04-19T13:47:47Z,PBD537,"45.36438,42.112297",6150,316,121
1618840084,2021-04-19T13:48:04Z,PBD537,"45.351654,42.142117",5850,313,121
1618840096,2021-04-19T13:48:16Z,PBD537,"45.342728,42.162781",5625,306,121
1618840108,2021-04-19T13:48:28Z,PBD537,"45.333572,42.183838",5400,302,121
1618840121,2021-04-19T13:48:41Z,PBD537,"45.324703,42.204449",5175,299,121
1618840133,2021-04-19T13:48:53Z,PBD537,"45.31604,42.224384",4975,295,121
1618840139,2021-04-19T13:48:59Z,PBD537,"45.311829,42.234127",4875,294,121
1618840145,2021-04-19T13:49:05Z,PBD537,"45.307251,42.24472",4775,292,121
1618840151,2021-04-19T13:49:11Z,PBD537,"45.302856,42.254791",4675,289,121
1618840157,2021-04-19T13:49:17Z,PBD537,"45.298912,42.26387",4575,288,121
1618840163,2021-04-19T13:49:23Z,PBD537,"45.294479,42.274082",4475,286,121
1618840169,2021-04-19T13:49:29Z,PBD537,"45.290253,42.283897",4375,285,121
1618840175,2021-04-19T13:49:35Z,PBD537,"45.286156,42.293476",4275,284,121
1618840182,2021-04-19T13:49:42Z,PBD537,"45.281826,42.303459",4175,283,121
1618840188,2021-04-19T13:49:48Z,PBD537,"45.277725,42.312992",4075,282,121
1618840194,2021-04-19T13:49:54Z,PBD537,"45.273682,42.32235",3975,281,121
1618840200,2021-04-19T13:50:00Z,PBD537,"45.269585,42.331928",3850,280,121
1618840212,2021-04-19T13:50:12Z,PBD537,"45.260925,42.349548",3800,270,129
1618840215,2021-04-19T13:50:15Z,PBD537,"45.257675,42.353863",3800,265,136
1618840218,2021-04-19T13:50:18Z,PBD537,"45.254734,42.357052",3775,261,142
1618840221,2021-04-19T13:50:21Z,PBD537,"45.251907,42.359619",3775,258,147
1618840224,2021-04-19T13:50:24Z,PBD537,"45.24873,42.362007",3750,254,151
1618840230,2021-04-19T13:50:30Z,PBD537,"45.242352,42.365559",3750,246,160
1618840233,2021-04-19T13:50:33Z,PBD537,"45.239182,42.366879",3725,243,163
1618840239,2021-04-19T13:50:39Z,PBD537,"45.232529,42.369175",3700,238,166
1618840245,2021-04-19T13:50:45Z,PBD537,"45.226009,42.371452",3625,238,165
1618840248,2021-04-19T13:50:48Z,PBD537,"45.222797,42.372662",3575,237,165
1618840251,2021-04-19T13:50:51Z,PBD537,"45.220284,42.373531",3550,237,165
1618840258,2021-04-19T13:50:58Z,PBD537,"45.212814,42.376362",3475,235,164
1618840264,2021-04-19T13:51:04Z,PBD537,"45.206692,42.378689",3475,228,165
1618840270,2021-04-19T13:51:10Z,PBD537,"45.2005,42.380871",3475,222,166
1618840276,2021-04-19T13:51:16Z,PBD537,"45.194687,42.382835",3475,217,166
1618840282,2021-04-19T13:51:22Z,PBD537,"45.188583,42.385052",3475,213,165
1618840288,2021-04-19T13:51:28Z,PBD537,"45.182739,42.38689",3475,209,168
1618840292,2021-04-19T13:51:32Z,PBD537,"45.179832,42.387329",3500,203,173
1618840298,2021-04-19T13:51:38Z,PBD537,"45.174385,42.386726",3475,190,186
1618840300,2021-04-19T13:51:40Z,PBD537,"45.172245,42.38599",3475,184,192
1618840304,2021-04-19T13:51:44Z,PBD537,"45.169601,42.384731",3475,178,198
1618840310,2021-04-19T13:51:50Z,PBD537,"45.165253,42.381462",3450,169,208
1618840313,2021-04-19T13:51:53Z,PBD537,"45.163284,42.379498",3450,166,213
1618840316,2021-04-19T13:51:56Z,PBD537,"45.161545,42.377472",3450,161,219
1618840322,2021-04-19T13:52:02Z,PBD537,"45.158615,42.373089",3450,156,226
1618840325,2021-04-19T13:52:05Z,PBD537,"45.157253,42.370583",3450,153,231
1618840328,2021-04-19T13:52:08Z,PBD537,"45.156143,42.368053",3475,151,237
1618840331,2021-04-19T13:52:11Z,PBD537,"45.155228,42.365635",3475,149,241
1618840334,2021-04-19T13:52:14Z,PBD537,"45.154366,42.362946",3475,149,244
1618840337,2021-04-19T13:52:17Z,PBD537,"45.153671,42.360077",3475,147,249
1618840340,2021-04-19T13:52:20Z,PBD537,"45.153168,42.357265",3475,146,254
1618840343,2021-04-19T13:52:23Z,PBD537,"45.152691,42.354439",3475,146,256
1618840346,2021-04-19T13:52:26Z,PBD537,"45.152206,42.351509",3475,145,256
1618840350,2021-04-19T13:52:30Z,PBD537,"45.151669,42.348545",3475,145,256
1618840353,2021-04-19T13:52:33Z,PBD537,"45.151154,42.345757",3475,145,255
1618840356,2021-04-19T13:52:36Z,PBD537,"45.15065,42.342945",3475,145,255
1618840359,2021-04-19T13:52:39Z,PBD537,"45.150146,42.340199",3475,145,255
1618840362,2021-04-19T13:52:42Z,PBD537,"45.149666,42.337421",3475,145,255
1618840365,2021-04-19T13:52:45Z,PBD537,"45.149139,42.334637",3475,145,255
1618840374,2021-04-19T13:52:54Z,PBD537,"45.147629,42.326138",3500,146,255
1618840380,2021-04-19T13:53:00Z,PBD537,"45.146667,42.320709",3500,145,256
1618840386,2021-04-19T13:53:06Z,PBD537,"45.14571,42.315182",3500,143,256
1618840395,2021-04-19T13:53:15Z,PBD537,"45.144264,42.307278",3475,139,255
1618840401,2021-04-19T13:53:21Z,PBD537,"45.143288,42.301918",3475,139,255
1618840410,2021-04-19T13:53:30Z,PBD537,"45.141815,42.293701",3450,137,256
1618840416,2021-04-19T13:53:36Z,PBD537,"45.1409,42.288403",3425,137,255
1618840423,2021-04-19T13:53:43Z,PBD537,"45.139889,42.282894",3350,138,255
1618840429,2021-04-19T13:53:49Z,PBD537,"45.138931,42.277485",3300,138,256
1618840435,2021-04-19T13:53:55Z,PBD537,"45.137981,42.272041",3225,139,255
1618840441,2021-04-19T13:54:01Z,PBD537,"45.137005,42.266617",3150,139,255
1618840447,2021-04-19T13:54:07Z,PBD537,"45.135979,42.261055",3100,140,255
1618840453,2021-04-19T13:54:13Z,PBD537,"45.135094,42.255962",3025,140,255
1618840459,2021-04-19T13:54:19Z,PBD537,"45.134071,42.250404",2975,141,255
1618840465,2021-04-19T13:54:25Z,PBD537,"45.133091,42.244843",2900,140,255
1618840472,2021-04-19T13:54:32Z,PBD537,"45.132111,42.239491",2825,140,255
1618840480,2021-04-19T13:54:40Z,PBD537,"45.130737,42.23164",2725,138,256
1618840486,2021-04-19T13:54:46Z,PBD537,"45.12973,42.22628",2650,139,254
1618840493,2021-04-19T13:54:53Z,PBD537,"45.128765,42.220928",2600,139,255
1618840499,2021-04-19T13:54:59Z,PBD537,"45.127808,42.215488",2525,138,256
1618840505,2021-04-19T13:55:05Z,PBD537,"45.126854,42.210144",2450,141,256
1618840511,2021-04-19T13:55:11Z,PBD537,"45.125885,42.204765",2400,144,255
1618840520,2021-04-19T13:55:20Z,PBD537,"45.124329,42.196133",2275,142,255
1618840526,2021-04-19T13:55:26Z,PBD537,"45.123367,42.190639",2200,142,256
1618840535,2021-04-19T13:55:35Z,PBD537,"45.121857,42.182465",2100,144,255
1618840545,2021-04-19T13:55:45Z,PBD537,"45.120293,42.173969",1975,142,255
1618840550,2021-04-19T13:55:50Z,PBD537,"45.119385,42.168797",1925,140,255
1618840557,2021-04-19T13:55:57Z,PBD537,"45.118423,42.163303",1850,143,256
1618840563,2021-04-19T13:56:03Z,PBD537,"45.117371,42.157616",1800,144,255
1618840572,2021-04-19T13:56:12Z,PBD537,"45.115913,42.149315",1675,143,255
1618840578,2021-04-19T13:56:18Z,PBD537,"45.114937,42.144226",1625,141,254
1618840584,2021-04-19T13:56:24Z,PBD537,"45.11396,42.138664",1550,142,256
1618840593,2021-04-19T13:56:33Z,PBD537,"45.112469,42.130356",1450,143,255
1618840599,2021-04-19T13:56:39Z,PBD537,"45.111465,42.124851",1375,144,255
1618840605,2021-04-19T13:56:45Z,PBD537,"45.11047,42.119507",1350,136,256
1618840611,2021-04-19T13:56:51Z,PBD537,"45.109631,42.11475",1350,111,255
1618840617,2021-04-19T13:56:57Z,PBD537,"45.109001,42.111267",0,84,255
1618840623,2021-04-19T13:57:03Z,PBD537,"45.108524,42.108704",0,61,255
1618840629,2021-04-19T13:57:09Z,PBD537,"45.108246,42.107128",0,37,258
1618840634,2021-04-19T13:57:14Z,PBD537,"45.108093,42.106258",0,25,255
1618840641,2021-04-19T13:57:21Z,PBD537,"45.107964,42.105495",0,14,255
1618840645,2021-04-19T13:57:25Z,PBD537,"45.107929,42.105251",0,9,261
1618840650,2021-04-19T13:57:30Z,PBD537,"45.107944,42.105019",0,8,272
1618840654,2021-04-19T13:57:34Z,PBD537,"45.107944,42.104801",0,8,270
1618840658,2021-04-19T13:57:38Z,PBD537,"45.107933,42.104599",0,7,261
1618840663,2021-04-19T13:57:43Z,PBD537,"45.107883,42.104382",0,5,255
1618840685,2021-04-19T13:58:05Z,PBD537,"45.107769,42.10461",0,4,104
1618840692,2021-04-19T13:58:12Z,PBD537,"45.107826,42.104839",0,6,73
1618840697,2021-04-19T13:58:17Z,PBD537,"45.107883,42.105068",0,8,73
1618840701,2021-04-19T13:58:21Z,PBD537,"45.107933,42.105286",0,9,73
1618840705,2021-04-19T13:58:25Z,PBD537,"45.107979,42.105556",0,10,73
1618840709,2021-04-19T13:58:29Z,PBD537,"45.108021,42.105774",0,11,73
1618840715,2021-04-19T13:58:35Z,PBD537,"45.108105,42.106224",0,12,75
1618840720,2021-04-19T13:58:40Z,PBD537,"45.108189,42.106678",0,12,75
1618840726,2021-04-19T13:58:46Z,PBD537,"45.108269,42.107147",0,12,75
1618840733,2021-04-19T13:58:53Z,PBD537,"45.108341,42.107571",0,9,73
1618840738,2021-04-19T13:58:58Z,PBD537,"45.108444,42.107784",0,9,53
1618840744,2021-04-19T13:59:04Z,PBD537,"45.108688,42.107933",0,9,14
1618840749,2021-04-19T13:59:09Z,PBD537,"45.108902,42.107883",0,9,348
1618840754,2021-04-19T13:59:14Z,PBD537,"45.109108,42.107815",0,9,345
1618840759,2021-04-19T13:59:19Z,PBD537,"45.109318,42.10775",0,9,345
1618840764,2021-04-19T13:59:24Z,PBD537,"45.10952,42.107685",0,9,345
1618840769,2021-04-19T13:59:29Z,PBD537,"45.109722,42.107616",0,9,345
1618840776,2021-04-19T13:59:36Z,PBD537,"45.110001,42.107506",0,9,345
1618840783,2021-04-19T13:59:43Z,PBD537,"45.110229,42.107426",0,8,345
1618840789,2021-04-19T13:59:49Z,PBD537,"45.110458,42.107342",0,7,343
1618840802,2021-04-19T14:00:02Z,PBD537,"45.110664,42.107162",0,3,323
1618840820,2021-04-19T14:00:20Z,PBD537,"45.110874,42.106995",0,4,331
1618840830,2021-04-19T14:00:30Z,PBD537,"45.111095,42.106876",0,6,343
1618840837,2021-04-19T14:00:37Z,PBD537,"45.111317,42.106812",0,7,345
1618840844,2021-04-19T14:00:44Z,PBD537,"45.111523,42.106739",0,7,345
1618840852,2021-04-19T14:00:52Z,PBD537,"45.111774,42.106655",0,7,345
1618840860,2021-04-19T14:01:00Z,PBD537,"45.11198,42.10651",0,6,326
1618840868,2021-04-19T14:01:08Z,PBD537,"45.112041,42.106258",0,6,286
1618840875,2021-04-19T14:01:15Z,PBD537,"45.112015,42.106033",0,5,261
1618840884,2021-04-19T14:01:24Z,PBD537,"45.11198,42.105824",0,3,255
1618840921,2021-04-19T14:02:01Z,PBD537,"45.111855,42.106609",0,0,89
