Timestamp,UTC,Callsign,Position,Altitude,Speed,Direction
1620817604,2021-05-12T11:06:44Z,PBD537,"59.796696,30.265755",0,0,106
1620818447,2021-05-12T11:20:47Z,PBD537,"59.79673,30.265526",0,3,106
1620818454,2021-05-12T11:20:54Z,PBD537,"59.796764,30.26532",0,3,104
1620818462,2021-05-12T11:21:02Z,PBD537,"59.796791,30.265108",0,3,98
1620818471,2021-05-12T11:21:11Z,PBD537,"59.796825,30.264894",0,2,75
1620818483,2021-05-12T11:21:23Z,PBD537,"59.796822,30.264679",0,2,271
1620818499,2021-05-12T11:21:39Z,PBD537,"59.796719,30.264473",0,2,19
1620818598,2021-05-12T11:23:18Z,PBD537,"59.796768,30.265251",0,0,89
1620818638,2021-05-12T11:23:58Z,PBD537,"59.796616,30.264404",0,0,271
1620818723,2021-05-12T11:25:23Z,PBD537,"59.796886,30.264587",0,8,16
1620818729,2021-05-12T11:25:29Z,PBD537,"59.797153,30.264725",0,9,16
1620818735,2021-05-12T11:25:35Z,PBD537,"59.79744,30.264908",0,10,16
1620818743,2021-05-12T11:25:43Z,PBD537,"59.797806,30.265114",0,11,16
1620818749,2021-05-12T11:25:49Z,PBD537,"59.798138,30.26532",0,12,16
1620818755,2021-05-12T11:25:55Z,PBD537,"59.798481,30.265503",0,13,16
1620818760,2021-05-12T11:26:00Z,PBD537,"59.798767,30.265686",0,13,16
1620818766,2021-05-12T11:26:06Z,PBD537,"59.799107,30.26589",0,14,16
1620818772,2021-05-12T11:26:12Z,PBD537,"59.7995,30.266121",0,14,16
1620818778,2021-05-12T11:26:18Z,PBD537,"59.799923,30.26635",0,15,16
1620818784,2021-05-12T11:26:24Z,PBD537,"59.800354,30.2666",0,15,16
1620818790,2021-05-12T11:26:30Z,PBD537,"59.800774,30.266836",0,16,16
1620818796,2021-05-12T11:26:36Z,PBD537,"59.801228,30.267105",0,17,16
1620818802,2021-05-12T11:26:42Z,PBD537,"59.801628,30.267357",0,15,16
1620818811,2021-05-12T11:26:51Z,PBD537,"59.802158,30.267666",0,14,16
1620818817,2021-05-12T11:26:57Z,PBD537,"59.80254,30.267879",0,15,16
1620818824,2021-05-12T11:27:04Z,PBD537,"59.802937,30.268116",0,11,16
1620818829,2021-05-12T11:27:09Z,PBD537,"59.803181,30.268257",0,10,16
1620818835,2021-05-12T11:27:15Z,PBD537,"59.803459,30.268433",0,11,16
1620818842,2021-05-12T11:27:22Z,PBD537,"59.803711,30.26857",0,8,16
1620818850,2021-05-12T11:27:30Z,PBD537,"59.803928,30.268501",0,6,337
1620818856,2021-05-12T11:27:36Z,PBD537,"59.804031,30.268135",0,8,300
1620818860,2021-05-12T11:27:40Z,PBD537,"59.8041,30.267769",0,10,289
1620818863,2021-05-12T11:27:43Z,PBD537,"59.804146,30.267475",0,12,286
1620818865,2021-05-12T11:27:45Z,PBD537,"59.80418,30.267193",0,13,286
1620818867,2021-05-12T11:27:47Z,PBD537,"59.804226,30.266945",0,14,284
1620818870,2021-05-12T11:27:50Z,PBD537,"59.804283,30.266579",0,15,284
1620818872,2021-05-12T11:27:52Z,PBD537,"59.804321,30.266293",0,16,286
1620818874,2021-05-12T11:27:54Z,PBD537,"59.804367,30.265961",0,17,284
1620818875,2021-05-12T11:27:55Z,PBD537,"59.804401,30.265724",0,18,284
1620818877,2021-05-12T11:27:57Z,PBD537,"59.80444,30.265463",0,19,284
1620818879,2021-05-12T11:27:59Z,PBD537,"59.804501,30.265045",0,20,286
1620818885,2021-05-12T11:28:05Z,PBD537,"59.804672,30.263947",0,21,286
1620818892,2021-05-12T11:28:12Z,PBD537,"59.804867,30.262573",0,21,284
1620818898,2021-05-12T11:28:18Z,PBD537,"59.80505,30.261406",0,21,286
1620818904,2021-05-12T11:28:24Z,PBD537,"59.805222,30.260239",0,22,284
1620818912,2021-05-12T11:28:32Z,PBD537,"59.80545,30.258644",0,22,286
1620818920,2021-05-12T11:28:40Z,PBD537,"59.805672,30.257248",0,21,284
1620818927,2021-05-12T11:28:47Z,PBD537,"59.805851,30.256004",0,19,286
1620818935,2021-05-12T11:28:55Z,PBD537,"59.806057,30.25462",0,18,284
1620818941,2021-05-12T11:29:01Z,PBD537,"59.806206,30.253624",0,18,286
1620818947,2021-05-12T11:29:07Z,PBD537,"59.806347,30.252726",0,17,284
1620818954,2021-05-12T11:29:14Z,PBD537,"59.806499,30.251659",0,16,284
1620818961,2021-05-12T11:29:21Z,PBD537,"59.806625,30.250759",0,16,284
1620818968,2021-05-12T11:29:28Z,PBD537,"59.806767,30.249813",0,15,286
1620818974,2021-05-12T11:29:34Z,PBD537,"59.806904,30.248955",0,15,286
1620818982,2021-05-12T11:29:42Z,PBD537,"59.80703,30.248085",0,13,286
1620818988,2021-05-12T11:29:48Z,PBD537,"59.807114,30.247517",0,11,284
1620818997,2021-05-12T11:29:57Z,PBD537,"59.807213,30.246826",0,8,284
1620819000,2021-05-12T11:30:00Z,PBD537,"59.807259,30.246597",0,7,292
1620819006,2021-05-12T11:30:06Z,PBD537,"59.807384,30.246323",0,8,312
1620819017,2021-05-12T11:30:17Z,PBD537,"59.807823,30.246025",0,8,345
1620819027,2021-05-12T11:30:27Z,PBD537,"59.808044,30.245907",0,5,345
1620819075,2021-05-12T11:31:15Z,PBD537,"59.808327,30.245787",0,5,345
1620819081,2021-05-12T11:31:21Z,PBD537,"59.808559,30.245668",0,9,345
1620819089,2021-05-12T11:31:29Z,PBD537,"59.809036,30.245527",0,13,351
1620819097,2021-05-12T11:31:37Z,PBD537,"59.809364,30.24559",0,9,16
1620819103,2021-05-12T11:31:43Z,PBD537,"59.809536,30.245907",0,8,47
1620819107,2021-05-12T11:31:47Z,PBD537,"59.809582,30.246119",0,7,61
1620819112,2021-05-12T11:31:52Z,PBD537,"59.809593,30.24646",0,7,92
1620819120,2021-05-12T11:32:00Z,PBD537,"59.809536,30.246758",0,3,106
1620819166,2021-05-12T11:32:46Z,PBD537,"59.80949,30.247055",0,5,106
1620819173,2021-05-12T11:32:53Z,PBD537,"59.809292,30.248463",0,30,106
1620819179,2021-05-12T11:32:59Z,PBD537,"59.808895,30.251106",0,56,106
1620819211,2021-05-12T11:33:31Z,PBD537,"59.803848,30.285095",0,162,106
1620819221,2021-05-12T11:33:41Z,PBD537,"59.801517,30.300104",225,165,107
1620819228,2021-05-12T11:33:48Z,PBD537,"59.80014,30.308899",475,166,106
1620819236,2021-05-12T11:33:56Z,PBD537,"59.798119,30.322266",750,168,106
1620819244,2021-05-12T11:34:04Z,PBD537,"59.796341,30.334351",975,173,106
1620819252,2021-05-12T11:34:12Z,PBD537,"59.794582,30.346132",1275,173,106
1620819258,2021-05-12T11:34:18Z,PBD537,"59.793365,30.354584",1500,174,106
1620819271,2021-05-12T11:34:31Z,PBD537,"59.790112,30.375776",1950,178,107
1620819279,2021-05-12T11:34:39Z,PBD537,"59.78833,30.387451",2250,177,107
1620819287,2021-05-12T11:34:47Z,PBD537,"59.78648,30.399454",2550,177,106
1620819294,2021-05-12T11:34:54Z,PBD537,"59.78476,30.411621",2850,176,106
1620819301,2021-05-12T11:35:01Z,PBD537,"59.783203,30.422333",3050,178,105
1620819309,2021-05-12T11:35:09Z,PBD537,"59.781498,30.434212",3200,187,106
1620819316,2021-05-12T11:35:16Z,PBD537,"59.779778,30.446051",3325,194,106
1620819325,2021-05-12T11:35:25Z,PBD537,"59.777264,30.462721",3425,211,106
1620819333,2021-05-12T11:35:33Z,PBD537,"59.774654,30.479673",3575,228,107
1620819339,2021-05-12T11:35:39Z,PBD537,"59.772747,30.492081",3675,237,106
1620819345,2021-05-12T11:35:45Z,PBD537,"59.770752,30.505188",3750,247,107
1620819351,2021-05-12T11:35:51Z,PBD537,"59.768646,30.518646",3900,253,107
1620819357,2021-05-12T11:35:57Z,PBD537,"59.766647,30.531479",4050,259,106
1620819363,2021-05-12T11:36:03Z,PBD537,"59.764481,30.546021",4275,262,106
1620819369,2021-05-12T11:36:09Z,PBD537,"59.762367,30.56027",4500,265,106
1620819376,2021-05-12T11:36:16Z,PBD537,"59.760315,30.57431",4800,267,106
1620819382,2021-05-12T11:36:22Z,PBD537,"59.758163,30.588959",5100,267,106
1620819393,2021-05-12T11:36:33Z,PBD537,"59.754272,30.616425",5650,269,105
1620819406,2021-05-12T11:36:46Z,PBD537,"59.749878,30.647003",6350,272,106
1620819422,2021-05-12T11:37:02Z,PBD537,"59.744259,30.68614",7350,274,105
1620819433,2021-05-12T11:37:13Z,PBD537,"59.74054,30.712463",7750,276,105
1620819452,2021-05-12T11:37:32Z,PBD537,"59.73436,30.75705",8175,275,105
1620819464,2021-05-12T11:37:44Z,PBD537,"59.730061,30.787195",8725,279,105
1620819474,2021-05-12T11:37:54Z,PBD537,"59.726383,30.812578",9125,280,105
1620819486,2021-05-12T11:38:06Z,PBD537,"59.722191,30.841654",9500,280,105
1620819497,2021-05-12T11:38:17Z,PBD537,"59.718422,30.868172",9750,282,106
1620819508,2021-05-12T11:38:28Z,PBD537,"59.714184,30.897438",9925,283,106
1620819521,2021-05-12T11:38:41Z,PBD537,"59.708321,30.926702",10125,282,114
1620819523,2021-05-12T11:38:43Z,PBD537,"59.707123,30.931274",10150,282,116
1620819524,2021-05-12T11:38:44Z,PBD537,"59.706207,30.934479",10175,283,118
1620819527,2021-05-12T11:38:47Z,PBD537,"59.703598,30.943176",10250,284,120
1620819528,2021-05-12T11:38:48Z,PBD537,"59.703323,30.944092",10275,284,120
1620819532,2021-05-12T11:38:52Z,PBD537,"59.700394,30.952881",10375,289,123
1620819533,2021-05-12T11:38:53Z,PBD537,"59.699383,30.955685",10400,290,124
1620819536,2021-05-12T11:38:56Z,PBD537,"59.697144,30.961761",10450,294,126
1620819538,2021-05-12T11:38:58Z,PBD537,"59.695862,30.964966",10475,295,126
1620819540,2021-05-12T11:39:00Z,PBD537,"59.693935,30.969986",10525,300,127
1620819542,2021-05-12T11:39:02Z,PBD537,"59.6922,30.974396",10550,303,127
1620819545,2021-05-12T11:39:05Z,PBD537,"59.69014,30.979706",10600,306,127
1620819548,2021-05-12T11:39:08Z,PBD537,"59.686859,30.988171",10650,313,127
1620819551,2021-05-12T11:39:11Z,PBD537,"59.68483,30.993439",10675,316,127
1620819552,2021-05-12T11:39:12Z,PBD537,"59.683369,30.997168",10700,319,127
1620819564,2021-05-12T11:39:24Z,PBD537,"59.672104,31.026306",11100,332,127
1620819576,2021-05-12T11:39:36Z,PBD537,"59.661533,31.053804",11575,337,127
1620819588,2021-05-12T11:39:48Z,PBD537,"59.649445,31.085358",12075,347,127
1620819624,2021-05-12T11:40:24Z,PBD537,"59.61433,31.176641",13875,356,127
1620819655,2021-05-12T11:40:55Z,PBD537,"59.583466,31.256956",15400,362,127
1620819688,2021-05-12T11:41:28Z,PBD537,"59.549927,31.343628",16975,367,127
1620819721,2021-05-12T11:42:01Z,PBD537,"59.515732,31.431601",18475,373,127
1620819783,2021-05-12T11:43:03Z,PBD537,"59.449081,31.60199",20950,387,127
1620819844,2021-05-12T11:44:04Z,PBD537,"59.380917,31.775112",23350,395,127
1620819907,2021-05-12T11:45:07Z,PBD537,"59.310112,31.95364",25325,406,127
1620819969,2021-05-12T11:46:09Z,PBD537,"59.237595,32.135284",26925,421,128
1620820030,2021-05-12T11:47:10Z,PBD537,"59.162216,32.32225",28475,432,128
1620820092,2021-05-12T11:48:12Z,PBD537,"59.086395,32.509003",30500,424,128
1620820153,2021-05-12T11:49:13Z,PBD537,"59.012688,32.688778",32300,420,128
1620820213,2021-05-12T11:50:13Z,PBD537,"58.939865,32.865326",33850,417,128
1620820276,2021-05-12T11:51:16Z,PBD537,"58.865398,33.044411",34825,410,128
1620820336,2021-05-12T11:52:16Z,PBD537,"58.793152,33.216896",35000,412,129
1620820400,2021-05-12T11:53:20Z,PBD537,"58.717209,33.396664",35000,411,129
1620820463,2021-05-12T11:54:23Z,PBD537,"58.640717,33.576523",35000,410,129
1620820524,2021-05-12T11:55:24Z,PBD537,"58.568394,33.745514",35000,410,129
1620820585,2021-05-12T11:56:25Z,PBD537,"58.495056,33.915859",35000,411,129
1620820646,2021-05-12T11:57:26Z,PBD537,"58.420303,34.08712",35000,414,130
1620820707,2021-05-12T11:58:27Z,PBD537,"58.345963,34.256699",35000,415,129
1620820768,2021-05-12T11:59:28Z,PBD537,"58.269974,34.429646",35000,415,130
1620820819,2021-05-12T12:00:19Z,PBD537,"58.205566,34.564316",35000,417,140
1620820820,2021-05-12T12:00:20Z,PBD537,"58.203098,34.567841",35000,418,141
1620820821,2021-05-12T12:00:21Z,PBD537,"58.201565,34.570038",35000,418,142
1620820822,2021-05-12T12:00:22Z,PBD537,"58.200958,34.570953",35000,418,142
1620820824,2021-05-12T12:00:24Z,PBD537,"58.197048,34.576172",35000,418,143
1620820826,2021-05-12T12:00:26Z,PBD537,"58.193207,34.58115",35000,419,145
1620820828,2021-05-12T12:00:28Z,PBD537,"58.191414,34.583313",35000,418,146
1620820829,2021-05-12T12:00:29Z,PBD537,"58.18848,34.586792",35000,419,147
1620820830,2021-05-12T12:00:30Z,PBD537,"58.187485,34.587883",35000,419,147
1620820831,2021-05-12T12:00:31Z,PBD537,"58.186016,34.58963",35000,419,148
1620820832,2021-05-12T12:00:32Z,PBD537,"58.183823,34.592049",35000,419,149
1620820834,2021-05-12T12:00:34Z,PBD537,"58.181126,34.59494",35000,420,150
1620820836,2021-05-12T12:00:36Z,PBD537,"58.176682,34.599316",35000,420,151
1620820837,2021-05-12T12:00:37Z,PBD537,"58.175819,34.600159",35000,420,150
1620820839,2021-05-12T12:00:39Z,PBD537,"58.172001,34.603729",35000,420,153
1620820840,2021-05-12T12:00:40Z,PBD537,"58.170933,34.604645",35000,420,153
1620820842,2021-05-12T12:00:42Z,PBD537,"58.166557,34.608398",35000,420,155
1620820845,2021-05-12T12:00:45Z,PBD537,"58.16153,34.612427",35000,421,156
1620820846,2021-05-12T12:00:46Z,PBD537,"58.159744,34.613846",35000,420,156
1620820849,2021-05-12T12:00:49Z,PBD537,"58.154022,34.618362",35000,420,157
1620820851,2021-05-12T12:00:51Z,PBD537,"58.150452,34.621197",35000,419,157
1620820852,2021-05-12T12:00:52Z,PBD537,"58.149563,34.621948",35000,419,157
1620820854,2021-05-12T12:00:54Z,PBD537,"58.146011,34.624832",35000,419,157
1620820855,2021-05-12T12:00:55Z,PBD537,"58.144398,34.626068",35000,419,157
1620820916,2021-05-12T12:01:56Z,PBD537,"58.035278,34.714874",35000,418,156
1620820978,2021-05-12T12:02:58Z,PBD537,"57.925415,34.803181",35000,419,157
1620821040,2021-05-12T12:04:00Z,PBD537,"57.815132,34.890839",35000,418,157
1620821100,2021-05-12T12:05:00Z,PBD537,"57.708755,34.977207",35000,411,152
1620821163,2021-05-12T12:06:03Z,PBD537,"57.606812,35.087414",35000,410,149
1620821225,2021-05-12T12:07:05Z,PBD537,"57.505463,35.196762",35000,407,150
1620821287,2021-05-12T12:08:07Z,PBD537,"57.404819,35.304123",35000,404,150
1620821349,2021-05-12T12:09:09Z,PBD537,"57.305153,35.41053",35000,404,150
1620821410,2021-05-12T12:10:10Z,PBD537,"57.20623,35.514633",35000,405,150
1620821470,2021-05-12T12:11:10Z,PBD537,"57.107712,35.619392",35000,408,150
1620821532,2021-05-12T12:12:12Z,PBD537,"57.007172,35.724262",35000,410,150
1620821594,2021-05-12T12:13:14Z,PBD537,"56.903919,35.831467",35000,413,150
1620821656,2021-05-12T12:14:16Z,PBD537,"56.800369,35.93808",35000,417,150
1620821718,2021-05-12T12:15:18Z,PBD537,"56.69751,36.043224",35000,413,150
1620821779,2021-05-12T12:16:19Z,PBD537,"56.595604,36.146881",35000,413,150
1620821839,2021-05-12T12:17:19Z,PBD537,"56.495087,36.249222",35000,414,150
1620821902,2021-05-12T12:18:22Z,PBD537,"56.390774,36.353931",35000,405,149
1620821919,2021-05-12T12:18:39Z,PBD537,"56.366428,36.386032",35000,402,139
1620821920,2021-05-12T12:18:40Z,PBD537,"56.364349,36.389381",35000,401,138
1620821923,2021-05-12T12:18:43Z,PBD537,"56.360367,36.395874",35000,402,137
1620821924,2021-05-12T12:18:44Z,PBD537,"56.358856,36.398453",35000,402,136
1620821926,2021-05-12T12:18:46Z,PBD537,"56.357025,36.401699",35000,401,136
1620821927,2021-05-12T12:18:47Z,PBD537,"56.355579,36.404312",35000,401,135
1620821930,2021-05-12T12:18:50Z,PBD537,"56.351944,36.411022",35000,400,134
1620821932,2021-05-12T12:18:52Z,PBD537,"56.349289,36.4161",35000,401,132
1620821933,2021-05-12T12:18:53Z,PBD537,"56.347458,36.419846",35000,401,132
1620821934,2021-05-12T12:18:54Z,PBD537,"56.345718,36.423424",35000,401,131
1620821936,2021-05-12T12:18:56Z,PBD537,"56.343933,36.42725",35000,401,130
1620821938,2021-05-12T12:18:58Z,PBD537,"56.341614,36.432381",35000,400,129
1620821939,2021-05-12T12:18:59Z,PBD537,"56.340546,36.434742",35000,400,129
1620821942,2021-05-12T12:19:02Z,PBD537,"56.337471,36.441822",35000,400,128
1620821945,2021-05-12T12:19:05Z,PBD537,"56.334045,36.450138",35000,400,126
1620821948,2021-05-12T12:19:08Z,PBD537,"56.330154,36.459461",35000,401,126
1620821950,2021-05-12T12:19:10Z,PBD537,"56.327637,36.465622",35000,401,126
1620821951,2021-05-12T12:19:11Z,PBD537,"56.326492,36.468285",35000,401,126
1620821955,2021-05-12T12:19:15Z,PBD537,"56.322716,36.477272",35000,401,126
1620822018,2021-05-12T12:20:18Z,PBD537,"56.252426,36.64365",35000,401,127
1620822079,2021-05-12T12:21:19Z,PBD537,"56.184311,36.805283",35000,399,127
1620822140,2021-05-12T12:22:20Z,PBD537,"56.116207,36.964874",35000,397,127
1620822202,2021-05-12T12:23:22Z,PBD537,"56.047451,37.12735",35000,396,126
1620822268,2021-05-12T12:24:28Z,PBD537,"55.973511,37.29567",35000,396,134
1620822271,2021-05-12T12:24:31Z,PBD537,"55.968777,37.303734",35000,396,136
1620822277,2021-05-12T12:24:37Z,PBD537,"55.960968,37.316147",35000,396,139
1620822286,2021-05-12T12:24:46Z,PBD537,"55.94783,37.334789",35000,398,142
1620822287,2021-05-12T12:24:47Z,PBD537,"55.946945,37.335922",35000,398,142
1620822295,2021-05-12T12:24:55Z,PBD537,"55.935165,37.350426",35000,398,146
1620822296,2021-05-12T12:24:56Z,PBD537,"55.933777,37.352016",35000,397,146
1620822298,2021-05-12T12:24:58Z,PBD537,"55.929337,37.357262",35000,397,146
1620822301,2021-05-12T12:25:01Z,PBD537,"55.925392,37.362015",35000,397,146
1620822302,2021-05-12T12:25:02Z,PBD537,"55.924622,37.362919",35000,397,146
1620822363,2021-05-12T12:26:03Z,PBD537,"55.831604,37.474281",35000,397,146
1620822424,2021-05-12T12:27:04Z,PBD537,"55.738403,37.58456",35000,394,146
1620822456,2021-05-12T12:27:36Z,PBD537,"55.687462,37.635468",35000,397,156
1620822461,2021-05-12T12:27:41Z,PBD537,"55.679123,37.641491",35000,398,157
1620822464,2021-05-12T12:27:44Z,PBD537,"55.674007,37.644913",35000,398,158
1620822468,2021-05-12T12:27:48Z,PBD537,"55.667404,37.649063",35000,400,160
1620822470,2021-05-12T12:27:50Z,PBD537,"55.663879,37.651062",35000,400,161
1620822471,2021-05-12T12:27:51Z,PBD537,"55.66214,37.652035",35000,400,161
1620822474,2021-05-12T12:27:54Z,PBD537,"55.65683,37.654953",35000,401,163
1620822477,2021-05-12T12:27:57Z,PBD537,"55.65152,37.657639",35000,401,163
1620822478,2021-05-12T12:27:58Z,PBD537,"55.648685,37.659157",35000,400,163
1620822479,2021-05-12T12:27:59Z,PBD537,"55.647812,37.65955",35000,400,163
1620822539,2021-05-12T12:28:59Z,PBD537,"55.541107,37.715149",35000,399,163
1620822603,2021-05-12T12:30:03Z,PBD537,"55.429424,37.772327",35000,398,163
1620822665,2021-05-12T12:31:05Z,PBD537,"55.319653,37.828842",35000,399,163
1620822726,2021-05-12T12:32:06Z,PBD537,"55.211609,37.883766",35000,399,163
1620822789,2021-05-12T12:33:09Z,PBD537,"55.098587,37.941528",35000,404,163
1620822852,2021-05-12T12:34:12Z,PBD537,"54.986664,37.997631",35000,406,164
1620822917,2021-05-12T12:35:17Z,PBD537,"54.869522,38.056076",35000,407,163
1620822980,2021-05-12T12:36:20Z,PBD537,"54.755348,38.113071",35000,406,163
1620823041,2021-05-12T12:37:21Z,PBD537,"54.642273,38.153439",35000,410,170
1620823102,2021-05-12T12:38:22Z,PBD537,"54.5289,38.186214",35000,412,170
1620823163,2021-05-12T12:39:23Z,PBD537,"54.413559,38.218605",35000,408,170
1620823227,2021-05-12T12:40:27Z,PBD537,"54.29718,38.25964",35000,401,165
1620823289,2021-05-12T12:41:29Z,PBD537,"54.18663,38.307442",35000,402,165
1620823352,2021-05-12T12:42:32Z,PBD537,"54.075592,38.369751",35000,400,161
1620823416,2021-05-12T12:43:36Z,PBD537,"53.963448,38.435749",35000,404,160
1620823479,2021-05-12T12:44:39Z,PBD537,"53.852142,38.500538",35000,405,160
1620823540,2021-05-12T12:45:40Z,PBD537,"53.743423,38.56358",35000,405,161
1620823602,2021-05-12T12:46:42Z,PBD537,"53.634697,38.626152",35000,404,161
1620823665,2021-05-12T12:47:45Z,PBD537,"53.523853,38.689484",35000,402,161
1620823726,2021-05-12T12:48:46Z,PBD537,"53.416832,38.750477",35000,401,161
1620823787,2021-05-12T12:49:47Z,PBD537,"53.308876,38.811626",35000,400,161
1620823848,2021-05-12T12:50:48Z,PBD537,"53.201706,38.871983",35000,401,161
1620823911,2021-05-12T12:51:51Z,PBD537,"53.091896,38.933662",35000,402,161
1620823972,2021-05-12T12:52:52Z,PBD537,"52.984634,38.993454",35000,405,161
1620824032,2021-05-12T12:53:52Z,PBD537,"52.876312,39.053493",35000,408,161
1620824096,2021-05-12T12:54:56Z,PBD537,"52.762215,39.116428",35000,414,161
1620824157,2021-05-12T12:55:57Z,PBD537,"52.650768,39.177483",35000,418,161
1620824218,2021-05-12T12:56:58Z,PBD537,"52.537876,39.239082",35000,418,161
1620824279,2021-05-12T12:57:59Z,PBD537,"52.427765,39.29863",35000,418,161
1620824340,2021-05-12T12:59:00Z,PBD537,"52.315777,39.35907",35000,419,161
1620824401,2021-05-12T13:00:01Z,PBD537,"52.203232,39.419403",35000,420,161
1620824461,2021-05-12T13:01:01Z,PBD537,"52.092224,39.479141",35000,419,161
1620824524,2021-05-12T13:02:04Z,PBD537,"51.976227,39.540329",35000,415,161
1620824586,2021-05-12T13:03:06Z,PBD537,"51.863251,39.600292",35000,414,161
1620824649,2021-05-12T13:04:09Z,PBD537,"51.750549,39.659458",35000,413,162
1620824710,2021-05-12T13:05:10Z,PBD537,"51.640137,39.717136",35000,412,161
1620824771,2021-05-12T13:06:11Z,PBD537,"51.529037,39.774666",35000,409,162
1620824833,2021-05-12T13:07:13Z,PBD537,"51.417225,39.832611",35000,407,162
1620824893,2021-05-12T13:08:13Z,PBD537,"51.309551,39.888306",35000,406,162
1620824956,2021-05-12T13:09:16Z,PBD537,"51.198486,39.945175",35000,406,162
1620825017,2021-05-12T13:10:17Z,PBD537,"51.089218,40.000916",35000,405,162
1620825078,2021-05-12T13:11:18Z,PBD537,"50.979916,40.056305",35000,407,162
1620825139,2021-05-12T13:12:19Z,PBD537,"50.870544,40.111603",35000,408,162
1620825202,2021-05-12T13:13:22Z,PBD537,"50.757347,40.168686",35000,411,162
1620825263,2021-05-12T13:14:23Z,PBD537,"50.64624,40.223911",35000,411,162
1620825324,2021-05-12T13:15:24Z,PBD537,"50.53537,40.278408",35000,413,162
1620825385,2021-05-12T13:16:25Z,PBD537,"50.425278,40.333557",35000,413,162
1620825446,2021-05-12T13:17:26Z,PBD537,"50.314453,40.388126",35000,414,162
1620825507,2021-05-12T13:18:27Z,PBD537,"50.201702,40.442974",35000,414,162
1620825569,2021-05-12T13:19:29Z,PBD537,"50.089966,40.497414",35000,412,162
1620825631,2021-05-12T13:20:31Z,PBD537,"49.976578,40.552563",35000,408,162
1620825692,2021-05-12T13:21:32Z,PBD537,"49.867596,40.60532",35000,405,162
1620825755,2021-05-12T13:22:35Z,PBD537,"49.756348,40.658234",35000,396,163
1620825816,2021-05-12T13:23:36Z,PBD537,"49.649124,40.706646",35000,392,169
1620825824,2021-05-12T13:23:44Z,PBD537,"49.634995,40.709766",35000,391,172
1620825827,2021-05-12T13:23:47Z,PBD537,"49.630363,40.710506",35000,391,173
1620825828,2021-05-12T13:23:48Z,PBD537,"49.628365,40.710732",35000,390,174
1620825829,2021-05-12T13:23:49Z,PBD537,"49.624969,40.711212",35000,390,175
1620825831,2021-05-12T13:23:51Z,PBD537,"49.622269,40.71143",35000,390,175
1620825833,2021-05-12T13:23:53Z,PBD537,"49.619385,40.711647",35000,390,176
1620825834,2021-05-12T13:23:54Z,PBD537,"49.617599,40.711792",35000,390,176
1620825836,2021-05-12T13:23:56Z,PBD537,"49.613979,40.711918",35000,390,177
1620825838,2021-05-12T13:23:58Z,PBD537,"49.611092,40.71199",35000,390,178
1620825839,2021-05-12T13:23:59Z,PBD537,"49.608582,40.712006",35000,390,179
1620825840,2021-05-12T13:24:00Z,PBD537,"49.606796,40.712006",35000,390,180
1620825841,2021-05-12T13:24:01Z,PBD537,"49.605877,40.71199",35000,390,180
1620825842,2021-05-12T13:24:02Z,PBD537,"49.602806,40.711918",35000,390,180
1620825844,2021-05-12T13:24:04Z,PBD537,"49.600292,40.711842",35000,390,181
1620825845,2021-05-12T13:24:05Z,PBD537,"49.597591,40.711693",35000,389,181
1620825906,2021-05-12T13:25:06Z,PBD537,"49.487404,40.708725",35000,394,181
1620825967,2021-05-12T13:26:07Z,PBD537,"49.376003,40.705574",35000,395,181
1620826028,2021-05-12T13:27:08Z,PBD537,"49.263672,40.702538",35000,395,181
1620826090,2021-05-12T13:28:10Z,PBD537,"49.152134,40.699215",35000,395,181
1620826151,2021-05-12T13:29:11Z,PBD537,"49.039856,40.696316",35000,395,180
1620826212,2021-05-12T13:30:12Z,PBD537,"48.929802,40.693214",35000,395,182
1620826233,2021-05-12T13:30:33Z,PBD537,"48.89122,40.685188",35000,394,191
1620826295,2021-05-12T13:31:35Z,PBD537,"48.779938,40.655823",35000,404,184
1620826299,2021-05-12T13:31:39Z,PBD537,"48.771149,40.655613",35000,407,180
1620826301,2021-05-12T13:31:41Z,PBD537,"48.769226,40.655682",35000,407,180
1620826302,2021-05-12T13:31:42Z,PBD537,"48.766434,40.655754",35000,407,179
1620826305,2021-05-12T13:31:45Z,PBD537,"48.760025,40.656208",35000,408,177
1620826306,2021-05-12T13:31:46Z,PBD537,"48.759109,40.656315",35000,408,177
1620826307,2021-05-12T13:31:47Z,PBD537,"48.755905,40.65667",35000,408,176
1620826308,2021-05-12T13:31:48Z,PBD537,"48.754204,40.656933",35000,409,175
1620826311,2021-05-12T13:31:51Z,PBD537,"48.748947,40.657795",35000,409,173
1620826313,2021-05-12T13:31:53Z,PBD537,"48.745193,40.658569",35000,409,173
1620826314,2021-05-12T13:31:54Z,PBD537,"48.743134,40.658993",35000,410,172
1620826316,2021-05-12T13:31:56Z,PBD537,"48.740479,40.659626",35000,410,171
1620826317,2021-05-12T13:31:57Z,PBD537,"48.737865,40.660328",35000,410,171
1620826319,2021-05-12T13:31:59Z,PBD537,"48.734142,40.661411",35000,410,171
1620826320,2021-05-12T13:32:00Z,PBD537,"48.732464,40.661919",35000,411,169
1620826321,2021-05-12T13:32:01Z,PBD537,"48.730408,40.662582",35000,412,169
1620826322,2021-05-12T13:32:02Z,PBD537,"48.727997,40.663364",35000,413,167
1620826323,2021-05-12T13:32:03Z,PBD537,"48.726135,40.664013",35000,412,167
1620826326,2021-05-12T13:32:06Z,PBD537,"48.721481,40.665752",35000,412,166
1620826329,2021-05-12T13:32:09Z,PBD537,"48.716309,40.667583",35000,413,166
1620826332,2021-05-12T13:32:12Z,PBD537,"48.710724,40.669579",35000,413,166
1620826333,2021-05-12T13:32:13Z,PBD537,"48.709076,40.670189",35000,412,166
1620826395,2021-05-12T13:33:15Z,PBD537,"48.592205,40.71056",35000,412,167
1620826457,2021-05-12T13:34:17Z,PBD537,"48.478943,40.749664",35000,409,166
1620826519,2021-05-12T13:35:19Z,PBD537,"48.364792,40.790054",35000,406,166
1620826580,2021-05-12T13:36:20Z,PBD537,"48.253555,40.828152",35000,404,167
1620826640,2021-05-12T13:37:20Z,PBD537,"48.143372,40.865776",35000,403,167
1620826702,2021-05-12T13:38:22Z,PBD537,"48.031063,40.903862",35000,401,167
1620826764,2021-05-12T13:39:24Z,PBD537,"47.920593,40.941467",35000,399,167
1620826825,2021-05-12T13:40:25Z,PBD537,"47.810963,40.978722",35000,399,167
1620826887,2021-05-12T13:41:27Z,PBD537,"47.698586,41.01675",35000,397,167
1620826949,2021-05-12T13:42:29Z,PBD537,"47.588745,41.05323",35000,397,167
1620827009,2021-05-12T13:43:29Z,PBD537,"47.48053,41.089417",35000,398,166
1620827071,2021-05-12T13:44:31Z,PBD537,"47.368835,41.127182",35000,398,167
1620827133,2021-05-12T13:45:33Z,PBD537,"47.258202,41.163307",35000,399,167
1620827174,2021-05-12T13:46:14Z,PBD537,"47.184464,41.186687",35000,400,167
1620827261,2021-05-12T13:47:41Z,PBD537,"47.026611,41.237183",35000,403,167
1620827322,2021-05-12T13:48:42Z,PBD537,"46.914833,41.272678",35000,406,167
1620827384,2021-05-12T13:49:44Z,PBD537,"46.80022,41.309006",35000,408,167
1620827445,2021-05-12T13:50:45Z,PBD537,"46.688358,41.344437",35000,409,167
1620827506,2021-05-12T13:51:46Z,PBD537,"46.575001,41.37973",34725,406,167
1620827566,2021-05-12T13:52:46Z,PBD537,"46.466022,41.414062",33675,398,167
1620827629,2021-05-12T13:53:49Z,PBD537,"46.352692,41.449341",31525,397,167
1620827689,2021-05-12T13:54:49Z,PBD537,"46.246353,41.4823",29100,387,167
1620827753,2021-05-12T13:55:53Z,PBD537,"46.136761,41.516029",26625,377,167
1620827814,2021-05-12T13:56:54Z,PBD537,"46.033768,41.54768",24300,369,168
1620827875,2021-05-12T13:57:55Z,PBD537,"45.932922,41.578495",22000,361,167
1620827936,2021-05-12T13:58:56Z,PBD537,"45.834641,41.608707",19800,350,167
1620827996,2021-05-12T13:59:56Z,PBD537,"45.740524,41.63718",17675,341,168
1620828028,2021-05-12T14:00:28Z,PBD537,"45.692368,41.651848",16575,336,167
1620828060,2021-05-12T14:01:00Z,PBD537,"45.643433,41.666855",15450,332,168
1620828091,2021-05-12T14:01:31Z,PBD537,"45.597546,41.68055",14400,327,167
1620828122,2021-05-12T14:02:02Z,PBD537,"45.551788,41.694588",13375,322,167
1620828154,2021-05-12T14:02:34Z,PBD537,"45.506607,41.708027",12350,316,168
1620828185,2021-05-12T14:03:05Z,PBD537,"45.461704,41.721386",11325,311,168
1620828195,2021-05-12T14:03:15Z,PBD537,"45.447506,41.725674",11000,310,168
1620828206,2021-05-12T14:03:26Z,PBD537,"45.432541,41.730129",10650,308,168
1620828217,2021-05-12T14:03:37Z,PBD537,"45.41684,41.734901",10350,306,167
1620828229,2021-05-12T14:03:49Z,PBD537,"45.400581,41.739876",10225,296,167
1620828243,2021-05-12T14:04:03Z,PBD537,"45.382645,41.745235",10100,286,168
1620828254,2021-05-12T14:04:14Z,PBD537,"45.368088,41.749683",10000,277,167
1620828265,2021-05-12T14:04:25Z,PBD537,"45.355637,41.753475",9825,273,167
1620828275,2021-05-12T14:04:35Z,PBD537,"45.342178,41.757465",9550,271,168
1620828288,2021-05-12T14:04:48Z,PBD537,"45.326981,41.762043",9225,270,168
1620828301,2021-05-12T14:05:01Z,PBD537,"45.311142,41.766621",8900,270,168
1620828315,2021-05-12T14:05:15Z,PBD537,"45.293652,41.771694",8550,269,168
1620828330,2021-05-12T14:05:30Z,PBD537,"45.275215,41.777119",8175,269,168
1620828342,2021-05-12T14:05:42Z,PBD537,"45.260605,41.781593",7875,269,168
1620828355,2021-05-12T14:05:55Z,PBD537,"45.245468,41.786163",7575,269,167
1620828368,2021-05-12T14:06:08Z,PBD537,"45.229691,41.79092",7250,268,167
1620828379,2021-05-12T14:06:19Z,PBD537,"45.215332,41.795261",6975,267,168
1620828391,2021-05-12T14:06:31Z,PBD537,"45.201572,41.799362",6850,262,167
1620828403,2021-05-12T14:06:43Z,PBD537,"45.187592,41.803566",6725,255,168
1620828419,2021-05-12T14:06:59Z,PBD537,"45.169125,41.809074",6600,245,168
1620828433,2021-05-12T14:07:13Z,PBD537,"45.154037,41.813835",6450,238,166
1620828446,2021-05-12T14:07:26Z,PBD537,"45.140533,41.818672",6325,233,165
1620828458,2021-05-12T14:07:38Z,PBD537,"45.128345,41.823277",6225,229,165
1620828471,2021-05-12T14:07:51Z,PBD537,"45.115448,41.827961",6100,218,165
1620828483,2021-05-12T14:08:03Z,PBD537,"45.103821,41.832081",5950,211,165
1620828494,2021-05-12T14:08:14Z,PBD537,"45.093895,41.835735",5725,208,165
1620828507,2021-05-12T14:08:27Z,PBD537,"45.081699,41.840359",5425,210,163
1620828513,2021-05-12T14:08:33Z,PBD537,"45.075714,41.844505",5300,208,150
1620828516,2021-05-12T14:08:36Z,PBD537,"45.073563,41.846924",5225,207,142
1620828519,2021-05-12T14:08:39Z,PBD537,"45.071552,41.849804",5175,207,135
1620828523,2021-05-12T14:08:43Z,PBD537,"45.069641,41.853355",5075,207,128
1620828525,2021-05-12T14:08:45Z,PBD537,"45.06834,41.856636",5000,206,120
1620828538,2021-05-12T14:08:58Z,PBD537,"45.066105,41.872513",4775,202,92
1620828541,2021-05-12T14:09:01Z,PBD537,"45.066383,41.876534",4725,200,86
1620828544,2021-05-12T14:09:04Z,PBD537,"45.066833,41.880276",4675,197,81
1620828550,2021-05-12T14:09:10Z,PBD537,"45.068024,41.88773",4575,190,77
1620828553,2021-05-12T14:09:13Z,PBD537,"45.068665,41.89127",4525,188,76
1620828556,2021-05-12T14:09:16Z,PBD537,"45.069305,41.894794",4475,186,76
1620828559,2021-05-12T14:09:19Z,PBD537,"45.069992,41.898651",4425,182,75
1620828562,2021-05-12T14:09:22Z,PBD537,"45.070541,41.901463",4375,181,75
1620828565,2021-05-12T14:09:25Z,PBD537,"45.071224,41.904938",4325,177,74
1620828568,2021-05-12T14:09:28Z,PBD537,"45.071869,41.908264",4275,175,74
1620828571,2021-05-12T14:09:31Z,PBD537,"45.07262,41.91217",4225,172,74
1620828577,2021-05-12T14:09:37Z,PBD537,"45.073738,41.918133",4150,168,75
1620828584,2021-05-12T14:09:44Z,PBD537,"45.074997,41.924767",4025,165,75
1620828589,2021-05-12T14:09:49Z,PBD537,"45.076115,41.930862",3950,160,75
1620828596,2021-05-12T14:09:56Z,PBD537,"45.077225,41.937103",3875,155,75
1620828605,2021-05-12T14:10:05Z,PBD537,"45.078907,41.945801",3725,148,75
1620828611,2021-05-12T14:10:11Z,PBD537,"45.079884,41.951294",3650,146,75
1620828618,2021-05-12T14:10:18Z,PBD537,"45.080978,41.957573",3550,142,76
1620828629,2021-05-12T14:10:29Z,PBD537,"45.082718,41.967052",3425,136,75
1620828635,2021-05-12T14:10:35Z,PBD537,"45.083633,41.972416",3350,135,76
1620828641,2021-05-12T14:10:41Z,PBD537,"45.084724,41.978088",3250,139,74
1620828647,2021-05-12T14:10:47Z,PBD537,"45.085701,41.983112",3175,139,74
1620828656,2021-05-12T14:10:56Z,PBD537,"45.087158,41.991055",3050,136,75
1620828663,2021-05-12T14:11:03Z,PBD537,"45.08812,41.996483",2975,132,76
1620828671,2021-05-12T14:11:11Z,PBD537,"45.089355,42.003742",2875,132,76
1620828677,2021-05-12T14:11:17Z,PBD537,"45.090313,42.009041",2800,134,74
1620828685,2021-05-12T14:11:25Z,PBD537,"45.091553,42.015644",2700,135,74
1620828693,2021-05-12T14:11:33Z,PBD537,"45.092743,42.02179",2625,130,75
1620828699,2021-05-12T14:11:39Z,PBD537,"45.093658,42.02702",2550,129,75
1620828705,2021-05-12T14:11:45Z,PBD537,"45.094574,42.031925",2450,129,75
1620828711,2021-05-12T14:11:51Z,PBD537,"45.095387,42.036438",2375,128,75
1620828717,2021-05-12T14:11:57Z,PBD537,"45.096317,42.041595",2300,125,75
1620828723,2021-05-12T14:12:03Z,PBD537,"45.097202,42.046688",2225,125,76
1620828729,2021-05-12T14:12:09Z,PBD537,"45.098038,42.051109",2150,125,74
1620828735,2021-05-12T14:12:15Z,PBD537,"45.099018,42.056133",2075,126,75
1620828741,2021-05-12T14:12:21Z,PBD537,"45.099884,42.060894",2000,130,75
1620828750,2021-05-12T14:12:30Z,PBD537,"45.101204,42.068394",1900,130,75
1620828756,2021-05-12T14:12:36Z,PBD537,"45.102173,42.073517",1825,128,75
1620828762,2021-05-12T14:12:42Z,PBD537,"45.10302,42.078171",1750,128,75
1620828772,2021-05-12T14:12:52Z,PBD537,"45.104416,42.085808",1625,131,75
1620828778,2021-05-12T14:12:58Z,PBD537,"45.105331,42.090847",1575,129,75
1620828789,2021-05-12T14:13:09Z,PBD537,"45.106976,42.10001",1400,126,75
1620828798,2021-05-12T14:13:18Z,PBD537,"45.108139,42.10651",1400,107,75
1620828805,2021-05-12T14:13:25Z,PBD537,"45.108673,42.109486",0,54,75
1620828811,2021-05-12T14:13:31Z,PBD537,"45.108864,42.110428",0,16,78
1620828816,2021-05-12T14:13:36Z,PBD537,"45.10881,42.110661",0,7,101
1620828848,2021-05-12T14:14:08Z,PBD537,"45.108887,42.110443",0,4,255
1620828855,2021-05-12T14:14:15Z,PBD537,"45.10881,42.110218",0,6,247
1620828861,2021-05-12T14:14:21Z,PBD537,"45.108746,42.109894",0,8,253
1620828867,2021-05-12T14:14:27Z,PBD537,"45.108677,42.109509",0,11,255
1620828870,2021-05-12T14:14:30Z,PBD537,"45.108639,42.109303",0,12,255
1620828873,2021-05-12T14:14:33Z,PBD537,"45.108593,42.109043",0,13,255
1620828879,2021-05-12T14:14:39Z,PBD537,"45.108513,42.108635",0,9,255
1620828883,2021-05-12T14:14:43Z,PBD537,"45.108513,42.108387",0,9,270
1620828887,2021-05-12T14:14:47Z,PBD537,"45.10857,42.108185",0,9,289
1620828892,2021-05-12T14:14:52Z,PBD537,"45.108723,42.107983",0,9,323
1620828896,2021-05-12T14:14:56Z,PBD537,"45.108932,42.107899",0,10,343
1620828901,2021-05-12T14:15:01Z,PBD537,"45.109177,42.107815",0,11,345
1620828906,2021-05-12T14:15:06Z,PBD537,"45.109432,42.107731",0,11,345
1620828911,2021-05-12T14:15:11Z,PBD537,"45.109669,42.107655",0,12,345
1620828917,2021-05-12T14:15:17Z,PBD537,"45.110004,42.107513",0,12,345
1620828923,2021-05-12T14:15:23Z,PBD537,"45.110317,42.107414",0,11,348
1620828929,2021-05-12T14:15:29Z,PBD537,"45.110561,42.107277",0,9,329
1620828934,2021-05-12T14:15:34Z,PBD537,"45.110687,42.107033",0,10,298
1620828937,2021-05-12T14:15:37Z,PBD537,"45.110699,42.106804",0,10,275
1620828940,2021-05-12T14:15:40Z,PBD537,"45.110653,42.106575",0,11,258
1620828943,2021-05-12T14:15:43Z,PBD537,"45.110607,42.106327",0,11,255
1620828946,2021-05-12T14:15:46Z,PBD537,"45.110561,42.106125",0,12,253
1620828950,2021-05-12T14:15:50Z,PBD537,"45.110538,42.105923",0,10,264
1620828955,2021-05-12T14:15:55Z,PBD537,"45.110641,42.10569",0,7,309
1620828962,2021-05-12T14:16:02Z,PBD537,"45.110874,42.105572",0,8,340
1620828968,2021-05-12T14:16:08Z,PBD537,"45.111084,42.105503",0,7,345
1620828974,2021-05-12T14:16:14Z,PBD537,"45.111305,42.105431",0,8,343
1620828980,2021-05-12T14:16:20Z,PBD537,"45.111511,42.105347",0,7,345
1620828989,2021-05-12T14:16:29Z,PBD537,"45.111748,42.105286",0,6,357
1620828997,2021-05-12T14:16:37Z,PBD537,"45.1119,42.105488",0,6,50
1620829004,2021-05-12T14:16:44Z,PBD537,"45.111935,42.105709",0,4,70
1620829015,2021-05-12T14:16:55Z,PBD537,"45.11198,42.105938",0,3,75
1620829044,2021-05-12T14:17:24Z,PBD537,"45.111645,42.105305",0,0,271
