Timestamp,UTC,Callsign,Position,Altitude,Speed,Direction
1614511361,2021-02-28T11:22:41Z,PBD537,"59.799419,30.26358",0,0,89
1614511692,2021-02-28T11:28:12Z,PBD537,"59.799458,30.263355",0,4,286
1614511698,2021-02-28T11:28:18Z,PBD537,"59.799522,30.262985",0,7,286
1614511704,2021-02-28T11:28:24Z,PBD537,"59.799557,30.262642",0,8,278
1614511708,2021-02-28T11:28:28Z,PBD537,"59.799511,30.26239",0,7,250
1614511716,2021-02-28T11:28:36Z,PBD537,"59.799248,30.262148",0,7,202
1614511723,2021-02-28T11:28:43Z,PBD537,"59.799042,30.262024",0,8,196
1614511728,2021-02-28T11:28:48Z,PBD537,"59.798817,30.261889",0,10,196
1614511734,2021-02-28T11:28:54Z,PBD537,"59.798527,30.261703",0,12,196
1614511739,2021-02-28T11:28:59Z,PBD537,"59.798248,30.261557",0,13,196
1614511742,2021-02-28T11:29:02Z,PBD537,"59.798023,30.261406",0,14,194
1614511748,2021-02-28T11:29:08Z,PBD537,"59.797665,30.261202",0,15,194
1614511754,2021-02-28T11:29:14Z,PBD537,"59.797234,30.260965",0,13,196
1614511763,2021-02-28T11:29:23Z,PBD537,"59.796856,30.260719",0,10,202
1614511766,2021-02-28T11:29:26Z,PBD537,"59.796696,30.260513",0,10,208
1614511772,2021-02-28T11:29:32Z,PBD537,"59.796478,30.260279",0,9,210
1614511778,2021-02-28T11:29:38Z,PBD537,"59.796249,30.260124",0,9,196
1614511783,2021-02-28T11:29:43Z,PBD537,"59.796021,30.259987",0,9,196
1614511789,2021-02-28T11:29:49Z,PBD537,"59.795815,30.259872",0,7,191
1614511796,2021-02-28T11:29:56Z,PBD537,"59.795609,30.26001",0,7,157
1614511802,2021-02-28T11:30:02Z,PBD537,"59.795494,30.260262",0,7,129
1614511804,2021-02-28T11:30:04Z,PBD537,"59.795452,30.260468",0,8,115
1614511809,2021-02-28T11:30:09Z,PBD537,"59.79538,30.260948",0,10,106
1614511813,2021-02-28T11:30:13Z,PBD537,"59.795322,30.261337",0,11,106
1614511815,2021-02-28T11:30:15Z,PBD537,"59.795288,30.261543",0,12,106
1614511818,2021-02-28T11:30:18Z,PBD537,"59.795242,30.261793",0,13,106
1614511820,2021-02-28T11:30:20Z,PBD537,"59.795197,30.262148",0,14,104
1614511824,2021-02-28T11:30:24Z,PBD537,"59.795139,30.26255",0,15,106
1614511826,2021-02-28T11:30:26Z,PBD537,"59.795094,30.262871",0,15,106
1614511831,2021-02-28T11:30:31Z,PBD537,"59.794987,30.263639",0,17,104
1614511838,2021-02-28T11:30:38Z,PBD537,"59.794827,30.264658",0,17,104
1614511844,2021-02-28T11:30:44Z,PBD537,"59.794693,30.265594",0,16,104
1614511854,2021-02-28T11:30:54Z,PBD537,"59.794464,30.267073",0,16,104
1614511860,2021-02-28T11:31:00Z,PBD537,"59.79435,30.267883",0,16,104
1614511866,2021-02-28T11:31:06Z,PBD537,"59.794209,30.268803",0,16,104
1614511872,2021-02-28T11:31:12Z,PBD537,"59.794056,30.269796",0,19,104
1614511880,2021-02-28T11:31:20Z,PBD537,"59.793846,30.271248",0,20,104
1614511890,2021-02-28T11:31:30Z,PBD537,"59.793579,30.273016",0,20,104
1614511902,2021-02-28T11:31:42Z,PBD537,"59.793289,30.274982",0,19,104
1614511909,2021-02-28T11:31:49Z,PBD537,"59.793114,30.276142",0,19,106
1614511919,2021-02-28T11:31:59Z,PBD537,"59.792835,30.278084",0,19,104
1614511927,2021-02-28T11:32:07Z,PBD537,"59.792645,30.279305",0,18,106
1614511940,2021-02-28T11:32:20Z,PBD537,"59.792393,30.281067",0,11,106
1614511947,2021-02-28T11:32:27Z,PBD537,"59.792233,30.281754",0,10,120
1614511951,2021-02-28T11:32:31Z,PBD537,"59.792141,30.28196",0,10,132
1614511957,2021-02-28T11:32:37Z,PBD537,"59.791889,30.282234",0,10,157
1614511964,2021-02-28T11:32:44Z,PBD537,"59.791576,30.282393",0,10,165
1614511972,2021-02-28T11:32:52Z,PBD537,"59.791145,30.2826",0,11,165
1614511981,2021-02-28T11:33:01Z,PBD537,"59.790752,30.282581",0,10,194
1614511988,2021-02-28T11:33:08Z,PBD537,"59.790516,30.282211",0,9,227
1614511991,2021-02-28T11:33:11Z,PBD537,"59.790482,30.281982",0,9,247
1614511998,2021-02-28T11:33:18Z,PBD537,"59.790527,30.281548",0,6,284
1614512030,2021-02-28T11:33:50Z,PBD537,"59.790565,30.281256",0,7,286
1614512035,2021-02-28T11:33:55Z,PBD537,"59.790775,30.279835",0,35,286
1614512044,2021-02-28T11:34:04Z,PBD537,"59.791355,30.275953",0,66,286
1614512051,2021-02-28T11:34:11Z,PBD537,"59.792313,30.269623",25,99,285
1614512091,2021-02-28T11:34:51Z,PBD537,"59.800232,30.217163",875,167,287
1614512134,2021-02-28T11:35:34Z,PBD537,"59.80999,30.150368",2675,181,286
1614512165,2021-02-28T11:36:05Z,PBD537,"59.818462,30.09269",3450,222,285
1614512175,2021-02-28T11:36:15Z,PBD537,"59.821163,30.074221",3775,226,286
1614512202,2021-02-28T11:36:42Z,PBD537,"59.827286,30.018494",4625,235,270
1614512208,2021-02-28T11:36:48Z,PBD537,"59.826141,30.004042",4850,240,257
1614512224,2021-02-28T11:37:04Z,PBD537,"59.818321,29.973923",5325,247,233
1614512236,2021-02-28T11:37:16Z,PBD537,"59.807755,29.956591",5700,254,211
1614512255,2021-02-28T11:37:35Z,PBD537,"59.785172,29.941589",6325,260,195
1614512266,2021-02-28T11:37:46Z,PBD537,"59.772263,29.936829",6675,262,184
1614512268,2021-02-28T11:37:48Z,PBD537,"59.770889,29.936737",6725,263,182
1614512277,2021-02-28T11:37:57Z,PBD537,"59.759949,29.939667",7025,269,166
1614512283,2021-02-28T11:38:03Z,PBD537,"59.752823,29.945131",7250,271,157
1614512289,2021-02-28T11:38:09Z,PBD537,"59.74617,29.953491",7450,273,145
1614512292,2021-02-28T11:38:12Z,PBD537,"59.743607,29.957886",7550,273,143
1614512301,2021-02-28T11:38:21Z,PBD537,"59.736145,29.975647",7875,273,125
1614512303,2021-02-28T11:38:23Z,PBD537,"59.734955,29.979492",7925,274,123
1614512310,2021-02-28T11:38:30Z,PBD537,"59.730743,29.996063",8100,279,115
1614512315,2021-02-28T11:38:35Z,PBD537,"59.728592,30.007874",8250,282,109
1614512318,2021-02-28T11:38:38Z,PBD537,"59.727547,30.015406",8300,284,106
1614512322,2021-02-28T11:38:42Z,PBD537,"59.726486,30.026184",8450,285,101
1614512324,2021-02-28T11:38:44Z,PBD537,"59.726028,30.031586",8525,287,99
1614512331,2021-02-28T11:38:51Z,PBD537,"59.724705,30.04969",8775,291,98
1614512338,2021-02-28T11:38:58Z,PBD537,"59.723373,30.06665",8925,299,99
1614512373,2021-02-28T11:39:33Z,PBD537,"59.714493,30.166077",10400,320,100
1614512385,2021-02-28T11:39:45Z,PBD537,"59.711391,30.201132",11025,322,99
1614512398,2021-02-28T11:39:58Z,PBD537,"59.708038,30.240326",11650,327,99
1614512421,2021-02-28T11:40:21Z,PBD537,"59.702087,30.309082",12925,327,99
1614512453,2021-02-28T11:40:53Z,PBD537,"59.694168,30.40078",14500,329,99
1614512487,2021-02-28T11:41:27Z,PBD537,"59.685242,30.50354",16025,337,99
1614512523,2021-02-28T11:42:03Z,PBD537,"59.675262,30.615143",17550,345,100
1614512557,2021-02-28T11:42:37Z,PBD537,"59.665726,30.7209",18875,352,100
1614512618,2021-02-28T11:43:38Z,PBD537,"59.647705,30.91745",21175,363,100
1614512685,2021-02-28T11:44:45Z,PBD537,"59.627472,31.135162",23625,369,100
1614512749,2021-02-28T11:45:49Z,PBD537,"59.606976,31.350719",25575,378,100
1614512792,2021-02-28T11:46:32Z,PBD537,"59.590168,31.497046",26625,389,111
1614512793,2021-02-28T11:46:33Z,PBD537,"59.589146,31.501686",26675,389,112
1614512798,2021-02-28T11:46:38Z,PBD537,"59.585175,31.518036",26800,391,115
1614512799,2021-02-28T11:46:39Z,PBD537,"59.584816,31.51968",26800,391,115
1614512814,2021-02-28T11:46:54Z,PBD537,"59.569565,31.565918",27175,396,126
1614512822,2021-02-28T11:47:02Z,PBD537,"59.560364,31.587616",27375,398,130
1614512826,2021-02-28T11:47:06Z,PBD537,"59.555969,31.59787",27475,399,130
1614512887,2021-02-28T11:48:07Z,PBD537,"59.482403,31.770756",28850,408,130
1614512948,2021-02-28T11:49:08Z,PBD537,"59.407425,31.945221",30100,417,130
1614513010,2021-02-28T11:50:10Z,PBD537,"59.329941,32.124214",31325,424,130
1614513073,2021-02-28T11:51:13Z,PBD537,"59.250664,32.305771",32675,424,130
1614513140,2021-02-28T11:52:20Z,PBD537,"59.163025,32.5047",33000,436,130
1614513204,2021-02-28T11:53:24Z,PBD537,"59.078606,32.694839",33000,439,130
1614513265,2021-02-28T11:54:25Z,PBD537,"58.996536,32.878292",33000,442,131
1614513327,2021-02-28T11:55:27Z,PBD537,"58.913773,33.061615",33000,445,131
1614513390,2021-02-28T11:56:30Z,PBD537,"58.828388,33.249481",33000,446,131
1614513453,2021-02-28T11:57:33Z,PBD537,"58.743153,33.434235",33000,442,131
1614513513,2021-02-28T11:58:33Z,PBD537,"58.660942,33.61322",33000,441,131
1614513577,2021-02-28T11:59:37Z,PBD537,"58.574818,33.798798",33000,440,131
1614513639,2021-02-28T12:00:39Z,PBD537,"58.490662,33.977081",33000,441,132
1614513702,2021-02-28T12:01:42Z,PBD537,"58.40419,34.161015",33000,443,131
1614513763,2021-02-28T12:02:43Z,PBD537,"58.32074,34.334492",33000,446,132
1614513825,2021-02-28T12:03:45Z,PBD537,"58.234177,34.515232",33000,448,132
1614513844,2021-02-28T12:04:04Z,PBD537,"58.204468,34.564938",33000,454,142
1614513846,2021-02-28T12:04:06Z,PBD537,"58.200912,34.569855",33000,454,143
1614513847,2021-02-28T12:04:07Z,PBD537,"58.199001,34.572327",33000,455,144
1614513850,2021-02-28T12:04:10Z,PBD537,"58.193928,34.578827",33000,456,145
1614513852,2021-02-28T12:04:12Z,PBD537,"58.19165,34.581684",33000,457,146
1614513853,2021-02-28T12:04:13Z,PBD537,"58.189133,34.584694",33000,457,146
1614513854,2021-02-28T12:04:14Z,PBD537,"58.187164,34.586998",33000,457,147
1614513855,2021-02-28T12:04:15Z,PBD537,"58.184803,34.58963",33000,457,148
1614513856,2021-02-28T12:04:16Z,PBD537,"58.182987,34.591736",33000,458,148
1614513860,2021-02-28T12:04:20Z,PBD537,"58.176331,34.598785",33000,458,150
1614513862,2021-02-28T12:04:22Z,PBD537,"58.172424,34.602859",33000,459,151
1614513863,2021-02-28T12:04:23Z,PBD537,"58.170547,34.604717",33000,459,151
1614513865,2021-02-28T12:04:25Z,PBD537,"58.166836,34.608582",33000,460,151
1614513866,2021-02-28T12:04:26Z,PBD537,"58.16502,34.610596",33000,459,150
1614513927,2021-02-28T12:05:27Z,PBD537,"58.057663,34.750729",33000,460,144
1614513989,2021-02-28T12:06:29Z,PBD537,"57.949905,34.893021",33000,463,145
1614514050,2021-02-28T12:07:30Z,PBD537,"57.843761,35.031738",33000,464,145
1614514111,2021-02-28T12:08:31Z,PBD537,"57.734272,35.174103",33000,465,145
1614514173,2021-02-28T12:09:33Z,PBD537,"57.625488,35.31332",33000,469,145
1614514234,2021-02-28T12:10:34Z,PBD537,"57.516541,35.45211",33000,469,145
1614514297,2021-02-28T12:11:37Z,PBD537,"57.403843,35.595436",33000,470,145
1614514358,2021-02-28T12:12:38Z,PBD537,"57.294075,35.733742",33000,471,145
1614514418,2021-02-28T12:13:38Z,PBD537,"57.185623,35.869072",33000,473,145
1614514480,2021-02-28T12:14:40Z,PBD537,"57.073288,36.008205",33000,474,146
1614514544,2021-02-28T12:15:44Z,PBD537,"56.956989,36.1506",33000,475,146
1614514610,2021-02-28T12:16:50Z,PBD537,"56.836533,36.297283",33000,474,146
1614514673,2021-02-28T12:17:53Z,PBD537,"56.722832,36.43589",33000,475,146
1614514735,2021-02-28T12:18:55Z,PBD537,"56.606823,36.575523",33000,478,146
1614514798,2021-02-28T12:19:58Z,PBD537,"56.491974,36.712231",33000,479,146
1614514860,2021-02-28T12:21:00Z,PBD537,"56.377487,36.848392",33000,479,146
1614514921,2021-02-28T12:22:01Z,PBD537,"56.264603,36.98148",33000,480,146
1614514983,2021-02-28T12:23:03Z,PBD537,"56.149155,37.116146",33000,480,147
1614515045,2021-02-28T12:24:05Z,PBD537,"56.033253,37.249916",33000,480,147
1614515109,2021-02-28T12:25:09Z,PBD537,"55.914505,37.387222",33000,481,147
1614515170,2021-02-28T12:26:10Z,PBD537,"55.798721,37.519855",33000,483,147
1614515234,2021-02-28T12:27:14Z,PBD537,"55.679455,37.65461",33000,482,147
1614515296,2021-02-28T12:28:16Z,PBD537,"55.558048,37.774944",33000,485,151
1614515358,2021-02-28T12:29:18Z,PBD537,"55.435135,37.890633",33000,484,152
1614515384,2021-02-28T12:29:44Z,PBD537,"55.382591,37.92905",33000,490,161
1614515386,2021-02-28T12:29:46Z,PBD537,"55.378311,37.931461",33000,490,162
1614515400,2021-02-28T12:30:00Z,PBD537,"55.346931,37.945862",33000,492,167
1614515403,2021-02-28T12:30:03Z,PBD537,"55.34024,37.948311",33000,493,168
1614515405,2021-02-28T12:30:05Z,PBD537,"55.336899,37.949364",33000,492,168
1614515407,2021-02-28T12:30:07Z,PBD537,"55.333061,37.950523",33000,492,169
1614515409,2021-02-28T12:30:09Z,PBD537,"55.326782,37.952431",33000,493,170
1614515472,2021-02-28T12:31:12Z,PBD537,"55.184875,37.994923",33000,493,170
1614515536,2021-02-28T12:32:16Z,PBD537,"55.04187,38.037495",33000,491,170
1614515601,2021-02-28T12:33:21Z,PBD537,"54.897938,38.079697",33000,492,170
1614515664,2021-02-28T12:34:24Z,PBD537,"54.755859,38.120728",33000,493,170
1614515726,2021-02-28T12:35:26Z,PBD537,"54.616528,38.160511",33000,494,170
1614515788,2021-02-28T12:36:28Z,PBD537,"54.475101,38.201126",33000,493,170
1614515849,2021-02-28T12:37:29Z,PBD537,"54.340256,38.251728",33000,491,160
1614515911,2021-02-28T12:38:31Z,PBD537,"54.208969,38.329021",33000,490,161
1614515973,2021-02-28T12:39:33Z,PBD537,"54.074478,38.406635",33025,490,161
1614516042,2021-02-28T12:40:42Z,PBD537,"53.9263,38.49165",33000,490,161
1614516104,2021-02-28T12:41:44Z,PBD537,"53.79586,38.566616",33000,490,161
1614516167,2021-02-28T12:42:47Z,PBD537,"53.661415,38.643116",33000,488,161
1614516230,2021-02-28T12:43:50Z,PBD537,"53.525112,38.720425",33000,487,161
1614516290,2021-02-28T12:44:50Z,PBD537,"53.395512,38.79232",33000,488,161
1614516354,2021-02-28T12:45:54Z,PBD537,"53.260437,38.867825",33000,488,161
1614516415,2021-02-28T12:46:55Z,PBD537,"53.130207,38.939911",33000,488,161
1614516476,2021-02-28T12:47:56Z,PBD537,"53.000061,39.011383",33000,489,161
1614516537,2021-02-28T12:48:57Z,PBD537,"52.86795,39.083099",33000,487,161
1614516598,2021-02-28T12:49:58Z,PBD537,"52.73782,39.153862",33000,487,161
1614516659,2021-02-28T12:50:59Z,PBD537,"52.6073,39.224548",33000,487,161
1614516721,2021-02-28T12:52:01Z,PBD537,"52.475498,39.295506",33000,486,162
1614516782,2021-02-28T12:53:02Z,PBD537,"52.344955,39.3647",33000,487,162
1614516843,2021-02-28T12:54:03Z,PBD537,"52.214722,39.432983",33000,485,162
1614516903,2021-02-28T12:55:03Z,PBD537,"52.085529,39.500874",33000,483,161
1614516965,2021-02-28T12:56:05Z,PBD537,"51.956627,39.568829",33000,481,162
1614517026,2021-02-28T12:57:06Z,PBD537,"51.827133,39.635998",33000,480,162
1614517087,2021-02-28T12:58:07Z,PBD537,"51.698589,39.702225",33000,480,162
1614517151,2021-02-28T12:59:11Z,PBD537,"51.562271,39.772217",33000,481,162
1614517213,2021-02-28T13:00:13Z,PBD537,"51.430756,39.839691",33000,482,162
1614517275,2021-02-28T13:01:15Z,PBD537,"51.298519,39.906311",33000,484,162
1614517342,2021-02-28T13:02:22Z,PBD537,"51.155548,39.97821",33000,486,162
1614517403,2021-02-28T13:03:23Z,PBD537,"51.025627,40.043716",33000,488,162
1614517465,2021-02-28T13:04:25Z,PBD537,"50.892242,40.110119",33000,488,162
1614517526,2021-02-28T13:05:26Z,PBD537,"50.761093,40.174183",33000,489,162
1614517589,2021-02-28T13:06:29Z,PBD537,"50.625412,40.241257",33000,488,162
1614517651,2021-02-28T13:07:31Z,PBD537,"50.49065,40.306984",33000,487,162
1614517713,2021-02-28T13:08:33Z,PBD537,"50.359039,40.371357",33000,487,162
1614517774,2021-02-28T13:09:34Z,PBD537,"50.227722,40.435108",33000,485,162
1614517840,2021-02-28T13:10:40Z,PBD537,"50.086349,40.502617",33000,484,163
1614517906,2021-02-28T13:11:46Z,PBD537,"49.943848,40.570282",33000,483,162
1614517968,2021-02-28T13:12:48Z,PBD537,"49.81398,40.632214",33000,482,162
1614518028,2021-02-28T13:13:48Z,PBD537,"49.685669,40.692493",33000,481,163
1614518057,2021-02-28T13:14:17Z,PBD537,"49.621445,40.709476",33000,479,174
1614518064,2021-02-28T13:14:24Z,PBD537,"49.607601,40.710732",33000,478,176
1614518065,2021-02-28T13:14:25Z,PBD537,"49.604507,40.71085",33000,478,177
1614518067,2021-02-28T13:14:27Z,PBD537,"49.600758,40.711025",33000,478,177
1614518070,2021-02-28T13:14:30Z,PBD537,"49.593914,40.711174",33000,478,178
1614518073,2021-02-28T13:14:33Z,PBD537,"49.587341,40.71114",33000,478,180
1614518074,2021-02-28T13:14:34Z,PBD537,"49.584045,40.711025",33000,477,180
1614518076,2021-02-28T13:14:36Z,PBD537,"49.580521,40.710922",33000,477,180
1614518077,2021-02-28T13:14:37Z,PBD537,"49.578087,40.710804",33000,477,181
1614518079,2021-02-28T13:14:39Z,PBD537,"49.574131,40.710655",33000,476,181
1614518140,2021-02-28T13:15:40Z,PBD537,"49.44072,40.707382",33000,476,181
1614518202,2021-02-28T13:16:42Z,PBD537,"49.305477,40.731232",33000,476,169
1614518262,2021-02-28T13:17:42Z,PBD537,"49.176453,40.767166",33000,475,169
1614518324,2021-02-28T13:18:44Z,PBD537,"49.042362,40.804596",33000,474,169
1614518386,2021-02-28T13:19:46Z,PBD537,"48.908524,40.841465",33000,473,169
1614518447,2021-02-28T13:20:47Z,PBD537,"48.77742,40.877804",33000,472,169
1614518508,2021-02-28T13:21:48Z,PBD537,"48.646179,40.913719",33000,471,169
1614518568,2021-02-28T13:22:48Z,PBD537,"48.516998,40.94886",33000,469,169
1614518630,2021-02-28T13:23:50Z,PBD537,"48.385849,40.984287",33000,468,169
1614518690,2021-02-28T13:24:50Z,PBD537,"48.259552,41.01844",33000,465,169
1614518753,2021-02-28T13:25:53Z,PBD537,"48.126354,41.054146",33000,463,169
1614518814,2021-02-28T13:26:54Z,PBD537,"47.997208,41.08873",33000,464,169
1614518875,2021-02-28T13:27:55Z,PBD537,"47.86853,41.123199",33000,462,169
1614518937,2021-02-28T13:28:57Z,PBD537,"47.738251,41.1576",33000,459,169
1614519000,2021-02-28T13:30:00Z,PBD537,"47.606781,41.192001",33000,459,169
1614519062,2021-02-28T13:31:02Z,PBD537,"47.478149,41.225647",33000,457,170
1614519123,2021-02-28T13:32:03Z,PBD537,"47.352722,41.258331",33000,458,169
1614519184,2021-02-28T13:33:04Z,PBD537,"47.225143,41.291428",31950,443,169
1614519245,2021-02-28T13:34:05Z,PBD537,"47.106815,41.322117",30375,418,170
1614519306,2021-02-28T13:35:06Z,PBD537,"46.99374,41.350708",28875,394,169
1614519367,2021-02-28T13:36:07Z,PBD537,"46.885437,41.378769",27500,376,169
1614519428,2021-02-28T13:37:08Z,PBD537,"46.783184,41.404449",26175,364,170
1614519490,2021-02-28T13:38:10Z,PBD537,"46.684158,41.429512",24825,352,170
1614519553,2021-02-28T13:39:13Z,PBD537,"46.583008,41.455399",23425,344,169
1614519615,2021-02-28T13:40:15Z,PBD537,"46.486816,41.479485",22075,338,170
1614519676,2021-02-28T13:41:16Z,PBD537,"46.393307,41.502914",20550,330,170
1614519737,2021-02-28T13:42:17Z,PBD537,"46.30267,41.529076",19025,331,161
1614519739,2021-02-28T13:42:19Z,PBD537,"46.299957,41.530533",18975,331,160
1614519740,2021-02-28T13:42:20Z,PBD537,"46.299088,41.530998",18975,332,159
1614519741,2021-02-28T13:42:21Z,PBD537,"46.2962,41.532646",18925,332,159
1614519742,2021-02-28T13:42:22Z,PBD537,"46.294617,41.533607",18900,333,158
1614519743,2021-02-28T13:42:23Z,PBD537,"46.29406,41.533882",18900,333,158
1614519744,2021-02-28T13:42:24Z,PBD537,"46.29277,41.534683",18875,333,157
1614519745,2021-02-28T13:42:25Z,PBD537,"46.291351,41.535622",18850,333,157
1614519748,2021-02-28T13:42:28Z,PBD537,"46.287277,41.538303",18775,335,155
1614519750,2021-02-28T13:42:30Z,PBD537,"46.285168,41.539787",18750,335,155
1614519751,2021-02-28T13:42:31Z,PBD537,"46.284328,41.540337",18750,335,155
1614519752,2021-02-28T13:42:32Z,PBD537,"46.281509,41.542389",18700,336,153
1614519753,2021-02-28T13:42:33Z,PBD537,"46.279999,41.543495",18675,337,153
1614519754,2021-02-28T13:42:34Z,PBD537,"46.278488,41.544666",18650,337,152
1614519756,2021-02-28T13:42:36Z,PBD537,"46.27533,41.547211",18600,338,151
1614519757,2021-02-28T13:42:37Z,PBD537,"46.273949,41.54837",18575,338,151
1614519758,2021-02-28T13:42:38Z,PBD537,"46.272831,41.549194",18575,339,150
1614519819,2021-02-28T13:43:39Z,PBD537,"46.190002,41.616814",17225,333,150
1614519849,2021-02-28T13:44:09Z,PBD537,"46.149536,41.649639",16575,332,150
1614519881,2021-02-28T13:44:41Z,PBD537,"46.108017,41.683201",15900,330,150
1614519913,2021-02-28T13:45:13Z,PBD537,"46.065216,41.71817",15150,325,150
1614519943,2021-02-28T13:45:43Z,PBD537,"46.025665,41.750259",14450,321,150
1614519977,2021-02-28T13:46:17Z,PBD537,"45.982067,41.785263",13650,320,150
1614520008,2021-02-28T13:46:48Z,PBD537,"45.9431,41.816574",12950,318,150
1614520040,2021-02-28T13:47:20Z,PBD537,"45.901066,41.85022",12150,312,150
1614520072,2021-02-28T13:47:52Z,PBD537,"45.862427,41.881119",11425,307,150
1614520082,2021-02-28T13:48:02Z,PBD537,"45.848511,41.892277",11150,307,150
1614520095,2021-02-28T13:48:15Z,PBD537,"45.833221,41.904533",10850,304,150
1614520107,2021-02-28T13:48:27Z,PBD537,"45.818481,41.916344",10550,304,150
1614520120,2021-02-28T13:48:40Z,PBD537,"45.802467,41.929253",10225,303,150
1614520132,2021-02-28T13:48:52Z,PBD537,"45.787216,41.941582",9900,303,150
1614520143,2021-02-28T13:49:03Z,PBD537,"45.774628,41.951694",9650,302,150
1614520154,2021-02-28T13:49:14Z,PBD537,"45.761307,41.962349",9375,303,150
1614520166,2021-02-28T13:49:26Z,PBD537,"45.746979,41.973667",9075,302,151
1614520179,2021-02-28T13:49:39Z,PBD537,"45.730591,41.986599",8750,301,151
1614520190,2021-02-28T13:49:50Z,PBD537,"45.716812,41.997517",8475,300,150
1614520202,2021-02-28T13:50:02Z,PBD537,"45.701981,42.009239",8175,300,150
1614520214,2021-02-28T13:50:14Z,PBD537,"45.687435,42.020851",7875,300,150
1614520230,2021-02-28T13:50:30Z,PBD537,"45.66925,42.035435",7575,296,150
1614520242,2021-02-28T13:50:42Z,PBD537,"45.654465,42.047222",7375,293,150
1614520254,2021-02-28T13:50:54Z,PBD537,"45.640091,42.058746",7150,290,150
1614520266,2021-02-28T13:51:06Z,PBD537,"45.626221,42.069798",6950,288,150
1614520278,2021-02-28T13:51:18Z,PBD537,"45.612442,42.080784",6725,285,150
1614520284,2021-02-28T13:51:24Z,PBD537,"45.605877,42.085945",6650,284,151
1614520304,2021-02-28T13:51:44Z,PBD537,"45.583328,42.103497",6300,280,150
1614520310,2021-02-28T13:51:50Z,PBD537,"45.576225,42.109154",6200,278,150
1614520390,2021-02-28T13:53:10Z,PBD537,"45.489635,42.177853",5200,249,150
1614520392,2021-02-28T13:53:12Z,PBD537,"45.488007,42.179127",5175,249,150
1614520414,2021-02-28T13:53:34Z,PBD537,"45.465179,42.197048",4800,246,151
1614520423,2021-02-28T13:53:43Z,PBD537,"45.456306,42.203979",4650,245,151
1614520460,2021-02-28T13:54:20Z,PBD537,"45.421299,42.231445",4000,246,151
1614520466,2021-02-28T13:54:26Z,PBD537,"45.414459,42.236874",3900,245,151
1614520474,2021-02-28T13:54:34Z,PBD537,"45.405762,42.243805",3750,244,150
1614520483,2021-02-28T13:54:43Z,PBD537,"45.396717,42.251007",3625,243,150
1614520493,2021-02-28T13:54:53Z,PBD537,"45.387177,42.258583",3500,242,150
1614520514,2021-02-28T13:55:14Z,PBD537,"45.367764,42.273849",3425,236,151
1614520531,2021-02-28T13:55:31Z,PBD537,"45.351425,42.28664",3450,233,151
1614520537,2021-02-28T13:55:37Z,PBD537,"45.345474,42.291283",3425,232,151
1614520546,2021-02-28T13:55:46Z,PBD537,"45.337921,42.29723",3425,226,150
1614520556,2021-02-28T13:55:56Z,PBD537,"45.329216,42.304131",3425,215,150
1614520601,2021-02-28T13:56:41Z,PBD537,"45.291882,42.333538",3425,196,151
1614520608,2021-02-28T13:56:48Z,PBD537,"45.286156,42.337959",3425,195,150
1614520614,2021-02-28T13:56:54Z,PBD537,"45.281982,42.341244",3425,195,150
1614520635,2021-02-28T13:57:15Z,PBD537,"45.265045,42.354256",3425,196,151
1614520644,2021-02-28T13:57:24Z,PBD537,"45.257034,42.359619",3425,196,156
1614520647,2021-02-28T13:57:27Z,PBD537,"45.255249,42.360535",3425,196,158
1614520652,2021-02-28T13:57:32Z,PBD537,"45.250496,42.36261",3425,196,163
1614520658,2021-02-28T13:57:38Z,PBD537,"45.24519,42.364422",3425,194,166
1614520664,2021-02-28T13:57:44Z,PBD537,"45.240234,42.366222",3425,193,165
1614520667,2021-02-28T13:57:47Z,PBD537,"45.237415,42.367233",3425,194,165
1614520670,2021-02-28T13:57:50Z,PBD537,"45.234833,42.368187",3425,194,165
1614520682,2021-02-28T13:58:02Z,PBD537,"45.224442,42.371914",3450,193,165
1614520692,2021-02-28T13:58:12Z,PBD537,"45.216656,42.374802",3425,188,165
1614520698,2021-02-28T13:58:18Z,PBD537,"45.211346,42.376747",3425,185,165
1614520704,2021-02-28T13:58:24Z,PBD537,"45.206318,42.37862",3425,182,165
1614520710,2021-02-28T13:58:30Z,PBD537,"45.201477,42.380363",3425,180,165
1614520716,2021-02-28T13:58:36Z,PBD537,"45.196381,42.382114",3400,178,166
1614520722,2021-02-28T13:58:42Z,PBD537,"45.19162,42.383816",3400,178,166
1614520728,2021-02-28T13:58:48Z,PBD537,"45.186905,42.385448",3375,179,166
1614520737,2021-02-28T13:58:57Z,PBD537,"45.179367,42.38599",3300,178,182
1614520740,2021-02-28T13:59:00Z,PBD537,"45.176758,42.384987",3275,175,190
1614520743,2021-02-28T13:59:03Z,PBD537,"45.174545,42.383751",3225,172,198
1614520749,2021-02-28T13:59:09Z,PBD537,"45.170612,42.379894",3175,169,217
1614520753,2021-02-28T13:59:13Z,PBD537,"45.168938,42.377686",3150,168,223
1614520758,2021-02-28T13:59:18Z,PBD537,"45.165634,42.372795",3075,167,226
1614520762,2021-02-28T13:59:22Z,PBD537,"45.16391,42.370113",3050,167,227
1614520768,2021-02-28T13:59:28Z,PBD537,"45.160767,42.365376",2975,166,226
1614520778,2021-02-28T13:59:38Z,PBD537,"45.155457,42.35648",2900,165,234
1614520780,2021-02-28T13:59:40Z,PBD537,"45.154907,42.355171",2900,165,237
1614520783,2021-02-28T13:59:43Z,PBD537,"45.153809,42.352093",2900,165,242
1614520789,2021-02-28T13:59:49Z,PBD537,"45.152023,42.346016",2925,164,247
1614520798,2021-02-28T13:59:58Z,PBD537,"45.149853,42.336887",2925,164,251
1614520802,2021-02-28T14:00:02Z,PBD537,"45.149105,42.333469",2925,164,252
1614520808,2021-02-28T14:00:08Z,PBD537,"45.147766,42.327312",2925,164,253
1614520810,2021-02-28T14:00:10Z,PBD537,"45.147152,42.324226",2925,164,254
1614520823,2021-02-28T14:00:23Z,PBD537,"45.144917,42.311497",2925,163,256
1614520832,2021-02-28T14:00:32Z,PBD537,"45.143326,42.302135",2925,161,256
1614520838,2021-02-28T14:00:38Z,PBD537,"45.142216,42.295757",2900,158,256
1614520844,2021-02-28T14:00:44Z,PBD537,"45.141148,42.289795",2900,157,256
1614520850,2021-02-28T14:00:50Z,PBD537,"45.140076,42.283764",2900,155,255
1614520859,2021-02-28T14:00:59Z,PBD537,"45.138447,42.274654",2925,154,255
1614520866,2021-02-28T14:01:06Z,PBD537,"45.137375,42.268852",2925,153,255
1614520872,2021-02-28T14:01:12Z,PBD537,"45.136276,42.262638",2925,153,255
1614520877,2021-02-28T14:01:17Z,PBD537,"45.135281,42.257103",2925,153,255
1614520884,2021-02-28T14:01:24Z,PBD537,"45.134209,42.251205",2925,152,255
1614520890,2021-02-28T14:01:30Z,PBD537,"45.133163,42.245243",2950,148,255
1614520899,2021-02-28T14:01:39Z,PBD537,"45.131649,42.236736",2800,147,255
1614520905,2021-02-28T14:01:45Z,PBD537,"45.130627,42.231045",2725,145,256
1614520914,2021-02-28T14:01:54Z,PBD537,"45.129181,42.223003",2650,143,255
1614520920,2021-02-28T14:02:00Z,PBD537,"45.128128,42.217319",2575,142,255
1614520926,2021-02-28T14:02:06Z,PBD537,"45.127087,42.211617",2475,142,255
1614520932,2021-02-28T14:02:12Z,PBD537,"45.126156,42.20639",2425,142,255
1614520938,2021-02-28T14:02:18Z,PBD537,"45.125198,42.201038",2350,141,255
1614520945,2021-02-28T14:02:25Z,PBD537,"45.124153,42.195206",2275,141,255
1614520954,2021-02-28T14:02:34Z,PBD537,"45.122726,42.187172",2150,141,255
1614520962,2021-02-28T14:02:42Z,PBD537,"45.121361,42.179661",2050,142,255
1614520966,2021-02-28T14:02:46Z,PBD537,"45.120667,42.175926",2000,141,255
1614520977,2021-02-28T14:02:57Z,PBD537,"45.118893,42.165928",1875,140,255
1614520988,2021-02-28T14:03:08Z,PBD537,"45.117188,42.156437",1750,139,255
1614520994,2021-02-28T14:03:14Z,PBD537,"45.116226,42.151009",1675,137,256
1614521001,2021-02-28T14:03:21Z,PBD537,"45.115311,42.145767",1600,136,255
1614521007,2021-02-28T14:03:27Z,PBD537,"45.11438,42.140739",1550,135,255
1614521019,2021-02-28T14:03:39Z,PBD537,"45.112427,42.13015",1400,136,255
1614521028,2021-02-28T14:03:48Z,PBD537,"45.111008,42.122105",1325,133,256
1614521034,2021-02-28T14:03:54Z,PBD537,"45.110321,42.118507",1325,101,256
1614521041,2021-02-28T14:04:01Z,PBD537,"45.109699,42.115101",0,59,255
1614521047,2021-02-28T14:04:07Z,PBD537,"45.109386,42.113392",0,38,255
1614521053,2021-02-28T14:04:13Z,PBD537,"45.109211,42.112453",0,29,255
1614521059,2021-02-28T14:04:19Z,PBD537,"45.109062,42.111576",0,23,255
1614521065,2021-02-28T14:04:25Z,PBD537,"45.108879,42.11058",0,21,255
1614521071,2021-02-28T14:04:31Z,PBD537,"45.10873,42.10976",0,20,255
1614521078,2021-02-28T14:04:38Z,PBD537,"45.108582,42.108955",0,19,255
1614521084,2021-02-28T14:04:44Z,PBD537,"45.108467,42.108292",0,18,255
1614521090,2021-02-28T14:04:50Z,PBD537,"45.10833,42.107555",0,16,255
1614521096,2021-02-28T14:04:56Z,PBD537,"45.108227,42.106918",0,15,255
1614521103,2021-02-28T14:05:03Z,PBD537,"45.108124,42.106346",0,15,255
1614521109,2021-02-28T14:05:09Z,PBD537,"45.108025,42.105789",0,14,255
1614521115,2021-02-28T14:05:15Z,PBD537,"45.107941,42.105297",0,13,258
1614521117,2021-02-28T14:05:17Z,PBD537,"45.107922,42.105087",0,11,261
1614521121,2021-02-28T14:05:21Z,PBD537,"45.107922,42.104885",0,10,267
1614521126,2021-02-28T14:05:26Z,PBD537,"45.107922,42.104649",0,7,270
1614521246,2021-02-28T14:07:26Z,PBD537,"45.110184,42.107441",0,9,345
1614521252,2021-02-28T14:07:32Z,PBD537,"45.110413,42.107376",0,9,345
1614521259,2021-02-28T14:07:39Z,PBD537,"45.11063,42.107178",0,7,317
1614521265,2021-02-28T14:07:45Z,PBD537,"45.110703,42.10696",0,7,292
1614521269,2021-02-28T14:07:49Z,PBD537,"45.110699,42.106754",0,7,270
1614521325,2021-02-28T14:08:45Z,PBD537,"45.110901,42.106628",0,5,357
1614521333,2021-02-28T14:08:53Z,PBD537,"45.111118,42.106792",0,7,25
1614521340,2021-02-28T14:09:00Z,PBD537,"45.111328,42.106819",0,8,355
1614521346,2021-02-28T14:09:06Z,PBD537,"45.111568,42.10672",0,8,345
1614521353,2021-02-28T14:09:13Z,PBD537,"45.11182,42.10664",0,7,345
1614521362,2021-02-28T14:09:22Z,PBD537,"45.112015,42.106426",0,5,309
1614521369,2021-02-28T14:09:29Z,PBD537,"45.112026,42.10619",0,5,272
1614521376,2021-02-28T14:09:36Z,PBD537,"45.112026,42.105968",0,5,261
1614521387,2021-02-28T14:09:47Z,PBD537,"45.111958,42.105755",0,1,258
1614521411,2021-02-28T14:10:11Z,PBD537,"45.111271,42.106827",0,0,180
