Timestamp,UTC,Callsign,Position,Altitude,Speed,Direction
1615115749,2021-03-07T11:15:49Z,PBD537,"59.797096,30.266487",0,0,306
1615115824,2021-03-07T11:17:04Z,PBD537,"59.797096,30.266258",0,3,95
1615115832,2021-03-07T11:17:12Z,PBD537,"59.797108,30.266029",0,3,95
1615115840,2021-03-07T11:17:20Z,PBD537,"59.797119,30.265823",0,3,98
1615115848,2021-03-07T11:17:28Z,PBD537,"59.797131,30.265617",0,3,98
1615115858,2021-03-07T11:17:38Z,PBD537,"59.797142,30.265388",0,3,90
1615115866,2021-03-07T11:17:46Z,PBD537,"59.797165,30.265179",0,2,81
1615115878,2021-03-07T11:17:58Z,PBD537,"59.797165,30.264977",0,2,47
1615115892,2021-03-07T11:18:12Z,PBD537,"59.79707,30.264753",0,2,30
1615116104,2021-03-07T11:21:44Z,PBD537,"59.797371,30.264862",0,9,16
1615116112,2021-03-07T11:21:52Z,PBD537,"59.79776,30.265091",0,12,14
1615116118,2021-03-07T11:21:58Z,PBD537,"59.798164,30.265322",0,15,14
1615116125,2021-03-07T11:22:05Z,PBD537,"59.798607,30.265581",0,14,16
1615116131,2021-03-07T11:22:11Z,PBD537,"59.798985,30.2658",0,14,14
1615116137,2021-03-07T11:22:17Z,PBD537,"59.799408,30.266052",0,14,14
1615116143,2021-03-07T11:22:23Z,PBD537,"59.799786,30.266281",0,14,14
1615116148,2021-03-07T11:22:28Z,PBD537,"59.800076,30.266434",0,15,16
1615116154,2021-03-07T11:22:34Z,PBD537,"59.80048,30.266695",0,15,14
1615116160,2021-03-07T11:22:40Z,PBD537,"59.800884,30.266922",0,15,16
1615116167,2021-03-07T11:22:47Z,PBD537,"59.801273,30.267168",0,15,14
1615116173,2021-03-07T11:22:53Z,PBD537,"59.801662,30.26738",0,15,14
1615116180,2021-03-07T11:23:00Z,PBD537,"59.80212,30.267654",0,15,14
1615116189,2021-03-07T11:23:09Z,PBD537,"59.802715,30.267998",0,12,16
1615116196,2021-03-07T11:23:16Z,PBD537,"59.803036,30.268181",0,12,14
1615116202,2021-03-07T11:23:22Z,PBD537,"59.803288,30.268341",0,10,14
1615116207,2021-03-07T11:23:27Z,PBD537,"59.803532,30.268471",0,9,14
1615116215,2021-03-07T11:23:35Z,PBD537,"59.803768,30.268616",0,6,16
1615116222,2021-03-07T11:23:42Z,PBD537,"59.803867,30.268848",0,5,53
1615116228,2021-03-07T11:23:48Z,PBD537,"59.803871,30.269142",0,5,81
1615116231,2021-03-07T11:23:51Z,PBD537,"59.803856,30.269371",0,7,95
1615116238,2021-03-07T11:23:58Z,PBD537,"59.803799,30.269867",0,9,104
1615116244,2021-03-07T11:24:04Z,PBD537,"59.803703,30.270483",0,12,106
1615116246,2021-03-07T11:24:06Z,PBD537,"59.803669,30.270697",0,12,106
1615116253,2021-03-07T11:24:13Z,PBD537,"59.803555,30.271454",0,12,106
1615116257,2021-03-07T11:24:17Z,PBD537,"59.803493,30.271843",0,12,106
1615116258,2021-03-07T11:24:18Z,PBD537,"59.803471,30.27207",0,13,106
1615116263,2021-03-07T11:24:23Z,PBD537,"59.803402,30.27253",0,13,106
1615116269,2021-03-07T11:24:29Z,PBD537,"59.803276,30.273331",0,13,106
1615116278,2021-03-07T11:24:38Z,PBD537,"59.803139,30.274292",0,13,106
1615116284,2021-03-07T11:24:44Z,PBD537,"59.803028,30.275005",0,12,106
1615116290,2021-03-07T11:24:50Z,PBD537,"59.802937,30.275644",0,12,106
1615116300,2021-03-07T11:25:00Z,PBD537,"59.802807,30.276535",0,10,106
1615116308,2021-03-07T11:25:08Z,PBD537,"59.802704,30.277199",0,10,106
1615116332,2021-03-07T11:25:32Z,PBD537,"59.802349,30.279533",0,11,106
1615116341,2021-03-07T11:25:41Z,PBD537,"59.802223,30.280449",0,12,106
1615116347,2021-03-07T11:25:47Z,PBD537,"59.802132,30.281021",0,10,106
1615116354,2021-03-07T11:25:54Z,PBD537,"59.80204,30.281635",0,10,106
1615116360,2021-03-07T11:26:00Z,PBD537,"59.80196,30.282166",0,10,106
1615116366,2021-03-07T11:26:06Z,PBD537,"59.801899,30.282606",0,10,106
1615116374,2021-03-07T11:26:14Z,PBD537,"59.801796,30.28334",0,10,106
1615116379,2021-03-07T11:26:19Z,PBD537,"59.801716,30.283836",0,10,106
1615116387,2021-03-07T11:26:27Z,PBD537,"59.801609,30.284523",0,11,106
1615116392,2021-03-07T11:26:32Z,PBD537,"59.801529,30.285091",0,9,106
1615116396,2021-03-07T11:26:36Z,PBD537,"59.801525,30.285301",0,8,95
1615116402,2021-03-07T11:26:42Z,PBD537,"59.801598,30.285637",0,7,67
1615116411,2021-03-07T11:26:51Z,PBD537,"59.801777,30.286057",0,6,47
1615116417,2021-03-07T11:26:57Z,PBD537,"59.801888,30.286299",0,6,47
1615116423,2021-03-07T11:27:03Z,PBD537,"59.801994,30.28656",0,7,47
1615116429,2021-03-07T11:27:09Z,PBD537,"59.802147,30.286892",0,8,47
1615116436,2021-03-07T11:27:16Z,PBD537,"59.802315,30.287292",0,9,47
1615116442,2021-03-07T11:27:22Z,PBD537,"59.802486,30.287682",0,9,47
1615116448,2021-03-07T11:27:28Z,PBD537,"59.80267,30.288099",0,10,47
1615116454,2021-03-07T11:27:34Z,PBD537,"59.802868,30.288549",0,10,47
1615116459,2021-03-07T11:27:39Z,PBD537,"59.802994,30.288786",0,8,42
1615116466,2021-03-07T11:27:46Z,PBD537,"59.80323,30.288849",0,6,357
1615116472,2021-03-07T11:27:52Z,PBD537,"59.80331,30.28862",0,5,312
1615116480,2021-03-07T11:28:00Z,PBD537,"59.803333,30.288406",0,2,286
1615116520,2021-03-07T11:28:40Z,PBD537,"59.803368,30.288147",0,0,286
1615116526,2021-03-07T11:28:46Z,PBD537,"59.803562,30.286835",0,30,286
1615116532,2021-03-07T11:28:52Z,PBD537,"59.804031,30.283718",0,62,286
1615116548,2021-03-07T11:29:08Z,PBD537,"59.806229,30.268982",700,125,286
1615116560,2021-03-07T11:29:20Z,PBD537,"59.808472,30.253784",950,147,286
1615116582,2021-03-07T11:29:42Z,PBD537,"59.812363,30.225471",1900,151,286
1615116593,2021-03-07T11:29:53Z,PBD537,"59.814835,30.210388",2350,153,288
1615116605,2021-03-07T11:30:05Z,PBD537,"59.817444,30.194641",2875,152,287
1615116618,2021-03-07T11:30:18Z,PBD537,"59.820183,30.176792",3425,152,287
1615116624,2021-03-07T11:30:24Z,PBD537,"59.821346,30.16893",3650,154,286
1615116638,2021-03-07T11:30:38Z,PBD537,"59.824047,30.149611",4050,161,285
1615116651,2021-03-07T11:30:51Z,PBD537,"59.826782,30.130554",4275,177,285
1615116657,2021-03-07T11:30:57Z,PBD537,"59.828522,30.118744",4400,187,286
1615116666,2021-03-07T11:31:06Z,PBD537,"59.830719,30.103912",4525,200,286
1615116675,2021-03-07T11:31:15Z,PBD537,"59.833191,30.086975",4825,209,286
1615116696,2021-03-07T11:31:36Z,PBD537,"59.838852,30.047987",5850,213,285
1615116706,2021-03-07T11:31:46Z,PBD537,"59.839874,30.027924",6350,219,271
1615116708,2021-03-07T11:31:48Z,PBD537,"59.839783,30.024261",6450,220,268
1615116712,2021-03-07T11:31:52Z,PBD537,"59.839188,30.015381",6650,223,262
1615116731,2021-03-07T11:32:11Z,PBD537,"59.830799,29.980175",7375,241,233
1615116739,2021-03-07T11:32:19Z,PBD537,"59.824219,29.968323",7725,247,219
1615116741,2021-03-07T11:32:21Z,PBD537,"59.821426,29.964661",7850,249,214
1615116762,2021-03-07T11:32:42Z,PBD537,"59.798172,29.948273",8750,260,197
1615116766,2021-03-07T11:32:46Z,PBD537,"59.793915,29.945618",8925,260,197
1615116785,2021-03-07T11:33:05Z,PBD537,"59.77121,29.940399",9625,271,175
1615116789,2021-03-07T11:33:09Z,PBD537,"59.76516,29.942858",9700,278,167
1615116792,2021-03-07T11:33:12Z,PBD537,"59.761295,29.945415",9725,283,161
1615116793,2021-03-07T11:33:13Z,PBD537,"59.760643,29.945984",9750,283,161
1615116796,2021-03-07T11:33:16Z,PBD537,"59.756561,29.949738",9800,289,154
1615116799,2021-03-07T11:33:19Z,PBD537,"59.754227,29.952393",9875,291,150
1615116800,2021-03-07T11:33:20Z,PBD537,"59.752579,29.954681",9925,292,148
1615116805,2021-03-07T11:33:25Z,PBD537,"59.74691,29.963696",10100,294,140
1615116806,2021-03-07T11:33:26Z,PBD537,"59.746258,29.965021",10125,294,138
1615116808,2021-03-07T11:33:28Z,PBD537,"59.74411,29.969513",10200,294,133
1615116812,2021-03-07T11:33:32Z,PBD537,"59.740952,29.977478",10300,296,128
1615116818,2021-03-07T11:33:38Z,PBD537,"59.736969,29.991119",10425,300,118
1615116833,2021-03-07T11:33:53Z,PBD537,"59.731827,30.03236",10675,309,98
1615116842,2021-03-07T11:34:02Z,PBD537,"59.729691,30.058044",10975,318,99
1615116854,2021-03-07T11:34:14Z,PBD537,"59.726578,30.092377",11500,325,100
1615116865,2021-03-07T11:34:25Z,PBD537,"59.723557,30.124695",12100,327,100
1615116897,2021-03-07T11:34:57Z,PBD537,"59.714977,30.218653",14150,322,99
1615116927,2021-03-07T11:35:27Z,PBD537,"59.70739,30.305407",15925,320,99
1615116961,2021-03-07T11:36:01Z,PBD537,"59.698746,30.403473",17650,323,99
1615116996,2021-03-07T11:36:36Z,PBD537,"59.68951,30.505245",19250,329,100
1615117064,2021-03-07T11:37:44Z,PBD537,"59.669769,30.718048",21175,367,100
1615117133,2021-03-07T11:38:53Z,PBD537,"59.646915,30.960514",23125,396,100
1615117194,2021-03-07T11:39:54Z,PBD537,"59.62569,31.179863",24975,411,100
1615117258,2021-03-07T11:40:58Z,PBD537,"59.602413,31.417679",26575,428,101
1615117326,2021-03-07T11:42:06Z,PBD537,"59.572357,31.684387",28025,448,109
1615117332,2021-03-07T11:42:12Z,PBD537,"59.567093,31.707184",28175,450,114
1615117336,2021-03-07T11:42:16Z,PBD537,"59.562935,31.722454",28275,451,117
1615117338,2021-03-07T11:42:18Z,PBD537,"59.561508,31.727417",28325,451,119
1615117350,2021-03-07T11:42:30Z,PBD537,"59.546951,31.769806",28625,454,126
1615117354,2021-03-07T11:42:34Z,PBD537,"59.540955,31.784271",28700,455,129
1615117360,2021-03-07T11:42:40Z,PBD537,"59.532532,31.802856",28850,458,132
1615117362,2021-03-07T11:42:42Z,PBD537,"59.531113,31.805878",28875,458,132
1615117365,2021-03-07T11:42:45Z,PBD537,"59.526253,31.816406",28950,458,132
1615117368,2021-03-07T11:42:48Z,PBD537,"59.522156,31.82531",29025,458,132
1615117431,2021-03-07T11:43:51Z,PBD537,"59.432125,32.024956",30350,466,131
1615117492,2021-03-07T11:44:52Z,PBD537,"59.344933,32.216175",31675,470,131
1615117562,2021-03-07T11:46:02Z,PBD537,"59.241898,32.439972",32950,478,132
1615117628,2021-03-07T11:47:08Z,PBD537,"59.144577,32.649536",34175,480,132
1615117690,2021-03-07T11:48:10Z,PBD537,"59.050873,32.848846",35000,481,132
1615117751,2021-03-07T11:49:11Z,PBD537,"58.958542,33.043762",35000,481,132
1615117812,2021-03-07T11:50:12Z,PBD537,"58.867634,33.233925",35000,481,132
1615117873,2021-03-07T11:51:13Z,PBD537,"58.774342,33.427643",35000,482,132
1615117936,2021-03-07T11:52:16Z,PBD537,"58.679443,33.623035",35000,480,133
1615117998,2021-03-07T11:53:18Z,PBD537,"58.587112,33.811844",35000,478,133
1615118061,2021-03-07T11:54:21Z,PBD537,"58.490047,34.008728",35000,477,133
1615118125,2021-03-07T11:55:25Z,PBD537,"58.39415,34.201172",35000,478,133
1615118186,2021-03-07T11:56:26Z,PBD537,"58.300507,34.387207",35000,479,133
1615118246,2021-03-07T11:57:26Z,PBD537,"58.205334,34.562805",35000,479,143
1615118247,2021-03-07T11:57:27Z,PBD537,"58.204422,34.563961",35000,478,143
1615118249,2021-03-07T11:57:29Z,PBD537,"58.200817,34.568756",35000,478,144
1615118252,2021-03-07T11:57:32Z,PBD537,"58.195885,34.575073",35000,478,145
1615118254,2021-03-07T11:57:34Z,PBD537,"58.18959,34.582745",35000,477,147
1615118256,2021-03-07T11:57:36Z,PBD537,"58.18808,34.584431",35000,478,147
1615118258,2021-03-07T11:57:38Z,PBD537,"58.183777,34.58939",35000,477,148
1615118260,2021-03-07T11:57:40Z,PBD537,"58.178986,34.594574",35000,477,149
1615118263,2021-03-07T11:57:43Z,PBD537,"58.173027,34.600708",35000,477,150
1615118269,2021-03-07T11:57:49Z,PBD537,"58.161297,34.611969",35000,475,153
1615118271,2021-03-07T11:57:51Z,PBD537,"58.15934,34.613708",35000,475,153
1615118273,2021-03-07T11:57:53Z,PBD537,"58.154984,34.617477",35000,475,155
1615118274,2021-03-07T11:57:54Z,PBD537,"58.152969,34.61916",35000,475,155
1615118275,2021-03-07T11:57:55Z,PBD537,"58.14917,34.622261",35000,474,156
1615118277,2021-03-07T11:57:57Z,PBD537,"58.145142,34.625519",35000,474,156
1615118279,2021-03-07T11:57:59Z,PBD537,"58.143139,34.627075",35025,474,156
1615118280,2021-03-07T11:58:00Z,PBD537,"58.140518,34.629173",35025,473,157
1615118282,2021-03-07T11:58:02Z,PBD537,"58.136307,34.632626",35025,473,156
1615118345,2021-03-07T11:59:05Z,PBD537,"58.009598,34.735935",35000,478,156
1615118406,2021-03-07T12:00:06Z,PBD537,"57.884823,34.835815",35000,479,157
1615118469,2021-03-07T12:01:09Z,PBD537,"57.757221,34.93689",35025,474,157
1615118529,2021-03-07T12:02:09Z,PBD537,"57.639725,35.051437",35000,479,149
1615118591,2021-03-07T12:03:11Z,PBD537,"57.522217,35.178307",35000,478,149
1615118652,2021-03-07T12:04:12Z,PBD537,"57.40686,35.302246",35000,481,149
1615118714,2021-03-07T12:05:14Z,PBD537,"57.286743,35.430305",35000,481,150
1615118775,2021-03-07T12:06:15Z,PBD537,"57.167496,35.556049",35000,481,150
1615118838,2021-03-07T12:07:18Z,PBD537,"57.048046,35.68129",35025,481,150
1615118899,2021-03-07T12:08:19Z,PBD537,"56.930466,35.804016",35000,481,150
1615118961,2021-03-07T12:09:21Z,PBD537,"56.810028,35.92804",35000,481,150
1615119024,2021-03-07T12:10:24Z,PBD537,"56.686939,36.053852",35000,480,150
1615119087,2021-03-07T12:11:27Z,PBD537,"56.565533,36.177807",35000,481,150
1615119151,2021-03-07T12:12:31Z,PBD537,"56.44212,36.302605",35000,483,150
1615119190,2021-03-07T12:13:10Z,PBD537,"56.36824,36.388718",35025,491,140
1615119196,2021-03-07T12:13:16Z,PBD537,"56.357758,36.405777",35025,494,137
1615119198,2021-03-07T12:13:18Z,PBD537,"56.355331,36.410023",35025,495,136
1615119201,2021-03-07T12:13:21Z,PBD537,"56.35046,36.418732",35025,496,135
1615119202,2021-03-07T12:13:22Z,PBD537,"56.3479,36.423538",35025,496,134
1615119204,2021-03-07T12:13:24Z,PBD537,"56.344593,36.429806",35000,496,134
1615119209,2021-03-07T12:13:29Z,PBD537,"56.33844,36.44215",35000,498,131
1615119211,2021-03-07T12:13:31Z,PBD537,"56.335331,36.448776",35000,498,131
1615119212,2021-03-07T12:13:32Z,PBD537,"56.333981,36.451607",35000,499,130
1615119218,2021-03-07T12:13:38Z,PBD537,"56.325134,36.471863",35000,501,127
1615119227,2021-03-07T12:13:47Z,PBD537,"56.31308,36.500786",35000,500,126
1615119288,2021-03-07T12:14:48Z,PBD537,"56.227982,36.701576",35000,500,127
1615119349,2021-03-07T12:15:49Z,PBD537,"56.142563,36.902992",35000,499,127
1615119415,2021-03-07T12:16:55Z,PBD537,"56.05043,37.119797",35000,496,126
1615119481,2021-03-07T12:18:01Z,PBD537,"55.953278,37.324387",35000,487,139
1615119485,2021-03-07T12:18:05Z,PBD537,"55.946365,37.334538",35000,486,140
1615119487,2021-03-07T12:18:07Z,PBD537,"55.941971,37.340782",35000,485,141
1615119493,2021-03-07T12:18:13Z,PBD537,"55.932327,37.353687",35000,484,143
1615119500,2021-03-07T12:18:20Z,PBD537,"55.919724,37.369328",35000,482,145
1615119563,2021-03-07T12:19:23Z,PBD537,"55.801117,37.510738",35025,489,146
1615119625,2021-03-07T12:20:25Z,PBD537,"55.685974,37.64637",35000,490,146
1615119688,2021-03-07T12:21:28Z,PBD537,"55.56205,37.771942",35000,486,151
1615119750,2021-03-07T12:22:30Z,PBD537,"55.440262,37.886677",35000,489,151
1615119784,2021-03-07T12:23:04Z,PBD537,"55.36908,37.936356",35000,471,163
1615119791,2021-03-07T12:23:11Z,PBD537,"55.353836,37.943142",35000,467,166
1615119824,2021-03-07T12:23:44Z,PBD537,"55.286407,37.964386",35000,459,170
1615119914,2021-03-07T12:25:14Z,PBD537,"55.093826,38.021664",35025,469,170
1615119956,2021-03-07T12:25:56Z,PBD537,"55.004215,38.047985",35025,470,170
1615120050,2021-03-07T12:27:30Z,PBD537,"54.803947,38.106663",35000,474,170
1615120113,2021-03-07T12:28:33Z,PBD537,"54.66687,38.146469",35000,474,170
1615120181,2021-03-07T12:29:41Z,PBD537,"54.520863,38.188477",35000,475,170
1615120241,2021-03-07T12:30:41Z,PBD537,"54.38887,38.2262",35000,475,170
1615120302,2021-03-07T12:31:42Z,PBD537,"54.256866,38.277256",35025,485,165
1615120364,2021-03-07T12:32:44Z,PBD537,"54.124702,38.336308",35000,490,162
1615120426,2021-03-07T12:33:46Z,PBD537,"53.989563,38.416039",35000,492,160
1615120492,2021-03-07T12:34:52Z,PBD537,"53.848206,38.498528",35000,488,161
1615120554,2021-03-07T12:35:54Z,PBD537,"53.718441,38.574047",35000,485,160
1615120618,2021-03-07T12:36:58Z,PBD537,"53.583256,38.65176",35000,486,161
1615120678,2021-03-07T12:37:58Z,PBD537,"53.453655,38.726242",35000,485,161
1615120743,2021-03-07T12:39:03Z,PBD537,"53.317394,38.803387",35000,484,161
1615120807,2021-03-07T12:40:07Z,PBD537,"53.181648,38.879566",35000,483,161
1615120868,2021-03-07T12:41:08Z,PBD537,"53.052422,38.952026",35000,483,161
1615120929,2021-03-07T12:42:09Z,PBD537,"52.923656,39.023987",35000,484,161
1615120991,2021-03-07T12:43:11Z,PBD537,"52.791275,39.097443",35000,485,161
1615121051,2021-03-07T12:44:11Z,PBD537,"52.663925,39.167404",35000,486,161
1615121113,2021-03-07T12:45:13Z,PBD537,"52.532089,39.239502",35000,489,161
1615121174,2021-03-07T12:46:14Z,PBD537,"52.401714,39.310417",35000,490,161
1615121235,2021-03-07T12:47:15Z,PBD537,"52.270523,39.381332",35000,491,161
1615121296,2021-03-07T12:48:16Z,PBD537,"52.138599,39.451748",35025,491,161
1615121358,2021-03-07T12:49:18Z,PBD537,"52.005707,39.522858",35000,491,161
1615121420,2021-03-07T12:50:20Z,PBD537,"51.871216,39.593761",35025,493,161
1615121482,2021-03-07T12:51:22Z,PBD537,"51.734619,39.665833",35000,494,161
1615121544,2021-03-07T12:52:24Z,PBD537,"51.600723,39.735916",35000,492,162
1615121605,2021-03-07T12:53:25Z,PBD537,"51.469345,39.804134",35000,490,162
1615121666,2021-03-07T12:54:26Z,PBD537,"51.338837,39.871685",35000,489,162
1615121726,2021-03-07T12:55:26Z,PBD537,"51.208282,39.938496",35000,490,162
1615121788,2021-03-07T12:56:28Z,PBD537,"51.076836,40.005646",35000,491,162
1615121852,2021-03-07T12:57:32Z,PBD537,"50.937286,40.076714",35000,491,162
1615121914,2021-03-07T12:58:34Z,PBD537,"50.802475,40.144413",35000,489,162
1615121978,2021-03-07T12:59:38Z,PBD537,"50.665409,40.213154",35000,489,162
1615122039,2021-03-07T13:00:39Z,PBD537,"50.534969,40.278255",35000,488,162
1615122102,2021-03-07T13:01:42Z,PBD537,"50.399597,40.345337",35000,490,162
1615122162,2021-03-07T13:02:42Z,PBD537,"50.267853,40.41024",35000,489,162
1615122224,2021-03-07T13:03:44Z,PBD537,"50.136017,40.474819",35000,488,162
1615122284,2021-03-07T13:04:44Z,PBD537,"50.005203,40.538288",35000,487,162
1615122346,2021-03-07T13:05:46Z,PBD537,"49.873993,40.601856",35000,488,162
1615122407,2021-03-07T13:06:47Z,PBD537,"49.741928,40.665459",35000,491,162
1615122468,2021-03-07T13:07:48Z,PBD537,"49.606251,40.710434",35000,484,177
1615122472,2021-03-07T13:07:52Z,PBD537,"49.597546,40.710804",35000,484,178
1615122474,2021-03-07T13:07:54Z,PBD537,"49.593109,40.71085",35000,483,178
1615122475,2021-03-07T13:07:55Z,PBD537,"49.591961,40.710876",35000,483,179
1615122477,2021-03-07T13:07:57Z,PBD537,"49.586655,40.710777",35000,482,179
1615122478,2021-03-07T13:07:58Z,PBD537,"49.585537,40.710804",35000,482,180
1615122479,2021-03-07T13:07:59Z,PBD537,"49.582214,40.710632",35000,482,180
1615122482,2021-03-07T13:08:02Z,PBD537,"49.576412,40.710434",35000,481,181
1615122483,2021-03-07T13:08:03Z,PBD537,"49.573975,40.710346",35000,481,181
1615122544,2021-03-07T13:09:04Z,PBD537,"49.439129,40.706944",35000,482,180
1615122605,2021-03-07T13:10:05Z,PBD537,"49.302589,40.703407",35000,482,180
1615122666,2021-03-07T13:11:06Z,PBD537,"49.166985,40.699863",35000,481,181
1615122727,2021-03-07T13:12:07Z,PBD537,"49.031982,40.696175",35000,483,181
1615122787,2021-03-07T13:13:07Z,PBD537,"48.898727,40.68716",35000,479,187
1615122849,2021-03-07T13:14:09Z,PBD537,"48.763824,40.648357",35000,476,190
1615122910,2021-03-07T13:15:10Z,PBD537,"48.631912,40.609951",35000,476,191
1615122971,2021-03-07T13:16:11Z,PBD537,"48.501205,40.572227",35000,476,190
1615123032,2021-03-07T13:17:12Z,PBD537,"48.368958,40.53434",35000,476,190
1615123093,2021-03-07T13:18:13Z,PBD537,"48.236481,40.496872",35000,478,190
1615123154,2021-03-07T13:19:14Z,PBD537,"48.102539,40.459076",35000,478,190
1615123215,2021-03-07T13:20:15Z,PBD537,"47.970612,40.422066",35000,479,190
1615123277,2021-03-07T13:21:17Z,PBD537,"47.836662,40.385601",35000,478,188
1615123338,2021-03-07T13:22:18Z,PBD537,"47.701035,40.387596",35000,483,176
1615123400,2021-03-07T13:23:20Z,PBD537,"47.563431,40.401878",35000,484,175
1615123461,2021-03-07T13:24:21Z,PBD537,"47.427513,40.416306",35000,483,175
1615123522,2021-03-07T13:25:22Z,PBD537,"47.292187,40.430462",35000,484,175
1615123583,2021-03-07T13:26:23Z,PBD537,"47.156673,40.444969",35000,483,175
1615123645,2021-03-07T13:27:25Z,PBD537,"47.021484,40.489548",35000,479,165
1615123706,2021-03-07T13:28:26Z,PBD537,"46.890438,40.540607",34300,475,165
1615123767,2021-03-07T13:29:27Z,PBD537,"46.763306,40.590462",33250,466,164
1615123829,2021-03-07T13:30:29Z,PBD537,"46.63623,40.639568",31750,449,165
1615123856,2021-03-07T13:30:56Z,PBD537,"46.582729,40.668365",30950,438,154
1615123873,2021-03-07T13:31:13Z,PBD537,"46.553146,40.692959",30475,431,147
1615123933,2021-03-07T13:32:13Z,PBD537,"46.457565,40.789692",28825,413,145
1615123995,2021-03-07T13:33:15Z,PBD537,"46.362862,40.885139",27175,399,144
1615124055,2021-03-07T13:34:15Z,PBD537,"46.273087,40.976391",25575,383,145
1615124117,2021-03-07T13:35:17Z,PBD537,"46.185032,41.064491",23950,371,145
1615124179,2021-03-07T13:36:19Z,PBD537,"46.099377,41.150322",22375,360,145
1615124239,2021-03-07T13:37:19Z,PBD537,"46.018749,41.231209",20850,348,144
1615124301,2021-03-07T13:38:21Z,PBD537,"45.938232,41.311005",19325,337,145
1615124362,2021-03-07T13:39:22Z,PBD537,"45.861076,41.387421",17825,324,145
1615124396,2021-03-07T13:39:56Z,PBD537,"45.820206,41.427795",17050,318,145
1615124429,2021-03-07T13:40:29Z,PBD537,"45.780403,41.467484",16400,315,145
1615124462,2021-03-07T13:41:02Z,PBD537,"45.740555,41.507515",15650,316,144
1615124493,2021-03-07T13:41:33Z,PBD537,"45.703499,41.544662",14900,312,144
1615124526,2021-03-07T13:42:06Z,PBD537,"45.666069,41.582153",14125,308,145
1615124557,2021-03-07T13:42:37Z,PBD537,"45.628784,41.61956",13350,305,144
1615124591,2021-03-07T13:43:11Z,PBD537,"45.590195,41.658146",12550,301,144
1615124621,2021-03-07T13:43:41Z,PBD537,"45.556438,41.691811",11875,298,145
1615124634,2021-03-07T13:43:54Z,PBD537,"45.541588,41.705307",11575,294,149
1615124640,2021-03-07T13:44:00Z,PBD537,"45.534046,41.710533",11450,292,154
1615124643,2021-03-07T13:44:03Z,PBD537,"45.531162,41.712208",11400,291,155
1615124646,2021-03-07T13:44:06Z,PBD537,"45.526428,41.714825",11300,289,158
1615124648,2021-03-07T13:44:08Z,PBD537,"45.523621,41.71616",11250,287,160
1615124655,2021-03-07T13:44:15Z,PBD537,"45.515213,41.719471",11100,285,165
1615124656,2021-03-07T13:44:16Z,PBD537,"45.513794,41.719929",11075,285,166
1615124658,2021-03-07T13:44:18Z,PBD537,"45.511093,41.720711",11025,284,167
1615124661,2021-03-07T13:44:21Z,PBD537,"45.507607,41.721584",10950,283,169
1615124663,2021-03-07T13:44:23Z,PBD537,"45.503723,41.722542",10875,283,169
1615124666,2021-03-07T13:44:26Z,PBD537,"45.499969,41.723522",10825,283,170
1615124668,2021-03-07T13:44:28Z,PBD537,"45.498016,41.723999",10775,283,169
1615124669,2021-03-07T13:44:29Z,PBD537,"45.496109,41.724533",10750,283,169
1615124671,2021-03-07T13:44:31Z,PBD537,"45.494293,41.725002",10725,283,169
1615124673,2021-03-07T13:44:33Z,PBD537,"45.492462,41.725422",10675,283,169
1615124676,2021-03-07T13:44:36Z,PBD537,"45.48875,41.72641",10625,282,169
1615124689,2021-03-07T13:44:49Z,PBD537,"45.470901,41.731174",10300,281,169
1615124702,2021-03-07T13:45:02Z,PBD537,"45.4552,41.735294",10175,275,169
1615124714,2021-03-07T13:45:14Z,PBD537,"45.440277,41.739285",10050,268,169
1615124726,2021-03-07T13:45:26Z,PBD537,"45.425674,41.743141",9900,264,169
1615124747,2021-03-07T13:45:47Z,PBD537,"45.399746,41.74979",9450,266,170
1615124759,2021-03-07T13:45:59Z,PBD537,"45.384796,41.75354",9200,266,169
1615124772,2021-03-07T13:46:12Z,PBD537,"45.369919,41.757332",8950,265,169
1615124787,2021-03-07T13:46:27Z,PBD537,"45.351654,41.762173",8650,264,169
1615124799,2021-03-07T13:46:39Z,PBD537,"45.337051,41.766029",8400,263,169
1615124821,2021-03-07T13:47:01Z,PBD537,"45.311874,41.772636",7950,261,169
1615124836,2021-03-07T13:47:16Z,PBD537,"45.293243,41.777607",7625,260,169
1615124851,2021-03-07T13:47:31Z,PBD537,"45.275635,41.782146",7325,259,169
1615124863,2021-03-07T13:47:43Z,PBD537,"45.260742,41.785912",7075,257,169
1615124876,2021-03-07T13:47:56Z,PBD537,"45.246914,41.789314",6825,256,170
1615124888,2021-03-07T13:48:08Z,PBD537,"45.232086,41.793037",6575,256,169
1615124903,2021-03-07T13:48:23Z,PBD537,"45.214462,41.797485",6325,253,170
1615124916,2021-03-07T13:48:36Z,PBD537,"45.200546,41.801102",6225,245,169
1615124928,2021-03-07T13:48:48Z,PBD537,"45.186996,41.804615",6150,239,169
1615124940,2021-03-07T13:49:00Z,PBD537,"45.174431,41.808071",6100,230,168
1615124952,2021-03-07T13:49:12Z,PBD537,"45.161957,41.811611",6025,220,168
1615124965,2021-03-07T13:49:25Z,PBD537,"45.149807,41.815571",5975,210,165
1615124977,2021-03-07T13:49:37Z,PBD537,"45.138702,41.819786",5925,197,165
1615124989,2021-03-07T13:49:49Z,PBD537,"45.127899,41.823513",5650,198,166
1615125005,2021-03-07T13:50:05Z,PBD537,"45.114517,41.8283",5400,190,165
1615125020,2021-03-07T13:50:20Z,PBD537,"45.101669,41.83279",5125,184,166
1615125044,2021-03-07T13:50:44Z,PBD537,"45.081745,41.839958",4600,177,164
1615125060,2021-03-07T13:51:00Z,PBD537,"45.070992,41.848465",4250,177,139
1615125066,2021-03-07T13:51:06Z,PBD537,"45.067841,41.854641",4100,178,124
1615125069,2021-03-07T13:51:09Z,PBD537,"45.066708,41.858044",4050,177,114
1615125082,2021-03-07T13:51:22Z,PBD537,"45.065498,41.872044",3850,176,86
1615125085,2021-03-07T13:51:25Z,PBD537,"45.06601,41.875797",3800,176,80
1615125091,2021-03-07T13:51:31Z,PBD537,"45.067036,41.881626",3725,176,75
1615125094,2021-03-07T13:51:34Z,PBD537,"45.067886,41.886028",3675,175,74
1615125097,2021-03-07T13:51:37Z,PBD537,"45.068432,41.888992",3650,174,75
1615125100,2021-03-07T13:51:40Z,PBD537,"45.069038,41.89241",3600,174,75
1615125106,2021-03-07T13:51:46Z,PBD537,"45.070293,41.899445",3525,174,76
1615125115,2021-03-07T13:51:55Z,PBD537,"45.072144,41.909508",3450,175,75
1615125122,2021-03-07T13:52:02Z,PBD537,"45.073425,41.916374",3400,175,75
1615125131,2021-03-07T13:52:11Z,PBD537,"45.075367,41.926842",3300,175,75
1615125140,2021-03-07T13:52:20Z,PBD537,"45.077179,41.936317",3250,171,75
1615125146,2021-03-07T13:52:26Z,PBD537,"45.078415,41.942924",3150,169,75
1615125152,2021-03-07T13:52:32Z,PBD537,"45.079697,41.949921",3100,167,75
1615125162,2021-03-07T13:52:42Z,PBD537,"45.08128,41.959",3075,161,76
1615125168,2021-03-07T13:52:48Z,PBD537,"45.082352,41.965092",3075,157,76
1615125174,2021-03-07T13:52:54Z,PBD537,"45.083515,41.971458",3075,154,75
1615125180,2021-03-07T13:53:00Z,PBD537,"45.084503,41.976929",3100,148,75
1615125186,2021-03-07T13:53:06Z,PBD537,"45.085609,41.982979",3100,148,75
1615125192,2021-03-07T13:53:12Z,PBD537,"45.0867,41.988701",3025,147,75
1615125198,2021-03-07T13:53:18Z,PBD537,"45.087658,41.993767",2950,149,74
1615125204,2021-03-07T13:53:24Z,PBD537,"45.08876,42.000145",2825,150,76
1615125211,2021-03-07T13:53:31Z,PBD537,"45.089813,42.005833",2750,148,75
1615125217,2021-03-07T13:53:37Z,PBD537,"45.09087,42.011719",2650,147,75
1615125226,2021-03-07T13:53:46Z,PBD537,"45.092453,42.020359",2525,147,75
1615125232,2021-03-07T13:53:52Z,PBD537,"45.093521,42.026039",2425,147,74
1615125244,2021-03-07T13:54:04Z,PBD537,"45.095619,42.037308",2250,147,76
1615125250,2021-03-07T13:54:10Z,PBD537,"45.096596,42.04327",2175,147,76
1615125257,2021-03-07T13:54:17Z,PBD537,"45.097622,42.048832",2075,147,75
1615125266,2021-03-07T13:54:26Z,PBD537,"45.099201,42.05727",1950,146,75
1615125272,2021-03-07T13:54:32Z,PBD537,"45.100182,42.062698",1850,146,75
1615125281,2021-03-07T13:54:41Z,PBD537,"45.10181,42.071609",1725,144,75
1615125288,2021-03-07T13:54:48Z,PBD537,"45.102833,42.077503",1625,145,75
1615125294,2021-03-07T13:54:54Z,PBD537,"45.103867,42.083065",1550,144,75
1615125299,2021-03-07T13:54:59Z,PBD537,"45.104828,42.088295",1450,143,75
1615125306,2021-03-07T13:55:06Z,PBD537,"45.105907,42.094116",1350,142,75
1615125312,2021-03-07T13:55:12Z,PBD537,"45.106838,42.099274",1275,143,75
1615125321,2021-03-07T13:55:21Z,PBD537,"45.10828,42.107246",1225,113,75
1615125328,2021-03-07T13:55:28Z,PBD537,"45.108891,42.11071",0,80,75
1615125334,2021-03-07T13:55:34Z,PBD537,"45.109314,42.113049",0,56,75
1615125340,2021-03-07T13:55:40Z,PBD537,"45.109596,42.114597",0,36,75
1615125346,2021-03-07T13:55:46Z,PBD537,"45.109783,42.11562",0,25,75
1615125352,2021-03-07T13:55:52Z,PBD537,"45.109898,42.116222",0,13,75
1615125356,2021-03-07T13:55:56Z,PBD537,"45.109909,42.116432",0,11,84
1615125359,2021-03-07T13:55:59Z,PBD537,"45.109909,42.116711",0,11,90
1615125364,2021-03-07T13:56:04Z,PBD537,"45.109921,42.116993",0,9,84
1615125369,2021-03-07T13:56:09Z,PBD537,"45.109966,42.117249",0,7,75
1615125394,2021-03-07T13:56:34Z,PBD537,"45.110069,42.11702",0,4,272
1615125400,2021-03-07T13:56:40Z,PBD537,"45.110023,42.11681",0,6,255
1615125404,2021-03-07T13:56:44Z,PBD537,"45.109982,42.116592",0,8,253
1615125409,2021-03-07T13:56:49Z,PBD537,"45.109932,42.116352",0,9,253
1615125412,2021-03-07T13:56:52Z,PBD537,"45.109898,42.116138",0,11,253
1615125416,2021-03-07T13:56:56Z,PBD537,"45.109852,42.115871",0,11,253
1615125422,2021-03-07T13:57:02Z,PBD537,"45.10976,42.115417",0,11,253
1615125428,2021-03-07T13:57:08Z,PBD537,"45.10968,42.114994",0,11,253
1615125434,2021-03-07T13:57:14Z,PBD537,"45.1096,42.114601",0,10,255
1615125439,2021-03-07T13:57:19Z,PBD537,"45.109539,42.114246",0,10,255
1615125445,2021-03-07T13:57:25Z,PBD537,"45.109467,42.113861",0,10,255
1615125452,2021-03-07T13:57:32Z,PBD537,"45.109398,42.113441",0,11,255
1615125458,2021-03-07T13:57:38Z,PBD537,"45.109325,42.113033",0,11,255
1615125464,2021-03-07T13:57:44Z,PBD537,"45.109234,42.112572",0,12,255
1615125470,2021-03-07T13:57:50Z,PBD537,"45.109154,42.112118",0,12,255
1615125476,2021-03-07T13:57:56Z,PBD537,"45.109074,42.11166",0,12,255
1615125482,2021-03-07T13:58:02Z,PBD537,"45.108982,42.111153",0,12,255
1615125488,2021-03-07T13:58:08Z,PBD537,"45.108898,42.110714",0,12,255
1615125494,2021-03-07T13:58:14Z,PBD537,"45.10881,42.110218",0,12,255
1615125500,2021-03-07T13:58:20Z,PBD537,"45.108742,42.109795",0,11,255
1615125505,2021-03-07T13:58:25Z,PBD537,"45.108673,42.109436",0,11,255
1615125513,2021-03-07T13:58:33Z,PBD537,"45.108582,42.108944",0,11,255
1615125519,2021-03-07T13:58:39Z,PBD537,"45.108524,42.108536",0,11,261
1615125523,2021-03-07T13:58:43Z,PBD537,"45.108547,42.108269",0,10,284
1615125527,2021-03-07T13:58:47Z,PBD537,"45.1087,42.108017",0,10,315
1615125533,2021-03-07T13:58:53Z,PBD537,"45.108925,42.107899",0,10,340
1615125537,2021-03-07T13:58:57Z,PBD537,"45.109131,42.107834",0,10,345
1615125543,2021-03-07T13:59:03Z,PBD537,"45.10944,42.107735",0,11,345
1615125547,2021-03-07T13:59:07Z,PBD537,"45.109642,42.107647",0,11,345
1615125553,2021-03-07T13:59:13Z,PBD537,"45.109909,42.107548",0,12,345
1615125559,2021-03-07T13:59:19Z,PBD537,"45.110241,42.107441",0,12,345
1615125564,2021-03-07T13:59:24Z,PBD537,"45.110504,42.10733",0,10,340
1615125570,2021-03-07T13:59:30Z,PBD537,"45.110687,42.107098",0,9,309
1615125574,2021-03-07T13:59:34Z,PBD537,"45.110714,42.106876",0,8,281
1615125578,2021-03-07T13:59:38Z,PBD537,"45.110676,42.10664",0,8,258
1615125583,2021-03-07T13:59:43Z,PBD537,"45.11063,42.106392",0,8,255
1615125589,2021-03-07T13:59:49Z,PBD537,"45.110573,42.106041",0,9,255
1615125593,2021-03-07T13:59:53Z,PBD537,"45.110596,42.105824",0,9,281
1615125599,2021-03-07T13:59:59Z,PBD537,"45.110783,42.105621",0,8,329
1615125605,2021-03-07T14:00:05Z,PBD537,"45.111031,42.105526",0,9,343
1615125610,2021-03-07T14:00:10Z,PBD537,"45.111248,42.105438",0,10,345
1615125616,2021-03-07T14:00:16Z,PBD537,"45.111477,42.105366",0,9,345
1615125621,2021-03-07T14:00:21Z,PBD537,"45.111679,42.105286",0,9,345
1615125629,2021-03-07T14:00:29Z,PBD537,"45.111889,42.105389",0,6,36
1615125636,2021-03-07T14:00:36Z,PBD537,"45.111946,42.10561",0,6,70
1615125645,2021-03-07T14:00:45Z,PBD537,"45.111992,42.105907",0,5,75
1615125672,2021-03-07T14:01:12Z,PBD537,"45.11174,42.105267",0,0,219
