Timestamp,UTC,Callsign,Position,Altitude,Speed,Direction
1613561406,2021-02-17T11:30:06Z,PBD537,"59.79842,30.264303",0,0,89
1613561483,2021-02-17T11:31:23Z,PBD537,"59.798218,30.264175",0,5,194
1613561489,2021-02-17T11:31:29Z,PBD537,"59.798,30.264061",0,7,196
1613561495,2021-02-17T11:31:35Z,PBD537,"59.797794,30.263924",0,8,196
1613561507,2021-02-17T11:31:47Z,PBD537,"59.797421,30.263712",0,8,196
1613561515,2021-02-17T11:31:55Z,PBD537,"59.797073,30.263512",0,9,196
1613561521,2021-02-17T11:32:01Z,PBD537,"59.796822,30.263351",0,9,196
1613561529,2021-02-17T11:32:09Z,PBD537,"59.796524,30.263191",0,10,196
1613561535,2021-02-17T11:32:15Z,PBD537,"59.796234,30.263025",0,10,196
1613561544,2021-02-17T11:32:24Z,PBD537,"59.795849,30.262789",0,10,196
1613561550,2021-02-17T11:32:30Z,PBD537,"59.795586,30.262642",0,9,194
1613561557,2021-02-17T11:32:37Z,PBD537,"59.795361,30.262432",0,8,213
1613561561,2021-02-17T11:32:41Z,PBD537,"59.795277,30.262184",0,8,239
1613561564,2021-02-17T11:32:44Z,PBD537,"59.795277,30.261909",0,8,261
1613561567,2021-02-17T11:32:47Z,PBD537,"59.795292,30.2617",0,9,272
1613561570,2021-02-17T11:32:50Z,PBD537,"59.795315,30.261438",0,9,281
1613561573,2021-02-17T11:32:53Z,PBD537,"59.795349,30.261202",0,10,284
1613561580,2021-02-17T11:33:00Z,PBD537,"59.795475,30.260397",0,12,289
1613561585,2021-02-17T11:33:05Z,PBD537,"59.795547,30.259876",0,13,286
1613561590,2021-02-17T11:33:10Z,PBD537,"59.795639,30.25926",0,14,286
1613561591,2021-02-17T11:33:11Z,PBD537,"59.795677,30.259026",0,15,286
1613561594,2021-02-17T11:33:14Z,PBD537,"59.795723,30.258682",0,15,286
1613561596,2021-02-17T11:33:16Z,PBD537,"59.795769,30.25836",0,15,286
1613561601,2021-02-17T11:33:21Z,PBD537,"59.795883,30.257561",0,17,286
1613561610,2021-02-17T11:33:30Z,PBD537,"59.796078,30.256279",0,17,286
1613561624,2021-02-17T11:33:44Z,PBD537,"59.796421,30.254013",0,18,286
1613561637,2021-02-17T11:33:57Z,PBD537,"59.796719,30.251953",0,19,286
1613561643,2021-02-17T11:34:03Z,PBD537,"59.79689,30.250786",0,19,286
1613561649,2021-02-17T11:34:09Z,PBD537,"59.79705,30.249733",0,20,286
1613561655,2021-02-17T11:34:15Z,PBD537,"59.797211,30.248653",0,20,286
1613561661,2021-02-17T11:34:21Z,PBD537,"59.797371,30.247536",0,20,286
1613561667,2021-02-17T11:34:27Z,PBD537,"59.797543,30.246414",0,21,286
1613561674,2021-02-17T11:34:34Z,PBD537,"59.797722,30.245266",0,21,286
1613561680,2021-02-17T11:34:40Z,PBD537,"59.797897,30.244057",0,22,286
1613561686,2021-02-17T11:34:46Z,PBD537,"59.798069,30.242912",0,22,286
1613561691,2021-02-17T11:34:51Z,PBD537,"59.798241,30.241745",0,22,286
1613561698,2021-02-17T11:34:58Z,PBD537,"59.798431,30.240459",0,23,286
1613561703,2021-02-17T11:35:03Z,PBD537,"59.798607,30.239296",0,23,286
1613561710,2021-02-17T11:35:10Z,PBD537,"59.798805,30.237904",0,23,286
1613561716,2021-02-17T11:35:16Z,PBD537,"59.798996,30.236618",0,24,286
1613561727,2021-02-17T11:35:27Z,PBD537,"59.799339,30.234352",0,24,286
1613561733,2021-02-17T11:35:33Z,PBD537,"59.799549,30.232931",0,25,286
1613561747,2021-02-17T11:35:47Z,PBD537,"59.800026,30.229683",0,26,286
1613561753,2021-02-17T11:35:53Z,PBD537,"59.800236,30.228266",0,26,286
1613561760,2021-02-17T11:36:00Z,PBD537,"59.800484,30.226639",0,25,286
1613561766,2021-02-17T11:36:06Z,PBD537,"59.800655,30.225449",0,24,286
1613561773,2021-02-17T11:36:13Z,PBD537,"59.800873,30.22403",0,21,286
1613561779,2021-02-17T11:36:19Z,PBD537,"59.800995,30.2232",0,17,286
1613561785,2021-02-17T11:36:25Z,PBD537,"59.80109,30.222496",0,12,286
1613561791,2021-02-17T11:36:31Z,PBD537,"59.80117,30.221992",0,9,286
1613561797,2021-02-17T11:36:37Z,PBD537,"59.801201,30.221565",0,7,278
1613561801,2021-02-17T11:36:41Z,PBD537,"59.801193,30.221306",0,5,270
1613561806,2021-02-17T11:36:46Z,PBD537,"59.801182,30.2211",0,5,261
1613561812,2021-02-17T11:36:52Z,PBD537,"59.801121,30.220831",0,5,247
1613561821,2021-02-17T11:37:01Z,PBD537,"59.801022,30.220573",0,3,233
1613561925,2021-02-17T11:38:45Z,PBD537,"59.800888,30.220263",0,6,230
1613561933,2021-02-17T11:38:53Z,PBD537,"59.800644,30.219749",0,10,227
1613561936,2021-02-17T11:38:56Z,PBD537,"59.800541,30.21953",0,10,225
1613561940,2021-02-17T11:39:00Z,PBD537,"59.800415,30.219292",0,10,219
1613561944,2021-02-17T11:39:04Z,PBD537,"59.800213,30.219128",0,9,199
1613561951,2021-02-17T11:39:11Z,PBD537,"59.799934,30.219177",0,9,165
1613561955,2021-02-17T11:39:15Z,PBD537,"59.799805,30.219387",0,9,143
1613561960,2021-02-17T11:39:20Z,PBD537,"59.799713,30.219742",0,9,115
1613561964,2021-02-17T11:39:24Z,PBD537,"59.79969,30.219978",0,6,109
1613561986,2021-02-17T11:39:46Z,PBD537,"59.799644,30.220192",0,4,109
1613561990,2021-02-17T11:39:50Z,PBD537,"59.799572,30.220642",0,13,106
1613561991,2021-02-17T11:39:51Z,PBD537,"59.799538,30.220879",0,18,106
1613561993,2021-02-17T11:39:53Z,PBD537,"59.799454,30.221443",0,27,104
1613561994,2021-02-17T11:39:54Z,PBD537,"59.799412,30.221779",0,32,104
1613562000,2021-02-17T11:40:00Z,PBD537,"59.798916,30.225082",0,65,106
1613562010,2021-02-17T11:40:10Z,PBD537,"59.797794,30.23267",0,103,106
1613562058,2021-02-17T11:40:58Z,PBD537,"59.787598,30.299252",1275,167,107
1613562064,2021-02-17T11:41:04Z,PBD537,"59.786179,30.308533",1450,175,106
1613562086,2021-02-17T11:41:26Z,PBD537,"59.780594,30.346069",1875,215,105
1613562098,2021-02-17T11:41:38Z,PBD537,"59.777206,30.368958",2450,223,106
1613562105,2021-02-17T11:41:45Z,PBD537,"59.775055,30.383148",2775,229,106
1613562111,2021-02-17T11:41:51Z,PBD537,"59.773121,30.395855",3100,233,106
1613562124,2021-02-17T11:42:04Z,PBD537,"59.769196,30.422424",3850,235,106
1613562145,2021-02-17T11:42:25Z,PBD537,"59.762604,30.467926",4775,252,106
1613562151,2021-02-17T11:42:31Z,PBD537,"59.760544,30.481476",5125,255,106
1613562167,2021-02-17T11:42:47Z,PBD537,"59.755096,30.517548",6050,258,106
1613562181,2021-02-17T11:43:01Z,PBD537,"59.749985,30.551085",6875,261,106
1613562194,2021-02-17T11:43:14Z,PBD537,"59.745701,30.579496",7600,262,106
1613562206,2021-02-17T11:43:26Z,PBD537,"59.741978,30.607153",8225,265,104
1613562221,2021-02-17T11:43:41Z,PBD537,"59.737518,30.64325",9050,268,103
1613562236,2021-02-17T11:43:56Z,PBD537,"59.732803,30.680237",9800,274,104
1613562250,2021-02-17T11:44:10Z,PBD537,"59.728382,30.71389",10500,278,104
1613562262,2021-02-17T11:44:22Z,PBD537,"59.72438,30.743134",11100,281,105
1613562275,2021-02-17T11:44:35Z,PBD537,"59.719631,30.777534",11800,283,105
1613562291,2021-02-17T11:44:51Z,PBD537,"59.714401,30.815643",12575,285,105
1613562315,2021-02-17T11:45:15Z,PBD537,"59.703461,30.876251",13525,304,116
1613562319,2021-02-17T11:45:19Z,PBD537,"59.700623,30.886322",13650,308,119
1613562322,2021-02-17T11:45:22Z,PBD537,"59.697891,30.895069",13800,313,121
1613562324,2021-02-17T11:45:24Z,PBD537,"59.696495,30.899143",13850,314,122
1613562328,2021-02-17T11:45:28Z,PBD537,"59.693096,30.908613",14000,318,125
1613562333,2021-02-17T11:45:33Z,PBD537,"59.688583,30.92038",14175,322,127
1613562340,2021-02-17T11:45:40Z,PBD537,"59.681973,30.937784",14425,327,126
1613562370,2021-02-17T11:46:10Z,PBD537,"59.653702,31.012756",15400,348,126
1613562406,2021-02-17T11:46:46Z,PBD537,"59.618893,31.104757",16550,369,126
1613562437,2021-02-17T11:47:17Z,PBD537,"59.586502,31.190002",17675,382,126
1613562461,2021-02-17T11:47:41Z,PBD537,"59.560684,31.257843",18650,387,126
1613562554,2021-02-17T11:49:14Z,PBD537,"59.45842,31.525635",22125,405,127
1613562616,2021-02-17T11:50:16Z,PBD537,"59.387741,31.708557",24125,416,127
1613562677,2021-02-17T11:51:17Z,PBD537,"59.315506,31.894043",25775,430,127
1613562738,2021-02-17T11:52:18Z,PBD537,"59.240654,32.084812",27250,442,127
1613562804,2021-02-17T11:53:24Z,PBD537,"59.156204,32.298065",28800,451,127
1613562868,2021-02-17T11:54:28Z,PBD537,"59.074417,32.502861",30225,457,127
1613562929,2021-02-17T11:55:29Z,PBD537,"58.99556,32.69891",31725,456,127
1613562989,2021-02-17T11:56:29Z,PBD537,"58.916519,32.893433",32925,458,128
1613563052,2021-02-17T11:57:32Z,PBD537,"58.833229,33.097046",33700,469,128
1613563113,2021-02-17T11:58:33Z,PBD537,"58.750488,33.297344",34575,468,128
1613563174,2021-02-17T11:59:34Z,PBD537,"58.669189,33.491821",35000,466,128
1613563237,2021-02-17T12:00:37Z,PBD537,"58.583431,33.695343",35000,467,129
1613563297,2021-02-17T12:01:37Z,PBD537,"58.501175,33.889069",35000,467,129
1613563361,2021-02-17T12:02:41Z,PBD537,"58.414818,34.091217",35000,466,129
1613563421,2021-02-17T12:03:41Z,PBD537,"58.333679,34.280548",35000,466,129
1613563484,2021-02-17T12:04:44Z,PBD537,"58.246624,34.480316",35000,467,129
1613563509,2021-02-17T12:05:09Z,PBD537,"58.209549,34.553951",35000,470,139
1613563511,2021-02-17T12:05:11Z,PBD537,"58.205521,34.56015",35000,470,140
1613563512,2021-02-17T12:05:12Z,PBD537,"58.203796,34.562714",35000,471,140
1613563514,2021-02-17T12:05:14Z,PBD537,"58.201035,34.566708",35000,471,141
1613563515,2021-02-17T12:05:15Z,PBD537,"58.199295,34.569191",35000,471,142
1613563517,2021-02-17T12:05:17Z,PBD537,"58.195419,34.574432",35000,471,143
1613563518,2021-02-17T12:05:18Z,PBD537,"58.193275,34.577271",35000,471,144
1613563520,2021-02-17T12:05:20Z,PBD537,"58.190369,34.580975",35000,471,145
1613563521,2021-02-17T12:05:21Z,PBD537,"58.188763,34.583038",35000,472,145
1613563524,2021-02-17T12:05:24Z,PBD537,"58.184151,34.588531",35000,472,146
1613563526,2021-02-17T12:05:26Z,PBD537,"58.178707,34.594666",35000,472,148
1613563527,2021-02-17T12:05:27Z,PBD537,"58.17778,34.595772",35000,472,149
1613563528,2021-02-17T12:05:28Z,PBD537,"58.175079,34.598518",35000,472,149
1613563529,2021-02-17T12:05:29Z,PBD537,"58.172974,34.600731",35000,473,150
1613563530,2021-02-17T12:05:30Z,PBD537,"58.17205,34.601715",35000,473,150
1613563532,2021-02-17T12:05:32Z,PBD537,"58.167206,34.606476",35000,473,151
1613563533,2021-02-17T12:05:33Z,PBD537,"58.165054,34.608528",35000,474,152
1613563535,2021-02-17T12:05:35Z,PBD537,"58.161118,34.612072",35000,474,153
1613563536,2021-02-17T12:05:36Z,PBD537,"58.160339,34.612782",35000,474,153
1613563539,2021-02-17T12:05:39Z,PBD537,"58.155304,34.617035",35000,473,155
1613563540,2021-02-17T12:05:40Z,PBD537,"58.153336,34.618652",35000,473,156
1613563542,2021-02-17T12:05:42Z,PBD537,"58.148075,34.622864",35000,474,156
1613563543,2021-02-17T12:05:43Z,PBD537,"58.146881,34.623856",35000,474,157
1613563545,2021-02-17T12:05:45Z,PBD537,"58.143047,34.626892",35000,474,157
1613563547,2021-02-17T12:05:47Z,PBD537,"58.136993,34.631741",35000,474,157
1613563609,2021-02-17T12:06:49Z,PBD537,"58.013306,34.733002",35000,474,156
1613563670,2021-02-17T12:07:50Z,PBD537,"57.891479,34.830231",35000,474,157
1613563736,2021-02-17T12:08:56Z,PBD537,"57.75824,34.935726",35000,471,156
1613563798,2021-02-17T12:09:58Z,PBD537,"57.638947,35.052994",35000,468,149
1613563859,2021-02-17T12:10:59Z,PBD537,"57.527618,35.172558",35000,466,149
1613563920,2021-02-17T12:12:00Z,PBD537,"57.411339,35.297298",35000,466,149
1613563981,2021-02-17T12:13:01Z,PBD537,"57.29892,35.417175",35000,467,150
1613564043,2021-02-17T12:14:03Z,PBD537,"57.18137,35.541481",35000,468,150
1613564106,2021-02-17T12:15:06Z,PBD537,"57.06229,35.666142",35000,471,150
1613564167,2021-02-17T12:16:07Z,PBD537,"56.948936,35.784595",35000,472,150
1613564228,2021-02-17T12:17:08Z,PBD537,"56.831764,35.905712",35000,473,150
1613564290,2021-02-17T12:18:10Z,PBD537,"56.714451,36.025852",35000,472,150
1613564354,2021-02-17T12:19:14Z,PBD537,"56.593742,36.149185",35000,471,150
1613564417,2021-02-17T12:20:17Z,PBD537,"56.472893,36.271446",35000,471,150
1613564474,2021-02-17T12:21:14Z,PBD537,"56.366798,36.389206",35000,471,140
1613564475,2021-02-17T12:21:15Z,PBD537,"56.366146,36.390236",35000,471,140
1613564478,2021-02-17T12:21:18Z,PBD537,"56.361118,36.398392",35000,471,138
1613564480,2021-02-17T12:21:20Z,PBD537,"56.357025,36.405445",35000,471,136
1613564484,2021-02-17T12:21:24Z,PBD537,"56.351028,36.416264",35000,471,135
1613564486,2021-02-17T12:21:26Z,PBD537,"56.34819,36.421677",35000,471,134
1613564487,2021-02-17T12:21:27Z,PBD537,"56.347275,36.42334",35000,471,133
1613564489,2021-02-17T12:21:29Z,PBD537,"56.343803,36.430321",35000,471,132
1613564492,2021-02-17T12:21:32Z,PBD537,"56.339661,36.43882",35000,471,131
1613564496,2021-02-17T12:21:36Z,PBD537,"56.333748,36.45195",35000,471,132
1613564502,2021-02-17T12:21:42Z,PBD537,"56.326538,36.469032",35000,471,127
1613564504,2021-02-17T12:21:44Z,PBD537,"56.323181,36.477184",35000,470,126
1613564505,2021-02-17T12:21:45Z,PBD537,"56.321877,36.480362",35000,470,126
1613564508,2021-02-17T12:21:48Z,PBD537,"56.31778,36.489975",35000,470,126
1613564570,2021-02-17T12:22:50Z,PBD537,"56.236221,36.682518",35000,471,127
1613564634,2021-02-17T12:23:54Z,PBD537,"56.152313,36.879688",35000,472,127
1613564695,2021-02-17T12:24:55Z,PBD537,"56.071007,37.070877",35000,474,127
1613564757,2021-02-17T12:25:57Z,PBD537,"55.988754,37.262211",35000,473,133
1613564766,2021-02-17T12:26:06Z,PBD537,"55.973923,37.285767",35000,472,140
1613564770,2021-02-17T12:26:10Z,PBD537,"55.967987,37.293777",35000,472,141
1613564773,2021-02-17T12:26:13Z,PBD537,"55.962616,37.300415",35000,471,144
1613564791,2021-02-17T12:26:31Z,PBD537,"55.927139,37.332874",35000,469,157
1613564800,2021-02-17T12:26:40Z,PBD537,"55.909515,37.343613",35000,469,161
1613564802,2021-02-17T12:26:42Z,PBD537,"55.903744,37.347076",35000,469,161
1613564866,2021-02-17T12:27:46Z,PBD537,"55.775116,37.428589",35000,469,160
1613564931,2021-02-17T12:28:51Z,PBD537,"55.642075,37.510586",35000,468,160
1613564993,2021-02-17T12:29:53Z,PBD537,"55.515381,37.588722",35000,468,160
1613565054,2021-02-17T12:30:54Z,PBD537,"55.391716,37.663963",35000,465,161
1613565118,2021-02-17T12:31:58Z,PBD537,"55.26207,37.743114",35000,464,160
1613565186,2021-02-17T12:33:06Z,PBD537,"55.124268,37.826172",35000,462,160
1613565247,2021-02-17T12:34:07Z,PBD537,"55.001404,37.899521",35000,461,160
1613565312,2021-02-17T12:35:12Z,PBD537,"54.869633,37.978653",35000,461,161
1613565374,2021-02-17T12:36:14Z,PBD537,"54.746109,38.051472",35000,461,161
1613565437,2021-02-17T12:37:17Z,PBD537,"54.616928,38.127083",35000,462,161
1613565501,2021-02-17T12:38:21Z,PBD537,"54.490047,38.201462",35000,463,161
1613565563,2021-02-17T12:39:23Z,PBD537,"54.363052,38.275368",35000,464,161
1613565632,2021-02-17T12:40:32Z,PBD537,"54.222,38.356422",35000,463,161
1613565696,2021-02-17T12:41:36Z,PBD537,"54.095123,38.428684",35000,463,161
1613565763,2021-02-17T12:42:43Z,PBD537,"53.957932,38.506374",35000,462,161
1613565825,2021-02-17T12:43:45Z,PBD537,"53.830673,38.578571",35000,461,161
1613565891,2021-02-17T12:44:51Z,PBD537,"53.699917,38.65176",35000,460,161
1613565955,2021-02-17T12:45:55Z,PBD537,"53.570663,38.723667",35000,457,161
1613566016,2021-02-17T12:46:56Z,PBD537,"53.44886,38.791512",35000,456,161
1613566078,2021-02-17T12:47:58Z,PBD537,"53.323914,38.86026",35000,454,161
1613566140,2021-02-17T12:49:00Z,PBD537,"53.201111,38.927071",35000,453,161
1613566202,2021-02-17T12:50:02Z,PBD537,"53.078255,38.993774",35000,451,161
1613566264,2021-02-17T12:51:04Z,PBD537,"52.955475,39.059982",35000,451,161
1613566326,2021-02-17T12:52:06Z,PBD537,"52.832336,39.126663",35000,451,161
1613566388,2021-02-17T12:53:08Z,PBD537,"52.70998,39.191765",35000,452,162
1613566449,2021-02-17T12:54:09Z,PBD537,"52.587597,39.256741",35000,451,162
1613566510,2021-02-17T12:55:10Z,PBD537,"52.468185,39.319687",35000,450,162
1613566573,2021-02-17T12:56:13Z,PBD537,"52.342072,39.385605",35000,447,162
1613566634,2021-02-17T12:57:14Z,PBD537,"52.223045,39.447353",35000,446,162
1613566695,2021-02-17T12:58:15Z,PBD537,"52.103313,39.510052",35000,445,162
1613566756,2021-02-17T12:59:16Z,PBD537,"51.984741,39.571228",35000,444,162
1613566819,2021-02-17T13:00:19Z,PBD537,"51.859657,39.635086",35000,445,162
1613566882,2021-02-17T13:01:22Z,PBD537,"51.735992,39.698132",35000,448,162
1613566943,2021-02-17T13:02:23Z,PBD537,"51.617168,39.758453",35000,451,162
1613567004,2021-02-17T13:03:24Z,PBD537,"51.494129,39.820328",35000,452,162
1613567065,2021-02-17T13:04:25Z,PBD537,"51.372299,39.881336",35000,449,162
1613567128,2021-02-17T13:05:28Z,PBD537,"51.24987,39.942245",35000,447,162
1613567190,2021-02-17T13:06:30Z,PBD537,"51.1273,40.002747",35000,445,162
1613567251,2021-02-17T13:07:31Z,PBD537,"51.008698,40.061497",35000,439,162
1613567313,2021-02-17T13:08:33Z,PBD537,"50.887939,40.120735",35000,437,162
1613567374,2021-02-17T13:09:34Z,PBD537,"50.771301,40.17767",35000,439,162
1613567436,2021-02-17T13:10:36Z,PBD537,"50.650681,40.236126",35000,439,162
1613567496,2021-02-17T13:11:36Z,PBD537,"50.532688,40.293324",35000,441,163
1613567558,2021-02-17T13:12:38Z,PBD537,"50.412537,40.351074",35000,442,162
1613567619,2021-02-17T13:13:39Z,PBD537,"50.293503,40.407566",35000,443,163
1613567680,2021-02-17T13:14:40Z,PBD537,"50.174652,40.464165",35000,445,163
1613567741,2021-02-17T13:15:41Z,PBD537,"50.054123,40.520397",35000,445,163
1613567804,2021-02-17T13:16:44Z,PBD537,"49.928719,40.579189",35000,445,163
1613567866,2021-02-17T13:17:46Z,PBD537,"49.806656,40.636475",35000,444,162
1613567928,2021-02-17T13:18:48Z,PBD537,"49.686924,40.692467",35000,442,163
1613567989,2021-02-17T13:19:49Z,PBD537,"49.563889,40.710583",35000,428,180
1613568051,2021-02-17T13:20:51Z,PBD537,"49.443413,40.707687",35000,425,181
1613568112,2021-02-17T13:21:52Z,PBD537,"49.324097,40.704201",35000,425,181
1613568173,2021-02-17T13:22:53Z,PBD537,"49.202736,40.700588",35000,424,181
1613568235,2021-02-17T13:23:55Z,PBD537,"49.08263,40.697407",35000,423,180
1613568297,2021-02-17T13:24:57Z,PBD537,"48.96199,40.694485",35000,421,181
1613568338,2021-02-17T13:25:38Z,PBD537,"48.882504,40.682663",35000,414,191
1613568339,2021-02-17T13:25:39Z,PBD537,"48.881561,40.682373",35000,414,191
1613568400,2021-02-17T13:26:40Z,PBD537,"48.767075,40.648849",35000,415,190
1613568461,2021-02-17T13:27:41Z,PBD537,"48.650848,40.615257",35000,414,190
1613568522,2021-02-17T13:28:42Z,PBD537,"48.536224,40.582157",35000,414,190
1613568584,2021-02-17T13:29:44Z,PBD537,"48.420456,40.548988",35000,414,190
1613568647,2021-02-17T13:30:47Z,PBD537,"48.302277,40.515484",35000,416,190
1613568708,2021-02-17T13:31:48Z,PBD537,"48.186172,40.48307",35000,416,190
1613568769,2021-02-17T13:32:49Z,PBD537,"48.07077,40.449944",35000,417,190
1613568830,2021-02-17T13:33:50Z,PBD537,"47.954315,40.417603",35000,418,190
1613568891,2021-02-17T13:34:51Z,PBD537,"47.840057,40.385883",35000,419,190
1613568918,2021-02-17T13:35:18Z,PBD537,"47.787048,40.379768",35000,425,180
1613568921,2021-02-17T13:35:21Z,PBD537,"47.781326,40.379906",35000,425,179
1613568922,2021-02-17T13:35:22Z,PBD537,"47.779587,40.379967",35000,425,179
1613568924,2021-02-17T13:35:24Z,PBD537,"47.77565,40.38018",35000,426,178
1613568925,2021-02-17T13:35:25Z,PBD537,"47.774654,40.380249",35000,426,178
1613568927,2021-02-17T13:35:27Z,PBD537,"47.769577,40.3806",35000,426,177
1613568928,2021-02-17T13:35:28Z,PBD537,"47.767391,40.380814",35000,426,176
1613568930,2021-02-17T13:35:30Z,PBD537,"47.763851,40.381233",35000,426,176
1613568933,2021-02-17T13:35:33Z,PBD537,"47.75798,40.381897",35000,427,175
1613568994,2021-02-17T13:36:34Z,PBD537,"47.637772,40.394394",35000,424,176
1613569055,2021-02-17T13:37:35Z,PBD537,"47.518661,40.406822",35000,424,175
1613569116,2021-02-17T13:38:36Z,PBD537,"47.400139,40.419266",35000,424,175
1613569177,2021-02-17T13:39:37Z,PBD537,"47.279617,40.432022",35000,425,175
1613569239,2021-02-17T13:40:39Z,PBD537,"47.158447,40.444519",35000,425,176
1613569300,2021-02-17T13:41:40Z,PBD537,"47.038151,40.482506",35000,434,165
1613569362,2021-02-17T13:42:42Z,PBD537,"46.919357,40.529251",35000,432,164
1613569425,2021-02-17T13:43:45Z,PBD537,"46.798824,40.576424",35000,430,165
1613569486,2021-02-17T13:44:46Z,PBD537,"46.680302,40.622772",34950,426,165
1613569538,2021-02-17T13:45:38Z,PBD537,"46.586174,40.665001",33450,419,155
1613569539,2021-02-17T13:45:39Z,PBD537,"46.584274,40.666294",33425,419,155
1613569540,2021-02-17T13:45:40Z,PBD537,"46.581657,40.668159",33375,420,154
1613569541,2021-02-17T13:45:41Z,PBD537,"46.580589,40.668915",33350,419,154
1613569543,2021-02-17T13:45:43Z,PBD537,"46.575607,40.672691",33250,419,152
1613569544,2021-02-17T13:45:44Z,PBD537,"46.574066,40.673866",33225,420,152
1613569548,2021-02-17T13:45:48Z,PBD537,"46.567749,40.678955",33100,420,150
1613569549,2021-02-17T13:45:49Z,PBD537,"46.565918,40.680565",33075,421,150
1613569550,2021-02-17T13:45:50Z,PBD537,"46.564545,40.681702",33050,421,150
1613569551,2021-02-17T13:45:51Z,PBD537,"46.563736,40.682442",33025,421,150
1613569552,2021-02-17T13:45:52Z,PBD537,"46.560898,40.684982",32975,421,149
1613569553,2021-02-17T13:45:53Z,PBD537,"46.559219,40.686493",32950,421,148
1613569554,2021-02-17T13:45:54Z,PBD537,"46.558243,40.687386",32925,421,148
1613569563,2021-02-17T13:46:03Z,PBD537,"46.543442,40.702271",32625,423,144
1613569624,2021-02-17T13:47:04Z,PBD537,"46.447952,40.799004",30750,407,145
1613569685,2021-02-17T13:48:05Z,PBD537,"46.356262,40.891918",29525,390,144
1613569747,2021-02-17T13:49:07Z,PBD537,"46.26585,40.983467",27650,374,145
1613569808,2021-02-17T13:50:08Z,PBD537,"46.180889,41.068748",25750,364,145
1613569869,2021-02-17T13:51:09Z,PBD537,"46.098213,41.151764",23875,357,145
1613569931,2021-02-17T13:52:11Z,PBD537,"46.013908,41.235741",21925,350,145
1613569993,2021-02-17T13:53:13Z,PBD537,"45.932968,41.316097",20050,346,145
1613570054,2021-02-17T13:54:14Z,PBD537,"45.853676,41.394836",18250,340,145
1613570114,2021-02-17T13:55:14Z,PBD537,"45.776001,41.471981",16450,334,144
1613570146,2021-02-17T13:55:46Z,PBD537,"45.735352,41.51318",15500,332,144
1613570180,2021-02-17T13:56:20Z,PBD537,"45.693863,41.55455",14550,331,145
1613570213,2021-02-17T13:56:53Z,PBD537,"45.650986,41.597187",13600,330,145
1613570250,2021-02-17T13:57:30Z,PBD537,"45.60553,41.642738",12575,330,145
1613570282,2021-02-17T13:58:02Z,PBD537,"45.564911,41.683228",11625,327,145
1613570295,2021-02-17T13:58:15Z,PBD537,"45.549591,41.698273",11275,326,145
1613570307,2021-02-17T13:58:27Z,PBD537,"45.533535,41.710533",10900,323,154
1613570311,2021-02-17T13:58:31Z,PBD537,"45.527985,41.71365",10775,322,158
1613570314,2021-02-17T13:58:34Z,PBD537,"45.523808,41.715691",10675,320,159
1613570319,2021-02-17T13:58:39Z,PBD537,"45.516678,41.718487",10550,318,164
1613570323,2021-02-17T13:58:43Z,PBD537,"45.510681,41.720318",10450,315,167
1613570328,2021-02-17T13:58:48Z,PBD537,"45.503555,41.721989",10350,312,170
1613570329,2021-02-17T13:58:49Z,PBD537,"45.502113,41.722324",10350,311,170
1613570332,2021-02-17T13:58:52Z,PBD537,"45.498062,41.723259",10325,309,170
1613570334,2021-02-17T13:58:54Z,PBD537,"45.49485,41.724064",10300,305,170
1613570338,2021-02-17T13:58:58Z,PBD537,"45.490566,41.725204",10275,303,169
1613570344,2021-02-17T13:59:04Z,PBD537,"45.482422,41.727413",10225,297,169
1613570356,2021-02-17T13:59:16Z,PBD537,"45.466003,41.731831",10125,287,169
1613570368,2021-02-17T13:59:28Z,PBD537,"45.450439,41.736191",10025,278,168
1613570381,2021-02-17T13:59:41Z,PBD537,"45.43475,41.740612",9875,269,168
1613570393,2021-02-17T13:59:53Z,PBD537,"45.420639,41.744514",9625,268,168
1613570407,2021-02-17T14:00:07Z,PBD537,"45.402351,41.749119",9325,263,170
1613570421,2021-02-17T14:00:21Z,PBD537,"45.386429,41.753071",9100,259,170
1613570432,2021-02-17T14:00:32Z,PBD537,"45.372803,41.75655",8875,256,169
1613570448,2021-02-17T14:00:48Z,PBD537,"45.355591,41.761059",8575,253,169
1613570460,2021-02-17T14:01:00Z,PBD537,"45.340622,41.765179",8300,250,169
1613570473,2021-02-17T14:01:13Z,PBD537,"45.326752,41.768974",8050,249,169
1613570484,2021-02-17T14:01:24Z,PBD537,"45.313934,41.772243",7800,248,170
1613570502,2021-02-17T14:01:42Z,PBD537,"45.293335,41.777409",7500,242,169
1613570515,2021-02-17T14:01:55Z,PBD537,"45.279919,41.780872",7275,240,169
1613570526,2021-02-17T14:02:06Z,PBD537,"45.266785,41.784145",7050,237,169
1613570539,2021-02-17T14:02:19Z,PBD537,"45.253105,41.78764",6725,238,169
1613570552,2021-02-17T14:02:32Z,PBD537,"45.239456,41.791206",6450,239,169
1613570564,2021-02-17T14:02:44Z,PBD537,"45.226757,41.794605",6225,236,169
1613570582,2021-02-17T14:03:02Z,PBD537,"45.206863,41.799709",5825,235,169
1613570594,2021-02-17T14:03:14Z,PBD537,"45.193935,41.803047",5600,234,169
1613570607,2021-02-17T14:03:27Z,PBD537,"45.180668,41.806396",5425,228,169
1613570618,2021-02-17T14:03:38Z,PBD537,"45.169006,41.80978",5325,222,168
1613570631,2021-02-17T14:03:51Z,PBD537,"45.15683,41.813114",5200,214,169
1613570653,2021-02-17T14:04:13Z,PBD537,"45.135864,41.820637",4750,212,165
1613570658,2021-02-17T14:04:18Z,PBD537,"45.13002,41.822807",4625,214,165
1613570664,2021-02-17T14:04:24Z,PBD537,"45.124249,41.824951",4525,215,165
1613570670,2021-02-17T14:04:30Z,PBD537,"45.118423,41.82711",4400,216,165
1613570677,2021-02-17T14:04:37Z,PBD537,"45.112473,41.829201",4350,214,166
1613570686,2021-02-17T14:04:46Z,PBD537,"45.104046,41.83205",4250,209,166
1613570692,2021-02-17T14:04:52Z,PBD537,"45.097992,41.834194",4250,202,166
1613570697,2021-02-17T14:04:57Z,PBD537,"45.093571,41.835735",4250,196,166
1613570707,2021-02-17T14:05:07Z,PBD537,"45.085144,41.838886",4250,185,164
1613570710,2021-02-17T14:05:10Z,PBD537,"45.082626,41.840252",4250,182,161
1613570713,2021-02-17T14:05:13Z,PBD537,"45.081207,41.841236",4250,180,159
1613570714,2021-02-17T14:05:14Z,PBD537,"45.080475,41.841759",4250,177,153
1613570716,2021-02-17T14:05:16Z,PBD537,"45.078323,41.843719",4225,175,149
1613570719,2021-02-17T14:05:19Z,PBD537,"45.076355,41.845943",4225,173,143
1613570720,2021-02-17T14:05:20Z,PBD537,"45.076126,41.846272",4225,173,142
1613570722,2021-02-17T14:05:22Z,PBD537,"45.074707,41.848297",4225,172,138
1613570726,2021-02-17T14:05:26Z,PBD537,"45.073086,41.850811",4250,172,138
1613570729,2021-02-17T14:05:29Z,PBD537,"45.07132,41.854225",4250,170,127
1613570731,2021-02-17T14:05:31Z,PBD537,"45.070435,41.856304",4250,170,123
1613570735,2021-02-17T14:05:35Z,PBD537,"45.069305,41.859283",4225,169,119
1613570737,2021-02-17T14:05:37Z,PBD537,"45.068436,41.862095",4200,169,114
1613570738,2021-02-17T14:05:38Z,PBD537,"45.068161,41.863338",4200,169,112
1613570742,2021-02-17T14:05:42Z,PBD537,"45.067455,41.866821",4150,167,105
1613570744,2021-02-17T14:05:44Z,PBD537,"45.067108,41.869877",4125,167,99
1613570747,2021-02-17T14:05:47Z,PBD537,"45.066895,41.873451",4100,167,93
1613570751,2021-02-17T14:05:51Z,PBD537,"45.06694,41.87727",4050,167,88
1613570754,2021-02-17T14:05:54Z,PBD537,"45.067173,41.88015",4025,167,83
1613570760,2021-02-17T14:06:00Z,PBD537,"45.068199,41.886848",3950,168,76
1613570763,2021-02-17T14:06:03Z,PBD537,"45.068806,41.890133",3925,168,75
1613570766,2021-02-17T14:06:06Z,PBD537,"45.069408,41.893414",3875,167,75
1613570784,2021-02-17T14:06:24Z,PBD537,"45.072853,41.912708",3700,162,75
1613570796,2021-02-17T14:06:36Z,PBD537,"45.075073,41.925201",3600,162,75
1613570803,2021-02-17T14:06:43Z,PBD537,"45.07616,41.931263",3550,160,75
1613570809,2021-02-17T14:06:49Z,PBD537,"45.077278,41.937294",3525,157,75
1613570815,2021-02-17T14:06:55Z,PBD537,"45.078346,41.94339",3500,155,75
1613570820,2021-02-17T14:07:00Z,PBD537,"45.079239,41.948154",3425,149,75
1613570826,2021-02-17T14:07:06Z,PBD537,"45.080303,41.953838",3350,148,74
1613570833,2021-02-17T14:07:13Z,PBD537,"45.081608,41.960606",3250,149,74
1613570845,2021-02-17T14:07:25Z,PBD537,"45.083725,41.972221",3250,149,75
1613570851,2021-02-17T14:07:31Z,PBD537,"45.08477,41.977955",3250,149,75
1613570861,2021-02-17T14:07:41Z,PBD537,"45.086399,41.986866",3225,150,75
1613570873,2021-02-17T14:07:53Z,PBD537,"45.088497,41.998589",3050,146,75
1613570880,2021-02-17T14:08:00Z,PBD537,"45.08952,42.004082",2950,144,75
1613570886,2021-02-17T14:08:06Z,PBD537,"45.090591,42.009842",2850,142,75
1613570891,2021-02-17T14:08:11Z,PBD537,"45.091522,42.015068",2775,141,75
1613570903,2021-02-17T14:08:23Z,PBD537,"45.09343,42.025581",2625,141,75
1613570916,2021-02-17T14:08:36Z,PBD537,"45.095524,42.036907",2425,143,75
1613570922,2021-02-17T14:08:42Z,PBD537,"45.096596,42.042934",2350,145,75
1613570928,2021-02-17T14:08:48Z,PBD537,"45.097549,42.048077",2250,145,75
1613570934,2021-02-17T14:08:54Z,PBD537,"45.098598,42.053989",2150,144,75
1613570940,2021-02-17T14:09:00Z,PBD537,"45.099564,42.059261",2075,144,75
1613570947,2021-02-17T14:09:07Z,PBD537,"45.100662,42.065277",1975,144,75
1613570956,2021-02-17T14:09:16Z,PBD537,"45.102135,42.073349",1850,144,75
1613570962,2021-02-17T14:09:22Z,PBD537,"45.103161,42.079044",1750,142,75
1613570971,2021-02-17T14:09:31Z,PBD537,"45.104599,42.087055",1625,141,75
1613570980,2021-02-17T14:09:40Z,PBD537,"45.10614,42.095524",1500,141,75
1613570986,2021-02-17T14:09:46Z,PBD537,"45.107071,42.100613",1400,141,75
1613570992,2021-02-17T14:09:52Z,PBD537,"45.108032,42.106018",1400,135,75
1613570998,2021-02-17T14:09:58Z,PBD537,"45.10881,42.110138",1350,107,75
1613571005,2021-02-17T14:10:05Z,PBD537,"45.109386,42.113358",0,64,75
1613571012,2021-02-17T14:10:12Z,PBD537,"45.109711,42.115135",0,41,75
1613571019,2021-02-17T14:10:19Z,PBD537,"45.109932,42.116356",0,26,75
1613571025,2021-02-17T14:10:25Z,PBD537,"45.110069,42.117119",0,18,75
1613571031,2021-02-17T14:10:31Z,PBD537,"45.110165,42.117695",0,14,75
1613571036,2021-02-17T14:10:36Z,PBD537,"45.110184,42.117985",0,9,87
1613571042,2021-02-17T14:10:42Z,PBD537,"45.110161,42.118198",0,5,95
1613571049,2021-02-17T14:10:49Z,PBD537,"45.110199,42.118401",0,4,67
1613571069,2021-02-17T14:11:09Z,PBD537,"45.110283,42.118198",0,2,303
1613571082,2021-02-17T14:11:22Z,PBD537,"45.110237,42.117966",0,4,258
1613571090,2021-02-17T14:11:30Z,PBD537,"45.110188,42.11768",0,6,255
1613571095,2021-02-17T14:11:35Z,PBD537,"45.110142,42.117447",0,7,255
1613571100,2021-02-17T14:11:40Z,PBD537,"45.110085,42.117161",0,9,253
1613571103,2021-02-17T14:11:43Z,PBD537,"45.11005,42.116959",0,10,253
1613571106,2021-02-17T14:11:46Z,PBD537,"45.110004,42.116741",0,11,253
1613571112,2021-02-17T14:11:52Z,PBD537,"45.109909,42.116291",0,12,253
1613571118,2021-02-17T14:11:58Z,PBD537,"45.109852,42.11591",0,11,255
1613571124,2021-02-17T14:12:04Z,PBD537,"45.109772,42.115501",0,11,255
1613571130,2021-02-17T14:12:10Z,PBD537,"45.109699,42.115086",0,11,255
1613571137,2021-02-17T14:12:17Z,PBD537,"45.109596,42.114548",0,12,255
1613571143,2021-02-17T14:12:23Z,PBD537,"45.109501,42.113995",0,14,255
1613571149,2021-02-17T14:12:29Z,PBD537,"45.109409,42.113461",0,14,255
1613571155,2021-02-17T14:12:35Z,PBD537,"45.109306,42.112923",0,13,255
1613571161,2021-02-17T14:12:41Z,PBD537,"45.109211,42.112427",0,13,255
1613571168,2021-02-17T14:12:48Z,PBD537,"45.109119,42.1119",0,12,255
1613571173,2021-02-17T14:12:53Z,PBD537,"45.109051,42.111546",0,11,255
1613571180,2021-02-17T14:13:00Z,PBD537,"45.108967,42.111115",0,11,255
1613571185,2021-02-17T14:13:05Z,PBD537,"45.108902,42.11071",0,11,255
1613571192,2021-02-17T14:13:12Z,PBD537,"45.108833,42.110287",0,11,255
1613571198,2021-02-17T14:13:18Z,PBD537,"45.108768,42.109875",0,11,255
1613571204,2021-02-17T14:13:24Z,PBD537,"45.1087,42.109489",0,10,255
1613571210,2021-02-17T14:13:30Z,PBD537,"45.108631,42.109154",0,9,253
1613571216,2021-02-17T14:13:36Z,PBD537,"45.10857,42.108822",0,9,255
1613571220,2021-02-17T14:13:40Z,PBD537,"45.108547,42.108585",0,9,264
1613571224,2021-02-17T14:13:44Z,PBD537,"45.10857,42.108368",0,9,278
1613571228,2021-02-17T14:13:48Z,PBD537,"45.108643,42.108166",0,8,295
1613571235,2021-02-17T14:13:55Z,PBD537,"45.108845,42.107948",0,8,331
1613571242,2021-02-17T14:14:02Z,PBD537,"45.109074,42.107849",0,8,343
1613571247,2021-02-17T14:14:07Z,PBD537,"45.10928,42.107784",0,9,345
1613571253,2021-02-17T14:14:13Z,PBD537,"45.109509,42.1077",0,9,345
1613571258,2021-02-17T14:14:18Z,PBD537,"45.109726,42.107635",0,10,345
1613571264,2021-02-17T14:14:24Z,PBD537,"45.109978,42.10754",0,9,345
1613571270,2021-02-17T14:14:30Z,PBD537,"45.110207,42.107456",0,8,345
1613571279,2021-02-17T14:14:39Z,PBD537,"45.110481,42.107327",0,7,337
1613571286,2021-02-17T14:14:46Z,PBD537,"45.110641,42.107098",0,7,309
1613571291,2021-02-17T14:14:51Z,PBD537,"45.110687,42.106869",0,7,284
1613571296,2021-02-17T14:14:56Z,PBD537,"45.110668,42.106659",0,7,267
1613571301,2021-02-17T14:15:01Z,PBD537,"45.110641,42.106426",0,7,258
1613571308,2021-02-17T14:15:08Z,PBD537,"45.110584,42.10614",0,7,255
1613571315,2021-02-17T14:15:15Z,PBD537,"45.110584,42.105873",0,6,275
1613571324,2021-02-17T14:15:24Z,PBD537,"45.11076,42.105656",0,6,323
1613571331,2021-02-17T14:15:31Z,PBD537,"45.110962,42.10556",0,7,340
1613571337,2021-02-17T14:15:37Z,PBD537,"45.111191,42.105461",0,8,345
1613571343,2021-02-17T14:15:43Z,PBD537,"45.111412,42.105389",0,8,345
1613571350,2021-02-17T14:15:50Z,PBD537,"45.111614,42.105316",0,6,345
1613571360,2021-02-17T14:16:00Z,PBD537,"45.111843,42.105354",0,4,14
1613571370,2021-02-17T14:16:10Z,PBD537,"45.111935,42.105587",0,4,59
1613571379,2021-02-17T14:16:19Z,PBD537,"45.111969,42.105804",0,4,73
1613571396,2021-02-17T14:16:36Z,PBD537,"45.112003,42.106007",0,1,75
1613571417,2021-02-17T14:16:57Z,PBD537,"45.110363,42.107395",0,0,75
