Timestamp,UTC,Callsign,Position,Altitude,Speed,Direction
1619781751,2021-04-30T11:22:31Z,PBD537,"59.798641,30.266127",0,3,101
1619781759,2021-04-30T11:22:39Z,PBD537,"59.798664,30.265913",0,3,101
1619781768,2021-04-30T11:22:48Z,PBD537,"59.798687,30.265686",0,3,104
1619781778,2021-04-30T11:22:58Z,PBD537,"59.798725,30.26544",0,3,106
1619781787,2021-04-30T11:23:07Z,PBD537,"59.798756,30.265228",0,3,109
1619781803,2021-04-30T11:23:23Z,PBD537,"59.798813,30.264885",0,3,140
1619781817,2021-04-30T11:23:37Z,PBD537,"59.798927,30.264679",0,2,180
1619781903,2021-04-30T11:25:03Z,PBD537,"59.798702,30.265581",0,0,164
1619781963,2021-04-30T11:26:03Z,PBD537,"59.799015,30.264658",0,0,196
1619781978,2021-04-30T11:26:18Z,PBD537,"59.79879,30.264519",0,5,196
1619781988,2021-04-30T11:26:28Z,PBD537,"59.798573,30.264399",0,4,196
1619782000,2021-04-30T11:26:40Z,PBD537,"59.79826,30.264208",0,7,196
1619782012,2021-04-30T11:26:52Z,PBD537,"59.797779,30.263948",0,10,196
1619782018,2021-04-30T11:26:58Z,PBD537,"59.797497,30.263763",0,11,196
1619782025,2021-04-30T11:27:05Z,PBD537,"59.797153,30.263557",0,11,196
1619782031,2021-04-30T11:27:11Z,PBD537,"59.796844,30.263397",0,11,196
1619782038,2021-04-30T11:27:18Z,PBD537,"59.796513,30.263191",0,11,196
1619782044,2021-04-30T11:27:24Z,PBD537,"59.796215,30.263031",0,11,196
1619782050,2021-04-30T11:27:30Z,PBD537,"59.795929,30.262859",0,11,196
1619782056,2021-04-30T11:27:36Z,PBD537,"59.795654,30.262688",0,9,196
1619782062,2021-04-30T11:27:42Z,PBD537,"59.795437,30.26255",0,8,196
1619782069,2021-04-30T11:27:49Z,PBD537,"59.795231,30.262598",0,7,165
1619782074,2021-04-30T11:27:54Z,PBD537,"59.795105,30.262894",0,8,129
1619782077,2021-04-30T11:27:57Z,PBD537,"59.795059,30.263119",0,8,115
1619782081,2021-04-30T11:28:01Z,PBD537,"59.794991,30.263466",0,9,106
1619782087,2021-04-30T11:28:07Z,PBD537,"59.794918,30.263996",0,11,106
1619782094,2021-04-30T11:28:14Z,PBD537,"59.794807,30.264725",0,12,106
1619782096,2021-04-30T11:28:16Z,PBD537,"59.794765,30.264967",0,13,106
1619782098,2021-04-30T11:28:18Z,PBD537,"59.794743,30.265203",0,13,106
1619782104,2021-04-30T11:28:24Z,PBD537,"59.794647,30.265846",0,13,104
1619782106,2021-04-30T11:28:26Z,PBD537,"59.794601,30.266098",0,13,104
1619782109,2021-04-30T11:28:29Z,PBD537,"59.794556,30.266441",0,13,104
1619782115,2021-04-30T11:28:35Z,PBD537,"59.794464,30.267059",0,13,106
1619782122,2021-04-30T11:28:42Z,PBD537,"59.794338,30.267883",0,13,106
1619782129,2021-04-30T11:28:49Z,PBD537,"59.79422,30.268707",0,13,104
1619782137,2021-04-30T11:28:57Z,PBD537,"59.794086,30.269577",0,13,104
1619782146,2021-04-30T11:29:06Z,PBD537,"59.793941,30.270578",0,13,106
1619782152,2021-04-30T11:29:12Z,PBD537,"59.793835,30.27124",0,13,106
1619782159,2021-04-30T11:29:19Z,PBD537,"59.79372,30.272045",0,13,104
1619782165,2021-04-30T11:29:25Z,PBD537,"59.793602,30.272804",0,13,106
1619782172,2021-04-30T11:29:32Z,PBD537,"59.793499,30.273537",0,13,106
1619782178,2021-04-30T11:29:38Z,PBD537,"59.7934,30.274178",0,12,104
1619782184,2021-04-30T11:29:44Z,PBD537,"59.793289,30.274935",0,12,106
1619782191,2021-04-30T11:29:51Z,PBD537,"59.793182,30.275711",0,12,104
1619782198,2021-04-30T11:29:58Z,PBD537,"59.793079,30.276356",0,11,106
1619782212,2021-04-30T11:30:12Z,PBD537,"59.792885,30.277679",0,10,106
1619782220,2021-04-30T11:30:20Z,PBD537,"59.792801,30.278273",0,8,106
1619782227,2021-04-30T11:30:27Z,PBD537,"59.792725,30.278755",0,7,106
1619782237,2021-04-30T11:30:37Z,PBD537,"59.79266,30.279173",0,4,106
1619782264,2021-04-30T11:31:04Z,PBD537,"59.792694,30.278936",0,0,35
1619782345,2021-04-30T11:32:25Z,PBD537,"59.792587,30.279648",0,5,104
1619782354,2021-04-30T11:32:34Z,PBD537,"59.792522,30.280096",0,6,104
1619782362,2021-04-30T11:32:42Z,PBD537,"59.792461,30.280546",0,6,106
1619782375,2021-04-30T11:32:55Z,PBD537,"59.792381,30.28109",0,3,106
1619782414,2021-04-30T11:33:34Z,PBD537,"59.792301,30.281517",0,6,109
1619782418,2021-04-30T11:33:38Z,PBD537,"59.792233,30.281731",0,7,118
1619782422,2021-04-30T11:33:42Z,PBD537,"59.79213,30.28196",0,8,132
1619782429,2021-04-30T11:33:49Z,PBD537,"59.791962,30.282179",0,6,149
1619782457,2021-04-30T11:34:17Z,PBD537,"59.792286,30.281565",0,0,150
1619782489,2021-04-30T11:34:49Z,PBD537,"59.791866,30.282234",0,0,150
1619782577,2021-04-30T11:36:17Z,PBD537,"59.791649,30.282349",0,6,163
1619782588,2021-04-30T11:36:28Z,PBD537,"59.791161,30.282581",0,11,168
1619782592,2021-04-30T11:36:32Z,PBD537,"59.790939,30.282629",0,11,177
1619782598,2021-04-30T11:36:38Z,PBD537,"59.790653,30.28244",0,11,208
1619782602,2021-04-30T11:36:42Z,PBD537,"59.79055,30.282188",0,10,230
1619782605,2021-04-30T11:36:45Z,PBD537,"59.790497,30.281942",0,9,250
1619782609,2021-04-30T11:36:49Z,PBD537,"59.79052,30.281588",0,9,275
1619782612,2021-04-30T11:36:52Z,PBD537,"59.790554,30.281351",0,9,284
1619782619,2021-04-30T11:36:59Z,PBD537,"59.790596,30.281113",0,1,286
1619782649,2021-04-30T11:37:29Z,PBD537,"59.79063,30.280861",0,6,286
1619782655,2021-04-30T11:37:35Z,PBD537,"59.790787,30.27986",0,24,286
1619782661,2021-04-30T11:37:41Z,PBD537,"59.791134,30.277473",0,51,286
1619782668,2021-04-30T11:37:48Z,PBD537,"59.791706,30.273584",0,74,286
1619782680,2021-04-30T11:38:00Z,PBD537,"59.793365,30.262482",325,119,286
1619782692,2021-04-30T11:38:12Z,PBD537,"59.795654,30.247101",325,156,286
1619782703,2021-04-30T11:38:23Z,PBD537,"59.79826,30.229639",575,171,286
1619782719,2021-04-30T11:38:39Z,PBD537,"59.801926,30.206085",1275,167,286
1619782725,2021-04-30T11:38:45Z,PBD537,"59.803146,30.198006",1500,169,286
1619782733,2021-04-30T11:38:53Z,PBD537,"59.805149,30.185221",1875,172,287
1619782740,2021-04-30T11:39:00Z,PBD537,"59.806641,30.17569",2150,175,286
1619782746,2021-04-30T11:39:06Z,PBD537,"59.808105,30.165985",2400,177,287
1619782756,2021-04-30T11:39:16Z,PBD537,"59.810532,30.149689",2900,179,286
1619782763,2021-04-30T11:39:23Z,PBD537,"59.812176,30.138245",3225,182,285
1619782773,2021-04-30T11:39:33Z,PBD537,"59.814507,30.121292",3700,185,285
1619782784,2021-04-30T11:39:44Z,PBD537,"59.817032,30.103363",3975,198,285
1619782792,2021-04-30T11:39:52Z,PBD537,"59.819347,30.087385",4100,220,286
1619782802,2021-04-30T11:40:02Z,PBD537,"59.822372,30.067213",4375,236,286
1619782808,2021-04-30T11:40:08Z,PBD537,"59.82428,30.054522",4650,241,286
1619782817,2021-04-30T11:40:17Z,PBD537,"59.827057,30.035065",5175,244,284
1619782823,2021-04-30T11:40:23Z,PBD537,"59.827972,30.021973",5525,245,275
1619782824,2021-04-30T11:40:24Z,PBD537,"59.827972,30.019775",5600,245,273
1619782826,2021-04-30T11:40:26Z,PBD537,"59.827927,30.015289",5725,245,269
1619782827,2021-04-30T11:40:27Z,PBD537,"59.827866,30.014269",5750,245,269
1619782830,2021-04-30T11:40:30Z,PBD537,"59.827354,30.006977",5975,242,261
1619782832,2021-04-30T11:40:32Z,PBD537,"59.826828,30.002289",6125,242,258
1619782834,2021-04-30T11:40:34Z,PBD537,"59.826187,29.998077",6250,241,254
1619782836,2021-04-30T11:40:36Z,PBD537,"59.825443,29.993717",6375,240,251
1619782838,2021-04-30T11:40:38Z,PBD537,"59.824512,29.989456",6525,240,249
1619782840,2021-04-30T11:40:40Z,PBD537,"59.823944,29.987183",6575,241,245
1619782842,2021-04-30T11:40:42Z,PBD537,"59.822838,29.983204",6725,240,244
1619782845,2021-04-30T11:40:45Z,PBD537,"59.820831,29.977478",6925,242,236
1619782849,2021-04-30T11:40:49Z,PBD537,"59.817532,29.969946",7225,241,227
1619782851,2021-04-30T11:40:51Z,PBD537,"59.815903,29.966915",7350,239,223
1619782858,2021-04-30T11:40:58Z,PBD537,"59.810257,29.95871",7725,241,214
1619782860,2021-04-30T11:41:00Z,PBD537,"59.8078,29.956022",7850,243,209
1619782863,2021-04-30T11:41:03Z,PBD537,"59.804588,29.953087",8025,247,206
1619782864,2021-04-30T11:41:04Z,PBD537,"59.804031,29.952484",8050,247,206
1619782866,2021-04-30T11:41:06Z,PBD537,"59.801376,29.950813",8200,246,201
1619782867,2021-04-30T11:41:07Z,PBD537,"59.800461,29.950195",8250,247,199
1619782873,2021-04-30T11:41:13Z,PBD537,"59.794209,29.946932",8600,247,194
1619782881,2021-04-30T11:41:21Z,PBD537,"59.784527,29.941439",9100,249,196
1619782882,2021-04-30T11:41:22Z,PBD537,"59.784012,29.941154",9125,249,196
1619782885,2021-04-30T11:41:25Z,PBD537,"59.780476,29.93907",9325,248,196
1619782888,2021-04-30T11:41:28Z,PBD537,"59.777252,29.937103",9500,248,196
1619782891,2021-04-30T11:41:31Z,PBD537,"59.773911,29.935186",9700,248,196
1619782902,2021-04-30T11:41:42Z,PBD537,"59.761459,29.930878",10325,252,182
1619782903,2021-04-30T11:41:43Z,PBD537,"59.760273,29.930925",10400,252,180
1619782906,2021-04-30T11:41:46Z,PBD537,"59.756641,29.931303",10575,254,175
1619782909,2021-04-30T11:41:49Z,PBD537,"59.753147,29.932346",10750,256,171
1619782912,2021-04-30T11:41:52Z,PBD537,"59.750401,29.933672",10900,252,167
1619782913,2021-04-30T11:41:53Z,PBD537,"59.748959,29.934525",10975,252,165
1619782916,2021-04-30T11:41:56Z,PBD537,"59.745934,29.936607",11125,253,160
1619782918,2021-04-30T11:41:58Z,PBD537,"59.742954,29.939259",11275,261,156
1619782927,2021-04-30T11:42:07Z,PBD537,"59.733829,29.951097",11700,264,141
1619782930,2021-04-30T11:42:10Z,PBD537,"59.731129,29.955929",11800,271,138
1619782931,2021-04-30T11:42:11Z,PBD537,"59.730698,29.95697",11825,272,137
1619782933,2021-04-30T11:42:13Z,PBD537,"59.728989,29.960474",11875,270,133
1619782934,2021-04-30T11:42:14Z,PBD537,"59.727722,29.963562",11925,273,130
1619782937,2021-04-30T11:42:17Z,PBD537,"59.725845,29.968781",11975,277,126
1619782939,2021-04-30T11:42:19Z,PBD537,"59.724052,29.974398",12000,284,121
1619782942,2021-04-30T11:42:22Z,PBD537,"59.722237,29.98131",12025,291,118
1619782943,2021-04-30T11:42:23Z,PBD537,"59.721954,29.982697",12050,293,116
1619782946,2021-04-30T11:42:26Z,PBD537,"59.72047,29.990498",12100,299,111
1619782948,2021-04-30T11:42:28Z,PBD537,"59.719437,29.997253",12150,304,107
1619782949,2021-04-30T11:42:29Z,PBD537,"59.719299,29.998352",12150,304,107
1619782955,2021-04-30T11:42:35Z,PBD537,"59.717026,30.014648",12250,312,105
1619782957,2021-04-30T11:42:37Z,PBD537,"59.716232,30.020691",12300,316,105
1619782958,2021-04-30T11:42:38Z,PBD537,"59.715591,30.025177",12325,319,105
1619782960,2021-04-30T11:42:40Z,PBD537,"59.714931,30.029896",12350,321,105
1619782961,2021-04-30T11:42:41Z,PBD537,"59.714745,30.031317",12350,322,105
1619782964,2021-04-30T11:42:44Z,PBD537,"59.713577,30.039825",12400,327,105
1619782966,2021-04-30T11:42:46Z,PBD537,"59.712463,30.047607",12425,333,105
1619782967,2021-04-30T11:42:47Z,PBD537,"59.711975,30.050995",12450,334,105
1619782970,2021-04-30T11:42:50Z,PBD537,"59.710922,30.058777",12475,337,105
1619782972,2021-04-30T11:42:52Z,PBD537,"59.710007,30.065094",12500,340,105
1619783004,2021-04-30T11:43:24Z,PBD537,"59.697845,30.165331",13900,360,99
1619783012,2021-04-30T11:43:32Z,PBD537,"59.696274,30.192993",14325,362,95
1619783013,2021-04-30T11:43:33Z,PBD537,"59.696217,30.194881",14375,362,95
1619783015,2021-04-30T11:43:35Z,PBD537,"59.695999,30.200317",14450,362,94
1619783016,2021-04-30T11:43:36Z,PBD537,"59.695862,30.20462",14525,363,94
1619783018,2021-04-30T11:43:38Z,PBD537,"59.695724,30.210205",14625,362,93
1619783019,2021-04-30T11:43:39Z,PBD537,"59.695656,30.215054",14700,363,92
1619783021,2021-04-30T11:43:41Z,PBD537,"59.695541,30.220093",14800,363,92
1619783022,2021-04-30T11:43:42Z,PBD537,"59.69545,30.225128",14875,363,91
1619783024,2021-04-30T11:43:44Z,PBD537,"59.695377,30.230587",14975,363,91
1619783025,2021-04-30T11:43:45Z,PBD537,"59.695312,30.235107",15025,364,91
1619783056,2021-04-30T11:44:16Z,PBD537,"59.692612,30.338104",16425,374,95
1619783087,2021-04-30T11:44:47Z,PBD537,"59.682297,30.443588",17900,381,101
1619783119,2021-04-30T11:45:19Z,PBD537,"59.67075,30.552315",19225,389,101
1619783181,2021-04-30T11:46:21Z,PBD537,"59.648941,30.774811",21700,408,99
1619783243,2021-04-30T11:47:23Z,PBD537,"59.629787,31.005976",24075,419,99
1619783304,2021-04-30T11:48:24Z,PBD537,"59.609802,31.239624",26100,431,99
1619783365,2021-04-30T11:49:25Z,PBD537,"59.58902,31.478943",27750,445,99
1619783428,2021-04-30T11:50:28Z,PBD537,"59.566242,31.734388",29175,462,100
1619783489,2021-04-30T11:51:29Z,PBD537,"59.542603,31.994385",30200,482,100
1619783507,2021-04-30T11:51:47Z,PBD537,"59.531422,32.071079",30525,479,111
1619783508,2021-04-30T11:51:48Z,PBD537,"59.530537,32.075058",30525,480,112
1619783509,2021-04-30T11:51:49Z,PBD537,"59.529743,32.078659",30550,479,112
1619783511,2021-04-30T11:51:51Z,PBD537,"59.528023,32.08614",30575,478,113
1619783512,2021-04-30T11:51:52Z,PBD537,"59.527462,32.088509",30600,478,114
1619783515,2021-04-30T11:51:55Z,PBD537,"59.524345,32.100536",30650,477,116
1619783516,2021-04-30T11:51:56Z,PBD537,"59.522717,32.106693",30675,476,117
1619783518,2021-04-30T11:51:58Z,PBD537,"59.520668,32.113796",30700,476,118
1619783519,2021-04-30T11:51:59Z,PBD537,"59.51955,32.117584",30725,476,119
1619783522,2021-04-30T11:52:02Z,PBD537,"59.51683,32.126221",30775,474,120
1619783523,2021-04-30T11:52:03Z,PBD537,"59.515594,32.12999",30775,474,121
1619783524,2021-04-30T11:52:04Z,PBD537,"59.513809,32.135193",30800,473,122
1619783526,2021-04-30T11:52:06Z,PBD537,"59.511169,32.142776",30850,472,124
1619783527,2021-04-30T11:52:07Z,PBD537,"59.51038,32.144859",30875,472,124
1619783529,2021-04-30T11:52:09Z,PBD537,"59.507858,32.151581",30900,472,125
1619783530,2021-04-30T11:52:10Z,PBD537,"59.506485,32.154968",30925,472,125
1619783532,2021-04-30T11:52:12Z,PBD537,"59.503784,32.161652",30950,471,127
1619783533,2021-04-30T11:52:13Z,PBD537,"59.501675,32.166737",30975,470,128
1619783535,2021-04-30T11:52:15Z,PBD537,"59.500092,32.170242",31000,470,129
1619783537,2021-04-30T11:52:17Z,PBD537,"59.497066,32.176968",31050,468,131
1619783538,2021-04-30T11:52:18Z,PBD537,"59.49427,32.182838",31075,467,132
1619783539,2021-04-30T11:52:19Z,PBD537,"59.493576,32.184174",31100,467,132
1619783541,2021-04-30T11:52:21Z,PBD537,"59.490643,32.190037",31150,466,133
1619783542,2021-04-30T11:52:22Z,PBD537,"59.488586,32.194061",31175,465,134
1619783543,2021-04-30T11:52:23Z,PBD537,"59.487808,32.195618",31200,465,134
1619783544,2021-04-30T11:52:24Z,PBD537,"59.485382,32.200287",31250,465,135
1619783545,2021-04-30T11:52:25Z,PBD537,"59.483688,32.203583",31275,465,135
1619783546,2021-04-30T11:52:26Z,PBD537,"59.482403,32.206043",31275,465,135
1619783547,2021-04-30T11:52:27Z,PBD537,"59.481583,32.207703",31300,465,135
1619783548,2021-04-30T11:52:28Z,PBD537,"59.479191,32.212292",31350,465,135
1619783549,2021-04-30T11:52:29Z,PBD537,"59.4776,32.215485",31350,465,135
1619783610,2021-04-30T11:53:30Z,PBD537,"59.386131,32.395935",32875,465,135
1619783672,2021-04-30T11:54:32Z,PBD537,"59.291611,32.5784",34300,465,135
1619783735,2021-04-30T11:55:35Z,PBD537,"59.194893,32.763599",35525,466,135
1619783797,2021-04-30T11:56:37Z,PBD537,"59.098801,32.945892",36550,468,135
1619783858,2021-04-30T11:57:38Z,PBD537,"59.004501,33.124237",37000,470,135
1619783919,2021-04-30T11:58:39Z,PBD537,"58.91032,33.30032",37000,470,136
1619783980,2021-04-30T11:59:40Z,PBD537,"58.814053,33.478729",37000,470,136
1619784041,2021-04-30T12:00:41Z,PBD537,"58.717941,33.655552",37000,470,136
1619784103,2021-04-30T12:01:43Z,PBD537,"58.621307,33.832222",37000,468,136
1619784164,2021-04-30T12:02:44Z,PBD537,"58.524948,34.006405",37000,467,136
1619784225,2021-04-30T12:03:45Z,PBD537,"58.429482,34.177826",37000,466,136
1619784286,2021-04-30T12:04:46Z,PBD537,"58.334282,34.347565",37000,465,137
1619784348,2021-04-30T12:05:48Z,PBD537,"58.232346,34.500259",37000,447,150
1619784410,2021-04-30T12:06:50Z,PBD537,"58.117401,34.603123",37000,440,154
1619784471,2021-04-30T12:07:51Z,PBD537,"58.005672,34.702057",37000,439,154
1619784532,2021-04-30T12:08:52Z,PBD537,"57.894226,34.800293",37000,439,154
1619784594,2021-04-30T12:09:54Z,PBD537,"57.778774,34.901184",37000,441,155
1619784656,2021-04-30T12:10:56Z,PBD537,"57.664909,34.999695",37000,443,155
1619784717,2021-04-30T12:11:57Z,PBD537,"57.551693,35.097244",37000,444,155
1619784778,2021-04-30T12:12:58Z,PBD537,"57.4375,35.19479",37000,445,155
1619784839,2021-04-30T12:13:59Z,PBD537,"57.323261,35.291805",37000,446,155
1619784901,2021-04-30T12:15:01Z,PBD537,"57.207253,35.389267",37000,447,155
1619784961,2021-04-30T12:16:01Z,PBD537,"57.09404,35.483978",37000,445,155
1619785023,2021-04-30T12:17:03Z,PBD537,"56.979172,35.579483",37000,446,155
1619785084,2021-04-30T12:18:04Z,PBD537,"56.864769,35.674026",37000,446,155
1619785145,2021-04-30T12:19:05Z,PBD537,"56.749878,35.768738",37000,448,155
1619785207,2021-04-30T12:20:07Z,PBD537,"56.632519,35.864513",37000,450,155
1619785269,2021-04-30T12:21:09Z,PBD537,"56.514496,35.959415",37000,451,156
1619785329,2021-04-30T12:22:09Z,PBD537,"56.400742,36.050472",37000,447,156
1619785391,2021-04-30T12:23:11Z,PBD537,"56.284241,36.143604",37000,449,156
1619785452,2021-04-30T12:24:12Z,PBD537,"56.168106,36.235741",37000,450,156
1619785513,2021-04-30T12:25:13Z,PBD537,"56.051361,36.327324",37000,451,156
1619785574,2021-04-30T12:26:14Z,PBD537,"55.934517,36.418221",37000,452,156
1619785636,2021-04-30T12:27:16Z,PBD537,"55.815899,36.51083",37000,449,156
1619785698,2021-04-30T12:28:18Z,PBD537,"55.699287,36.600868",37000,446,156
1619785761,2021-04-30T12:29:21Z,PBD537,"55.580254,36.692192",37000,443,156
1619785823,2021-04-30T12:30:23Z,PBD537,"55.464943,36.779995",37000,442,156
1619785885,2021-04-30T12:31:25Z,PBD537,"55.348618,36.868179",37000,440,156
1619785947,2021-04-30T12:32:27Z,PBD537,"55.232208,36.955181",37000,441,156
1619786008,2021-04-30T12:33:28Z,PBD537,"55.116871,37.041153",37000,444,156
1619786069,2021-04-30T12:34:29Z,PBD537,"55.002632,37.126297",37000,445,157
1619786129,2021-04-30T12:35:29Z,PBD537,"54.888336,37.210209",37000,445,156
1619786192,2021-04-30T12:36:32Z,PBD537,"54.769958,37.297695",37000,446,157
1619786253,2021-04-30T12:37:33Z,PBD537,"54.654099,37.38187",37000,446,157
1619786314,2021-04-30T12:38:34Z,PBD537,"54.537231,37.465965",37000,445,157
1619786376,2021-04-30T12:39:36Z,PBD537,"54.420544,37.549854",37000,445,157
1619786437,2021-04-30T12:40:37Z,PBD537,"54.305603,37.632778",37000,445,157
1619786498,2021-04-30T12:41:38Z,PBD537,"54.189274,37.71574",37000,445,157
1619786560,2021-04-30T12:42:40Z,PBD537,"54.07251,37.797913",37000,443,157
1619786621,2021-04-30T12:43:41Z,PBD537,"53.955826,37.879761",37000,444,157
1619786683,2021-04-30T12:44:43Z,PBD537,"53.838638,37.961216",37000,448,157
1619786746,2021-04-30T12:45:46Z,PBD537,"53.718304,38.044685",37000,451,157
1619786807,2021-04-30T12:46:47Z,PBD537,"53.599827,38.126354",37000,451,157
1619786868,2021-04-30T12:47:48Z,PBD537,"53.48275,38.206249",37000,452,158
1619786928,2021-04-30T12:48:48Z,PBD537,"53.365578,38.285656",37000,452,157
1619786989,2021-04-30T12:49:49Z,PBD537,"53.247196,38.365791",37000,454,158
1619787052,2021-04-30T12:50:52Z,PBD537,"53.124664,38.448147",37000,457,158
1619787114,2021-04-30T12:51:54Z,PBD537,"53.002853,38.529129",37000,456,158
1619787176,2021-04-30T12:52:56Z,PBD537,"52.883713,38.607841",37000,450,158
1619787237,2021-04-30T12:53:57Z,PBD537,"52.765686,38.68576",37000,446,158
1619787300,2021-04-30T12:55:00Z,PBD537,"52.645477,38.764648",37000,447,158
1619787361,2021-04-30T12:56:01Z,PBD537,"52.527466,38.841476",37000,447,158
1619787423,2021-04-30T12:57:03Z,PBD537,"52.408649,38.919224",37000,450,156
1619787484,2021-04-30T12:58:04Z,PBD537,"52.298904,39.028168",37000,455,146
1619787546,2021-04-30T12:59:06Z,PBD537,"52.191238,39.142914",37000,455,146
1619787607,2021-04-30T13:00:07Z,PBD537,"52.08432,39.256741",37000,453,146
1619787669,2021-04-30T13:01:09Z,PBD537,"51.975311,39.37233",37000,453,146
1619787730,2021-04-30T13:02:10Z,PBD537,"51.868271,39.484634",37000,454,147
1619787791,2021-04-30T13:03:11Z,PBD537,"51.760574,39.596954",37000,455,148
1619787823,2021-04-30T13:03:43Z,PBD537,"51.699566,39.644089",37000,450,159
1619787885,2021-04-30T13:04:45Z,PBD537,"51.578484,39.710236",37000,451,161
1619787946,2021-04-30T13:05:46Z,PBD537,"51.458817,39.775257",37000,455,161
1619788006,2021-04-30T13:06:46Z,PBD537,"51.337154,39.840469",37000,455,161
1619788068,2021-04-30T13:07:48Z,PBD537,"51.215057,39.90546",37000,454,161
1619788129,2021-04-30T13:08:49Z,PBD537,"51.093292,39.969971",37000,454,161
1619788190,2021-04-30T13:09:50Z,PBD537,"50.971344,40.034328",37000,455,161
1619788251,2021-04-30T13:10:51Z,PBD537,"50.850594,40.097885",37000,455,161
1619788312,2021-04-30T13:11:52Z,PBD537,"50.727787,40.162048",37000,456,161
1619788373,2021-04-30T13:12:53Z,PBD537,"50.606461,40.225212",37000,456,161
1619788434,2021-04-30T13:13:54Z,PBD537,"50.484272,40.288128",37000,455,161
1619788495,2021-04-30T13:14:55Z,PBD537,"50.360538,40.351448",37000,455,161
1619788557,2021-04-30T13:15:57Z,PBD537,"50.237,40.414726",37000,453,161
1619788617,2021-04-30T13:16:57Z,PBD537,"50.119675,40.47467",37000,451,161
1619788681,2021-04-30T13:18:01Z,PBD537,"49.993008,40.538513",37000,451,162
1619788742,2021-04-30T13:19:02Z,PBD537,"49.871292,40.599037",37000,452,162
1619788803,2021-04-30T13:20:03Z,PBD537,"49.750423,40.659214",37000,452,162
1619788864,2021-04-30T13:21:04Z,PBD537,"49.628128,40.7089",37000,445,173
1619788925,2021-04-30T13:22:05Z,PBD537,"49.50325,40.7089",37000,444,181
1619788986,2021-04-30T13:23:06Z,PBD537,"49.377865,40.730511",37000,452,169
1619789047,2021-04-30T13:24:07Z,PBD537,"49.252808,40.764771",37000,453,169
1619789108,2021-04-30T13:25:08Z,PBD537,"49.125507,40.79961",37000,454,169
1619789170,2021-04-30T13:26:10Z,PBD537,"48.996506,40.834984",37000,454,169
1619789230,2021-04-30T13:27:10Z,PBD537,"48.872589,40.868225",37000,455,169
1619789293,2021-04-30T13:28:13Z,PBD537,"48.742985,40.903763",37000,455,169
1619789354,2021-04-30T13:29:14Z,PBD537,"48.616379,40.937664",37000,455,169
1619789416,2021-04-30T13:30:16Z,PBD537,"48.488068,40.971848",37000,454,169
1619789477,2021-04-30T13:31:17Z,PBD537,"48.362274,41.005344",37000,454,169
1619789538,2021-04-30T13:32:18Z,PBD537,"48.235847,41.038849",37000,453,169
1619789599,2021-04-30T13:33:19Z,PBD537,"48.10955,41.072105",37000,452,169
1619789661,2021-04-30T13:34:21Z,PBD537,"47.982975,41.105206",37000,451,170
1619789722,2021-04-30T13:35:22Z,PBD537,"47.857983,41.137741",37000,451,170
1619789784,2021-04-30T13:36:24Z,PBD537,"47.728775,41.171333",37000,452,170
1619789844,2021-04-30T13:37:24Z,PBD537,"47.604675,41.203262",37000,452,170
1619789908,2021-04-30T13:38:28Z,PBD537,"47.474213,41.236908",37000,452,170
1619789970,2021-04-30T13:39:30Z,PBD537,"47.346653,41.269508",37000,451,170
1619790031,2021-04-30T13:40:31Z,PBD537,"47.221706,41.301411",37000,451,170
1619790092,2021-04-30T13:41:32Z,PBD537,"47.094589,41.333588",37000,451,170
1619790154,2021-04-30T13:42:34Z,PBD537,"46.968979,41.364693",36350,444,170
1619790214,2021-04-30T13:43:34Z,PBD537,"46.847099,41.395386",33775,447,170
1619790277,2021-04-30T13:44:37Z,PBD537,"46.720943,41.426628",31675,437,170
1619790338,2021-04-30T13:45:38Z,PBD537,"46.600067,41.456978",29400,433,170
1619790400,2021-04-30T13:46:40Z,PBD537,"46.481049,41.485649",27650,410,170
1619790460,2021-04-30T13:47:40Z,PBD537,"46.37027,41.513313",25525,399,170
1619790522,2021-04-30T13:48:42Z,PBD537,"46.258438,41.540447",23200,394,170
1619790582,2021-04-30T13:49:42Z,PBD537,"46.150818,41.56657",21100,386,170
1619790644,2021-04-30T13:50:44Z,PBD537,"46.044479,41.592361",18975,376,170
1619790706,2021-04-30T13:51:46Z,PBD537,"45.938911,41.617859",17000,363,170
1619790736,2021-04-30T13:52:16Z,PBD537,"45.889389,41.62981",15975,359,170
1619790768,2021-04-30T13:52:48Z,PBD537,"45.838943,41.642071",14925,353,170
1619790803,2021-04-30T13:53:23Z,PBD537,"45.782169,41.655418",13775,348,170
1619790834,2021-04-30T13:53:54Z,PBD537,"45.733109,41.667862",12850,343,166
1619790840,2021-04-30T13:54:00Z,PBD537,"45.72496,41.671814",12700,345,160
1619790843,2021-04-30T13:54:03Z,PBD537,"45.71965,41.67543",12600,345,154
1619790848,2021-04-30T13:54:08Z,PBD537,"45.712994,41.681442",12475,345,146
1619790849,2021-04-30T13:54:09Z,PBD537,"45.711639,41.682865",12450,345,145
1619790852,2021-04-30T13:54:12Z,PBD537,"45.707829,41.687485",12350,345,140
1619790854,2021-04-30T13:54:14Z,PBD537,"45.70546,41.690769",12300,346,137
1619790855,2021-04-30T13:54:15Z,PBD537,"45.704521,41.692154",12275,345,135
1619790856,2021-04-30T13:54:16Z,PBD537,"45.704041,41.692848",12275,345,135
1619790857,2021-04-30T13:54:17Z,PBD537,"45.702438,41.695461",12225,345,133
1619790859,2021-04-30T13:54:19Z,PBD537,"45.70047,41.698608",12175,345,131
1619790860,2021-04-30T13:54:20Z,PBD537,"45.699356,41.700531",12150,345,131
1619790861,2021-04-30T13:54:21Z,PBD537,"45.698284,41.702248",12100,345,130
1619790862,2021-04-30T13:54:22Z,PBD537,"45.69722,41.704033",12075,345,130
1619790863,2021-04-30T13:54:23Z,PBD537,"45.696236,41.705681",12050,344,130
1619790864,2021-04-30T13:54:24Z,PBD537,"45.695118,41.707603",12000,344,130
1619790865,2021-04-30T13:54:25Z,PBD537,"45.694607,41.708496",12000,344,130
1619790867,2021-04-30T13:54:27Z,PBD537,"45.692001,41.712944",11900,345,129
1619790868,2021-04-30T13:54:28Z,PBD537,"45.691441,41.713921",11900,345,129
1619790870,2021-04-30T13:54:30Z,PBD537,"45.689163,41.717834",11825,344,129
1619790871,2021-04-30T13:54:31Z,PBD537,"45.688274,41.719345",11800,345,129
1619790882,2021-04-30T13:54:42Z,PBD537,"45.67662,41.73954",11425,343,129
1619790893,2021-04-30T13:54:53Z,PBD537,"45.66568,41.758362",11075,343,129
1619790905,2021-04-30T13:55:05Z,PBD537,"45.654053,41.778728",10675,342,129
1619790915,2021-04-30T13:55:15Z,PBD537,"45.643478,41.797417",10350,342,128
1619790928,2021-04-30T13:55:28Z,PBD537,"45.63176,41.818386",10175,335,128
1619790939,2021-04-30T13:55:39Z,PBD537,"45.621147,41.837585",10075,330,128
1619790952,2021-04-30T13:55:52Z,PBD537,"45.6091,41.859718",9975,316,127
1619790964,2021-04-30T13:56:04Z,PBD537,"45.598892,41.878342",9875,308,128
1619790976,2021-04-30T13:56:16Z,PBD537,"45.587128,41.896896",9750,296,135
1619790978,2021-04-30T13:56:18Z,PBD537,"45.585068,41.899376",9725,294,138
1619790979,2021-04-30T13:56:19Z,PBD537,"45.583923,41.900715",9700,293,139
1619790981,2021-04-30T13:56:21Z,PBD537,"45.581718,41.90316",9675,294,138
1619790984,2021-04-30T13:56:24Z,PBD537,"45.579208,41.905876",9650,290,142
1619790987,2021-04-30T13:56:27Z,PBD537,"45.575108,41.910233",9550,288,142
1619790991,2021-04-30T13:56:31Z,PBD537,"45.571754,41.913734",9475,288,143
1619790994,2021-04-30T13:56:34Z,PBD537,"45.567844,41.917717",9375,289,144
1619791000,2021-04-30T13:56:40Z,PBD537,"45.561218,41.924297",9275,287,145
1619791003,2021-04-30T13:56:43Z,PBD537,"45.557968,41.927578",9225,286,145
1619791015,2021-04-30T13:56:55Z,PBD537,"45.544968,41.940308",9000,283,145
1619791027,2021-04-30T13:57:07Z,PBD537,"45.531998,41.9529",8825,279,145
1619791039,2021-04-30T13:57:19Z,PBD537,"45.518463,41.963917",8650,268,156
1619791042,2021-04-30T13:57:22Z,PBD537,"45.514729,41.965229",8600,263,163
1619791045,2021-04-30T13:57:25Z,PBD537,"45.511517,41.966099",8575,260,168
1619791048,2021-04-30T13:57:28Z,PBD537,"45.507889,41.966728",8550,258,172
1619791055,2021-04-30T13:57:35Z,PBD537,"45.500435,41.967705",8475,254,174
1619791060,2021-04-30T13:57:40Z,PBD537,"45.493687,41.968578",8375,251,175
1619791063,2021-04-30T13:57:43Z,PBD537,"45.490334,41.968979",8325,250,175
1619791067,2021-04-30T13:57:47Z,PBD537,"45.486237,41.969475",8250,248,175
1619791070,2021-04-30T13:57:50Z,PBD537,"45.483078,41.969868",8225,247,175
1619791081,2021-04-30T13:58:01Z,PBD537,"45.470177,41.971458",8000,242,175
1619791095,2021-04-30T13:58:15Z,PBD537,"45.454678,41.972664",7725,242,177
1619791113,2021-04-30T13:58:33Z,PBD537,"45.43475,41.973736",7350,241,178
1619791127,2021-04-30T13:58:47Z,PBD537,"45.419357,41.974445",7075,240,177
1619791147,2021-04-30T13:59:07Z,PBD537,"45.397091,41.975811",6700,237,177
1619791158,2021-04-30T13:59:18Z,PBD537,"45.385593,41.976547",6525,237,177
1619791173,2021-04-30T13:59:33Z,PBD537,"45.368416,41.976616",6250,235,182
1619791189,2021-04-30T13:59:49Z,PBD537,"45.351334,41.974117",6025,236,186
1619791200,2021-04-30T14:00:00Z,PBD537,"45.339691,41.972263",5825,237,186
1619791210,2021-04-30T14:00:10Z,PBD537,"45.328308,41.970783",5625,236,184
1619791226,2021-04-30T14:00:26Z,PBD537,"45.311527,41.969517",5375,234,182
1619791236,2021-04-30T14:00:36Z,PBD537,"45.299927,41.968884",5200,233,182
1619791252,2021-04-30T14:00:52Z,PBD537,"45.283363,41.967842",4975,231,182
1619791263,2021-04-30T14:01:03Z,PBD537,"45.271957,41.967171",4800,230,182
1619791273,2021-04-30T14:01:13Z,PBD537,"45.260925,41.966167",4625,229,183
1619791288,2021-04-30T14:01:28Z,PBD537,"45.244492,41.964832",4425,228,182
1619791299,2021-04-30T14:01:39Z,PBD537,"45.233505,41.963917",4450,225,183
1619791309,2021-04-30T14:01:49Z,PBD537,"45.22266,41.963017",4450,224,183
1619791320,2021-04-30T14:02:00Z,PBD537,"45.211487,41.96188",4450,220,184
1619791325,2021-04-30T14:02:05Z,PBD537,"45.206413,41.960739",4450,219,188
1619791331,2021-04-30T14:02:11Z,PBD537,"45.20134,41.958595",4450,220,197
1619791336,2021-04-30T14:02:16Z,PBD537,"45.196545,41.955379",4450,224,206
1619791351,2021-04-30T14:02:31Z,PBD537,"45.184395,41.939304",4450,231,232
1619791357,2021-04-30T14:02:37Z,PBD537,"45.181091,41.932789",4450,233,234
1619791362,2021-04-30T14:02:42Z,PBD537,"45.177643,41.925838",4450,234,234
1619791367,2021-04-30T14:02:47Z,PBD537,"45.174339,41.919407",4475,232,234
1619791378,2021-04-30T14:02:58Z,PBD537,"45.167633,41.906544",4475,222,233
1619791399,2021-04-30T14:03:19Z,PBD537,"45.155548,41.884266",4450,198,232
1619791409,2021-04-30T14:03:29Z,PBD537,"45.150085,41.874523",4450,188,231
1619791420,2021-04-30T14:03:40Z,PBD537,"45.144314,41.864006",4425,182,232
1619791431,2021-04-30T14:03:51Z,PBD537,"45.13884,41.854248",4450,177,231
1619791441,2021-04-30T14:04:01Z,PBD537,"45.13356,41.844711",4450,177,232
1619791462,2021-04-30T14:04:22Z,PBD537,"45.122757,41.826492",4450,177,223
1619791467,2021-04-30T14:04:27Z,PBD537,"45.119019,41.823513",4450,177,208
1619791477,2021-04-30T14:04:37Z,PBD537,"45.110596,41.82201",4350,178,176
1619791482,2021-04-30T14:04:42Z,PBD537,"45.106697,41.823479",4300,179,164
1619791487,2021-04-30T14:04:47Z,PBD537,"45.102787,41.825623",4250,179,158
1619791493,2021-04-30T14:04:53Z,PBD537,"45.098557,41.828285",4250,177,155
1619791498,2021-04-30T14:04:58Z,PBD537,"45.094803,41.830574",4250,175,156
1619791503,2021-04-30T14:05:03Z,PBD537,"45.091103,41.832722",4225,174,157
1619791509,2021-04-30T14:05:09Z,PBD537,"45.087006,41.834999",4225,173,158
1619791524,2021-04-30T14:05:24Z,PBD537,"45.075882,41.843708",4250,176,141
1619791530,2021-04-30T14:05:30Z,PBD537,"45.072807,41.847996",4250,174,134
1619791535,2021-04-30T14:05:35Z,PBD537,"45.070389,41.852486",4250,172,126
1619791545,2021-04-30T14:05:45Z,PBD537,"45.067154,41.863274",4200,170,106
1619791550,2021-04-30T14:05:50Z,PBD537,"45.066525,41.868294",4150,172,99
1619791555,2021-04-30T14:05:55Z,PBD537,"45.066376,41.874325",4075,172,91
1619791561,2021-04-30T14:06:01Z,PBD537,"45.066925,41.880535",4025,174,81
1619791566,2021-04-30T14:06:06Z,PBD537,"45.067886,41.886227",3950,174,76
1619791582,2021-04-30T14:06:22Z,PBD537,"45.071224,41.903664",3800,164,75
1619791593,2021-04-30T14:06:33Z,PBD537,"45.073273,41.915253",3700,159,75
1619791600,2021-04-30T14:06:40Z,PBD537,"45.074436,41.921616",3625,159,75
1619791606,2021-04-30T14:06:46Z,PBD537,"45.075649,41.928318",3525,157,75
1619791616,2021-04-30T14:06:56Z,PBD537,"45.077316,41.937756",3425,159,75
1619791631,2021-04-30T14:07:11Z,PBD537,"45.080109,41.95293",3250,159,75
1619791639,2021-04-30T14:07:19Z,PBD537,"45.081654,41.961006",3250,157,74
1619791645,2021-04-30T14:07:25Z,PBD537,"45.082909,41.96804",3250,156,75
1619791654,2021-04-30T14:07:34Z,PBD537,"45.084354,41.976013",3225,154,75
1619791661,2021-04-30T14:07:41Z,PBD537,"45.085648,41.982685",3150,154,74
1619791669,2021-04-30T14:07:49Z,PBD537,"45.087101,41.990482",3025,151,75
1619791675,2021-04-30T14:07:55Z,PBD537,"45.087936,41.995239",2950,150,76
1619791684,2021-04-30T14:08:04Z,PBD537,"45.089615,42.004684",2800,149,75
1619791695,2021-04-30T14:08:15Z,PBD537,"45.091415,42.014595",2650,149,75
1619791701,2021-04-30T14:08:21Z,PBD537,"45.092731,42.021564",2575,147,75
1619791709,2021-04-30T14:08:29Z,PBD537,"45.094036,42.028465",2475,147,75
1619791717,2021-04-30T14:08:37Z,PBD537,"45.095387,42.035969",2350,149,76
1619791725,2021-04-30T14:08:45Z,PBD537,"45.096588,42.042912",2250,149,76
1619791732,2021-04-30T14:08:52Z,PBD537,"45.0979,42.050171",2150,150,75
1619791739,2021-04-30T14:08:59Z,PBD537,"45.099201,42.05727",2050,150,75
1619791750,2021-04-30T14:09:10Z,PBD537,"45.100983,42.066845",1900,149,75
1619791757,2021-04-30T14:09:17Z,PBD537,"45.102276,42.074287",1800,147,75
1619791765,2021-04-30T14:09:25Z,PBD537,"45.103592,42.081364",1700,147,75
1619791772,2021-04-30T14:09:32Z,PBD537,"45.104782,42.087902",1600,147,75
1619791780,2021-04-30T14:09:40Z,PBD537,"45.10611,42.095295",1500,149,75
1619791788,2021-04-30T14:09:48Z,PBD537,"45.107483,42.102684",1400,148,75
1619791795,2021-04-30T14:09:55Z,PBD537,"45.108536,42.108635",1350,131,75
1619791805,2021-04-30T14:10:05Z,PBD537,"45.109692,42.115074",0,84,75
1619791810,2021-04-30T14:10:10Z,PBD537,"45.110126,42.117447",0,64,75
1619791816,2021-04-30T14:10:16Z,PBD537,"45.110413,42.119049",0,39,75
1619791822,2021-04-30T14:10:22Z,PBD537,"45.11055,42.119858",0,19,75
1619791828,2021-04-30T14:10:28Z,PBD537,"45.11068,42.120594",0,19,75
1619791834,2021-04-30T14:10:34Z,PBD537,"45.110817,42.12138",0,20,75
1619791839,2021-04-30T14:10:39Z,PBD537,"45.110901,42.121883",0,14,81
1619791842,2021-04-30T14:10:42Z,PBD537,"45.110901,42.122101",0,11,90
1619791846,2021-04-30T14:10:46Z,PBD537,"45.110901,42.122318",0,7,87
1619791965,2021-04-30T14:12:45Z,PBD537,"45.109039,42.111496",0,19,255
1619791972,2021-04-30T14:12:52Z,PBD537,"45.108898,42.110664",0,18,255
1619791978,2021-04-30T14:12:58Z,PBD537,"45.108765,42.109974",0,17,255
1619791984,2021-04-30T14:13:04Z,PBD537,"45.108662,42.109371",0,15,255
1619791990,2021-04-30T14:13:10Z,PBD537,"45.10857,42.108852",0,13,255
1619791993,2021-04-30T14:13:13Z,PBD537,"45.108547,42.108604",0,13,261
1619791996,2021-04-30T14:13:16Z,PBD537,"45.108559,42.108383",0,12,275
1619792000,2021-04-30T14:13:20Z,PBD537,"45.108631,42.108135",0,12,298
1619792005,2021-04-30T14:13:25Z,PBD537,"45.108868,42.107914",0,12,334
1619792009,2021-04-30T14:13:29Z,PBD537,"45.109097,42.107834",0,12,345
1619792013,2021-04-30T14:13:33Z,PBD537,"45.109325,42.10775",0,13,345
1619792017,2021-04-30T14:13:37Z,PBD537,"45.109562,42.107681",0,13,345
1619792021,2021-04-30T14:13:41Z,PBD537,"45.109783,42.107597",0,12,345
1619792027,2021-04-30T14:13:47Z,PBD537,"45.110085,42.107498",0,11,345
1619792034,2021-04-30T14:13:54Z,PBD537,"45.110424,42.107357",0,11,345
1619792039,2021-04-30T14:13:59Z,PBD537,"45.110641,42.107178",0,10,317
1619792043,2021-04-30T14:14:03Z,PBD537,"45.11071,42.106918",0,10,286
1619792047,2021-04-30T14:14:07Z,PBD537,"45.11068,42.106659",0,10,261
1619792050,2021-04-30T14:14:10Z,PBD537,"45.11063,42.106441",0,10,255
1619792055,2021-04-30T14:14:15Z,PBD537,"45.110584,42.10619",0,10,255
1619792059,2021-04-30T14:14:19Z,PBD537,"45.110561,42.105919",0,10,264
1619792063,2021-04-30T14:14:23Z,PBD537,"45.110653,42.105675",0,9,306
1619792069,2021-04-30T14:14:29Z,PBD537,"45.110859,42.105576",0,9,340
1619792074,2021-04-30T14:14:34Z,PBD537,"45.111095,42.105488",0,10,345
1619792078,2021-04-30T14:14:38Z,PBD537,"45.111305,42.105412",0,10,345
1619792084,2021-04-30T14:14:44Z,PBD537,"45.111515,42.105335",0,9,345
1619792091,2021-04-30T14:14:51Z,PBD537,"45.111763,42.105297",0,7,2
1619792097,2021-04-30T14:14:57Z,PBD537,"45.111935,42.105522",0,8,53
1619792101,2021-04-30T14:15:01Z,PBD537,"45.111969,42.105724",0,9,73
1619792106,2021-04-30T14:15:06Z,PBD537,"45.112003,42.105938",0,6,78
1619792134,2021-04-30T14:15:34Z,PBD537,"45.110584,42.105824",0,0,271
